Target,Output
 0.24050633, 0.22811459
 0.28101266, 0.242505
 0.27848101, 0.28461026
 0.44050633, 0.30699534
 0.55949367, 0.43557628
 0.34683544, 0.54736842
 0.23037975, 0.28874084
 0.26075949, 0.21905396
 0.17974684, 0.27315123
 0.18987342, 0.18827448
 0.19493671, 0.21518987
 0.22531646, 0.21985343
 0.06582278, 0.24890073
 0.08101266, 0.12591606
 0.07848101, 0.11618921
 0.07341772, 0.1248501
 0.09113924, 0.1248501
 0.08101266, 0.10473018
 0.03037975, 0.11419054
 0.04810127, 0.09047302
 0.36962025, 0.10393071
 0.49873418, 0.50752831
 0.54177215, 0.49620253
 0.64050633, 0.491006
 0.70126582, 0.61039307
 0.71898734, 0.66022652
 0.69113924, 0.66542305
 0.56455696, 0.61838774
 0.40506329, 0.4449034
 0.33417722, 0.33164557
 0.23797468, 0.29846769
 0.21772152, 0.23291139
 0.16708861, 0.23224517
 0.17468354, 0.11685543
 0.10126582, 0.17401732
 0.11898734, 0.14230513
 0.07088608, 0.12631579
 0.07088608, 0.13484344
 0.08101266, 0.11792139
 0.07594937, 0.12338441
 0.12151899, 0.12858095
 0.09113924, 0.13790806
 0.02025316, 0.0994004
 0.04303797, 0.10339773
 0.0835443, 0.08061292
 0.18987342, 0.1260493
 0.23291139, 0.22518321
 0.05822785, 0.24277149
 0.22278481, 0.12578281
 0.49873418, 0.33431046
 0.57721519, 0.45276482
 0.6278481, 0.50259827
 0.46582278, 0.57801466
 0.17974684, 0.41892072
 0.17468354, 0.17188541
 0.18481013, 0.19706862
 0.16202532, 0.21292472
 0.09620253, 0.15589607
 0.09367089, 0.1041972
 0.10126582, 0.14856762
 0.09113924, 0.1272485
 0.12151899, 0.12098601
 0.09620253, 0.17241839
 0.11392405, 0.11419054
 0.12405063, 0.11059294
 0.10632911, 0.12058628
 0.04810127, 0.11499001
 0.08101266, 0.09087275
 0.03037975, 0.10286476
 0.13417722, 0.09047302
 0.16962025, 0.16908728
 0.29113924, 0.1781479
 0.2556962, 0.27848101
 0.35189873, 0.25862758
 0.49367089, 0.36748834
 0.64810127, 0.49900067
 0.52151899, 0.53510993
 0.38481013, 0.41638907
 0.2, 0.31459027
 0.23544304, 0.20866089
 0.21265823, 0.24543638
 0.24556962, 0.24077282
 0.08860759, 0.26395736
 0.06075949, 0.14163891
 0.05822785, 0.10153231
 0.08860759, 0.06955363
 0.09367089, 0.10113258
 0.13417722, 0.15496336
 0.10379747, 0.17375083
 0.04303797, 0.10846103
 0.07341772, 0.08740839
 0.01772152, 0.09726849
 0.10126582, 0.09060626
 0.16455696, 0.15469687
 0.14177215, 0.18934044
 0.22025316, 0.15682878
 0.18227848, 0.23171219
 0.26329114, 0.1781479
 0.35443038, 0.27848101
 0.26329114, 0.36548967
 0.08607595, 0.23517655
 0.10886076, 0.14417055
 0.18481013, 0.11192538
 0.18227848, 0.23984011
 0.09367089, 0.20666223
 0.11898734, 0.1479014
 0.14683544, 0.14097268
 0.16962025, 0.12951366
 0.12405063, 0.15363091
 0.20253165, 0.13351099
 0.12911392, 0.22678215
 0.13670886, 0.12205197
 0.15189873, 0.11365756
 0.15189873, 0.12498334
 0.0835443, 0.16295803
 0.02025316, 0.08767488
 0.04303797, 0.09287142
 0.09113924, 0.08061292
 0.16202532, 0.12071952
 0.14683544, 0.16935376
 0.17974684, 0.14377082
 0.19746835, 0.16429047
 0.61518987, 0.22171885
 0.53164557, 0.53764157
 0.35443038, 0.43544304
 0.16962025, 0.28074617
 0.21772152, 0.18134577
 0.15696203, 0.22504997
 0.21518987, 0.12045303
 0.27088608, 0.2242505
 0.29620253, 0.28314457
 0.16202532, 0.31472352
 0.11139241, 0.13257828
 0.17468354, 0.1164557
 0.0556962, 0.23064624
 0.10126582, 0.11085943
 0.13924051, 0.14830113
 0.10126582, 0.16988674
 0.10632911, 0.10073284
 0.08860759, 0.11592272
 0.15949367, 0.10233178
 0.48607595, 0.1661559
 0.55696203, 0.46808794
 0.46329114, 0.49993338
 0.4556962, 0.4083944
 0.68101266, 0.49047302
 0.72911392, 0.55842771
 0.72151899, 0.67115256
 0.58227848, 0.63864091
 0.55443038, 0.50139907
 0.55443038, 0.45502998
 0.42025316, 0.48607595
 0.17721519, 0.33510993
 0.16455696, 0.19546969
 0.16708861, 0.1769487
 0.10379747, 0.18187875
 0.20506329, 0.12658228
 0.14683544, 0.25369753
 0.34177215, 0.1260493
 0.38481013, 0.39746835
 0.30632911, 0.3443038
 0.16455696, 0.26888741
 0.27341772, 0.1538974
 0.38987342, 0.26942039
 0.60506329, 0.40652898
 0.75189873, 0.59173884
 0.70126582, 0.68421053
 0.73670886, 0.62385077
 0.74177215, 0.66715523
 0.78227848, 0.65849434
 0.8, 0.73670886
 0.7721519, 0.73790806
 0.54177215, 0.71632245
 0.79240506, 0.44450366
 0.87594937, 0.70353098
 0.73417722, 0.76842105
 0.60506329, 0.65582945
 0.27848101, 0.5164557
 0.18481013, 0.25276482
 0.23797468, 0.17948035
 0.09367089, 0.27475017
 0.12911392, 0.13191206
 0.07594937, 0.18267821
 0.11139241, 0.12578281
 0.07848101, 0.12378414
 0.09367089, 0.14643571
 0.03291139, 0.12258494
 0.03544304, 0.08834111
 0.07088608, 0.08700866
 0.0556962, 0.11672219
 0.24303797, 0.08794137
 0.51898734, 0.34736842
 0.6, 0.49953364
 0.63544304, 0.5709527
 0.44050633, 0.61292472
 0.36202532, 0.41012658
 0.37721519, 0.30939374
 0.22278481, 0.3610926
 0.23797468, 0.18627582
 0.23797468, 0.23557628
 0.08860759, 0.25902732
 0.05063291, 0.13804131
 0.07341772, 0.10073284
 0.0556962, 0.10606262
 0.04556962, 0.09193871
 0.08607595, 0.07701532
 0.04303797, 0.11379081
 0.07848101, 0.09646902
 0.08101266, 0.12085276
 0.11898734, 0.12978015
 0.0556962, 0.16442372
 0.0278481, 0.09047302
 0.17974684, 0.0922052
 0.24556962, 0.21172552
 0.21265823, 0.26422385
 0.16962025, 0.25649567
 0.32658228, 0.11658894
 0.30632911, 0.33124584
 0.29113924, 0.33897402
 0.18987342, 0.34990007
 0.15949367, 0.17588274
 0.06835443, 0.15669554
 0.12658228, 0.08634244
 0.10126582, 0.16389074
 0.10886076, 0.11552298
 0.10632911, 0.11472352
 0.12658228, 0.11445703
 0.08860759, 0.12551632
 0.14177215, 0.10686209
 0.12405063, 0.1988008
 0.13924051, 0.12098601
 0.15189873, 0.11658894
 0.14936709, 0.13257828
 0.13670886, 0.14563624
 0.14177215, 0.14123917
 0.08607595, 0.12138574
 0.05822785, 0.10446369
 0.01265823, 0.0946036
 0.22278481, 0.09393738
 0.27594937, 0.31112592
 0.33417722, 0.26475683
 0.3721519, 0.33417722
 0.35696203, 0.35336442
 0.57974684, 0.37268488
 0.41518987, 0.54403731
 0.35189873, 0.3224517
 0.15949367, 0.2982012
 0.18481013, 0.1952032
 0.11392405, 0.1781479
 0.2278481, 0.14057295
 0.09873418, 0.26768821
 0.10886076, 0.11725516
 0.04556962, 0.108994
 0.08860759, 0.09233844
 0.09620253, 0.11152565
 0.08101266, 0.14630247
 0.06582278, 0.09393738
 0.09873418, 0.08221186
 0.05316456, 0.11432378
 0.20253165, 0.08954031
 0.45822785, 0.27834777
 0.5443038, 0.45662891
 0.53417722, 0.51165889
 0.49113924, 0.49766822
 0.56202532, 0.4775483
 0.64810127, 0.50526316
 0.71898734, 0.61319121
 0.72405063, 0.68540973
 0.57974684, 0.64330446
 0.60253165, 0.49780147
 0.50886076, 0.53311126
 0.56455696, 0.46009327
 0.4278481, 0.49526982
 0.23544304, 0.33830779
 0.0835443, 0.21212525
 0.12405063, 0.13777482
 0.15696203, 0.18654231
 0.18734177, 0.11805463
 0.13164557, 0.17135243
 0.16455696, 0.13244504
 0.0556962, 0.15336442
 0.10632911, 0.08647568
 0.0556962, 0.1407062
 0.03544304, 0.09273817
 0.03037975, 0.07888075
 0.03291139, 0.08141239
 0.07088608, 0.08687542
 0.12658228, 0.11698867
 0.15696203, 0.15349767
 0.30886076, 0.12058628
 0.6, 0.33311126
 0.65822785, 0.53644237
 0.47848101, 0.64503664
 0.39746835, 0.3952032
 0.21772152, 0.34803464
 0.19240506, 0.20652898
 0.1164557, 0.19933378
 0.08101266, 0.12804797
 0.03544304, 0.1284477
 0.10126582, 0.09913391
 0.08101266, 0.17761492
 0.04810127, 0.10926049
 0.12151899, 0.09766822
 0.04303797, 0.17748168
 0.07594937, 0.08740839
 0.09113924, 0.12085276
 0.03291139, 0.10766156
 0.04303797, 0.08767488
 0.11392405, 0.09646902
 0.2, 0.17161892
 0.30886076, 0.25436376
 0.39493671, 0.30886076
 0.3721519, 0.39360426
 0.37721519, 0.37121919
 0.32405063, 0.37188541
 0.34936709, 0.31139241
 0.37468354, 0.34976682
 0.18987342, 0.34283811
 0.12911392, 0.20079947
 0.1443038, 0.13484344
 0.12911392, 0.12018654
 0.13164557, 0.1176549
 0.12658228, 0.1200533
 0.15443038, 0.11752165
 0.14177215, 0.12298468
 0.13417722, 0.14736842
 0.15443038, 0.11285809
 0.10379747, 0.12458361
 0.14683544, 0.1077948
 0.1164557, 0.15602931
 0.07594937, 0.12578281
 0.01518987, 0.1344437
 0.02025316, 0.09060626
 0.19746835, 0.06968688
 0.18227848, 0.22718188
 0.08860759, 0.19027315
 0.19493671, 0.14563624
 0.4278481, 0.23237841
 0.68607595, 0.45116589
 0.61265823, 0.55762825
 0.48607595, 0.52898068
 0.37974684, 0.45716189
 0.2556962, 0.35136576
 0.24303797, 0.25969354
 0.22278481, 0.27701532
 0.25822785, 0.24636909
 0.24303797, 0.24770153
 0.11392405, 0.27594937
 0.06075949, 0.1356429
 0.06835443, 0.09633578
 0.04303797, 0.08341106
 0.07848101, 0.10699534
 0.05316456, 0.12085276
 0.05822785, 0.09513658
 0.04303797, 0.08647568
 0.04303797, 0.08687542
 0.03291139, 0.09420386
 0.04810127, 0.09007328
 0.34683544, 0.10046636
 0.3721519, 0.45662891
 0.43797468, 0.34990007
 0.47341772, 0.41505663
 0.51139241, 0.46995336
 0.54936709, 0.46075949
 0.47848101, 0.48514324
 0.3164557, 0.46089274
 0.27594937, 0.26369087
 0.25063291, 0.2775483
 0.22278481, 0.27381746
 0.21772152, 0.25862758
 0.08860759, 0.21545636
 0.09873418, 0.11832112
 0.05316456, 0.14803464
 0.05063291, 0.08954031
 0.04556962, 0.09207195
 0.07341772, 0.09860093
 0.09873418, 0.10446369
 0.11139241, 0.10273151
 0.05316456, 0.11325783
 0.03544304, 0.08421053
 0.08860759, 0.07888075
 0.12405063, 0.1308461
 0.1164557, 0.1817455
 0.07594937, 0.11072618
 0.23037975, 0.1344437
 0.70126582, 0.33644237
 0.67594937, 0.59920053
 0.57974684, 0.60399734
 0.35949367, 0.50086609
 0.22531646, 0.302998
 0.21772152, 0.22358428
 0.17974684, 0.22171885
 0.04303797, 0.16295803
 0.04556962, 0.10752831
 0.06835443, 0.09273817
 0.05316456, 0.10433045
 0.08860759, 0.09833444
 0.05822785, 0.1041972
 0.09620253, 0.1017988
 0.07088608, 0.13590939
 0.09873418, 0.10619587
 0.09367089, 0.09593604
 0.05822785, 0.12898068
 0.0556962, 0.09273817
 0.07341772, 0.07461692
 0.25316456, 0.09127249
 0.22531646, 0.36455696
 0.32151899, 0.25862758
 0.27848101, 0.33417722
 0.36202532, 0.25676216
 0.40759494, 0.37108594
 0.36708861, 0.34390406
 0.49620253, 0.33004664
 0.21265823, 0.49886742
 0.16202532, 0.17974684
 0.15696203, 0.12618254
 0.12658228, 0.1661559
 0.17974684, 0.13777482
 0.14177215, 0.21532312
 0.1164557, 0.14283811
 0.07088608, 0.11512325
 0.09367089, 0.13244504
 0.09873418, 0.09780147
 0.06582278, 0.13244504
 0.11392405, 0.10979347
 0.11898734, 0.13191206
 0.05063291, 0.1212525
 0.01518987, 0.097002
 0.04556962, 0.09020653
 0.0556962, 0.08554297
 0.17974684, 0.08807462
 0.16455696, 0.19680213
 0.18987342, 0.17841439
 0.29113924, 0.19027315
 0.3164557, 0.26968688
 0.23797468, 0.30139907
 0.4278481, 0.23984011
 0.22025316, 0.42571619
 0.27594937, 0.20639574
 0.2, 0.26782145
 0.11392405, 0.2023984
 0.13670886, 0.11685543
 0.09873418, 0.12045303
 0.12658228, 0.10606262
 0.07341772, 0.19933378
 0.07088608, 0.1164557
 0.07848101, 0.11658894
 0.10379747, 0.1200533
 0.11139241, 0.11538974
 0.10126582, 0.12445037
 0.04303797, 0.10433045
 0.02278481, 0.09553631
 0.18734177, 0.0775483
 0.19493671, 0.22291805
 0.21265823, 0.23157895
 0.21265823, 0.23197868
 0.29367089, 0.21132578
 0.20506329, 0.30699534
 0.20253165, 0.20799467
 0.25822785, 0.23291139
 0.23544304, 0.27128581
 0.25316456, 0.27301799
 0.33670886, 0.25916056
 0.59493671, 0.36202532
 0.30886076, 0.54536975
 0.49113924, 0.25356429
 0.4556962, 0.46728847
 0.12658228, 0.46982012
 0.16202532, 0.17428381
 0.16202532, 0.14350433
 0.18227848, 0.1526982
 0.18481013, 0.18907395
 0.13670886, 0.20133245
 0.07341772, 0.1284477
 0.07341772, 0.09447035
 0.03037975, 0.1200533
 0.10886076, 0.09140573
 0.34683544, 0.16522318
 0.46329114, 0.4362425
 0.37974684, 0.45716189
 0.30126582, 0.33777482
 0.4278481, 0.26995336
 0.52405063, 0.40879414
 0.5443038, 0.53057961
 0.48860759, 0.48647568
 0.52405063, 0.47235177
 0.40506329, 0.45183211
 0.23544304, 0.34323784
 0.22278481, 0.2290473
 0.27341772, 0.23677548
 0.18481013, 0.2592938
 0.21265823, 0.17774817
 0.40506329, 0.22891406
 0.15189873, 0.40453031
 0.10632911, 0.17774817
 0.11898734, 0.10672885
 0.12658228, 0.11805463
 0.09620253, 0.12205197
 0.1164557, 0.11259161
 0.31139241, 0.15376416
 0.58734177, 0.37295137
 0.64303797, 0.52684877
 0.55949367, 0.61892072
 0.52911392, 0.41638907
 0.47848101, 0.48314457
 0.53924051, 0.47315123
 0.57974684, 0.47848101
 0.5443038, 0.51512325
 0.39746835, 0.45489674
 0.42278481, 0.33897402
 0.35189873, 0.41065956
 0.14177215, 0.28247835
 0.21265823, 0.17401732
 0.26582278, 0.20186542
 0.17721519, 0.28101266
 0.06075949, 0.17788141
 0.09620253, 0.11379081
 0.0556962, 0.12818121
 0.05822785, 0.08807462
 0.04810127, 0.0727515
 0.0278481, 0.07781479
 0.11898734, 0.08047968
 0.0278481, 0.15176549
 0.04810127, 0.07981346
 0.07848101, 0.10393071
 0.19493671, 0.09993338
 0.18481013, 0.22025316
 0.15696203, 0.20346436
 0.21012658, 0.15709527
 0.24050633, 0.2242505
 0.30126582, 0.24903398
 0.20506329, 0.29207195
 0.24303797, 0.22824783
 0.26075949, 0.26835443
 0.21265823, 0.25742838
 0.21772152, 0.24903398
 0.12151899, 0.2146569
 0.12151899, 0.12871419
 0.16962025, 0.11152565
 0.17721519, 0.18241173
 0.13670886, 0.18067955
 0.18734177, 0.13684211
 0.18987342, 0.15096602
 0.12405063, 0.22251832
 0.14936709, 0.1248501
 0.13670886, 0.12564957
 0.0556962, 0.14123917
 0.01012658, 0.09447035
 0.05063291, 0.09167222
 0.56708861, 0.09047302
 0.57974684, 0.5224517
 0.46582278, 0.49433711
 0.39240506, 0.40759494
 0.35949367, 0.35682878
 0.36202532, 0.35536309
 0.41772152, 0.38987342
 0.44303797, 0.36908728
 0.2, 0.43464357
 0.14936709, 0.20746169
 0.18481013, 0.14177215
 0.27088608, 0.16322452
 0.16962025, 0.28021319
 0.18734177, 0.18014657
 0.10126582, 0.194004
 0.03544304, 0.15016656
 0.06075949, 0.09033977
 0.07341772, 0.10926049
 0.07848101, 0.09247169
 0.03797468, 0.12498334
 0.10379747, 0.11045969
 0.02278481, 0.16882079
 0.06329114, 0.08794137
 0.06835443, 0.11139241
 0.16708861, 0.07714857
 0.51139241, 0.16722185
 0.57721519, 0.50353098
 0.58481013, 0.51112592
 0.58481013, 0.49447035
 0.63037975, 0.46955363
 0.70632911, 0.61225849
 0.59746835, 0.66022652
 0.39240506, 0.52178548
 0.31392405, 0.33964024
 0.23291139, 0.31219187
 0.20506329, 0.24583611
 0.19493671, 0.21545636
 0.1443038, 0.23570953
 0.10632911, 0.14390406
 0.11898734, 0.10433045
 0.10379747, 0.11805463
 0.12658228, 0.11978681
 0.07594937, 0.14603598
 0.07594937, 0.1332445
 0.07594937, 0.11898734
 0.07341772, 0.11898734
 0.03544304, 0.11938708
 0.29873418, 0.09873418
