Target,Output
 0.29065744, 0.26712844
 0.15224913, 0.27405297
 0.10726644, 0.1862565
 0.06228374, 0.13295408
 0.03806228, 0.085929
 0.09342561, 0.06403596
 0.07612457, 0.11524251
 0.11764706, 0.11518386
 0.07266436, 0.13466721
 0.12110727, 0.09524368
 0.08304498, 0.1372477
 0.10380623, 0.10316111
 0.1384083, 0.12104759
 0.19031142, 0.14724351
 0.19377163, 0.21160049
 0.29065744, 0.20737787
 0.3633218, 0.28156706
 0.36678201, 0.31021075
 0.38062284, 0.34355756
 0.3633218, 0.34672453
 0.19377163, 0.34080113
 0.28373702, 0.19095654
 0.29065744, 0.27523312
 0.23183391, 0.26196745
 0.11418685, 0.23587648
 0.12802768, 0.14075421
 0.12802768, 0.15357745
 0.06574394, 0.14550466
 0.12456747, 0.08914433
 0.04844291, 0.13635564
 0.02076125, 0.07548973
 0.03114187, 0.06105111
 0.06920415, 0.05002536
 0.10034602, 0.09453991
 0.17301038, 0.11254472
 0.13148789, 0.1663832
 0.183391, 0.14884757
 0.21799308, 0.18978359
 0.21453287, 0.21658554
 0.21453287, 0.23746408
 0.35294118, 0.23382793
 0.16955017, 0.33622661
 0.19031142, 0.1847399
 0.21799308, 0.17729165
 0.24221453, 0.22931206
 0.19723183, 0.23089555
 0.14532872, 0.20966512
 0.13148789, 0.15828984
 0.08650519, 0.15506422
 0.05536332, 0.09682717
 0.03806228, 0.09009298
 0.06574394, 0.06468006
 0.05882353, 0.0872069
 0.07266436, 0.07043369
 0.10034602, 0.08556477
 0.0899654, 0.11188622
 0.10726644, 0.14121001
 0.15570934, 0.12503563
 0.10034602, 0.15828984
 0.12802768, 0.13137265
 0.09688581, 0.13857602
 0.11072664, 0.11618087
 0.09688581, 0.14428953
 0.1349481, 0.14163392
 0.20069204, 0.13903285
 0.29757785, 0.21969386
 0.09688581, 0.28655211
 0.05190311, 0.14034367
 0.05536332, 0.09302536
 0.0449827, 0.07465838
 0.0449827, 0.06866809
 0.0899654, 0.07272198
 0.01730104, 0.11195619
 0.03460208, 0.06838617
 0.05882353, 0.05853029
 0.03114187, 0.07940883
 0.04152249, 0.06186497
 0.06574394, 0.06879259
 0.06228374, 0.07987596
 0.07266436, 0.07424579
 0.06228374, 0.08327751
 0.11764706, 0.07841182
 0.15224913, 0.13154654
 0.23875433, 0.15991551
 0.23183391, 0.24051375
 0.24221453, 0.22544132
 0.28719723, 0.23242039
 0.27681661, 0.24567474
 0.17647059, 0.25258795
 0.11764706, 0.18050904
 0.04152249, 0.14386459
 0.10034602, 0.08258609
 0.15224913, 0.11952378
 0.19723183, 0.14808516
 0.15570934, 0.20661545
 0.11764706, 0.16556214
 0.04844291, 0.14139933
 0.05190311, 0.08035748
 0.08650519, 0.07219415
 0.06920415, 0.10820274
 0.04152249, 0.10075655
 0.02422145, 0.07066314
 0.0449827, 0.06410078
 0.04844291, 0.06515644
 0.06574394, 0.07383628
 0.16955017, 0.07559468
 0.24221453, 0.16467008
 0.23875433, 0.25212598
 0.25605536, 0.228491
 0.24567474, 0.22907747
 0.23875433, 0.23623248
 0.31141869, 0.22966395
 0.2283737, 0.27979632
 0.23875433, 0.22625827
 0.26989619, 0.2344144
 0.23529412, 0.24491232
 0.20761246, 0.2212187
 0.19723183, 0.20925459
 0.12110727, 0.23283092
 0.15916955, 0.1493754
 0.13148789, 0.16114711
 0.07958478, 0.15566922
 0.10726644, 0.09547827
 0.13148789, 0.12966879
 0.12802768, 0.14413519
 0.09342561, 0.1385256
 0.07266436, 0.11236878
 0.08650519, 0.11037476
 0.07958478, 0.10222274
 0.13148789, 0.11236878
 0.183391, 0.14029737
 0.21799308, 0.18978359
 0.08650519, 0.21658554
 0.1349481, 0.13324732
 0.2283737, 0.14483073
 0.23183391, 0.24444314
 0.16955017, 0.22878424
 0.19723183, 0.19946044
 0.1799308, 0.18884523
 0.19723183, 0.18685121
 0.10726644, 0.20010557
 0.05882353, 0.14902558
 0.05536332, 0.08633954
 0.03460208, 0.07788399
 0.06574394, 0.06538383
 0.07612457, 0.08632925
 0.0449827, 0.08591666
 0.06920415, 0.07189474
 0.12110727, 0.08750014
 0.07958478, 0.1347845
 0.0899654, 0.10063926
 0.10034602, 0.11763368
 0.10034602, 0.13565084
 0.12456747, 0.13839493
 0.08650519, 0.13470528
 0.09342561, 0.10791156
 0.12456747, 0.12338115
 0.10380623, 0.13171425
 0.11418685, 0.14180987
 0.3633218, 0.15059877
 0.25951557, 0.31294352
 0.183391, 0.23647119
 0.12110727, 0.19405663
 0.16262976, 0.14820245
 0.16262976, 0.15663124
 0.18685121, 0.17858602
 0.03460208, 0.183391
 0.05190311, 0.11049205
 0.04844291, 0.07231247
 0.03460208, 0.07025158
 0.04152249, 0.06696731
 0.02768166, 0.07289792
 0.02422145, 0.06709181
 0.07612457, 0.05248856
 0.10380623, 0.10140168
 0.06920415, 0.11887763
 0.02768166, 0.09717905
 0.05190311, 0.06403596
 0.28027682, 0.07278166
 0.52941176, 0.26665823
 0.50519031, 0.43689674
 0.56401384, 0.44507654
 0.63321799, 0.50425195
 0.59515571, 0.55373199
 0.55017301, 0.54147465
 0.61937716, 0.50596816
 0.40138408, 0.53259417
 0.29065744, 0.35933376
 0.24913495, 0.28936719
 0.26989619, 0.23911033
 0.29065744, 0.23599789
 0.07266436, 0.26026667
 0.19377163, 0.1300217
 0.12456747, 0.18214706
 0.1384083, 0.15711688
 0.05190311, 0.15301155
 0.07958478, 0.08498035
 0.03806228, 0.09876048
 0.01384083, 0.07576548
 0.05536332, 0.05072913
 0.05190311, 0.0740719
 0.09342561, 0.07564818
 0.15916955, 0.11101782
 0.21107266, 0.15506422
 0.20069204, 0.20913729
 0.14878893, 0.22538268
 0.06228374, 0.17084042
 0.11418685, 0.10005278
 0.0899654, 0.13084277
 0.12110727, 0.12749985
 0.20761246, 0.13007212
 0.20415225, 0.22931206
 0.22145329, 0.23476629
 0.24913495, 0.22655563
 0.55709343, 0.23535277
 0.43252595, 0.4597693
 0.183391, 0.36643012
 0.12456747, 0.20392898
 0.0899654, 0.14397982
 0.12110727, 0.12315993
 0.05882353, 0.13007212
 0.01730104, 0.0848147
 0.04152249, 0.05295054
 0.09342561, 0.0607589
 0.06920415, 0.11307049
 0.06574394, 0.10714914
 0.16955017, 0.08087296
 0.15224913, 0.16467008
 0.14186851, 0.17811684
 0.14878893, 0.16599119
 0.10380623, 0.16402084
 0.14532872, 0.12826227
 0.16955017, 0.14908217
 0.21107266, 0.1723488
 0.28719723, 0.20790569
 0.34256055, 0.27969034
 0.4532872, 0.2912326
 0.16955017, 0.36294213
 0.12802768, 0.20070336
 0.05190311, 0.14820245
 0.08304498, 0.07889129
 0.11764706, 0.10304175
 0.05536332, 0.13625069
 0.09688581, 0.08035748
 0.14186851, 0.1118996
 0.11072664, 0.14622593
 0.15570934, 0.1191719
 0.20415225, 0.15494692
 0.14878893, 0.21347722
 0.09688581, 0.17265849
 0.12802768, 0.1227494
 0.12456747, 0.13875196
 0.12110727, 0.13793912
 0.15570934, 0.14063691
 0.14532872, 0.16226141
 0.19377163, 0.17361538
 0.17647059, 0.20432819
 0.14878893, 0.18714445
 0.17301038, 0.16157822
 0.29065744, 0.17506305
 0.35640138, 0.27013078
 0.19031142, 0.30815809
 0.14878893, 0.19588294
 0.23529412, 0.15864172
 0.18685121, 0.24356343
 0.1349481, 0.21306668
 0.11072664, 0.15377397
 0.11764706, 0.11928919
 0.10726644, 0.14161334
 0.13148789, 0.14644302
 0.14532872, 0.14413519
 0.15570934, 0.15762825
 0.1349481, 0.16384489
 0.13148789, 0.15643163
 0.12456747, 0.15025512
 0.15570934, 0.13899478
 0.20415225, 0.15991551
 0.16262976, 0.21347722
 0.14532872, 0.17207202
 0.19031142, 0.17260396
 0.32179931, 0.20069204
 0.53287197, 0.30209372
 0.44290657, 0.4124407
 0.44636678, 0.39329072
 0.43252595, 0.39100346
 0.26989619, 0.37622427
 0.29065744, 0.25747422
 0.3633218, 0.26026667
 0.22145329, 0.31021075
 0.21107266, 0.22263035
 0.10034602, 0.22462026
 0.10726644, 0.14661897
 0.11764706, 0.14804297
 0.14532872, 0.13950203
 0.10034602, 0.15547475
 0.11072664, 0.12145915
 0.05190311, 0.14279864
 0.06228374, 0.08540118
 0.16262976, 0.07090287
 0.16955017, 0.14914081
 0.14532872, 0.17498999
 0.183391, 0.16368953
 0.14186851, 0.18016539
 0.19377163, 0.16067998
 0.26643599, 0.21365316
 0.2283737, 0.27165562
 0.11764706, 0.2283737
 0.08650519, 0.14034367
 0.04844291, 0.11588763
 0.07958478, 0.08845085
 0.20415225, 0.09899507
 0.15570934, 0.1957533
 0.19723183, 0.17529764
 0.14878893, 0.20591168
 0.1799308, 0.16221922
 0.16955017, 0.17881649
 0.20761246, 0.1784502
 0.2733564, 0.20538385
 0.2733564, 0.26227201
 0.19377163, 0.24519424
 0.1349481, 0.19892438
 0.17301038, 0.15559205
 0.1384083, 0.17270068
 0.13148789, 0.15807377
 0.16608997, 0.15453639
 0.1799308, 0.17070666
 0.19377163, 0.17840596
 0.17647059, 0.18896252
 0.16262976, 0.18714445
 0.09688581, 0.17944721
 0.28027682, 0.13037564
 0.17301038, 0.27757903
 0.19723183, 0.18959942
 0.183391, 0.19893261
 0.10726644, 0.20262741
 0.0899654, 0.14638643
 0.06228374, 0.14151663
 0.10726644, 0.0908554
 0.11418685, 0.11999296
 0.07266436, 0.14865105
 0.13148789, 0.09031728
 0.1349481, 0.14504783
 0.1384083, 0.14837839
 0.05190311, 0.16392
 0.09342561, 0.08498035
 0.10380623, 0.11101782
 0.14532872, 0.13858322
 0.17647059, 0.14908217
 0.20415225, 0.17617735
 0.28373702, 0.20526655
 0.19377163, 0.28238813
 0.1799308, 0.19880709
 0.1349481, 0.19306786
 0.1799308, 0.14896487
 0.12110727, 0.19406486
 0.1799308, 0.14515483
 0.23529412, 0.17987215
 0.25259516, 0.23371063
 0.17647059, 0.23259633
 0.26643599, 0.19605888
 0.20415225, 0.25282975
 0.16608997, 0.22091723
 0.14878893, 0.17447657
 0.19723183, 0.16967158
 0.17647059, 0.20362442
 0.17301038, 0.18603014
 0.16608997, 0.1761043
 0.2283737, 0.18654357
 0.15916955, 0.2394581
 0.16608997, 0.19705589
 0.16955017, 0.1699463
 0.11418685, 0.18548791
 0.16955017, 0.14527213
 0.15916955, 0.16583891
 0.1349481, 0.18609291
 0.14532872, 0.15361655
 0.1349481, 0.16337571
 0.3183391, 0.16573808
 0.47058824, 0.28526186
 0.31487889, 0.3771935
 0.36678201, 0.30919008
 0.26643599, 0.33593338
 0.30795848, 0.24210135
 0.22491349, 0.25440191
 0.12802768, 0.22103864
 0.13148789, 0.16603132
 0.183391, 0.14515278
 0.14186851, 0.18978359
 0.16955017, 0.16067998
 0.1799308, 0.16707051
 0.20069204, 0.18491584
 0.07958478, 0.20843352
 0.06574394, 0.12568384
 0.06574394, 0.08914433
 0.0899654, 0.07659169
 0.16608997, 0.10861533
 0.14532872, 0.1578793
 0.14532872, 0.16075715
 0.19377163, 0.17121083
 0.41176471, 0.20432819
 0.52941176, 0.38293376
 0.58477509, 0.46143921
 0.80276817, 0.52643617
 0.87543253, 0.57719823
 0.57093426, 0.57866442
 0.4083045, 0.49172606
 0.2733564, 0.34443728
 0.26297578, 0.26936837
 0.20761246, 0.23979866
 0.08304498, 0.21921645
 0.11072664, 0.13324937
 0.16608997, 0.12914096
 0.12456747, 0.15952144
 0.14186851, 0.14855434
 0.05536332, 0.15289426
 0.08650519, 0.08703302
 0.16262976, 0.1055636
 0.21453287, 0.15752742
 0.05190311, 0.20937188
 0.07612457, 0.11676734
 0.2283737, 0.09401002
 0.61591696, 0.23469529
 0.7266436, 0.47346197
 0.74740484, 0.56400252
 0.76816609, 0.59596546
 0.67474048, 0.59408873
 0.42906574, 0.55807912
 0.49480969, 0.37557915
 0.60899654, 0.44624949
 0.22145329, 0.52737453
 0.11418685, 0.26075849
 0.3633218, 0.14227904
 0.44982699, 0.31294352
 0.12110727, 0.37748673
 0.0899654, 0.18727306
 0.0899654, 0.12662014
 0.06228374, 0.12185631
 0.04152249, 0.0908554
 0.04844291, 0.06362543
 0.03806228, 0.07307386
 0.05190311, 0.06837486
 0.10380623, 0.07618322
 0.12110727, 0.12186969
 0.12110727, 0.1437833
 0.13148789, 0.14446958
 0.30103806, 0.15121406
 0.4532872, 0.27922116
 0.56747405, 0.36689519
 0.71280277, 0.48008914
 0.44982699, 0.57567339
 0.35986159, 0.41891971
 0.27681661, 0.3438508
 0.22145329, 0.24896312
 0.16262976, 0.22467067
 0.22145329, 0.19277462
 0.17647059, 0.22350595
 0.1384083, 0.20937188
 0.10380623, 0.15338196
 0.15224913, 0.11823354
 0.15916955, 0.15365668
 0.06920415, 0.17308755
 0.11072664, 0.1093191
 0.12802768, 0.13302507
 0.16262976, 0.14460437
 0.1349481, 0.16132305
 0.16262976, 0.15637299
 0.08304498, 0.17141043
 0.37370242, 0.11899801
 0.63321799, 0.32725353
 0.70934256, 0.48771333
 0.70588235, 0.57156806
 0.83391003, 0.58065844
 0.59861592, 0.57367937
 0.62975779, 0.52951774
 0.61245675, 0.55156203
 0.35640138, 0.54862965
 0.11418685, 0.30666823
 0.16608997, 0.16538619
 0.13148789, 0.16196817
 0.05536332, 0.14962851
 0.10034602, 0.07800129
 0.1349481, 0.11629816
 0.11072664, 0.136511
 0.11418685, 0.11928919
 0.10034602, 0.14583597
 0.13148789, 0.14263093
 0.13148789, 0.13393051
 0.10726644, 0.14251364
 0.10380623, 0.12638555
 0.183391, 0.14726409
 0.4083045, 0.19629347
 0.52941176, 0.37396068
 0.63321799, 0.45897601
 0.61591696, 0.53828298
 0.52941176, 0.55373199
 0.61591696, 0.49066114
 0.57439446, 0.52737453
 0.78546713, 0.53376712
 0.93771626, 0.57860577
 0.43598616, 0.56857703
 0.43944637, 0.41757082
 0.2283737, 0.37434755
 0.12456747, 0.21823899
 0.14878893, 0.15916955
 0.20761246, 0.15416804
 0.17301038, 0.21605771
 0.23875433, 0.18561961
 0.26989619, 0.24274236
 0.26643599, 0.24491232
 0.14186851, 0.23493091
 0.20069204, 0.16931558
 0.13148789, 0.22679022
 0.12456747, 0.15189725
 0.15224913, 0.13899478
 0.26643599, 0.156338
 0.33910035, 0.26438332
 0.55363322, 0.29486875
 0.63321799, 0.42886202
 0.51557093, 0.53341523
 0.62975779, 0.47887298
 0.66782007, 0.53857622
 0.43598616, 0.55936936
 0.44290657, 0.38208903
 0.42906574, 0.38554923
 0.29411765, 0.37094599
 0.31141869, 0.30039294
 0.28027682, 0.27674664
 0.17647059, 0.27059276
 0.15224913, 0.18467302
 0.17301038, 0.17319044
 0.15916955, 0.17670518
 0.14878893, 0.18222217
 0.11418685, 0.17119642
 0.18685121, 0.13430297
 0.15224913, 0.19089789
 0.12802768, 0.16478531
 0.11764706, 0.14931676
 0.11072664, 0.13406838
 0.14532872, 0.14732274
 0.21453287, 0.1518386
 0.24221453, 0.22878424
 0.15916955, 0.23435576
 0.26989619, 0.18649933
 0.35640138, 0.25611401
 0.1349481, 0.30000607
 0.23529412, 0.17119231
 0.19723183, 0.24602663
 0.30795848, 0.22127734
 0.15570934, 0.29746056
 0.15916955, 0.18608056
 0.14532872, 0.17805819
 0.16608997, 0.17383556
 0.18685121, 0.16777428
 0.15224913, 0.17905108
 0.19723183, 0.16478531
 0.19031142, 0.20661545
 0.21453287, 0.21758255
 0.15916955, 0.22145329
 0.16608997, 0.19377163
 0.16955017, 0.1699463
 0.14532872, 0.18548791
 0.21799308, 0.16368953
 0.11072664, 0.23177526
 0.19031142, 0.13723535
 0.18685121, 0.19922585
 0.17301038, 0.18556096
 0.25605536, 0.17160284
 0.26989619, 0.25840127
 0.21107266, 0.23459035
 0.29757785, 0.22566768
 0.29757785, 0.28238813
 0.17301038, 0.26624873
 0.22491349, 0.18631515
 0.17647059, 0.23382793
 0.21107266, 0.20227553
 0.13148789, 0.21165914
 0.13148789, 0.16814263
 0.12456747, 0.14251364
 0.1349481, 0.13899478
 0.15224913, 0.15389127
 0.16262976, 0.1612644
 0.15916955, 0.16909951
 0.14186851, 0.17600552
 0.20069204, 0.16857168
 0.15224913, 0.22679022
 0.19377163, 0.17336227
 0.15916955, 0.19406486
 0.11072664, 0.17934432
 0.14532872, 0.14978799
 0.19377163, 0.1518386
 0.29065744, 0.20432819
 0.16262976, 0.28156706
 0.15224913, 0.19153479
 0.14186851, 0.17799954
 0.14878893, 0.16599119
 0.17301038, 0.16402084
 0.2283737, 0.17506305
