original,reconstructed
0.23853211,0.23853211
0.19266055,0.19266055
0.21559633,0.21559633
0.247706422,0.24770642
0.183486239,0.18348624
-1,0.2101597
-1,0.21508665
0.064220183,0.06422018
-1,0.15222562
-1,0.20183486
-1,0.20421339
-1,0.23683316
-1,0.24464832
-1,0.23326538
-1,0.23479443
-1,0.22731906
-1,0.22392117
-1,0.23088685
-1,0.22494054
-1,0.23071696
-1,0.23683316
-1,0.21559633
-1,0.22986748
-1,0.22052328
-1,0.22511043
-1,0.23717295
-1,0.22392117
0.19266055,0.19266055
0.110091743,0.11009174
0.21559633,0.21559633
0.114678899,0.1146789
0.027522936,0.02752294
0.087155963,0.08715596
0.100917431,0.10091743
0.23853211,0.23853211
-1,0.20438328
-1,0.19809718
-1,0.21780496
-1,0.24872579
-1,0.23649337
-1,0.2261298
-1,0.22409106
-1,0.22103296
-1,0.2291879
-1,0.23275569
-1,0.23377506
-1,0.2324159
-1,0.21899422
-1,0.23071696
-1,0.21916412
-1,0.22714917
-1,0.23666327
-1,0.22358138
-1,0.23275569
-1,0.22239212
-1,0.22477064
-1,0.23071696
-1,0.22748896
-1,0.2325858
-1,0.22375127
-1,0.22867822
-1,0.23683316
-1,0.21304791
-1,0.22850832
-1,0.21865443
-1,0.22511043
-1,0.23717295
-1,0.22188243
-1,0.23275569
-1,0.23207611
-1,0.22103296
-1,0.22477064
-1,0.21899422
-1,0.23122664
-1,0.2324159
-1,0.23377506
0.091743119,0.09174312
-1,0.15222562
0.174311927,0.17431193
0.137614679,0.13761468
0.105504587,0.10550459
0.21559633,0.21559633
0.270642202,0.2706422
0.256880734,0.25688073
0.064220183,0.06422018
0.082568807,0.08256881
0.229357798,0.2293578
0.252293578,0.25229358
0.353211009,0.35321101
0.30733945,0.30733945
0.311926606,0.31192661
0.197247706,0.19724771
0.233944954,0.23394495
0.247706422,0.24770642
0.293577982,0.29357798
0.321100917,0.32110092
0.224770642,0.22477064
0.247706422,0.24770642
0.174311927,0.17431193
0.123853211,0.12385321
0.119266055,0.11926606
0.266055046,0.26605505
0.509174312,0.50917431
-1,0.36255522
-1,0.29459735
0.293577982,0.29357798
0.050458716,0.05045872
0.096330275,0.09633028
0.142201835,0.14220183
0.137614679,0.13761468
0.096330275,0.09633028
0.220183486,0.22018349
0.220183486,0.22018349
0.183486239,0.18348624
0.243119266,0.24311927
0.252293578,0.25229358
0.252293578,0.25229358
0.30733945,0.30733945
0.467889908,0.46788991
0.394495413,0.39449541
0.247706422,0.24770642
0.247706422,0.24770642
0.206422018,0.20642202
0.178899083,0.17889908
0.183486239,0.18348624
0.26146789,0.26146789
0.311926606,0.31192661
0.087155963,0.08715596
0.087155963,0.08715596
0.110091743,0.11009174
0.137614679,0.13761468
0.050458716,0.05045872
0.087155963,0.08715596
0.183486239,0.18348624
0.133027523,0.13302752
0.197247706,0.19724771
0.252293578,0.25229358
0.252293578,0.25229358
0.256880734,0.25688073
0.220183486,0.22018349
0.247706422,0.24770642
0.28440367,0.28440367
0.362385321,0.36238532
0.371559633,0.37155963
0.279816514,0.27981651
0.211009174,0.21100917
0.243119266,0.24311927
0.247706422,0.24770642
0.19266055,0.19266055
0.155963303,0.1559633
0.21559633,0.21559633
0.252293578,0.25229358
0.211009174,0.21100917
0.155963303,0.1559633
0.055045872,0.05504587
0.174311927,0.17431193
0.114678899,0.1146789
0.100917431,0.10091743
0.032110092,0.03211009
0.279816514,0.27981651
0.293577982,0.29357798
0.371559633,0.37155963
0.353211009,0.35321101
0.256880734,0.25688073
0.330275229,0.33027523
0.339449541,0.33944954
0.431192661,0.43119266
0.334862385,0.33486239
0.275229358,0.27522936
0.325688073,0.32568807
0.252293578,0.25229358
0.256880734,0.25688073
0.472477064,0.47247706
0.481651376,0.48165138
0.279816514,0.27981651
0.417431193,0.41743119
0.247706422,0.24770642
0.256880734,0.25688073
0.288990826,0.28899083
0.233944954,0.23394495
0.19266055,0.19266055
0.19266055,0.19266055
0.229357798,0.2293578
0.229357798,0.2293578
0.224770642,0.22477064
0.311926606,0.31192661
0.091743119,0.09174312
0.055045872,0.05504587
0.293577982,0.29357798
0.422018349,0.42201835
0.444954128,0.44495413
0.504587156,0.50458716
0.357798165,0.35779817
0.344036697,0.3440367
0.366972477,0.36697248
0.243119266,0.24311927
0.119266055,0.11926606
0.366972477,0.36697248
0.30733945,0.30733945
0.21559633,0.21559633
0.220183486,0.22018349
0.169724771,0.16972477
0.119266055,0.11926606
0.206422018,0.20642202
0.28440367,0.28440367
0.174311927,0.17431193
0.155963303,0.1559633
0.302752294,0.30275229
0.197247706,0.19724771
0.23853211,0.23853211
0.279816514,0.27981651
0.252293578,0.25229358
0.229357798,0.2293578
0.26146789,0.26146789
0.288990826,0.28899083
0.435779817,0.43577982
0.564220183,0.56422018
0.334862385,0.33486239
0.330275229,0.33027523
0.229357798,0.2293578
0.30733945,0.30733945
0.431192661,0.43119266
0.247706422,0.24770642
0.169724771,0.16972477
0.142201835,0.14220183
0.142201835,0.14220183
0.233944954,0.23394495
0.316513761,0.31651376
0.009174312,0.00917431
0.197247706,0.19724771
0.252293578,0.25229358
0.316513761,0.31651376
0.28440367,0.28440367
0.270642202,0.2706422
0.160550459,0.16055046
0.30733945,0.30733945
0.28440367,0.28440367
0.23853211,0.23853211
0.293577982,0.29357798
0.449541284,0.44954128
0.233944954,0.23394495
0.197247706,0.19724771
0.133027523,0.13302752
0.114678899,0.1146789
0.105504587,0.10550459
0.055045872,0.05504587
0.119266055,0.11926606
0.128440367,0.12844037
0.197247706,0.19724771
0.188073394,0.18807339
-1,0.18263677
-1,0.21270812
-1,0.24260958
-1,0.23734285
-1,0.22850832
-1,0.21457696
-1,0.21865443
0.21559633,0.21559633
0.266055046,0.26605505
0.247706422,0.24770642
0.19266055,0.19266055
0.201834862,0.20183486
0.357798165,0.35779817
0.26146789,0.26146789
0.19266055,0.19266055
0.229357798,0.2293578
-1,0.23105674
0.151376147,0.15137615
0.211009174,0.21100917
0.155963303,0.1559633
0.110091743,0.11009174
0.188073394,0.18807339
0.224770642,0.22477064
0.100917431,0.10091743
-1,0.17855929
-1,0.2103296
0.082568807,0.08256881
0.169724771,0.16972477
0.188073394,0.18807339
0.197247706,0.19724771
0.224770642,0.22477064
0.344036697,0.3440367
0.279816514,0.27981651
0.270642202,0.2706422
0.270642202,0.2706422
0.275229358,0.27522936
0.348623853,0.34862385
0.270642202,0.2706422
0.28440367,0.28440367
0.206422018,0.20642202
0.206422018,0.20642202
0.169724771,0.16972477
0.137614679,0.13761468
0.133027523,0.13302752
0.114678899,0.1146789
0.064220183,0.06422018
0.146788991,0.14678899
0.169724771,0.16972477
0.19266055,0.19266055
0.059633028,0.05963303
0.19266055,0.19266055
0.252293578,0.25229358
0.110091743,0.11009174
0.19266055,0.19266055
0.247706422,0.24770642
0.160550459,0.16055046
0.142201835,0.14220183
0.178899083,0.17889908
0.197247706,0.19724771
0.243119266,0.24311927
0.412844037,0.41284404
0.385321101,0.3853211
0.270642202,0.2706422
0.174311927,0.17431193
0.19266055,0.19266055
0.146788991,0.14678899
0.082568807,0.08256881
0.04587156,0.04587156
0.119266055,0.11926606
0.183486239,0.18348624
0.059633028,0.05963303
0.077981651,0.07798165
0.091743119,0.09174312
0.087155963,0.08715596
0.114678899,0.1146789
0.21559633,0.21559633
0.165137615,0.16513761
0.050458716,0.05045872
0.302752294,0.30275229
0.243119266,0.24311927
0.23853211,0.23853211
0.146788991,0.14678899
0.165137615,0.16513761
0.233944954,0.23394495
0.321100917,0.32110092
0.298165138,0.29816514
0.288990826,0.28899083
0.23853211,0.23853211
0.178899083,0.17889908
0.155963303,0.1559633
0.091743119,0.09174312
0.174311927,0.17431193
0.151376147,0.15137615
0.19266055,0.19266055
0.233944954,0.23394495
0.110091743,0.11009174
0.091743119,0.09174312
0.224770642,0.22477064
0.064220183,0.06422018
0.041284404,0.0412844
0.211009174,0.21100917
0.197247706,0.19724771
0.220183486,0.22018349
0.188073394,0.18807339
0.247706422,0.24770642
0.243119266,0.24311927
0.137614679,0.13761468
0.206422018,0.20642202
0.247706422,0.24770642
0.252293578,0.25229358
0.256880734,0.25688073
0.21559633,0.21559633
0.28440367,0.28440367
0.23853211,0.23853211
0.151376147,0.15137615
0.169724771,0.16972477
0.302752294,0.30275229
0.252293578,0.25229358
0.252293578,0.25229358
0.252293578,0.25229358
0.105504587,0.10550459
0.105504587,0.10550459
0.114678899,0.1146789
0.036697248,0.03669725
0.064220183,0.06422018
0.02293578,0.02293578
0.091743119,0.09174312
0.133027523,0.13302752
0.133027523,0.13302752
0.137614679,0.13761468
0.128440367,0.12844037
0.325688073,0.32568807
0.408256881,0.40825688
0.353211009,0.35321101
0.252293578,0.25229358
0.229357798,0.2293578
0.174311927,0.17431193
0.183486239,0.18348624
0.362385321,0.36238532
0.28440367,0.28440367
0.270642202,0.2706422
0.357798165,0.35779817
0.26146789,0.26146789
0.229357798,0.2293578
0.325688073,0.32568807
0.027522936,0.02752294
0.077981651,0.07798165
0.169724771,0.16972477
0.146788991,0.14678899
0.050458716,0.05045872
-1,0.18756371
-1,0.20880054
-1,0.21593612
-1,0.21865443
0.183486239,0.18348624
0.330275229,0.33027523
0.399082569,0.39908257
0.334862385,0.33486239
0.233944954,0.23394495
0.247706422,0.24770642
0.206422018,0.20642202
0.490825688,0.49082569
0.399082569,0.39908257
0.28440367,0.28440367
0.206422018,0.20642202
0.068807339,0.06880734
0.169724771,0.16972477
0.183486239,0.18348624
0.201834862,0.20183486
0.252293578,0.25229358
0.169724771,0.16972477
0.160550459,0.16055046
0.256880734,0.25688073
0.243119266,0.24311927
0.316513761,0.31651376
0.183486239,0.18348624
0.224770642,0.22477064
0.344036697,0.3440367
0.513761468,0.51376147
0.334862385,0.33486239
0.21559633,0.21559633
0.275229358,0.27522936
0.293577982,0.29357798
0.174311927,0.17431193
0.206422018,0.20642202
0.330275229,0.33027523
0.21559633,0.21559633
0.302752294,0.30275229
0.47706422,0.47706422
0.54587156,0.54587156
0.366972477,0.36697248
0.385321101,0.3853211
0.536697248,0.53669725
0.348623853,0.34862385
0.403669725,0.40366972
0.302752294,0.30275229
0.252293578,0.25229358
0.220183486,0.22018349
0.21559633,0.21559633
0.174311927,0.17431193
0.142201835,0.14220183
0.165137615,0.16513761
0.298165138,0.29816514
0.311926606,0.31192661
0.399082569,0.39908257
0.298165138,0.29816514
0.275229358,0.27522936
0.224770642,0.22477064
0.206422018,0.20642202
0.155963303,0.1559633
0.146788991,0.14678899
0.105504587,0.10550459
0.068807339,0.06880734
0.082568807,0.08256881
0.114678899,0.1146789
0.151376147,0.15137615
0.142201835,0.14220183
0.252293578,0.25229358
0.23853211,0.23853211
0.105504587,0.10550459
0.123853211,0.12385321
0.224770642,0.22477064
0.252293578,0.25229358
0.252293578,0.25229358
0.178899083,0.17889908
0.201834862,0.20183486
0.123853211,0.12385321
0.211009174,0.21100917
0.376146789,0.37614679
0.344036697,0.3440367
0.142201835,0.14220183
0.21559633,0.21559633
0.165137615,0.16513761
0.26146789,0.26146789
0.169724771,0.16972477
0.110091743,0.11009174
0.128440367,0.12844037
0.123853211,0.12385321
0.21559633,0.21559633
0.119266055,0.11926606
0.02293578,0.02293578
0.151376147,0.15137615
0.23853211,0.23853211
0.073394495,0.0733945
0.055045872,0.05504587
0.128440367,0.12844037
0.110091743,0.11009174
0.243119266,0.24311927
0.220183486,0.22018349
0.174311927,0.17431193
0.151376147,0.15137615
0.206422018,0.20642202
0.330275229,0.33027523
0.293577982,0.29357798
0.26146789,0.26146789
0.243119266,0.24311927
0.211009174,0.21100917
0.183486239,0.18348624
0.169724771,0.16972477
0.155963303,0.1559633
0.050458716,0.05045872
0.169724771,0.16972477
0.293577982,0.29357798
0.178899083,0.17889908
0.082568807,0.08256881
0.146788991,0.14678899
0.114678899,0.1146789
0.110091743,0.11009174
0.160550459,0.16055046
0.155963303,0.1559633
0.233944954,0.23394495
0.155963303,0.1559633
0.133027523,0.13302752
0.183486239,0.18348624
0.211009174,0.21100917
0.252293578,0.25229358
0.266055046,0.26605505
0.188073394,0.18807339
0.220183486,0.22018349
0.201834862,0.20183486
0.201834862,0.20183486
0.114678899,0.1146789
0.160550459,0.16055046
0.256880734,0.25688073
0.128440367,0.12844037
0.19266055,0.19266055
0.224770642,0.22477064
0.174311927,0.17431193
0.229357798,0.2293578
0.325688073,0.32568807
0.160550459,0.16055046
0.169724771,0.16972477
0.160550459,0.16055046
0.155963303,0.1559633
0.110091743,0.11009174
0.128440367,0.12844037
0.197247706,0.19724771
0.220183486,0.22018349
0.169724771,0.16972477
0.279816514,0.27981651
0.389908257,0.38990826
0.21559633,0.21559633
0.197247706,0.19724771
0.211009174,0.21100917
0.211009174,0.21100917
0.206422018,0.20642202
0.142201835,0.14220183
0.169724771,0.16972477
0.174311927,0.17431193
0.224770642,0.22477064
0.256880734,0.25688073
0.110091743,0.11009174
0.201834862,0.20183486
0.183486239,0.18348624
0.151376147,0.15137615
0.201834862,0.20183486
0.178899083,0.17889908
0.04587156,0.04587156
0.128440367,0.12844037
0.073394495,0.0733945
0.123853211,0.12385321
0.233944954,0.23394495
0.178899083,0.17889908
0.174311927,0.17431193
0.380733945,0.38073394
0.385321101,0.3853211
0.348623853,0.34862385
0.252293578,0.25229358
0.23853211,0.23853211
0.188073394,0.18807339
0.142201835,0.14220183
0.174311927,0.17431193
0.206422018,0.20642202
0.123853211,0.12385321
0.19266055,0.19266055
0.068807339,0.06880734
0.064220183,0.06422018
0.119266055,0.11926606
0.082568807,0.08256881
0.151376147,0.15137615
0.252293578,0.25229358
0.197247706,0.19724771
0.068807339,0.06880734
0.174311927,0.17431193
0.325688073,0.32568807
0.183486239,0.18348624
0.114678899,0.1146789
0.256880734,0.25688073
0.293577982,0.29357798
0.325688073,0.32568807
0.288990826,0.28899083
0.28440367,0.28440367
0.211009174,0.21100917
0.243119266,0.24311927
-1,0.24328916
0.151376147,0.15137615
0.110091743,0.11009174
0.114678899,0.1146789
0.068807339,0.06880734
0.050458716,0.05045872
0.123853211,0.12385321
0.123853211,0.12385321
0.19266055,0.19266055
0.105504587,0.10550459
0.197247706,0.19724771
0.21559633,0.21559633
0.247706422,0.24770642
0.142201835,0.14220183
0.211009174,0.21100917
0.233944954,0.23394495
0.229357798,0.2293578
0.243119266,0.24311927
-1,0.23156643
-1,0.22867822
-1,0.22460075
-1,0.21474686
-1,0.23139653
-1,0.23547401
-1,0.22731906
-1,0.2324159
-1,0.22188243
0.105504587,0.10550459
0.151376147,0.15137615
0.087155963,0.08715596
0.344036697,0.3440367
0.220183486,0.22018349
0.165137615,0.16513761
0.133027523,0.13302752
0.096330275,0.09633028
0.151376147,0.15137615
0.188073394,0.18807339
0.201834862,0.20183486
0.137614679,0.13761468
0.155963303,0.1559633
0.137614679,0.13761468
0.321100917,0.32110092
0.302752294,0.30275229
0.298165138,0.29816514
0.275229358,0.27522936
0.298165138,0.29816514
0.19266055,0.19266055
0.183486239,0.18348624
0.064220183,0.06422018
0.160550459,0.16055046
0.155963303,0.1559633
0.270642202,0.2706422
0.174311927,0.17431193
0.197247706,0.19724771
0.30733945,0.30733945
0.201834862,0.20183486
0.096330275,0.09633028
0.178899083,0.17889908
0.201834862,0.20183486
0.119266055,0.11926606
0.142201835,0.14220183
0.21559633,0.21559633
0.220183486,0.22018349
-1,0.22782875
-1,0.22443085
0.247706422,0.24770642
-1,0.22018349
0.380733945,0.38073394
0.348623853,0.34862385
0.28440367,0.28440367
0.302752294,0.30275229
0.211009174,0.21100917
0.160550459,0.16055046
0.087155963,0.08715596
0.105504587,0.10550459
0.105504587,0.10550459
0.151376147,0.15137615
0.105504587,0.10550459
0.270642202,0.2706422
0.133027523,0.13302752
-1,0.1688753
-1,0.21848454
-1,0.22816854
-1,0.23496432
0.243119266,0.24311927
0.279816514,0.27981651
0.220183486,0.22018349
0.146788991,0.14678899
-1,0.18688413
-1,0.22680938
-1,0.25569147
-1,0.24923547
-1,0.21474686
-1,0.20761128
-1,0.22460075
0.142201835,0.14220183
0.133027523,0.13302752
0.105504587,0.10550459
0.371559633,0.37155963
-1,0.34131838
0.091743119,0.09174312
-1,0.19283045
-1,0.22171254
-1,0.24396874
-1,0.24311927
0.339449541,0.33944954
0.206422018,0.20642202
-1,0.21066938
-1,0.21763507
0.21559633,0.21559633
0.100917431,0.10091743
0.28440367,0.28440367
-1,0.27845736
-1,0.23547401
-1,0.22782875
-1,0.25263337
-1,0.27505946
-1,0.2770982
-1,0.25518179
-1,0.24226979
-1,0.22460075
-1,0.22494054
-1,0.24600748
-1,0.23717295
-1,0.23360516
-1,0.22697927
-1,0.22443085
-1,0.22358138
-1,0.23003738
-1,0.238702
-1,0.23292559
-1,0.23207611
-1,0.22154264
-1,0.22850832
-1,0.21729528
-1,0.23190622
-1,0.23785253
-1,0.22511043
-1,0.23224601
-1,0.2230717
-1,0.21746517
-1,0.22850832
-1,0.22646959
-1,0.23394495
-1,0.23309548
-1,0.22884811
-1,0.23224601
-1,0.2198437
-1,0.22392117
-1,0.22528033
-1,0.22460075
-1,0.23343527
-1,0.23411485
-1,0.23292559
-1,0.22460075
-1,0.2324159
-1,0.22052328
-1,0.22154264
-1,0.2261298
-1,0.23037717
-1,0.23785253
-1,0.23292559
-1,0.23445464
-1,0.22341148
-1,0.23071696
-1,0.21950391
-1,0.23173632
-1,0.23785253
-1,0.22511043
-1,0.23224601
-1,0.2230717
-1,0.21746517
-1,0.22850832
-1,0.22646959
-1,0.23394495
-1,0.23309548
-1,0.22884811
-1,0.23224601
-1,0.2198437
-1,0.22392117
-1,0.22528033
-1,0.22460075
-1,0.23343527
0.266055046,0.26605505
0.28440367,0.28440367
0.339449541,0.33944954
0.316513761,0.31651376
0.412844037,0.41284404
0.229357798,0.2293578
0.206422018,0.20642202
0.224770642,0.22477064
0.142201835,0.14220183
0.169724771,0.16972477
0.458715596,0.4587156
0.344036697,0.3440367
0.142201835,0.14220183
0.389908257,0.38990826
0.119266055,0.11926606
0.142201835,0.14220183
0.247706422,0.24770642
0.119266055,0.11926606
0.151376147,0.15137615
0.110091743,0.11009174
0.229357798,0.2293578
0.243119266,0.24311927
0.220183486,0.22018349
0.275229358,0.27522936
0.23853211,0.23853211
0.224770642,0.22477064
0.279816514,0.27981651
0.270642202,0.2706422
0.279816514,0.27981651
0.330275229,0.33027523
0.394495413,0.39449541
0.490825688,0.49082569
0.376146789,0.37614679
0.316513761,0.31651376
0.435779817,0.43577982
0.834862385,0.83486239
0.78440367,0.78440367
0.394495413,0.39449541
0.302752294,0.30275229
0.197247706,0.19724771
0.128440367,0.12844037
0.119266055,0.11926606
0.197247706,0.19724771
0.211009174,0.21100917
0.344036697,0.3440367
0.325688073,0.32568807
0.30733945,0.30733945
0.339449541,0.33944954
0.28440367,0.28440367
0.224770642,0.22477064
0.380733945,0.38073394
0.426605505,0.4266055
0.376146789,0.37614679
0.481651376,0.48165138
0.366972477,0.36697248
0.385321101,0.3853211
0.220183486,0.22018349
0.142201835,0.14220183
0.206422018,0.20642202
0.256880734,0.25688073
0.073394495,0.0733945
0.151376147,0.15137615
0.087155963,0.08715596
0.064220183,0.06422018
0.087155963,0.08715596
0.665137615,0.66513761
0.844036697,0.8440367
0.353211009,0.35321101
0.160550459,0.16055046
0.133027523,0.13302752
0.105504587,0.10550459
0.128440367,0.12844037
0.155963303,0.1559633
0.224770642,0.22477064
0.311926606,0.31192661
0.426605505,0.4266055
0.47706422,0.47706422
0.541284404,0.5412844
0.518348624,0.51834862
0.52293578,0.52293578
0.357798165,0.35779817
0.229357798,0.2293578
0.26146789,0.26146789
0.302752294,0.30275229
0.128440367,0.12844037
0.04587156,0.04587156
0.174311927,0.17431193
0.21559633,0.21559633
0.169724771,0.16972477
0.279816514,0.27981651
0.366972477,0.36697248
0.252293578,0.25229358
0.256880734,0.25688073
0.220183486,0.22018349
0.23853211,0.23853211
0.334862385,0.33486239
0.646788991,0.64678899
0.463302752,0.46330275
0.426605505,0.4266055
0.339449541,0.33944954
0.472477064,0.47247706
0.458715596,0.4587156
0.298165138,0.29816514
0.165137615,0.16513761
0.151376147,0.15137615
0.091743119,0.09174312
0,0
0.059633028,0.05963303
0.206422018,0.20642202
0.233944954,0.23394495
0.486238532,0.48623853
0.532110092,0.53211009
0.5,0.5
0.344036697,0.3440367
0.270642202,0.2706422
0.270642202,0.2706422
0.220183486,0.22018349
0.201834862,0.20183486
0.160550459,0.16055046
0.19266055,0.19266055
0.188073394,0.18807339
0.444954128,0.44495413
0.399082569,0.39908257
0.431192661,0.43119266
0.394495413,0.39449541
0.252293578,0.25229358
0.252293578,0.25229358
0.23853211,0.23853211
0.211009174,0.21100917
0.211009174,0.21100917
0.128440367,0.12844037
0.091743119,0.09174312
0.160550459,0.16055046
0.197247706,0.19724771
0.114678899,0.1146789
0.321100917,0.32110092
0.371559633,0.37155963
0.376146789,0.37614679
0.229357798,0.2293578
0.220183486,0.22018349
0.21559633,0.21559633
0.229357798,0.2293578
0.256880734,0.25688073
0.146788991,0.14678899
0.137614679,0.13761468
0.188073394,0.18807339
0.279816514,0.27981651
0.247706422,0.24770642
0.256880734,0.25688073
0.279816514,0.27981651
0.243119266,0.24311927
0.243119266,0.24311927
0.243119266,0.24311927
0.201834862,0.20183486
0.146788991,0.14678899
0.146788991,0.14678899
0.123853211,0.12385321
0.183486239,0.18348624
0.311926606,0.31192661
0.330275229,0.33027523
0.279816514,0.27981651
0.133027523,0.13302752
0.183486239,0.18348624
0.266055046,0.26605505
0.279816514,0.27981651
0.256880734,0.25688073
0.174311927,0.17431193
0.19266055,0.19266055
0.169724771,0.16972477
0.142201835,0.14220183
0.339449541,0.33944954
0.399082569,0.39908257
0.293577982,0.29357798
0.211009174,0.21100917
0.21559633,0.21559633
0.233944954,0.23394495
0.220183486,0.22018349
0.270642202,0.2706422
0.082568807,0.08256881
0.027522936,0.02752294
0.197247706,0.19724771
0.224770642,0.22477064
0.133027523,0.13302752
0.206422018,0.20642202
0.165137615,0.16513761
0.050458716,0.05045872
0.059633028,0.05963303
0.036697248,0.03669725
0.26146789,0.26146789
0.293577982,0.29357798
0.23853211,0.23853211
0.206422018,0.20642202
0.243119266,0.24311927
0.279816514,0.27981651
0.399082569,0.39908257
0.394495413,0.39449541
0.417431193,0.41743119
0.311926606,0.31192661
0.302752294,0.30275229
0.229357798,0.2293578
0.233944954,0.23394495
0.211009174,0.21100917
0.288990826,0.28899083
0.339449541,0.33944954
0.587155963,0.58715596
0.380733945,0.38073394
0.247706422,0.24770642
0.082568807,0.08256881
0.114678899,0.1146789
0.087155963,0.08715596
0.201834862,0.20183486
0.114678899,0.1146789
0.064220183,0.06422018
0.082568807,0.08256881
0.224770642,0.22477064
0.28440367,0.28440367
0.19266055,0.19266055
0.233944954,0.23394495
0.394495413,0.39449541
0.412844037,0.41284404
0.339449541,0.33944954
0.334862385,0.33486239
0.233944954,0.23394495
0.206422018,0.20642202
0.417431193,0.41743119
0.52293578,0.52293578
0.45412844,0.45412844
0.472477064,0.47247706
0.651376147,0.65137615
0.637614679,0.63761468
0.449541284,0.44954128
0.073394495,0.0733945
0.082568807,0.08256881
0.087155963,0.08715596
0.087155963,0.08715596
0.174311927,0.17431193
0.169724771,0.16972477
0.155963303,0.1559633
0.041284404,0.0412844
0.165137615,0.16513761
0.178899083,0.17889908
0.275229358,0.27522936
0.513761468,0.51376147
0.54587156,0.54587156
0.495412844,0.49541284
0.344036697,0.3440367
0.422018349,0.42201835
0.399082569,0.39908257
0.206422018,0.20642202
0.26146789,0.26146789
0.275229358,0.27522936
0.472477064,0.47247706
0.082568807,0.08256881
0.04587156,0.04587156
0.082568807,0.08256881
0.068807339,0.06880734
0.073394495,0.0733945
0.247706422,0.24770642
0.252293578,0.25229358
0.151376147,0.15137615
0.197247706,0.19724771
0.275229358,0.27522936
0.275229358,0.27522936
0.201834862,0.20183486
0.04587156,0.04587156
0.146788991,0.14678899
0.357798165,0.35779817
0.408256881,0.40825688
0.435779817,0.43577982
0.495412844,0.49541284
0.52293578,0.52293578
0.467889908,0.46788991
0.279816514,0.27981651
0.155963303,0.1559633
0.206422018,0.20642202
0.252293578,0.25229358
0.087155963,0.08715596
0.183486239,0.18348624
0.197247706,0.19724771
0.197247706,0.19724771
0.02293578,0.02293578
0.233944954,0.23394495
0.178899083,0.17889908
0.114678899,0.1146789
0.279816514,0.27981651
0.28440367,0.28440367
0.201834862,0.20183486
0.266055046,0.26605505
0.169724771,0.16972477
0.142201835,0.14220183
0.334862385,0.33486239
0.389908257,0.38990826
0.362385321,0.36238532
0.252293578,0.25229358
0.220183486,0.22018349
0.247706422,0.24770642
0.197247706,0.19724771
0.100917431,0.10091743
0.201834862,0.20183486
0.178899083,0.17889908
0.105504587,0.10550459
0.229357798,0.2293578
0.077981651,0.07798165
0.133027523,0.13302752
0.472477064,0.47247706
0.458715596,0.4587156
0.229357798,0.2293578
0.146788991,0.14678899
0.169724771,0.16972477
0.279816514,0.27981651
0.174311927,0.17431193
0.28440367,0.28440367
0.114678899,0.1146789
0.155963303,0.1559633
0.293577982,0.29357798
0.288990826,0.28899083
0.408256881,0.40825688
0.344036697,0.3440367
0.233944954,0.23394495
0.224770642,0.22477064
0.26146789,0.26146789
0.155963303,0.1559633
0.128440367,0.12844037
0.293577982,0.29357798
0.174311927,0.17431193
0.077981651,0.07798165
0.105504587,0.10550459
0.096330275,0.09633028
0.119266055,0.11926606
0.155963303,0.1559633
0.142201835,0.14220183
0.229357798,0.2293578
0.344036697,0.3440367
0.302752294,0.30275229
0.133027523,0.13302752
0.26146789,0.26146789
0.266055046,0.26605505
0.19266055,0.19266055
0.339449541,0.33944954
0.417431193,0.41743119
0.30733945,0.30733945
0.298165138,0.29816514
0.376146789,0.37614679
0.325688073,0.32568807
0.224770642,0.22477064
0.151376147,0.15137615
0.178899083,0.17889908
0.321100917,0.32110092
0.114678899,0.1146789
0.068807339,0.06880734
0.23853211,0.23853211
0.206422018,0.20642202
0.270642202,0.2706422
0.293577982,0.29357798
0.206422018,0.20642202
0.178899083,0.17889908
0.197247706,0.19724771
0.160550459,0.16055046
0.256880734,0.25688073
0.302752294,0.30275229
0.165137615,0.16513761
0.211009174,0.21100917
0.298165138,0.29816514
0.403669725,0.40366972
0.527522936,0.52752294
0.394495413,0.39449541
0.220183486,0.22018349
0.270642202,0.2706422
0.197247706,0.19724771
0.128440367,0.12844037
0.183486239,0.18348624
0.325688073,0.32568807
0.082568807,0.08256881
0.068807339,0.06880734
0.133027523,0.13302752
0.041284404,0.0412844
0.050458716,0.05045872
0.211009174,0.21100917
0.211009174,0.21100917
0.28440367,0.28440367
0.229357798,0.2293578
0.224770642,0.22477064
0.220183486,0.22018349
0.091743119,0.09174312
0.133027523,0.13302752
0.23853211,0.23853211
0.293577982,0.29357798
0.45412844,0.45412844
0.509174312,0.50917431
0.412844037,0.41284404
0.371559633,0.37155963
0.28440367,0.28440367
0.293577982,0.29357798
0.155963303,0.1559633
0.275229358,0.27522936
0.417431193,0.41743119
0.19266055,0.19266055
0.091743119,0.09174312
0.137614679,0.13761468
0.110091743,0.11009174
0.21559633,0.21559633
0.229357798,0.2293578
0.293577982,0.29357798
0.04587156,0.04587156
0.100917431,0.10091743
0.055045872,0.05504587
0.183486239,0.18348624
0.178899083,0.17889908
0.105504587,0.10550459
0.233944954,0.23394495
0.302752294,0.30275229
0.380733945,0.38073394
0.279816514,0.27981651
0.321100917,0.32110092
0.353211009,0.35321101
0.298165138,0.29816514
0.169724771,0.16972477
0.146788991,0.14678899
0.233944954,0.23394495
0.52293578,0.52293578
0.47706422,0.47706422
0.128440367,0.12844037
0.183486239,0.18348624
0.137614679,0.13761468
0.105504587,0.10550459
0.197247706,0.19724771
0.146788991,0.14678899
0.133027523,0.13302752
0.174311927,0.17431193
0.243119266,0.24311927
0.321100917,0.32110092
0.311926606,0.31192661
0.146788991,0.14678899
0.096330275,0.09633028
0.362385321,0.36238532
0.403669725,0.40366972
0.417431193,0.41743119
0.293577982,0.29357798
0.270642202,0.2706422
0.26146789,0.26146789
0.19266055,0.19266055
0.133027523,0.13302752
0.087155963,0.08715596
0.220183486,0.22018349
0.302752294,0.30275229
0.270642202,0.2706422
0.252293578,0.25229358
0.426605505,0.4266055
0.28440367,0.28440367
0.197247706,0.19724771
0.123853211,0.12385321
0.174311927,0.17431193
0.133027523,0.13302752
0.275229358,0.27522936
0.243119266,0.24311927
0.197247706,0.19724771
0.188073394,0.18807339
0.165137615,0.16513761
0.385321101,0.3853211
0.412844037,0.41284404
0.399082569,0.39908257
0.270642202,0.2706422
0.28440367,0.28440367
0.21559633,0.21559633
0.201834862,0.20183486
0.105504587,0.10550459
0.114678899,0.1146789
0.353211009,0.35321101
0.183486239,0.18348624
0.114678899,0.1146789
0.229357798,0.2293578
0.165137615,0.16513761
0.082568807,0.08256881
0.256880734,0.25688073
0.23853211,0.23853211
0.096330275,0.09633028
0.082568807,0.08256881
0.073394495,0.0733945
0.096330275,0.09633028
0.252293578,0.25229358
0.298165138,0.29816514
0.279816514,0.27981651
0.330275229,0.33027523
0.412844037,0.41284404
0.366972477,0.36697248
0.463302752,0.46330275
0.426605505,0.4266055
0.206422018,0.20642202
0.19266055,0.19266055
0.114678899,0.1146789
0.151376147,0.15137615
0.19266055,0.19266055
0.325688073,0.32568807
0.178899083,0.17889908
0.160550459,0.16055046
0.21559633,0.21559633
0.096330275,0.09633028
0.091743119,0.09174312
0.201834862,0.20183486
0.298165138,0.29816514
0.165137615,0.16513761
0.137614679,0.13761468
0.220183486,0.22018349
0.206422018,0.20642202
0.133027523,0.13302752
0.174311927,0.17431193
0.348623853,0.34862385
0.431192661,0.43119266
0.220183486,0.22018349
0.28440367,0.28440367
0.587155963,0.58715596
0.637614679,0.63761468
0.775229358,0.77522936
0.614678899,0.6146789
0.298165138,0.29816514
0.330275229,0.33027523
0.105504587,0.10550459
0.082568807,0.08256881
0.376146789,0.37614679
0.105504587,0.10550459
0.096330275,0.09633028
0.142201835,0.14220183
0.371559633,0.37155963
0.371559633,0.37155963
0.270642202,0.2706422
0.288990826,0.28899083
0.334862385,0.33486239
0.256880734,0.25688073
0.417431193,0.41743119
0.568807339,0.56880734
0.45412844,0.45412844
0.403669725,0.40366972
0.444954128,0.44495413
0.435779817,0.43577982
0.504587156,0.50458716
0.582568807,0.58256881
0.422018349,0.42201835
0.325688073,0.32568807
0.412844037,0.41284404
0.330275229,0.33027523
0.440366972,0.44036697
0.422018349,0.42201835
0.408256881,0.40825688
0.564220183,0.56422018
0.394495413,0.39449541
0.311926606,0.31192661
0.201834862,0.20183486
0.224770642,0.22477064
0.110091743,0.11009174
0.197247706,0.19724771
0.197247706,0.19724771
0.224770642,0.22477064
0.30733945,0.30733945
0.256880734,0.25688073
0.30733945,0.30733945
0.353211009,0.35321101
0.334862385,0.33486239
0.233944954,0.23394495
0.220183486,0.22018349
0.28440367,0.28440367
0.183486239,0.18348624
0.174311927,0.17431193
0.110091743,0.11009174
0.087155963,0.08715596
0.220183486,0.22018349
0.087155963,0.08715596
0.201834862,0.20183486
0.270642202,0.2706422
0.463302752,0.46330275
0.47706422,0.47706422
0.21559633,0.21559633
0.178899083,0.17889908
0.220183486,0.22018349
0.256880734,0.25688073
0.169724771,0.16972477
0.050458716,0.05045872
0.110091743,0.11009174
0.174311927,0.17431193
0.334862385,0.33486239
0.302752294,0.30275229
0.252293578,0.25229358
0.23853211,0.23853211
0.293577982,0.29357798
0.266055046,0.26605505
0.275229358,0.27522936
0.19266055,0.19266055
0.142201835,0.14220183
0.169724771,0.16972477
0.19266055,0.19266055
0.256880734,0.25688073
0.26146789,0.26146789
0.376146789,0.37614679
0.247706422,0.24770642
0.220183486,0.22018349
0.229357798,0.2293578
0.174311927,0.17431193
0.247706422,0.24770642
0.247706422,0.24770642
0.233944954,0.23394495
0.201834862,0.20183486
0.19266055,0.19266055
0.23853211,0.23853211
0.197247706,0.19724771
0.472477064,0.47247706
0.376146789,0.37614679
0.243119266,0.24311927
0.19266055,0.19266055
0.243119266,0.24311927
0.224770642,0.22477064
0.165137615,0.16513761
0.151376147,0.15137615
0.233944954,0.23394495
0.371559633,0.37155963
0.243119266,0.24311927
0.334862385,0.33486239
0.316513761,0.31651376
0.288990826,0.28899083
0.146788991,0.14678899
0.041284404,0.0412844
0.100917431,0.10091743
0.082568807,0.08256881
0.19266055,0.19266055
0.316513761,0.31651376
0.311926606,0.31192661
0.270642202,0.2706422
0.211009174,0.21100917
0.252293578,0.25229358
0.21559633,0.21559633
0.266055046,0.26605505
0.256880734,0.25688073
0.229357798,0.2293578
0.21559633,0.21559633
0.224770642,0.22477064
0.23853211,0.23853211
0.256880734,0.25688073
0.206422018,0.20642202
0.229357798,0.2293578
0.28440367,0.28440367
0.114678899,0.1146789
0.073394495,0.0733945
0.160550459,0.16055046
0.293577982,0.29357798
0.321100917,0.32110092
0.220183486,0.22018349
0.197247706,0.19724771
0.247706422,0.24770642
0.334862385,0.33486239
0.146788991,0.14678899
0.100917431,0.10091743
0.178899083,0.17889908
0.302752294,0.30275229
0.344036697,0.3440367
0.435779817,0.43577982
0.353211009,0.35321101
0.252293578,0.25229358
0.165137615,0.16513761
0.137614679,0.13761468
0.123853211,0.12385321
0.064220183,0.06422018
0.128440367,0.12844037
0.279816514,0.27981651
0.169724771,0.16972477
0.178899083,0.17889908
0.073394495,0.0733945
0.082568807,0.08256881
0.133027523,0.13302752
0.21559633,0.21559633
0.142201835,0.14220183
0.28440367,0.28440367
0.298165138,0.29816514
0.233944954,0.23394495
0.188073394,0.18807339
0.169724771,0.16972477
0.146788991,0.14678899
0.334862385,0.33486239
0.353211009,0.35321101
0.316513761,0.31651376
0.252293578,0.25229358
0.270642202,0.2706422
0.344036697,0.3440367
0.211009174,0.21100917
0.201834862,0.20183486
0.087155963,0.08715596
0.211009174,0.21100917
0.19266055,0.19266055
0.399082569,0.39908257
0.802752294,0.80275229
0.513761468,0.51376147
0.376146789,0.37614679
0.201834862,0.20183486
0.146788991,0.14678899
0.169724771,0.16972477
0.252293578,0.25229358
0.366972477,0.36697248
0.321100917,0.32110092
0.495412844,0.49541284
0.729357798,0.7293578
0.729357798,0.7293578
0.619266055,0.61926606
0.47706422,0.47706422
0.449541284,0.44954128
0.389908257,0.38990826
0.408256881,0.40825688
0.344036697,0.3440367
0.325688073,0.32568807
0.380733945,0.38073394
0.376146789,0.37614679
0.357798165,0.35779817
0.197247706,0.19724771
0.256880734,0.25688073
0.52293578,0.52293578
0.655963303,0.6559633
0.775229358,0.77522936
0.399082569,0.39908257
0.19266055,0.19266055
0.206422018,0.20642202
0.142201835,0.14220183
0.091743119,0.09174312
0.128440367,0.12844037
0.142201835,0.14220183
0.119266055,0.11926606
0.311926606,0.31192661
0.444954128,0.44495413
0.458715596,0.4587156
0.321100917,0.32110092
0.28440367,0.28440367
-1,0.25280326
-1,0.24091064
-1,0.21355759
-1,0.21100917
-1,0.23173632
-1,0.22765885
-1,0.22646959
-1,0.22952769
-1,0.22086306
-1,0.22154264
-1,0.23394495
-1,0.22256201
-1,0.23275569
-1,0.22358138
-1,0.22969759
-1,0.23717295
-1,0.22511043
-1,0.22952769
-1,0.22714917
-1,0.22358138
-1,0.22748896
-1,0.23207611
-1,0.23428474
-1,0.23292559
-1,0.22460075
-1,0.22646959
-1,0.21559633
-1,0.2356439
-1,0.2324159
-1,0.22680938
-1,0.23275569
-1,0.22069317
-1,0.22392117
-1,0.23105674
-1,0.22748896
-1,0.2325858
-1,0.2324159
-1,0.22867822
-1,0.2325858
-1,0.21814475
-1,0.22969759
0.174311927,0.17431193
-1,0.21236833
-1,0.22545022
-1,0.25637105
-1,0.23360516
-1,0.21763507
-1,0.22697927
-1,0.21865443
-1,0.23445464
-1,0.2324159
-1,0.22833843
-1,0.23275569
-1,0.21627591
-1,0.23139653
-1,0.23071696
-1,0.2196738
-1,0.22460075
-1,0.21593612
-1,0.23190622
-1,0.2324159
-1,0.22680938
-1,0.23275569
-1,0.21576622
-1,0.2324159
-1,0.23071696
-1,0.2196738
-1,0.22460075
-1,0.21491675
-1,0.23292559
-1,0.2324159
-1,0.22222222
-1,0.23275569
-1,0.2198437
-1,0.22714917
-1,0.23122664
-1,0.22256201
-1,0.22511043
-1,0.22782875
-1,0.22748896
-1,0.23326538
-1,0.23309548
-1,0.23292559
-1,0.22443085
-1,0.23071696
-1,0.22358138
-1,0.22154264
-1,0.22579001
-1,0.23105674
-1,0.23428474
-1,0.23292559
-1,0.22460075
-1,0.23275569
-1,0.22052328
-1,0.22154264
-1,0.2261298
-1,0.23037717
-1,0.23785253
-1,0.23292559
-1,0.23445464
-1,0.22341148
-1,0.23071696
-1,0.21950391
-1,0.23173632
-1,0.23785253
-1,0.22511043
-1,0.23224601
-1,0.2230717
-1,0.21746517
-1,0.22850832
-1,0.22646959
-1,0.23394495
-1,0.23309548
-1,0.22884811
-1,0.23224601
-1,0.2198437
-1,0.22392117
-1,0.22528033
-1,0.22460075
-1,0.23343527
-1,0.23411485
-1,0.23292559
-1,0.22460075
-1,0.2324159
-1,0.22052328
-1,0.22154264
-1,0.2261298
-1,0.23037717
-1,0.23785253
-1,0.23292559
-1,0.23445464
-1,0.22341148
-1,0.23071696
-1,0.21950391
-1,0.23173632
-1,0.23785253
-1,0.22511043
0.21559633,0.21559633
-1,0.22765885
0.201834862,0.20183486
0.362385321,0.36238532
-1,0.31073734
-1,0.28882093
-1,0.26520557
0.270642202,0.2706422
0.270642202,0.2706422
-1,0.25688073
-1,0.26044852
0.316513761,0.31651376
0.573394495,0.5733945
0.288990826,0.28899083
0.28440367,0.28440367
0.316513761,0.31651376
0.467889908,0.46788991
0.293577982,0.29357798
0.23853211,0.23853211
0.096330275,0.09633028
0.151376147,0.15137615
0.110091743,0.11009174
0.119266055,0.11926606
0.247706422,0.24770642
0.247706422,0.24770642
0.160550459,0.16055046
0.21559633,0.21559633
0.371559633,0.37155963
0.371559633,0.37155963
0.344036697,0.3440367
0.26146789,0.26146789
0.266055046,0.26605505
0.275229358,0.27522936
0.188073394,0.18807339
0.151376147,0.15137615
0.137614679,0.13761468
0.394495413,0.39449541
0.344036697,0.3440367
0.26146789,0.26146789
0.229357798,0.2293578
0.243119266,0.24311927
0.174311927,0.17431193
0.096330275,0.09633028
0.087155963,0.08715596
0.183486239,0.18348624
0.266055046,0.26605505
0.279816514,0.27981651
0.211009174,0.21100917
0.206422018,0.20642202
0.197247706,0.19724771
0.220183486,0.22018349
0.348623853,0.34862385
0.30733945,0.30733945
0.293577982,0.29357798
0.321100917,0.32110092
0.247706422,0.24770642
0.211009174,0.21100917
0.165137615,0.16513761
0.142201835,0.14220183
0.096330275,0.09633028
0.344036697,0.3440367
0.110091743,0.11009174
0.220183486,0.22018349
0.380733945,0.38073394
0.440366972,0.44036697
0.311926606,0.31192661
0.325688073,0.32568807
0.142201835,0.14220183
0.229357798,0.2293578
0.229357798,0.2293578
0.220183486,0.22018349
0.348623853,0.34862385
0.298165138,0.29816514
0.224770642,0.22477064
0.151376147,0.15137615
0.339449541,0.33944954
0.376146789,0.37614679
0.353211009,0.35321101
0.348623853,0.34862385
0.26146789,0.26146789
0.26146789,0.26146789
0.256880734,0.25688073
0.133027523,0.13302752
0.105504587,0.10550459
0.316513761,0.31651376
0.201834862,0.20183486
0.211009174,0.21100917
0.357798165,0.35779817
0.706422018,0.70642202
0.399082569,0.39908257
0.256880734,0.25688073
0.316513761,0.31651376
0.055045872,0.05504587
0.188073394,0.18807339
0.270642202,0.2706422
0.233944954,0.23394495
0.174311927,0.17431193
0.211009174,0.21100917
0.178899083,0.17889908
0.408256881,0.40825688
0.403669725,0.40366972
0.440366972,0.44036697
0.403669725,0.40366972
0.279816514,0.27981651
0.302752294,0.30275229
0.270642202,0.2706422
0.151376147,0.15137615
0.19266055,0.19266055
0.481651376,0.48165138
0.573394495,0.5733945
0.330275229,0.33027523
0.151376147,0.15137615
0.495412844,0.49541284
0.059633028,0.05963303
0.096330275,0.09633028
0.293577982,0.29357798
0.220183486,0.22018349
0.275229358,0.27522936
0.233944954,0.23394495
0.26146789,0.26146789
0.330275229,0.33027523
0.229357798,0.2293578
0.165137615,0.16513761
0.417431193,0.41743119
0.444954128,0.44495413
0.669724771,0.66972477
0.389908257,0.38990826
0.288990826,0.28899083
0.270642202,0.2706422
0.19266055,0.19266055
0.45412844,0.45412844
0.532110092,0.53211009
0.756880734,0.75688073
0.605504587,0.60550459
0.266055046,0.26605505
0.096330275,0.09633028
0.055045872,0.05504587
0.064220183,0.06422018
0.013761468,0.01376147
0.133027523,0.13302752
0.201834862,0.20183486
0.256880734,0.25688073
0.279816514,0.27981651
0.293577982,0.29357798
0.229357798,0.2293578
0.206422018,0.20642202
0.233944954,0.23394495
0.399082569,0.39908257
0.298165138,0.29816514
0.330275229,0.33027523
0.440366972,0.44036697
0.394495413,0.39449541
0.417431193,0.41743119
0.550458716,0.55045872
0.651376147,0.65137615
0.509174312,0.50917431
0.440366972,0.44036697
0.330275229,0.33027523
0.660550459,0.66055046
0.21559633,0.21559633
0.110091743,0.11009174
0.128440367,0.12844037
0.082568807,0.08256881
0.082568807,0.08256881
0.19266055,0.19266055
0.26146789,0.26146789
0.220183486,0.22018349
0.178899083,0.17889908
0.160550459,0.16055046
0.178899083,0.17889908
0.155963303,0.1559633
0.399082569,0.39908257
0.614678899,0.6146789
0.637614679,0.63761468
0.412844037,0.41284404
0.605504587,0.60550459
0.47706422,0.47706422
0.344036697,0.3440367
0.330275229,0.33027523
0.532110092,0.53211009
0.78440367,0.78440367
0.321100917,0.32110092
0.087155963,0.08715596
0.311926606,0.31192661
0.564220183,0.56422018
0.133027523,0.13302752
0.123853211,0.12385321
0.082568807,0.08256881
0.174311927,0.17431193
0.21559633,0.21559633
0.302752294,0.30275229
0.220183486,0.22018349
0.188073394,0.18807339
0.087155963,0.08715596
0.23853211,0.23853211
0.28440367,0.28440367
0.243119266,0.24311927
0.252293578,0.25229358
0.357798165,0.35779817
0.449541284,0.44954128
0.270642202,0.2706422
0.229357798,0.2293578
0.174311927,0.17431193
0.123853211,0.12385321
0.233944954,0.23394495
0.47706422,0.47706422
0.114678899,0.1146789
0.100917431,0.10091743
0.275229358,0.27522936
0.325688073,0.32568807
0.183486239,0.18348624
0.064220183,0.06422018
0.096330275,0.09633028
0.082568807,0.08256881
0.091743119,0.09174312
0.21559633,0.21559633
0.142201835,0.14220183
0.133027523,0.13302752
0.233944954,0.23394495
0.362385321,0.36238532
0.513761468,0.51376147
0.403669725,0.40366972
0.380733945,0.38073394
0.26146789,0.26146789
0.26146789,0.26146789
0.316513761,0.31651376
0.288990826,0.28899083
0.201834862,0.20183486
0.183486239,0.18348624
0.119266055,0.11926606
0.027522936,0.02752294
0.082568807,0.08256881
0.146788991,0.14678899
0.178899083,0.17889908
0.087155963,0.08715596
0.064220183,0.06422018
0.110091743,0.11009174
0.21559633,0.21559633
0.169724771,0.16972477
0.201834862,0.20183486
0.105504587,0.10550459
0.151376147,0.15137615
0.298165138,0.29816514
0.458715596,0.4587156
0.435779817,0.43577982
0.23853211,0.23853211
0.288990826,0.28899083
0.26146789,0.26146789
0.266055046,0.26605505
0.344036697,0.3440367
0.174311927,0.17431193
0.068807339,0.06880734
0.073394495,0.0733945
0.178899083,0.17889908
0.47706422,0.47706422
0.073394495,0.0733945
0.298165138,0.29816514
0.334862385,0.33486239
0.614678899,0.6146789
0.197247706,0.19724771
0.201834862,0.20183486
0.146788991,0.14678899
0.165137615,0.16513761
0.211009174,0.21100917
0.169724771,0.16972477
0.165137615,0.16513761
0.165137615,0.16513761
0.417431193,0.41743119
0.463302752,0.46330275
0.417431193,0.41743119
0.30733945,0.30733945
0.298165138,0.29816514
0.201834862,0.20183486
0.206422018,0.20642202
0.21559633,0.21559633
0.472477064,0.47247706
0.513761468,0.51376147
0.440366972,0.44036697
0.288990826,0.28899083
0.068807339,0.06880734
0.142201835,0.14220183
0.224770642,0.22477064
0.435779817,0.43577982
0.146788991,0.14678899
0.091743119,0.09174312
0.146788991,0.14678899
0.077981651,0.07798165
0.133027523,0.13302752
0.155963303,0.1559633
0.206422018,0.20642202
0.266055046,0.26605505
0.426605505,0.4266055
0.385321101,0.3853211
0.311926606,0.31192661
0.302752294,0.30275229
0.247706422,0.24770642
0.279816514,0.27981651
0.206422018,0.20642202
0.110091743,0.11009174
0.068807339,0.06880734
0.275229358,0.27522936
0.325688073,0.32568807
0.123853211,0.12385321
0.440366972,0.44036697
0.339449541,0.33944954
0.252293578,0.25229358
0.23853211,0.23853211
0.160550459,0.16055046
0.114678899,0.1146789
0.119266055,0.11926606
0.197247706,0.19724771
0.123853211,0.12385321
0.128440367,0.12844037
0.357798165,0.35779817
0.288990826,0.28899083
0.467889908,0.46788991
0.481651376,0.48165138
0.353211009,0.35321101
0.325688073,0.32568807
0.279816514,0.27981651
0.270642202,0.2706422
0.224770642,0.22477064
0.119266055,0.11926606
0.059633028,0.05963303
0.229357798,0.2293578
0.183486239,0.18348624
0.123853211,0.12385321
0.123853211,0.12385321
0.229357798,0.2293578
0.133027523,0.13302752
0.178899083,0.17889908
0.220183486,0.22018349
0.073394495,0.0733945
0.110091743,0.11009174
0.183486239,0.18348624
0.23853211,0.23853211
0.197247706,0.19724771
0.137614679,0.13761468
0.256880734,0.25688073
0.357798165,0.35779817
0.403669725,0.40366972
-1,0.31311587
0.279816514,0.27981651
0.266055046,0.26605505
0.211009174,0.21100917
0.201834862,0.20183486
0.224770642,0.22477064
0.243119266,0.24311927
-1,0.23377506
-1,0.22680938
-1,0.21695549
-1,0.21933401
-1,0.22799864
-1,0.23105674
-1,0.23343527
0.26146789,0.26146789
0.110091743,0.11009174
0.201834862,0.20183486
0.266055046,0.26605505
0.270642202,0.2706422
0.266055046,0.26605505
-1,0.23717295
0.23853211,0.23853211
-1,0.24583758
0.412844037,0.41284404
0.394495413,0.39449541
0.275229358,0.27522936
0.26146789,0.26146789
0.21559633,0.21559633
0.325688073,0.32568807
0.458715596,0.4587156
0.435779817,0.43577982
0.422018349,0.42201835
0.252293578,0.25229358
0.206422018,0.20642202
0.142201835,0.14220183
0.073394495,0.0733945
0.197247706,0.19724771
0.146788991,0.14678899
0.059633028,0.05963303
0.169724771,0.16972477
0.211009174,0.21100917
0.211009174,0.21100917
0.233944954,0.23394495
0.233944954,0.23394495
0.169724771,0.16972477
0.233944954,0.23394495
0.431192661,0.43119266
0.504587156,0.50458716
0.30733945,0.30733945
0.311926606,0.31192661
0.279816514,0.27981651
0.169724771,0.16972477
0.197247706,0.19724771
0.133027523,0.13302752
0.270642202,0.2706422
0.600917431,0.60091743
0.504587156,0.50458716
0.403669725,0.40366972
0.19266055,0.19266055
0.233944954,0.23394495
0.224770642,0.22477064
0.100917431,0.10091743
0.142201835,0.14220183
0.123853211,0.12385321
0.23853211,0.23853211
0.376146789,0.37614679
0.399082569,0.39908257
0.279816514,0.27981651
0.243119266,0.24311927
0.298165138,0.29816514
0.467889908,0.46788991
0.472477064,0.47247706
-1,0.40536867
-1,0.36782195
0.270642202,0.2706422
0.266055046,0.26605505
-1,0.24736663
-1,0.22680938
-1,0.20285423
0.766055046,0.76605505
-1,0.45039076
0.229357798,0.2293578
0.178899083,0.17889908
0.068807339,0.06880734
0.087155963,0.08715596
0.220183486,0.22018349
0.155963303,0.1559633
0.256880734,0.25688073
0.252293578,0.25229358
0.206422018,0.20642202
0.252293578,0.25229358
0.252293578,0.25229358
0.105504587,0.10550459
0.252293578,0.25229358
0.330275229,0.33027523
0.339449541,0.33944954
0.394495413,0.39449541
0.422018349,0.42201835
0.444954128,0.44495413
0.389908257,0.38990826
0.362385321,0.36238532
0.582568807,0.58256881
0.550458716,0.55045872
0.408256881,0.40825688
0.348623853,0.34862385
0.270642202,0.2706422
0.330275229,0.33027523
0.128440367,0.12844037
0.110091743,0.11009174
0.087155963,0.08715596
-1,0.16836561
-1,0.19232076
-1,0.18807339
0.293577982,0.29357798
0.334862385,0.33486239
0.201834862,0.20183486
-1,0.20829086
-1,0.23156643
-1,0.23479443
0.362385321,0.36238532
0.275229358,0.27522936
0.490825688,0.49082569
0.802752294,0.80275229
-1,0.51308189
0.394495413,0.39449541
0.30733945,0.30733945
0.655963303,0.6559633
-1,0.39534489
0.587155963,0.58715596
0.683486239,0.68348624
0.160550459,0.16055046
0.206422018,0.20642202
-1,0.24617737
0.435779817,0.43577982
0.288990826,0.28899083
0.160550459,0.16055046
0.128440367,0.12844037
0.160550459,0.16055046
0.229357798,0.2293578
0.224770642,0.22477064
0.233944954,0.23394495
0.247706422,0.24770642
0.555045872,0.55504587
0.54587156,0.54587156
0.422018349,0.42201835
0.422018349,0.42201835
0.275229358,0.27522936
0.247706422,0.24770642
0.23853211,0.23853211
0.137614679,0.13761468
0.027522936,0.02752294
0.472477064,0.47247706
0.646788991,0.64678899
0.504587156,0.50458716
0.155963303,0.1559633
0.197247706,0.19724771
0.142201835,0.14220183
-1,0.17957866
-1,0.16904519
0.275229358,0.27522936
0.26146789,0.26146789
0.293577982,0.29357798
0.298165138,0.29816514
-1,0.26639484
0.279816514,0.27981651
0.220183486,0.22018349
0.366972477,0.36697248
0.376146789,0.37614679
0.472477064,0.47247706
0.444954128,0.44495413
0.449541284,0.44954128
0.45412844,0.45412844
0.316513761,0.31651376
0.256880734,0.25688073
0.688073394,0.68807339
0.688073394,0.68807339
0.637614679,0.63761468
0.614678899,0.6146789
0.834862385,0.83486239
0.591743119,0.59174312
-1,0.37954468
-1,0.30801903
0.229357798,0.2293578
-1,0.23819232
0.233944954,0.23394495
-1,0.20608223
-1,0.20336391
-1,0.21168875
0.256880734,0.25688073
0.275229358,0.27522936
-1,0.22358138
0.596330275,0.59633028
0.403669725,0.40366972
0.385321101,0.3853211
0.353211009,0.35321101
-1,0.30394156
0.211009174,0.21100917
0.270642202,0.2706422
0.394495413,0.39449541
-1,0.34369691
0.252293578,0.25229358
0.188073394,0.18807339
-1,0.20778118
-1,0.21083928
-1,0.23496432
-1,0.24549779
0.302752294,0.30275229
0.178899083,0.17889908
-1,0.18552497
-1,0.20455318
-1,0.23394495
-1,0.26197757
-1,0.21695549
-1,0.2103296
-1,0.21287802
-1,0.2198437
-1,0.23598369
-1,0.23224601
-1,0.22986748
-1,0.23309548
-1,0.21780496
-1,0.23139653
-1,0.22018349
-1,0.22222222
-1,0.23173632
-1,0.23037717
-1,0.2325858
-1,0.2324159
-1,0.22035338
-1,0.23037717
-1,0.22103296
-1,0.22222222
-1,0.23649337
-1,0.22137275
-1,0.23275569
-1,0.22816854
-1,0.22392117
-1,0.22460075
-1,0.22901801
-1,0.2358138
-1,0.23292559
-1,0.23292559
-1,0.22460075
-1,0.2293578
-1,0.21797486
-1,0.22629969
-1,0.23479443
-1,0.22137275
-1,0.22884811
-1,0.22545022
-1,0.23003738
-1,0.23326538
-1,0.22884811
-1,0.23224601
-1,0.2196738
-1,0.22969759
-1,0.2261298
-1,0.22477064
-1,0.23190622
-1,0.22969759
-1,0.23428474
-1,0.22375127
-1,0.22392117
-1,0.23037717
-1,0.22748896
-1,0.2325858
-1,0.2324159
-1,0.22867822
0.270642202,0.2706422
0.325688073,0.32568807
0.655963303,0.6559633
0.912844037,0.91284404
0.766055046,0.76605505
0.52293578,0.52293578
0.444954128,0.44495413
0.169724771,0.16972477
0.082568807,0.08256881
0.151376147,0.15137615
0.119266055,0.11926606
0.04587156,0.04587156
-1,0.14492015
0.188073394,0.18807339
0.252293578,0.25229358
0.082568807,0.08256881
-1,0.18586476
0.28440367,0.28440367
0.610091743,0.61009174
0.600917431,0.60091743
0.633027523,0.63302752
0.582568807,0.58256881
0.504587156,0.50458716
-1,0.38243289
0.504587156,0.50458716
0.633027523,0.63302752
0.587155963,0.58715596
0.798165138,0.79816514
-1,0.46041454
0.587155963,0.58715596
0.788990826,0.78899083
0.495412844,0.49541284
0.160550459,0.16055046
0.321100917,0.32110092
0.518348624,0.51834862
0.151376147,0.15137615
0.23853211,0.23853211
0.233944954,0.23394495
0.23853211,0.23853211
0.220183486,0.22018349
-1,0.19792729
-1,0.21950391
-1,0.21491675
-1,0.2485559
0.362385321,0.36238532
-1,0.30054366
-1,0.28406388
-1,0.26044852
-1,0.2324159
-1,0.21916412
-1,0.2103296
-1,0.22680938
-1,0.23037717
-1,0.22867822
-1,0.23224601
-1,0.21831464
-1,0.22731906
-1,0.22901801
-1,0.22579001
-1,0.22884811
-1,0.2291879
-1,0.22629969
-1,0.23309548
-1,0.22069317
-1,0.22273191
-1,0.23394495
-1,0.22137275
-1,0.22477064
-1,0.23989127
-1,0.21389738
-1,0.22748896
-1,0.2291879
-1,0.22392117
0.183486239,0.18348624
0.123853211,0.12385321
0.123853211,0.12385321
-1,0.21270812
0.160550459,0.16055046
0.394495413,0.39449541
0.568807339,0.56880734
0.23853211,0.23853211
0.100917431,0.10091743
0.133027523,0.13302752
0.146788991,0.14678899
0.178899083,0.17889908
0.224770642,0.22477064
0.247706422,0.24770642
0.151376147,0.15137615
0.344036697,0.3440367
0.403669725,0.40366972
0.26146789,0.26146789
0.555045872,0.55504587
0.660550459,0.66055046
0.633027523,0.63302752
0.256880734,0.25688073
0.224770642,0.22477064
0.155963303,0.1559633
0.178899083,0.17889908
0.293577982,0.29357798
0.536697248,0.53669725
0.536697248,0.53669725
0.28440367,0.28440367
0.311926606,0.31192661
0.128440367,0.12844037
0.04587156,0.04587156
0.032110092,0.03211009
0.160550459,0.16055046
0.110091743,0.11009174
0.26146789,0.26146789
0.252293578,0.25229358
0.243119266,0.24311927
0.211009174,0.21100917
0.316513761,0.31651376
0.211009174,0.21100917
0.472477064,0.47247706
0.348623853,0.34862385
0.339449541,0.33944954
0.325688073,0.32568807
0.23853211,0.23853211
0.252293578,0.25229358
0.201834862,0.20183486
0.19266055,0.19266055
0.178899083,0.17889908
0.339449541,0.33944954
0.055045872,0.05504587
0.220183486,0.22018349
0.288990826,0.28899083
0.353211009,0.35321101
0.293577982,0.29357798
0.155963303,0.1559633
0.110091743,0.11009174
0.137614679,0.13761468
0.105504587,0.10550459
0.233944954,0.23394495
0.279816514,0.27981651
0.23853211,0.23853211
0.197247706,0.19724771
0.266055046,0.26605505
0.256880734,0.25688073
0.279816514,0.27981651
0.256880734,0.25688073
0.247706422,0.24770642
0.252293578,0.25229358
0.380733945,0.38073394
0.435779817,0.43577982
0.183486239,0.18348624
0.151376147,0.15137615
0.467889908,0.46788991
0.646788991,0.64678899
0.69266055,0.69266055
0.449541284,0.44954128
0.440366972,0.44036697
0.467889908,0.46788991
0.270642202,0.2706422
0.252293578,0.25229358
0.178899083,0.17889908
0.169724771,0.16972477
0.183486239,0.18348624
0.211009174,0.21100917
0.169724771,0.16972477
0.142201835,0.14220183
0.376146789,0.37614679
0.426605505,0.4266055
0.550458716,0.55045872
0.458715596,0.4587156
0.71559633,0.71559633
0.839449541,0.83944954
0.862385321,0.86238532
0.711009174,0.71100917
0.463302752,0.46330275
0.30733945,0.30733945
0.28440367,0.28440367
0.371559633,0.37155963
0.394495413,0.39449541
0.321100917,0.32110092
0.366972477,0.36697248
0.399082569,0.39908257
0.220183486,0.22018349
0.19266055,0.19266055
0.279816514,0.27981651
0.293577982,0.29357798
0.165137615,0.16513761
0.256880734,0.25688073
0.247706422,0.24770642
0.206422018,0.20642202
0.302752294,0.30275229
0.357798165,0.35779817
0.321100917,0.32110092
0.344036697,0.3440367
0.366972477,0.36697248
0.275229358,0.27522936
0.30733945,0.30733945
0.26146789,0.26146789
0.183486239,0.18348624
0.137614679,0.13761468
0.371559633,0.37155963
0.467889908,0.46788991
0.288990826,0.28899083
0.21559633,0.21559633
0.646788991,0.64678899
0.678899083,0.67889908
0.174311927,0.17431193
0.082568807,0.08256881
0.110091743,0.11009174
0.155963303,0.1559633
0.188073394,0.18807339
0.243119266,0.24311927
0.155963303,0.1559633
0.146788991,0.14678899
0.293577982,0.29357798
0.389908257,0.38990826
0.288990826,0.28899083
0.23853211,0.23853211
0.362385321,0.36238532
0.325688073,0.32568807
0.339449541,0.33944954
0.279816514,0.27981651
0.243119266,0.24311927
0.096330275,0.09633028
0.577981651,0.57798165
0.605504587,0.60550459
0.614678899,0.6146789
0.472477064,0.47247706
0.435779817,0.43577982
0.174311927,0.17431193
0.298165138,0.29816514
0.211009174,0.21100917
0.178899083,0.17889908
0.233944954,0.23394495
0.247706422,0.24770642
0.26146789,0.26146789
0.288990826,0.28899083
0.229357798,0.2293578
0.288990826,0.28899083
0.490825688,0.49082569
0.380733945,0.38073394
0.28440367,0.28440367
0.321100917,0.32110092
0.353211009,0.35321101
0.316513761,0.31651376
0.298165138,0.29816514
0.683486239,0.68348624
0.78440367,0.78440367
0.825688073,0.82568807
0.779816514,0.77981651
0.316513761,0.31651376
0.321100917,0.32110092
0.160550459,0.16055046
0.252293578,0.25229358
0.119266055,0.11926606
0.160550459,0.16055046
0.270642202,0.2706422
0.211009174,0.21100917
0.133027523,0.13302752
0.19266055,0.19266055
0.21559633,0.21559633
0.183486239,0.18348624
0.435779817,0.43577982
0.527522936,0.52752294
0.344036697,0.3440367
0.334862385,0.33486239
0.353211009,0.35321101
0.311926606,0.31192661
0.293577982,0.29357798
0.266055046,0.26605505
0.183486239,0.18348624
0.137614679,0.13761468
0.665137615,0.66513761
0.536697248,0.53669725
0.600917431,0.60091743
0.197247706,0.19724771
0.091743119,0.09174312
0.252293578,0.25229358
0.178899083,0.17889908
0.279816514,0.27981651
0.137614679,0.13761468
0.142201835,0.14220183
0.26146789,0.26146789
0.243119266,0.24311927
0.146788991,0.14678899
0.142201835,0.14220183
0.366972477,0.36697248
0.463302752,0.46330275
0.362385321,0.36238532
0.431192661,0.43119266
0.362385321,0.36238532
0.298165138,0.29816514
0.293577982,0.29357798
0.279816514,0.27981651
0.30733945,0.30733945
0.444954128,0.44495413
0.577981651,0.57798165
0.73853211,0.73853211
0.733944954,0.73394495
1,1
0.577981651,0.57798165
0.275229358,0.27522936
0.211009174,0.21100917
0.114678899,0.1146789
0.064220183,0.06422018
0.151376147,0.15137615
0.183486239,0.18348624
0.30733945,0.30733945
0.389908257,0.38990826
0.513761468,0.51376147
0.47706422,0.47706422
0.463302752,0.46330275
0.651376147,0.65137615
0.472477064,0.47247706
0.293577982,0.29357798
0.385321101,0.3853211
0.270642202,0.2706422
0.587155963,0.58715596
0.426605505,0.4266055
0.399082569,0.39908257
0.495412844,0.49541284
0.559633028,0.55963303
0.495412844,0.49541284
0.169724771,0.16972477
0.298165138,0.29816514
0.47706422,0.47706422
0.467889908,0.46788991
0.151376147,0.15137615
0.247706422,0.24770642
0.293577982,0.29357798
0.28440367,0.28440367
0.357798165,0.35779817
0.26146789,0.26146789
0.174311927,0.17431193
0.26146789,0.26146789
0.426605505,0.4266055
0.486238532,0.48623853
0.463302752,0.46330275
0.426605505,0.4266055
0.385321101,0.3853211
0.541284404,0.5412844
0.449541284,0.44954128
0.394495413,0.39449541
0.311926606,0.31192661
0.449541284,0.44954128
0.903669725,0.90366972
0.770642202,0.7706422
0.614678899,0.6146789
0.197247706,0.19724771
0.266055046,0.26605505
0.344036697,0.3440367
0.243119266,0.24311927
0.128440367,0.12844037
0.178899083,0.17889908
0.169724771,0.16972477
0.133027523,0.13302752
0.252293578,0.25229358
0.325688073,0.32568807
0.293577982,0.29357798
0.550458716,0.55045872
0.380733945,0.38073394
0.279816514,0.27981651
0.541284404,0.5412844
0.711009174,0.71100917
0.683486239,0.68348624
0.54587156,0.54587156
0.591743119,0.59174312
0.527522936,0.52752294
0.431192661,0.43119266
0.532110092,0.53211009
0.47706422,0.47706422
0.220183486,0.22018349
0.206422018,0.20642202
0.123853211,0.12385321
0.165137615,0.16513761
0.114678899,0.1146789
0.151376147,0.15137615
0.247706422,0.24770642
0.220183486,0.22018349
0.183486239,0.18348624
0.21559633,0.21559633
0.247706422,0.24770642
0.371559633,0.37155963
0.334862385,0.33486239
0.504587156,0.50458716
0.596330275,0.59633028
0.412844037,0.41284404
0.371559633,0.37155963
0.389908257,0.38990826
0.211009174,0.21100917
0.151376147,0.15137615
0.174311927,0.17431193
0.417431193,0.41743119
0.183486239,0.18348624
0.087155963,0.08715596
0.188073394,0.18807339
0.142201835,0.14220183
0.220183486,0.22018349
0.137614679,0.13761468
0.19266055,0.19266055
0.174311927,0.17431193
0.073394495,0.0733945
0.169724771,0.16972477
0.188073394,0.18807339
0.21559633,0.21559633
0.206422018,0.20642202
0.389908257,0.38990826
0.591743119,0.59174312
0.435779817,0.43577982
0.440366972,0.44036697
0.325688073,0.32568807
0.325688073,0.32568807
0.247706422,0.24770642
0.266055046,0.26605505
0.206422018,0.20642202
0.077981651,0.07798165
0.178899083,0.17889908
0.293577982,0.29357798
0.197247706,0.19724771
0.26146789,0.26146789
0.19266055,0.19266055
0.155963303,0.1559633
0.096330275,0.09633028
0.211009174,0.21100917
0.302752294,0.30275229
0.224770642,0.22477064
0.229357798,0.2293578
0.21559633,0.21559633
0.128440367,0.12844037
0.316513761,0.31651376
0.458715596,0.4587156
0.385321101,0.3853211
0.591743119,0.59174312
0.605504587,0.60550459
0.532110092,0.53211009
0.587155963,0.58715596
0.467889908,0.46788991
0.197247706,0.19724771
0.220183486,0.22018349
0.128440367,0.12844037
0.266055046,0.26605505
0.243119266,0.24311927
0.605504587,0.60550459
0.628440367,0.62844037
0.472477064,0.47247706
0.513761468,0.51376147
0.357798165,0.35779817
0.178899083,0.17889908
0.211009174,0.21100917
0.137614679,0.13761468
0.128440367,0.12844037
0.155963303,0.1559633
0.137614679,0.13761468
0.155963303,0.1559633
0.252293578,0.25229358
0.380733945,0.38073394
0.504587156,0.50458716
0.509174312,0.50917431
0.302752294,0.30275229
0.275229358,0.27522936
0.344036697,0.3440367
0.21559633,0.21559633
0.155963303,0.1559633
0.091743119,0.09174312
0.371559633,0.37155963
0.256880734,0.25688073
0.344036697,0.3440367
0.23853211,0.23853211
0.146788991,0.14678899
0.114678899,0.1146789
0.229357798,0.2293578
0.188073394,0.18807339
0.114678899,0.1146789
0.091743119,0.09174312
0.137614679,0.13761468
0.21559633,0.21559633
0.165137615,0.16513761
0.165137615,0.16513761
0.270642202,0.2706422
0.490825688,0.49082569
0.366972477,0.36697248
0.302752294,0.30275229
0.266055046,0.26605505
0.28440367,0.28440367
0.229357798,0.2293578
0.174311927,0.17431193
0.431192661,0.43119266
0.490825688,0.49082569
0.582568807,0.58256881
0.321100917,0.32110092
0.128440367,0.12844037
0.100917431,0.10091743
0.155963303,0.1559633
0.064220183,0.06422018
0.279816514,0.27981651
0.165137615,0.16513761
0.123853211,0.12385321
0.151376147,0.15137615
0.229357798,0.2293578
0.302752294,0.30275229
0.19266055,0.19266055
0.068807339,0.06880734
0.288990826,0.28899083
0.362385321,0.36238532
0.26146789,0.26146789
0.385321101,0.3853211
0.669724771,0.66972477
0.76146789,0.76146789
0.747706422,0.74770642
0.711009174,0.71100917
0.440366972,0.44036697
0.201834862,0.20183486
0.518348624,0.51834862
0.536697248,0.53669725
0.422018349,0.42201835
0.348623853,0.34862385
0.325688073,0.32568807
0.288990826,0.28899083
0.206422018,0.20642202
0.096330275,0.09633028
0.252293578,0.25229358
0.243119266,0.24311927
0.178899083,0.17889908
0.233944954,0.23394495
0.220183486,0.22018349
0.119266055,0.11926606
0.298165138,0.29816514
0.348623853,0.34862385
0.275229358,0.27522936
0.247706422,0.24770642
0.339449541,0.33944954
0.399082569,0.39908257
0.302752294,0.30275229
0.252293578,0.25229358
0.247706422,0.24770642
0.256880734,0.25688073
0.490825688,0.49082569
0.408256881,0.40825688
0.376146789,0.37614679
0.252293578,0.25229358
0.371559633,0.37155963
0.224770642,0.22477064
0.119266055,0.11926606
0.19266055,0.19266055
0.26146789,0.26146789
0.311926606,0.31192661