0.238532110092,,,
0.192660550459,,,
0.215596330275,,,
0.247706422018,,,
0.183486238532,,,
-1,,,
-1,,,
0.0642201834862,,,
-1,,,
-1,,,
-1,,,
-1,,,
-1,,,
-1,,,
-1,,,
-1,,,
-1,,,
-1,,,
-1,,,
-1,,,
-1,,,
-1,,,
-1,,,
-1,,,
-1,,,
-1,,,
-1,,,
0.192660550459,,,
0.110091743119,,,
0.215596330275,,,
0.114678899083,,,
0.0275229357798,,,
0.0871559633028,,,
0.100917431193,,,
0.238532110092,,,
-1,,,
-1,,,
-1,,,
-1,,,
-1,,,
-1,,,
-1,,,
-1,,,
-1,,,
-1,,,
-1,,,
-1,,,
-1,,,
-1,,,
-1,,,
-1,,,
-1,,,
-1,,,
-1,,,
-1,,,
-1,,,
-1,,,
-1,,,
-1,,,
-1,,,
-1,,,
-1,,,
-1,,,
-1,,,
-1,,,
-1,,,
-1,,,
-1,,,
-1,,,
-1,,,
-1,,,
-1,,,
-1,,,
-1,,,
-1,,,
-1,,,
0.0917431192661,,,
-1,,,
0.174311926606,,,
0.137614678899,,,
0.105504587156,,,
0.215596330275,,,
0.270642201835,,,
0.256880733945,,,
0.0642201834862,,,
0.0825688073394,,,
0.229357798165,,,
0.252293577982,,,
0.353211009174,,,
0.307339449541,,,
0.311926605505,,,
0.197247706422,,,
0.233944954128,,,
0.247706422018,,,
0.293577981651,,,
0.321100917431,,,
0.224770642202,,,
0.247706422018,,,
0.174311926606,,,
0.123853211009,,,
0.119266055046,,,
0.266055045872,,,
0.509174311927,,,
-1,,,
-1,,,
0.293577981651,,,
0.0504587155963,,,
0.0963302752294,,,
0.142201834862,,,
0.137614678899,,,
0.0963302752294,,,
0.220183486239,,,
0.220183486239,,,
0.183486238532,,,
0.243119266055,,,
0.252293577982,,,
0.252293577982,,,
0.307339449541,,,
0.467889908257,,,
0.394495412844,,,
0.247706422018,,,
0.247706422018,,,
0.206422018349,,,
0.178899082569,,,
0.183486238532,,,
0.261467889908,,,
0.311926605505,,,
0.0871559633028,,,
0.0871559633028,,,
0.110091743119,,,
0.137614678899,,,
0.0504587155963,,,
0.0871559633028,,,
0.183486238532,,,
0.133027522936,,,
0.197247706422,,,
0.252293577982,,,
0.252293577982,,,
0.256880733945,,,
0.220183486239,,,
0.247706422018,,,
0.284403669725,,,
0.362385321101,,,
0.371559633028,,,
0.279816513761,,,
0.211009174312,,,
0.243119266055,,,
0.247706422018,,,
0.192660550459,,,
0.155963302752,,,
0.215596330275,,,
0.252293577982,,,
0.211009174312,,,
0.155963302752,,,
0.0550458715596,,,
0.174311926606,,,
0.114678899083,,,
0.100917431193,,,
0.0321100917431,,,
0.279816513761,,,
0.293577981651,,,
0.371559633028,,,
0.353211009174,,,
0.256880733945,,,
0.330275229358,,,
0.339449541284,,,
0.43119266055,,,
0.334862385321,,,
0.275229357798,,,
0.325688073394,,,
0.252293577982,,,
0.256880733945,,,
0.47247706422,,,
0.481651376147,,,
0.279816513761,,,
0.417431192661,,,
0.247706422018,,,
0.256880733945,,,
0.288990825688,,,
0.233944954128,,,
0.192660550459,,,
0.192660550459,,,
0.229357798165,,,
0.229357798165,,,
0.224770642202,,,
0.311926605505,,,
0.0917431192661,,,
0.0550458715596,,,
0.293577981651,,,
0.422018348624,,,
0.44495412844,,,
0.504587155963,,,
0.357798165138,,,
0.344036697248,,,
0.366972477064,,,
0.243119266055,,,
0.119266055046,,,
0.366972477064,,,
0.307339449541,,,
0.215596330275,,,
0.220183486239,,,
0.169724770642,,,
0.119266055046,,,
0.206422018349,,,
0.284403669725,,,
0.174311926606,,,
0.155963302752,,,
0.302752293578,,,
0.197247706422,,,
0.238532110092,,,
0.279816513761,,,
0.252293577982,,,
0.229357798165,,,
0.261467889908,,,
0.288990825688,,,
0.435779816514,,,
0.564220183486,,,
0.334862385321,,,
0.330275229358,,,
0.229357798165,,,
0.307339449541,,,
0.43119266055,,,
0.247706422018,,,
0.169724770642,,,
0.142201834862,,,
0.142201834862,,,
0.233944954128,,,
0.316513761468,,,
0.00917431192661,,,
0.197247706422,,,
0.252293577982,,,
0.316513761468,,,
0.284403669725,,,
0.270642201835,,,
0.160550458716,,,
0.307339449541,,,
0.284403669725,,,
0.238532110092,,,
0.293577981651,,,
0.449541284404,,,
0.233944954128,,,
0.197247706422,,,
0.133027522936,,,
0.114678899083,,,
0.105504587156,,,
0.0550458715596,,,
0.119266055046,,,
0.128440366972,,,
0.197247706422,,,
0.188073394495,,,
0.206883696502,,,
0.200135873807,,,
0.173295891171,,,
0.193161084403,,,
0.211115516201,,,
0.224024563901,,,
0.203266503442,,,
0.215596330275,,,
0.266055045872,,,
0.247706422018,,,
0.192660550459,,,
0.201834862385,,,
0.357798165138,,,
0.261467889908,,,
0.192660550459,,,
0.229357798165,,,
0.18722436101,,,
0.151376146789,,,
0.211009174312,,,
0.155963302752,,,
0.110091743119,,,
0.188073394495,,,
0.224770642202,,,
0.100917431193,,,
0.147033059153,,,
0.181242196067,,,
0.0825688073394,,,
0.169724770642,,,
0.188073394495,,,
0.197247706422,,,
0.224770642202,,,
0.344036697248,,,
0.279816513761,,,
0.270642201835,,,
0.270642201835,,,
0.275229357798,,,
0.348623853211,,,
0.270642201835,,,
0.284403669725,,,
0.206422018349,,,
0.206422018349,,,
0.169724770642,,,
0.137614678899,,,
0.133027522936,,,
0.114678899083,,,
0.0642201834862,,,
0.146788990826,,,
0.169724770642,,,
0.192660550459,,,
0.0596330275229,,,
0.192660550459,,,
0.252293577982,,,
0.110091743119,,,
0.192660550459,,,
0.247706422018,,,
0.160550458716,,,
0.142201834862,,,
0.178899082569,,,
0.197247706422,,,
0.243119266055,,,
0.412844036697,,,
0.385321100917,,,
0.270642201835,,,
0.174311926606,,,
0.192660550459,,,
0.146788990826,,,
0.0825688073394,,,
0.045871559633,,,
0.119266055046,,,
0.183486238532,,,
0.0596330275229,,,
0.0779816513761,,,
0.0917431192661,,,
0.0871559633028,,,
0.114678899083,,,
0.215596330275,,,
0.165137614679,,,
0.0504587155963,,,
0.302752293578,,,
0.243119266055,,,
0.238532110092,,,
0.146788990826,,,
0.165137614679,,,
0.233944954128,,,
0.321100917431,,,
0.298165137615,,,
0.288990825688,,,
0.238532110092,,,
0.178899082569,,,
0.155963302752,,,
0.0917431192661,,,
0.174311926606,,,
0.151376146789,,,
0.192660550459,,,
0.233944954128,,,
0.110091743119,,,
0.0917431192661,,,
0.224770642202,,,
0.0642201834862,,,
0.0412844036697,,,
0.211009174312,,,
0.197247706422,,,
0.220183486239,,,
0.188073394495,,,
0.247706422018,,,
0.243119266055,,,
0.137614678899,,,
0.206422018349,,,
0.247706422018,,,
0.252293577982,,,
0.256880733945,,,
0.215596330275,,,
0.284403669725,,,
0.238532110092,,,
0.151376146789,,,
0.169724770642,,,
0.302752293578,,,
0.252293577982,,,
0.252293577982,,,
0.252293577982,,,
0.105504587156,,,
0.105504587156,,,
0.114678899083,,,
0.0366972477064,,,
0.0642201834862,,,
0.0229357798165,,,
0.0917431192661,,,
0.133027522936,,,
0.133027522936,,,
0.137614678899,,,
0.128440366972,,,
0.325688073394,,,
0.408256880734,,,
0.353211009174,,,
0.252293577982,,,
0.229357798165,,,
0.174311926606,,,
0.183486238532,,,
0.362385321101,,,
0.284403669725,,,
0.270642201835,,,
0.357798165138,,,
0.261467889908,,,
0.229357798165,,,
0.325688073394,,,
0.0275229357798,,,
0.0779816513761,,,
0.169724770642,,,
0.146788990826,,,
0.0504587155963,,,
0.139054703117,,,
0.175046737773,,,
0.190364058357,,,
0.204835139578,,,
0.183486238532,,,
0.330275229358,,,
0.399082568807,,,
0.334862385321,,,
0.233944954128,,,
0.247706422018,,,
0.206422018349,,,
0.490825688073,,,
0.399082568807,,,
0.284403669725,,,
0.206422018349,,,
0.0688073394495,,,
0.169724770642,,,
0.183486238532,,,
0.201834862385,,,
0.252293577982,,,
0.169724770642,,,
0.160550458716,,,
0.256880733945,,,
0.243119266055,,,
0.316513761468,,,
0.183486238532,,,
0.224770642202,,,
0.344036697248,,,
0.51376146789,,,
0.334862385321,,,
0.215596330275,,,
0.275229357798,,,
0.293577981651,,,
0.174311926606,,,
0.206422018349,,,
0.330275229358,,,
0.215596330275,,,
0.302752293578,,,
0.477064220183,,,
0.545871559633,,,
0.366972477064,,,
0.385321100917,,,
0.536697247706,,,
0.348623853211,,,
0.403669724771,,,
0.302752293578,,,
0.252293577982,,,
0.220183486239,,,
0.215596330275,,,
0.174311926606,,,
0.142201834862,,,
0.165137614679,,,
0.298165137615,,,
0.311926605505,,,
0.399082568807,,,
0.298165137615,,,
0.275229357798,,,
0.224770642202,,,
0.206422018349,,,
0.155963302752,,,
0.146788990826,,,
0.105504587156,,,
0.0688073394495,,,
0.0825688073394,,,
0.114678899083,,,
0.151376146789,,,
0.142201834862,,,
0.252293577982,,,
0.238532110092,,,
0.105504587156,,,
0.123853211009,,,
0.224770642202,,,
0.252293577982,,,
0.252293577982,,,
0.178899082569,,,
0.201834862385,,,
0.123853211009,,,
0.211009174312,,,
0.376146788991,,,
0.344036697248,,,
0.142201834862,,,
0.215596330275,,,
0.165137614679,,,
0.261467889908,,,
0.169724770642,,,
0.110091743119,,,
0.128440366972,,,
0.123853211009,,,
0.215596330275,,,
0.119266055046,,,
0.0229357798165,,,
0.151376146789,,,
0.238532110092,,,
0.0733944954128,,,
0.0550458715596,,,
0.128440366972,,,
0.110091743119,,,
0.243119266055,,,
0.220183486239,,,
0.174311926606,,,
0.151376146789,,,
0.206422018349,,,
0.330275229358,,,
0.293577981651,,,
0.261467889908,,,
0.243119266055,,,
0.211009174312,,,
0.183486238532,,,
0.169724770642,,,
0.155963302752,,,
0.0504587155963,,,
0.169724770642,,,
0.293577981651,,,
0.178899082569,,,
0.0825688073394,,,
0.146788990826,,,
0.114678899083,,,
0.110091743119,,,
0.160550458716,,,
0.155963302752,,,
0.233944954128,,,
0.155963302752,,,
0.133027522936,,,
0.183486238532,,,
0.211009174312,,,
0.252293577982,,,
0.266055045872,,,
0.188073394495,,,
0.220183486239,,,
0.201834862385,,,
0.201834862385,,,
0.114678899083,,,
0.160550458716,,,
0.256880733945,,,
0.128440366972,,,
0.192660550459,,,
0.224770642202,,,
0.174311926606,,,
0.229357798165,,,
0.325688073394,,,
0.160550458716,,,
0.169724770642,,,
0.160550458716,,,
0.155963302752,,,
0.110091743119,,,
0.128440366972,,,
0.197247706422,,,
0.220183486239,,,
0.169724770642,,,
0.279816513761,,,
0.389908256881,,,
0.215596330275,,,
0.197247706422,,,
0.211009174312,,,
0.211009174312,,,
0.206422018349,,,
0.142201834862,,,
0.169724770642,,,
0.174311926606,,,
0.224770642202,,,
0.256880733945,,,
0.110091743119,,,
0.201834862385,,,
0.183486238532,,,
0.151376146789,,,
0.201834862385,,,
0.178899082569,,,
0.045871559633,,,
0.128440366972,,,
0.0733944954128,,,
0.123853211009,,,
0.233944954128,,,
0.178899082569,,,
0.174311926606,,,
0.380733944954,,,
0.385321100917,,,
0.348623853211,,,
0.252293577982,,,
0.238532110092,,,
0.188073394495,,,
0.142201834862,,,
0.174311926606,,,
0.206422018349,,,
0.123853211009,,,
0.192660550459,,,
0.0688073394495,,,
0.0642201834862,,,
0.119266055046,,,
0.0825688073394,,,
0.151376146789,,,
0.252293577982,,,
0.197247706422,,,
0.0688073394495,,,
0.174311926606,,,
0.325688073394,,,
0.183486238532,,,
0.114678899083,,,
0.256880733945,,,
0.293577981651,,,
0.325688073394,,,
0.288990825688,,,
0.284403669725,,,
0.211009174312,,,
0.243119266055,,,
0.234216421293,,,
0.151376146789,,,
0.110091743119,,,
0.114678899083,,,
0.0688073394495,,,
0.0504587155963,,,
0.123853211009,,,
0.123853211009,,,
0.192660550459,,,
0.105504587156,,,
0.197247706422,,,
0.215596330275,,,
0.247706422018,,,
0.142201834862,,,
0.211009174312,,,
0.233944954128,,,
0.229357798165,,,
0.243119266055,,,
0.262683865648,,,
0.269680535489,,,
0.249218437081,,,
0.253779489165,,,
0.218019811438,,,
0.219801150762,,,
0.199025435471,,,
0.191368154188,,,
0.175748045363,,,
0.105504587156,,,
0.151376146789,,,
0.0871559633028,,,
0.344036697248,,,
0.220183486239,,,
0.165137614679,,,
0.133027522936,,,
0.0963302752294,,,
0.151376146789,,,
0.188073394495,,,
0.201834862385,,,
0.137614678899,,,
0.155963302752,,,
0.137614678899,,,
0.321100917431,,,
0.302752293578,,,
0.298165137615,,,
0.275229357798,,,
0.298165137615,,,
0.192660550459,,,
0.183486238532,,,
0.0642201834862,,,
0.160550458716,,,
0.155963302752,,,
0.270642201835,,,
0.174311926606,,,
0.197247706422,,,
0.307339449541,,,
0.201834862385,,,
0.0963302752294,,,
0.178899082569,,,
0.201834862385,,,
0.119266055046,,,
0.142201834862,,,
0.215596330275,,,
0.220183486239,,,
0.207909081859,,,
0.214245386819,,,
0.247706422018,,,
0.246133210674,,,
0.380733944954,,,
0.348623853211,,,
0.284403669725,,,
0.302752293578,,,
0.211009174312,,,
0.160550458716,,,
0.0871559633028,,,
0.105504587156,,,
0.105504587156,,,
0.151376146789,,,
0.105504587156,,,
0.270642201835,,,
0.133027522936,,,
0.139276545268,,,
0.188960656674,,,
0.212888472234,,,
0.205137202856,,,
0.243119266055,,,
0.279816513761,,,
0.220183486239,,,
0.146788990826,,,
0.182438533436,,,
0.22100309883,,,
0.21558775593,,,
0.255153935196,,,
0.263299431922,,,
0.264891988037,,,
0.238126791074,,,
0.142201834862,,,
0.133027522936,,,
0.105504587156,,,
0.371559633028,,,
0.332008592249,,,
0.0917431192661,,,
0.133105740626,,,
0.200346718268,,,
0.18098789048,,,
0.177868455352,,,
0.339449541284,,,
0.206422018349,,,
0.186005719728,,,
0.235463209015,,,
0.215596330275,,,
0.100917431193,,,
0.284403669725,,,
0.292967597016,,,
0.249715763436,,,
0.241540147076,,,
0.240406342119,,,
0.247092792523,,,
0.234289610284,,,
0.206225589018,,,
0.194200832007,,,
0.198004029021,,,
0.179471784382,,,
0.233907323181,,,
0.249811191028,,,
0.217758863706,,,
0.177719605022,,,
0.209861605342,,,
0.203782536427,,,
0.196823611248,,,
0.232490333613,,,
0.230575514413,,,
0.218440674205,,,
0.215882912644,,,
0.219674146484,,,
0.191563654484,,,
0.225576591581,,,
0.237912261388,,,
0.248766996165,,,
0.230922518693,,,
0.229185605234,,,
0.213926040504,,,
0.216267820616,,,
0.211013228677,,,
0.205607476099,,,
0.210993274703,,,
0.210104134783,,,
0.21278350332,,,
0.213454880524,,,
0.212352338737,,,
0.198704014864,,,
0.205034184851,,,
0.204633945029,,,
0.208188335908,,,
0.213435215354,,,
0.22182420434,,,
0.218704961069,,,
0.217537030101,,,
0.216213689638,,,
0.209976980238,,,
0.214934212142,,,
0.220242845063,,,
0.225972524466,,,
0.221132557899,,,
0.220797261152,,,
0.212178793136,,,
0.212219349789,,,
0.209413142978,,,
0.210298020399,,,
0.210236057357,,,
0.212241723103,,,
0.211018473418,,,
0.209394644646,,,
0.2084913457,,,
0.205381256105,,,
0.206965052545,,,
0.208273081722,,,
0.21126456505,,,
0.212340222083,,,
0.216138457467,,,
0.215327697664,,,
0.215422575196,,,
0.214139329656,,,
0.213566798753,,,
0.266055045872,,,
0.284403669725,,,
0.339449541284,,,
0.316513761468,,,
0.412844036697,,,
0.229357798165,,,
0.206422018349,,,
0.224770642202,,,
0.142201834862,,,
0.169724770642,,,
0.45871559633,,,
0.344036697248,,,
0.142201834862,,,
0.389908256881,,,
0.119266055046,,,
0.142201834862,,,
0.247706422018,,,
0.119266055046,,,
0.151376146789,,,
0.110091743119,,,
0.229357798165,,,
0.243119266055,,,
0.220183486239,,,
0.275229357798,,,
0.238532110092,,,
0.224770642202,,,
0.279816513761,,,
0.270642201835,,,
0.279816513761,,,
0.330275229358,,,
0.394495412844,,,
0.490825688073,,,
0.376146788991,,,
0.316513761468,,,
0.435779816514,,,
0.834862385321,,,
0.784403669725,,,
0.394495412844,,,
0.302752293578,,,
0.197247706422,,,
0.128440366972,,,
0.119266055046,,,
0.197247706422,,,
0.211009174312,,,
0.344036697248,,,
0.325688073394,,,
0.307339449541,,,
0.339449541284,,,
0.284403669725,,,
0.224770642202,,,
0.380733944954,,,
0.426605504587,,,
0.376146788991,,,
0.481651376147,,,
0.366972477064,,,
0.385321100917,,,
0.220183486239,,,
0.142201834862,,,
0.206422018349,,,
0.256880733945,,,
0.0733944954128,,,
0.151376146789,,,
0.0871559633028,,,
0.0642201834862,,,
0.0871559633028,,,
0.665137614679,,,
0.844036697248,,,
0.353211009174,,,
0.160550458716,,,
0.133027522936,,,
0.105504587156,,,
0.128440366972,,,
0.155963302752,,,
0.224770642202,,,
0.311926605505,,,
0.426605504587,,,
0.477064220183,,,
0.54128440367,,,
0.518348623853,,,
0.522935779817,,,
0.357798165138,,,
0.229357798165,,,
0.261467889908,,,
0.302752293578,,,
0.128440366972,,,
0.045871559633,,,
0.174311926606,,,
0.215596330275,,,
0.169724770642,,,
0.279816513761,,,
0.366972477064,,,
0.252293577982,,,
0.256880733945,,,
0.220183486239,,,
0.238532110092,,,
0.334862385321,,,
0.646788990826,,,
0.463302752294,,,
0.426605504587,,,
0.339449541284,,,
0.47247706422,,,
0.45871559633,,,
0.298165137615,,,
0.165137614679,,,
0.151376146789,,,
0.0917431192661,,,
0.0,,,
0.0596330275229,,,
0.206422018349,,,
0.233944954128,,,
0.48623853211,,,
0.532110091743,,,
0.5,,,
0.344036697248,,,
0.270642201835,,,
0.270642201835,,,
0.220183486239,,,
0.201834862385,,,
0.160550458716,,,
0.192660550459,,,
0.188073394495,,,
0.44495412844,,,
0.399082568807,,,
0.43119266055,,,
0.394495412844,,,
0.252293577982,,,
0.252293577982,,,
0.238532110092,,,
0.211009174312,,,
0.211009174312,,,
0.128440366972,,,
0.0917431192661,,,
0.160550458716,,,
0.197247706422,,,
0.114678899083,,,
0.321100917431,,,
0.371559633028,,,
0.376146788991,,,
0.229357798165,,,
0.220183486239,,,
0.215596330275,,,
0.229357798165,,,
0.256880733945,,,
0.146788990826,,,
0.137614678899,,,
0.188073394495,,,
0.279816513761,,,
0.247706422018,,,
0.256880733945,,,
0.279816513761,,,
0.243119266055,,,
0.243119266055,,,
0.243119266055,,,
0.201834862385,,,
0.146788990826,,,
0.146788990826,,,
0.123853211009,,,
0.183486238532,,,
0.311926605505,,,
0.330275229358,,,
0.279816513761,,,
0.133027522936,,,
0.183486238532,,,
0.266055045872,,,
0.279816513761,,,
0.256880733945,,,
0.174311926606,,,
0.192660550459,,,
0.169724770642,,,
0.142201834862,,,
0.339449541284,,,
0.399082568807,,,
0.293577981651,,,
0.211009174312,,,
0.215596330275,,,
0.233944954128,,,
0.220183486239,,,
0.270642201835,,,
0.0825688073394,,,
0.0275229357798,,,
0.197247706422,,,
0.224770642202,,,
0.133027522936,,,
0.206422018349,,,
0.165137614679,,,
0.0504587155963,,,
0.0596330275229,,,
0.0366972477064,,,
0.261467889908,,,
0.293577981651,,,
0.238532110092,,,
0.206422018349,,,
0.243119266055,,,
0.279816513761,,,
0.399082568807,,,
0.394495412844,,,
0.417431192661,,,
0.311926605505,,,
0.302752293578,,,
0.229357798165,,,
0.233944954128,,,
0.211009174312,,,
0.288990825688,,,
0.339449541284,,,
0.587155963303,,,
0.380733944954,,,
0.247706422018,,,
0.0825688073394,,,
0.114678899083,,,
0.0871559633028,,,
0.201834862385,,,
0.114678899083,,,
0.0642201834862,,,
0.0825688073394,,,
0.224770642202,,,
0.284403669725,,,
0.192660550459,,,
0.233944954128,,,
0.394495412844,,,
0.412844036697,,,
0.339449541284,,,
0.334862385321,,,
0.233944954128,,,
0.206422018349,,,
0.417431192661,,,
0.522935779817,,,
0.454128440367,,,
0.47247706422,,,
0.651376146789,,,
0.637614678899,,,
0.449541284404,,,
0.0733944954128,,,
0.0825688073394,,,
0.0871559633028,,,
0.0871559633028,,,
0.174311926606,,,
0.169724770642,,,
0.155963302752,,,
0.0412844036697,,,
0.165137614679,,,
0.178899082569,,,
0.275229357798,,,
0.51376146789,,,
0.545871559633,,,
0.495412844037,,,
0.344036697248,,,
0.422018348624,,,
0.399082568807,,,
0.206422018349,,,
0.261467889908,,,
0.275229357798,,,
0.47247706422,,,
0.0825688073394,,,
0.045871559633,,,
0.0825688073394,,,
0.0688073394495,,,
0.0733944954128,,,
0.247706422018,,,
0.252293577982,,,
0.151376146789,,,
0.197247706422,,,
0.275229357798,,,
0.275229357798,,,
0.201834862385,,,
0.045871559633,,,
0.146788990826,,,
0.357798165138,,,
0.408256880734,,,
0.435779816514,,,
0.495412844037,,,
0.522935779817,,,
0.467889908257,,,
0.279816513761,,,
0.155963302752,,,
0.206422018349,,,
0.252293577982,,,
0.0871559633028,,,
0.183486238532,,,
0.197247706422,,,
0.197247706422,,,
0.0229357798165,,,
0.233944954128,,,
0.178899082569,,,
0.114678899083,,,
0.279816513761,,,
0.284403669725,,,
0.201834862385,,,
0.266055045872,,,
0.169724770642,,,
0.142201834862,,,
0.334862385321,,,
0.389908256881,,,
0.362385321101,,,
0.252293577982,,,
0.220183486239,,,
0.247706422018,,,
0.197247706422,,,
0.100917431193,,,
0.201834862385,,,
0.178899082569,,,
0.105504587156,,,
0.229357798165,,,
0.0779816513761,,,
0.133027522936,,,
0.47247706422,,,
0.45871559633,,,
0.229357798165,,,
0.146788990826,,,
0.169724770642,,,
0.279816513761,,,
0.174311926606,,,
0.284403669725,,,
0.114678899083,,,
0.155963302752,,,
0.293577981651,,,
0.288990825688,,,
0.408256880734,,,
0.344036697248,,,
0.233944954128,,,
0.224770642202,,,
0.261467889908,,,
0.155963302752,,,
0.128440366972,,,
0.293577981651,,,
0.174311926606,,,
0.0779816513761,,,
0.105504587156,,,
0.0963302752294,,,
0.119266055046,,,
0.155963302752,,,
0.142201834862,,,
0.229357798165,,,
0.344036697248,,,
0.302752293578,,,
0.133027522936,,,
0.261467889908,,,
0.266055045872,,,
0.192660550459,,,
0.339449541284,,,
0.417431192661,,,
0.307339449541,,,
0.298165137615,,,
0.376146788991,,,
0.325688073394,,,
0.224770642202,,,
0.151376146789,,,
0.178899082569,,,
0.321100917431,,,
0.114678899083,,,
0.0688073394495,,,
0.238532110092,,,
0.206422018349,,,
0.270642201835,,,
0.293577981651,,,
0.206422018349,,,
0.178899082569,,,
0.197247706422,,,
0.160550458716,,,
0.256880733945,,,
0.302752293578,,,
0.165137614679,,,
0.211009174312,,,
0.298165137615,,,
0.403669724771,,,
0.52752293578,,,
0.394495412844,,,
0.220183486239,,,
0.270642201835,,,
0.197247706422,,,
0.128440366972,,,
0.183486238532,,,
0.325688073394,,,
0.0825688073394,,,
0.0688073394495,,,
0.133027522936,,,
0.0412844036697,,,
0.0504587155963,,,
0.211009174312,,,
0.211009174312,,,
0.284403669725,,,
0.229357798165,,,
0.224770642202,,,
0.220183486239,,,
0.0917431192661,,,
0.133027522936,,,
0.238532110092,,,
0.293577981651,,,
0.454128440367,,,
0.509174311927,,,
0.412844036697,,,
0.371559633028,,,
0.284403669725,,,
0.293577981651,,,
0.155963302752,,,
0.275229357798,,,
0.417431192661,,,
0.192660550459,,,
0.0917431192661,,,
0.137614678899,,,
0.110091743119,,,
0.215596330275,,,
0.229357798165,,,
0.293577981651,,,
0.045871559633,,,
0.100917431193,,,
0.0550458715596,,,
0.183486238532,,,
0.178899082569,,,
0.105504587156,,,
0.233944954128,,,
0.302752293578,,,
0.380733944954,,,
0.279816513761,,,
0.321100917431,,,
0.353211009174,,,
0.298165137615,,,
0.169724770642,,,
0.146788990826,,,
0.233944954128,,,
0.522935779817,,,
0.477064220183,,,
0.128440366972,,,
0.183486238532,,,
0.137614678899,,,
0.105504587156,,,
0.197247706422,,,
0.146788990826,,,
0.133027522936,,,
0.174311926606,,,
0.243119266055,,,
0.321100917431,,,
0.311926605505,,,
0.146788990826,,,
0.0963302752294,,,
0.362385321101,,,
0.403669724771,,,
0.417431192661,,,
0.293577981651,,,
0.270642201835,,,
0.261467889908,,,
0.192660550459,,,
0.133027522936,,,
0.0871559633028,,,
0.220183486239,,,
0.302752293578,,,
0.270642201835,,,
0.252293577982,,,
0.426605504587,,,
0.284403669725,,,
0.197247706422,,,
0.123853211009,,,
0.174311926606,,,
0.133027522936,,,
0.275229357798,,,
0.243119266055,,,
0.197247706422,,,
0.188073394495,,,
0.165137614679,,,
0.385321100917,,,
0.412844036697,,,
0.399082568807,,,
0.270642201835,,,
0.284403669725,,,
0.215596330275,,,
0.201834862385,,,
0.105504587156,,,
0.114678899083,,,
0.353211009174,,,
0.183486238532,,,
0.114678899083,,,
0.229357798165,,,
0.165137614679,,,
0.0825688073394,,,
0.256880733945,,,
0.238532110092,,,
0.0963302752294,,,
0.0825688073394,,,
0.0733944954128,,,
0.0963302752294,,,
0.252293577982,,,
0.298165137615,,,
0.279816513761,,,
0.330275229358,,,
0.412844036697,,,
0.366972477064,,,
0.463302752294,,,
0.426605504587,,,
0.206422018349,,,
0.192660550459,,,
0.114678899083,,,
0.151376146789,,,
0.192660550459,,,
0.325688073394,,,
0.178899082569,,,
0.160550458716,,,
0.215596330275,,,
0.0963302752294,,,
0.0917431192661,,,
0.201834862385,,,
0.298165137615,,,
0.165137614679,,,
0.137614678899,,,
0.220183486239,,,
0.206422018349,,,
0.133027522936,,,
0.174311926606,,,
0.348623853211,,,
0.43119266055,,,
0.220183486239,,,
0.284403669725,,,
0.587155963303,,,
0.637614678899,,,
0.775229357798,,,
0.614678899083,,,
0.298165137615,,,
0.330275229358,,,
0.105504587156,,,
0.0825688073394,,,
0.376146788991,,,
0.105504587156,,,
0.0963302752294,,,
0.142201834862,,,
0.371559633028,,,
0.371559633028,,,
0.270642201835,,,
0.288990825688,,,
0.334862385321,,,
0.256880733945,,,
0.417431192661,,,
0.56880733945,,,
0.454128440367,,,
0.403669724771,,,
0.44495412844,,,
0.435779816514,,,
0.504587155963,,,
0.582568807339,,,
0.422018348624,,,
0.325688073394,,,
0.412844036697,,,
0.330275229358,,,
0.440366972477,,,
0.422018348624,,,
0.408256880734,,,
0.564220183486,,,
0.394495412844,,,
0.311926605505,,,
0.201834862385,,,
0.224770642202,,,
0.110091743119,,,
0.197247706422,,,
0.197247706422,,,
0.224770642202,,,
0.307339449541,,,
0.256880733945,,,
0.307339449541,,,
0.353211009174,,,
0.334862385321,,,
0.233944954128,,,
0.220183486239,,,
0.284403669725,,,
0.183486238532,,,
0.174311926606,,,
0.110091743119,,,
0.0871559633028,,,
0.220183486239,,,
0.0871559633028,,,
0.201834862385,,,
0.270642201835,,,
0.463302752294,,,
0.477064220183,,,
0.215596330275,,,
0.178899082569,,,
0.220183486239,,,
0.256880733945,,,
0.169724770642,,,
0.0504587155963,,,
0.110091743119,,,
0.174311926606,,,
0.334862385321,,,
0.302752293578,,,
0.252293577982,,,
0.238532110092,,,
0.293577981651,,,
0.266055045872,,,
0.275229357798,,,
0.192660550459,,,
0.142201834862,,,
0.169724770642,,,
0.192660550459,,,
0.256880733945,,,
0.261467889908,,,
0.376146788991,,,
0.247706422018,,,
0.220183486239,,,
0.229357798165,,,
0.174311926606,,,
0.247706422018,,,
0.247706422018,,,
0.233944954128,,,
0.201834862385,,,
0.192660550459,,,
0.238532110092,,,
0.197247706422,,,
0.47247706422,,,
0.376146788991,,,
0.243119266055,,,
0.192660550459,,,
0.243119266055,,,
0.224770642202,,,
0.165137614679,,,
0.151376146789,,,
0.233944954128,,,
0.371559633028,,,
0.243119266055,,,
0.334862385321,,,
0.316513761468,,,
0.288990825688,,,
0.146788990826,,,
0.0412844036697,,,
0.100917431193,,,
0.0825688073394,,,
0.192660550459,,,
0.316513761468,,,
0.311926605505,,,
0.270642201835,,,
0.211009174312,,,
0.252293577982,,,
0.215596330275,,,
0.266055045872,,,
0.256880733945,,,
0.229357798165,,,
0.215596330275,,,
0.224770642202,,,
0.238532110092,,,
0.256880733945,,,
0.206422018349,,,
0.229357798165,,,
0.284403669725,,,
0.114678899083,,,
0.0733944954128,,,
0.160550458716,,,
0.293577981651,,,
0.321100917431,,,
0.220183486239,,,
0.197247706422,,,
0.247706422018,,,
0.334862385321,,,
0.146788990826,,,
0.100917431193,,,
0.178899082569,,,
0.302752293578,,,
0.344036697248,,,
0.435779816514,,,
0.353211009174,,,
0.252293577982,,,
0.165137614679,,,
0.137614678899,,,
0.123853211009,,,
0.0642201834862,,,
0.128440366972,,,
0.279816513761,,,
0.169724770642,,,
0.178899082569,,,
0.0733944954128,,,
0.0825688073394,,,
0.133027522936,,,
0.215596330275,,,
0.142201834862,,,
0.284403669725,,,
0.298165137615,,,
0.233944954128,,,
0.188073394495,,,
0.169724770642,,,
0.146788990826,,,
0.334862385321,,,
0.353211009174,,,
0.316513761468,,,
0.252293577982,,,
0.270642201835,,,
0.344036697248,,,
0.211009174312,,,
0.201834862385,,,
0.0871559633028,,,
0.211009174312,,,
0.192660550459,,,
0.399082568807,,,
0.802752293578,,,
0.51376146789,,,
0.376146788991,,,
0.201834862385,,,
0.146788990826,,,
0.169724770642,,,
0.252293577982,,,
0.366972477064,,,
0.321100917431,,,
0.495412844037,,,
0.729357798165,,,
0.729357798165,,,
0.619266055046,,,
0.477064220183,,,
0.449541284404,,,
0.389908256881,,,
0.408256880734,,,
0.344036697248,,,
0.325688073394,,,
0.380733944954,,,
0.376146788991,,,
0.357798165138,,,
0.197247706422,,,
0.256880733945,,,
0.522935779817,,,
0.655963302752,,,
0.775229357798,,,
0.399082568807,,,
0.192660550459,,,
0.206422018349,,,
0.142201834862,,,
0.0917431192661,,,
0.128440366972,,,
0.142201834862,,,
0.119266055046,,,
0.311926605505,,,
0.44495412844,,,
0.45871559633,,,
0.321100917431,,,
0.284403669725,,,
0.335275829326,,,
0.328888974026,,,
0.3022522486,,,
0.261033737444,,,
0.249327478435,,,
0.215898310977,,,
0.188408101898,,,
0.219633982394,,,
0.25708533059,,,
0.310523043491,,,
0.372534430753,,,
0.330746412706,,,
0.241012113696,,,
0.181855273761,,,
0.183319924648,,,
0.166937825937,,,
0.18389709284,,,
0.196995265744,,,
0.2037970289,,,
0.216711095963,,,
0.226444822912,,,
0.237439867872,,,
0.222944450146,,,
0.232267819391,,,
0.240697476324,,,
0.268061592767,,,
0.273088434889,,,
0.265879860943,,,
0.257247535462,,,
0.238893789902,,,
0.216658148674,,,
0.202497030719,,,
0.205634383228,,,
0.216390204843,,,
0.231970906748,,,
0.231154626174,,,
0.210635035993,,,
0.193273968217,,,
0.192496879956,,,
0.194654833247,,,
0.204135313257,,,
0.174311926606,,,
0.19415489638,,,
0.20543680995,,,
0.207078000665,,,
0.202740273711,,,
0.204433829373,,,
0.213001373893,,,
0.222086916644,,,
0.237523348284,,,
0.241280771109,,,
0.241850683753,,,
0.232082898875,,,
0.226812721332,,,
0.217257172524,,,
0.210459250788,,,
0.207033469649,,,
0.208775911113,,,
0.212412536864,,,
0.210521943643,,,
0.204948139273,,,
0.19983940924,,,
0.196056371657,,,
0.197549872206,,,
0.201933485045,,,
0.202046715737,,,
0.206082165801,,,
0.208305332717,,,
0.212205415922,,,
0.209178951654,,,
0.211471517269,,,
0.212853056907,,,
0.218250689646,,,
0.222890838923,,,
0.225352676144,,,
0.22582926319,,,
0.223290197328,,,
0.220949870782,,,
0.216057769279,,,
0.213832987092,,,
0.211294136619,,,
0.211372287621,,,
0.210762780017,,,
0.209413811949,,,
0.20651422348,,,
0.204102032912,,,
0.202802430258,,,
0.203404724991,,,
0.205491042895,,,
0.207736486272,,,
0.209832342781,,,
0.211562857742,,,
0.212969548279,,,
0.212814087975,,,
0.213676693421,,,
0.214336877917,,,
0.216637699612,,,
0.218060264267,,,
0.219488433504,,,
0.218969011731,,,
0.218022125442,,,
0.216355373713,,,
0.214448192758,,,
0.213096252012,,,
0.211902660576,,,
0.21157741626,,,
0.210804798835,,,
0.210154051196,,,
0.208690576799,,,
0.207755094858,,,
0.207135666418,,,
0.207504644092,,,
0.208464947739,,,
0.209850777456,,,
0.211109083248,,,
0.212159724638,,,
0.21290120414,,,
0.213285620648,,,
0.213752414572,,,
0.214313827267,,,
0.215200112486,,,
0.215804048992,,,
0.216249577018,,,
0.21585717723,,,
0.215244070624,,,
0.214178275323,,,
0.213275729627,,,
0.212404078121,,,
0.211867862893,,,
0.211478922921,,,
0.211094316423,,,
0.210696293632,,,
0.210102394173,,,
0.209729821374,,,
0.209513206535,,,
0.209792864949,,,
0.210280894842,,,
0.215596330275,,,
0.214513201637,,,
0.201834862385,,,
0.362385321101,,,
0.32618096375,,,
0.258377114433,,,
0.232311432345,,,
0.270642201835,,,
0.270642201835,,,
0.236576882792,,,
0.22062425364,,,
0.316513761468,,,
0.573394495413,,,
0.288990825688,,,
0.284403669725,,,
0.316513761468,,,
0.467889908257,,,
0.293577981651,,,
0.238532110092,,,
0.0963302752294,,,
0.151376146789,,,
0.110091743119,,,
0.119266055046,,,
0.247706422018,,,
0.247706422018,,,
0.160550458716,,,
0.215596330275,,,
0.371559633028,,,
0.371559633028,,,
0.344036697248,,,
0.261467889908,,,
0.266055045872,,,
0.275229357798,,,
0.188073394495,,,
0.151376146789,,,
0.137614678899,,,
0.394495412844,,,
0.344036697248,,,
0.261467889908,,,
0.229357798165,,,
0.243119266055,,,
0.174311926606,,,
0.0963302752294,,,
0.0871559633028,,,
0.183486238532,,,
0.266055045872,,,
0.279816513761,,,
0.211009174312,,,
0.206422018349,,,
0.197247706422,,,
0.220183486239,,,
0.348623853211,,,
0.307339449541,,,
0.293577981651,,,
0.321100917431,,,
0.247706422018,,,
0.211009174312,,,
0.165137614679,,,
0.142201834862,,,
0.0963302752294,,,
0.344036697248,,,
0.110091743119,,,
0.220183486239,,,
0.380733944954,,,
0.440366972477,,,
0.311926605505,,,
0.325688073394,,,
0.142201834862,,,
0.229357798165,,,
0.229357798165,,,
0.220183486239,,,
0.348623853211,,,
0.298165137615,,,
0.224770642202,,,
0.151376146789,,,
0.339449541284,,,
0.376146788991,,,
0.353211009174,,,
0.348623853211,,,
0.261467889908,,,
0.261467889908,,,
0.256880733945,,,
0.133027522936,,,
0.105504587156,,,
0.316513761468,,,
0.201834862385,,,
0.211009174312,,,
0.357798165138,,,
0.706422018349,,,
0.399082568807,,,
0.256880733945,,,
0.316513761468,,,
0.0550458715596,,,
0.188073394495,,,
0.270642201835,,,
0.233944954128,,,
0.174311926606,,,
0.211009174312,,,
0.178899082569,,,
0.408256880734,,,
0.403669724771,,,
0.440366972477,,,
0.403669724771,,,
0.279816513761,,,
0.302752293578,,,
0.270642201835,,,
0.151376146789,,,
0.192660550459,,,
0.481651376147,,,
0.573394495413,,,
0.330275229358,,,
0.151376146789,,,
0.495412844037,,,
0.0596330275229,,,
0.0963302752294,,,
0.293577981651,,,
0.220183486239,,,
0.275229357798,,,
0.233944954128,,,
0.261467889908,,,
0.330275229358,,,
0.229357798165,,,
0.165137614679,,,
0.417431192661,,,
0.44495412844,,,
0.669724770642,,,
0.389908256881,,,
0.288990825688,,,
0.270642201835,,,
0.192660550459,,,
0.454128440367,,,
0.532110091743,,,
0.756880733945,,,
0.605504587156,,,
0.266055045872,,,
0.0963302752294,,,
0.0550458715596,,,
0.0642201834862,,,
0.0137614678899,,,
0.133027522936,,,
0.201834862385,,,
0.256880733945,,,
0.279816513761,,,
0.293577981651,,,
0.229357798165,,,
0.206422018349,,,
0.233944954128,,,
0.399082568807,,,
0.298165137615,,,
0.330275229358,,,
0.440366972477,,,
0.394495412844,,,
0.417431192661,,,
0.550458715596,,,
0.651376146789,,,
0.509174311927,,,
0.440366972477,,,
0.330275229358,,,
0.660550458716,,,
0.215596330275,,,
0.110091743119,,,
0.128440366972,,,
0.0825688073394,,,
0.0825688073394,,,
0.192660550459,,,
0.261467889908,,,
0.220183486239,,,
0.178899082569,,,
0.160550458716,,,
0.178899082569,,,
0.155963302752,,,
0.399082568807,,,
0.614678899083,,,
0.637614678899,,,
0.412844036697,,,
0.605504587156,,,
0.477064220183,,,
0.344036697248,,,
0.330275229358,,,
0.532110091743,,,
0.784403669725,,,
0.321100917431,,,
0.0871559633028,,,
0.311926605505,,,
0.564220183486,,,
0.133027522936,,,
0.123853211009,,,
0.0825688073394,,,
0.174311926606,,,
0.215596330275,,,
0.302752293578,,,
0.220183486239,,,
0.188073394495,,,
0.0871559633028,,,
0.238532110092,,,
0.284403669725,,,
0.243119266055,,,
0.252293577982,,,
0.357798165138,,,
0.449541284404,,,
0.270642201835,,,
0.229357798165,,,
0.174311926606,,,
0.123853211009,,,
0.233944954128,,,
0.477064220183,,,
0.114678899083,,,
0.100917431193,,,
0.275229357798,,,
0.325688073394,,,
0.183486238532,,,
0.0642201834862,,,
0.0963302752294,,,
0.0825688073394,,,
0.0917431192661,,,
0.215596330275,,,
0.142201834862,,,
0.133027522936,,,
0.233944954128,,,
0.362385321101,,,
0.51376146789,,,
0.403669724771,,,
0.380733944954,,,
0.261467889908,,,
0.261467889908,,,
0.316513761468,,,
0.288990825688,,,
0.201834862385,,,
0.183486238532,,,
0.119266055046,,,
0.0275229357798,,,
0.0825688073394,,,
0.146788990826,,,
0.178899082569,,,
0.0871559633028,,,
0.0642201834862,,,
0.110091743119,,,
0.215596330275,,,
0.169724770642,,,
0.201834862385,,,
0.105504587156,,,
0.151376146789,,,
0.298165137615,,,
0.45871559633,,,
0.435779816514,,,
0.238532110092,,,
0.288990825688,,,
0.261467889908,,,
0.266055045872,,,
0.344036697248,,,
0.174311926606,,,
0.0688073394495,,,
0.0733944954128,,,
0.178899082569,,,
0.477064220183,,,
0.0733944954128,,,
0.298165137615,,,
0.334862385321,,,
0.614678899083,,,
0.197247706422,,,
0.201834862385,,,
0.146788990826,,,
0.165137614679,,,
0.211009174312,,,
0.169724770642,,,
0.165137614679,,,
0.165137614679,,,
0.417431192661,,,
0.463302752294,,,
0.417431192661,,,
0.307339449541,,,
0.298165137615,,,
0.201834862385,,,
0.206422018349,,,
0.215596330275,,,
0.47247706422,,,
0.51376146789,,,
0.440366972477,,,
0.288990825688,,,
0.0688073394495,,,
0.142201834862,,,
0.224770642202,,,
0.435779816514,,,
0.146788990826,,,
0.0917431192661,,,
0.146788990826,,,
0.0779816513761,,,
0.133027522936,,,
0.155963302752,,,
0.206422018349,,,
0.266055045872,,,
0.426605504587,,,
0.385321100917,,,
0.311926605505,,,
0.302752293578,,,
0.247706422018,,,
0.279816513761,,,
0.206422018349,,,
0.110091743119,,,
0.0688073394495,,,
0.275229357798,,,
0.325688073394,,,
0.123853211009,,,
0.440366972477,,,
0.339449541284,,,
0.252293577982,,,
0.238532110092,,,
0.160550458716,,,
0.114678899083,,,
0.119266055046,,,
0.197247706422,,,
0.123853211009,,,
0.128440366972,,,
0.357798165138,,,
0.288990825688,,,
0.467889908257,,,
0.481651376147,,,
0.353211009174,,,
0.325688073394,,,
0.279816513761,,,
0.270642201835,,,
0.224770642202,,,
0.119266055046,,,
0.0596330275229,,,
0.229357798165,,,
0.183486238532,,,
0.123853211009,,,
0.123853211009,,,
0.229357798165,,,
0.133027522936,,,
0.178899082569,,,
0.220183486239,,,
0.0733944954128,,,
0.110091743119,,,
0.183486238532,,,
0.238532110092,,,
0.197247706422,,,
0.137614678899,,,
0.256880733945,,,
0.357798165138,,,
0.403669724771,,,
0.366352517983,,,
0.279816513761,,,
0.266055045872,,,
0.211009174312,,,
0.201834862385,,,
0.224770642202,,,
0.243119266055,,,
0.209990230266,,,
0.19899863791,,,
0.180496062145,,,
0.162327781245,,,
0.181394812968,,,
0.16876580465,,,
0.187229843044,,,
0.261467889908,,,
0.110091743119,,,
0.201834862385,,,
0.266055045872,,,
0.270642201835,,,
0.266055045872,,,
0.26294529925,,,
0.238532110092,,,
0.254279305125,,,
0.412844036697,,,
0.394495412844,,,
0.275229357798,,,
0.261467889908,,,
0.215596330275,,,
0.325688073394,,,
0.45871559633,,,
0.435779816514,,,
0.422018348624,,,
0.252293577982,,,
0.206422018349,,,
0.142201834862,,,
0.0733944954128,,,
0.197247706422,,,
0.146788990826,,,
0.0596330275229,,,
0.169724770642,,,
0.211009174312,,,
0.211009174312,,,
0.233944954128,,,
0.233944954128,,,
0.169724770642,,,
0.233944954128,,,
0.43119266055,,,
0.504587155963,,,
0.307339449541,,,
0.311926605505,,,
0.279816513761,,,
0.169724770642,,,
0.197247706422,,,
0.133027522936,,,
0.270642201835,,,
0.600917431193,,,
0.504587155963,,,
0.403669724771,,,
0.192660550459,,,
0.233944954128,,,
0.224770642202,,,
0.100917431193,,,
0.142201834862,,,
0.123853211009,,,
0.238532110092,,,
0.376146788991,,,
0.399082568807,,,
0.279816513761,,,
0.243119266055,,,
0.298165137615,,,
0.467889908257,,,
0.47247706422,,,
0.369594707843,,,
0.328582475624,,,
0.270642201835,,,
0.266055045872,,,
0.248696698593,,,
0.233128866248,,,
0.247713197757,,,
0.766055045872,,,
0.609285721114,,,
0.229357798165,,,
0.178899082569,,,
0.0688073394495,,,
0.0871559633028,,,
0.220183486239,,,
0.155963302752,,,
0.256880733945,,,
0.252293577982,,,
0.206422018349,,,
0.252293577982,,,
0.252293577982,,,
0.105504587156,,,
0.252293577982,,,
0.330275229358,,,
0.339449541284,,,
0.394495412844,,,
0.422018348624,,,
0.44495412844,,,
0.389908256881,,,
0.362385321101,,,
0.582568807339,,,
0.550458715596,,,
0.408256880734,,,
0.348623853211,,,
0.270642201835,,,
0.330275229358,,,
0.128440366972,,,
0.110091743119,,,
0.0871559633028,,,
0.159596592205,,,
0.206647575112,,,
0.241164935891,,,
0.293577981651,,,
0.334862385321,,,
0.201834862385,,,
0.183657993727,,,
0.251720551051,,,
0.271568577955,,,
0.362385321101,,,
0.275229357798,,,
0.490825688073,,,
0.802752293578,,,
0.596423371529,,,
0.394495412844,,,
0.307339449541,,,
0.655963302752,,,
0.554491308641,,,
0.587155963303,,,
0.683486238532,,,
0.160550458716,,,
0.206422018349,,,
0.232936350908,,,
0.435779816514,,,
0.288990825688,,,
0.160550458716,,,
0.128440366972,,,
0.160550458716,,,
0.229357798165,,,
0.224770642202,,,
0.233944954128,,,
0.247706422018,,,
0.55504587156,,,
0.545871559633,,,
0.422018348624,,,
0.422018348624,,,
0.275229357798,,,
0.247706422018,,,
0.238532110092,,,
0.137614678899,,,
0.0275229357798,,,
0.47247706422,,,
0.646788990826,,,
0.504587155963,,,
0.155963302752,,,
0.197247706422,,,
0.142201834862,,,
0.177306894141,,,
0.164868159247,,,
0.275229357798,,,
0.261467889908,,,
0.293577981651,,,
0.298165137615,,,
0.267294865085,,,
0.279816513761,,,
0.220183486239,,,
0.366972477064,,,
0.376146788991,,,
0.47247706422,,,
0.44495412844,,,
0.449541284404,,,
0.454128440367,,,
0.316513761468,,,
0.256880733945,,,
0.688073394495,,,
0.688073394495,,,
0.637614678899,,,
0.614678899083,,,
0.834862385321,,,
0.591743119266,,,
0.321269930589,,,
0.255866086795,,,
0.229357798165,,,
0.240935112081,,,
0.233944954128,,,
0.291685708202,,,
0.236615926363,,,
0.224197497156,,,
0.256880733945,,,
0.275229357798,,,
0.297302538788,,,
0.596330275229,,,
0.403669724771,,,
0.385321100917,,,
0.353211009174,,,
0.357398761157,,,
0.211009174312,,,
0.270642201835,,,
0.394495412844,,,
0.467914538461,,,
0.252293577982,,,
0.188073394495,,,
0.349695251971,,,
0.320965515566,,,
0.269554615124,,,
0.200381308041,,,
0.302752293578,,,
0.178899082569,,,
0.189973075088,,,
0.214779491531,,,
0.189283870095,,,
0.158785890541,,,
0.17904034274,,,
0.197130458859,,,
0.204739086778,,,
0.273276953435,,,
0.296501832919,,,
0.323868666271,,,
0.279602221682,,,
0.288503993812,,,
0.2531713433,,,
0.26637825812,,,
0.258767676227,,,
0.296453665408,,,
0.259850668933,,,
0.221035862731,,,
0.200482554232,,,
0.215077757369,,,
0.204860688712,,,
0.190926155613,,,
0.210888936497,,,
0.194738969366,,,
0.201622338842,,,
0.186178417622,,,
0.195831394234,,,
0.183439683497,,,
0.200830193633,,,
0.201194044871,,,
0.210607672359,,,
0.223721460263,,,
0.238432725937,,,
0.249852329271,,,
0.246277163212,,,
0.247540485866,,,
0.236793876995,,,
0.243084094095,,,
0.237063599968,,,
0.245568131528,,,
0.234050685769,,,
0.223772878663,,,
0.203948569726,,,
0.201695221418,,,
0.194608379719,,,
0.194861996941,,,
0.196481591318,,,
0.198181415067,,,
0.199235968841,,,
0.196844643339,,,
0.199825252916,,,
0.197475674999,,,
0.206595230279,,,
0.208955907478,,,
0.217231314981,,,
0.219176998771,,,
0.226594463008,,,
0.228106608198,,,
0.230148069022,,,
0.229116106897,,,
0.270642201835,,,
0.325688073394,,,
0.655963302752,,,
0.912844036697,,,
0.766055045872,,,
0.522935779817,,,
0.44495412844,,,
0.169724770642,,,
0.0825688073394,,,
0.151376146789,,,
0.119266055046,,,
0.045871559633,,,
0.143441732198,,,
0.188073394495,,,
0.252293577982,,,
0.0825688073394,,,
0.147045871428,,,
0.284403669725,,,
0.610091743119,,,
0.600917431193,,,
0.633027522936,,,
0.582568807339,,,
0.504587155963,,,
0.42430639136,,,
0.504587155963,,,
0.633027522936,,,
0.587155963303,,,
0.798165137615,,,
0.611787224011,,,
0.587155963303,,,
0.788990825688,,,
0.495412844037,,,
0.160550458716,,,
0.321100917431,,,
0.518348623853,,,
0.151376146789,,,
0.238532110092,,,
0.233944954128,,,
0.238532110092,,,
0.220183486239,,,
0.228931282058,,,
0.264012020534,,,
0.379342632877,,,
0.459345847262,,,
0.362385321101,,,
0.425559058267,,,
0.458958207456,,,
0.424257372336,,,
0.480160730388,,,
0.514726078955,,,
0.499433975468,,,
0.539621547027,,,
0.515917776539,,,
0.443796601584,,,
0.390723910737,,,
0.353201972089,,,
0.218422166279,,,
0.204801017804,,,
0.235508148618,,,
0.194832595325,,,
0.186647525808,,,
0.17582597187,,,
0.182396342219,,,
0.167814950513,,,
0.204017814059,,,
0.189327010041,,,
0.240199258475,,,
0.295190798616,,,
0.310821649649,,,
0.327189113347,,,
0.350643488389,,,
0.371407747103,,,
0.384233075063,,,
0.183486238532,,,
0.123853211009,,,
0.123853211009,,,
0.217090444191,,,
0.160550458716,,,
0.394495412844,,,
0.56880733945,,,
0.238532110092,,,
0.100917431193,,,
0.133027522936,,,
0.146788990826,,,
0.178899082569,,,
0.224770642202,,,
0.247706422018,,,
0.151376146789,,,
0.344036697248,,,
0.403669724771,,,
0.261467889908,,,
0.55504587156,,,
0.660550458716,,,
0.633027522936,,,
0.256880733945,,,
0.224770642202,,,
0.155963302752,,,
0.178899082569,,,
0.293577981651,,,
0.536697247706,,,
0.536697247706,,,
0.284403669725,,,
0.311926605505,,,
0.128440366972,,,
0.045871559633,,,
0.0321100917431,,,
0.160550458716,,,
0.110091743119,,,
0.261467889908,,,
0.252293577982,,,
0.243119266055,,,
0.211009174312,,,
0.316513761468,,,
0.211009174312,,,
0.47247706422,,,
0.348623853211,,,
0.339449541284,,,
0.325688073394,,,
0.238532110092,,,
0.252293577982,,,
0.201834862385,,,
0.192660550459,,,
0.178899082569,,,
0.339449541284,,,
0.0550458715596,,,
0.220183486239,,,
0.288990825688,,,
0.353211009174,,,
0.293577981651,,,
0.155963302752,,,
0.110091743119,,,
0.137614678899,,,
0.105504587156,,,
0.233944954128,,,
0.279816513761,,,
0.238532110092,,,
0.197247706422,,,
0.266055045872,,,
0.256880733945,,,
0.279816513761,,,
0.256880733945,,,
0.247706422018,,,
0.252293577982,,,
0.380733944954,,,
0.435779816514,,,
0.183486238532,,,
0.151376146789,,,
0.467889908257,,,
0.646788990826,,,
0.692660550459,,,
0.449541284404,,,
0.440366972477,,,
0.467889908257,,,
0.270642201835,,,
0.252293577982,,,
0.178899082569,,,
0.169724770642,,,
0.183486238532,,,
0.211009174312,,,
0.169724770642,,,
0.142201834862,,,
0.376146788991,,,
0.426605504587,,,
0.550458715596,,,
0.45871559633,,,
0.715596330275,,,
0.839449541284,,,
0.862385321101,,,
0.711009174312,,,
0.463302752294,,,
0.307339449541,,,
0.284403669725,,,
0.371559633028,,,
0.394495412844,,,
0.321100917431,,,
0.366972477064,,,
0.399082568807,,,
0.220183486239,,,
0.192660550459,,,
0.279816513761,,,
0.293577981651,,,
0.165137614679,,,
0.256880733945,,,
0.247706422018,,,
0.206422018349,,,
0.302752293578,,,
0.357798165138,,,
0.321100917431,,,
0.344036697248,,,
0.366972477064,,,
0.275229357798,,,
0.307339449541,,,
0.261467889908,,,
0.183486238532,,,
0.137614678899,,,
0.371559633028,,,
0.467889908257,,,
0.288990825688,,,
0.215596330275,,,
0.646788990826,,,
0.678899082569,,,
0.174311926606,,,
0.0825688073394,,,
0.110091743119,,,
0.155963302752,,,
0.188073394495,,,
0.243119266055,,,
0.155963302752,,,
0.146788990826,,,
0.293577981651,,,
0.389908256881,,,
0.288990825688,,,
0.238532110092,,,
0.362385321101,,,
0.325688073394,,,
0.339449541284,,,
0.279816513761,,,
0.243119266055,,,
0.0963302752294,,,
0.577981651376,,,
0.605504587156,,,
0.614678899083,,,
0.47247706422,,,
0.435779816514,,,
0.174311926606,,,
0.298165137615,,,
0.211009174312,,,
0.178899082569,,,
0.233944954128,,,
0.247706422018,,,
0.261467889908,,,
0.288990825688,,,
0.229357798165,,,
0.288990825688,,,
0.490825688073,,,
0.380733944954,,,
0.284403669725,,,
0.321100917431,,,
0.353211009174,,,
0.316513761468,,,
0.298165137615,,,
0.683486238532,,,
0.784403669725,,,
0.825688073394,,,
0.779816513761,,,
0.316513761468,,,
0.321100917431,,,
0.160550458716,,,
0.252293577982,,,
0.119266055046,,,
0.160550458716,,,
0.270642201835,,,
0.211009174312,,,
0.133027522936,,,
0.192660550459,,,
0.215596330275,,,
0.183486238532,,,
0.435779816514,,,
0.52752293578,,,
0.344036697248,,,
0.334862385321,,,
0.353211009174,,,
0.311926605505,,,
0.293577981651,,,
0.266055045872,,,
0.183486238532,,,
0.137614678899,,,
0.665137614679,,,
0.536697247706,,,
0.600917431193,,,
0.197247706422,,,
0.0917431192661,,,
0.252293577982,,,
0.178899082569,,,
0.279816513761,,,
0.137614678899,,,
0.142201834862,,,
0.261467889908,,,
0.243119266055,,,
0.146788990826,,,
0.142201834862,,,
0.366972477064,,,
0.463302752294,,,
0.362385321101,,,
0.43119266055,,,
0.362385321101,,,
0.298165137615,,,
0.293577981651,,,
0.279816513761,,,
0.307339449541,,,
0.44495412844,,,
0.577981651376,,,
0.738532110092,,,
0.733944954128,,,
1.0,,,
0.577981651376,,,
0.275229357798,,,
0.211009174312,,,
0.114678899083,,,
0.0642201834862,,,
0.151376146789,,,
0.183486238532,,,
0.307339449541,,,
0.389908256881,,,
0.51376146789,,,
0.477064220183,,,
0.463302752294,,,
0.651376146789,,,
0.47247706422,,,
0.293577981651,,,
0.385321100917,,,
0.270642201835,,,
0.587155963303,,,
0.426605504587,,,
0.399082568807,,,
0.495412844037,,,
0.559633027523,,,
0.495412844037,,,
0.169724770642,,,
0.298165137615,,,
0.477064220183,,,
0.467889908257,,,
0.151376146789,,,
0.247706422018,,,
0.293577981651,,,
0.284403669725,,,
0.357798165138,,,
0.261467889908,,,
0.174311926606,,,
0.261467889908,,,
0.426605504587,,,
0.48623853211,,,
0.463302752294,,,
0.426605504587,,,
0.385321100917,,,
0.54128440367,,,
0.449541284404,,,
0.394495412844,,,
0.311926605505,,,
0.449541284404,,,
0.903669724771,,,
0.770642201835,,,
0.614678899083,,,
0.197247706422,,,
0.266055045872,,,
0.344036697248,,,
0.243119266055,,,
0.128440366972,,,
0.178899082569,,,
0.169724770642,,,
0.133027522936,,,
0.252293577982,,,
0.325688073394,,,
0.293577981651,,,
0.550458715596,,,
0.380733944954,,,
0.279816513761,,,
0.54128440367,,,
0.711009174312,,,
0.683486238532,,,
0.545871559633,,,
0.591743119266,,,
0.52752293578,,,
0.43119266055,,,
0.532110091743,,,
0.477064220183,,,
0.220183486239,,,
0.206422018349,,,
0.123853211009,,,
0.165137614679,,,
0.114678899083,,,
0.151376146789,,,
0.247706422018,,,
0.220183486239,,,
0.183486238532,,,
0.215596330275,,,
0.247706422018,,,
0.371559633028,,,
0.334862385321,,,
0.504587155963,,,
0.596330275229,,,
0.412844036697,,,
0.371559633028,,,
0.389908256881,,,
0.211009174312,,,
0.151376146789,,,
0.174311926606,,,
0.417431192661,,,
0.183486238532,,,
0.0871559633028,,,
0.188073394495,,,
0.142201834862,,,
0.220183486239,,,
0.137614678899,,,
0.192660550459,,,
0.174311926606,,,
0.0733944954128,,,
0.169724770642,,,
0.188073394495,,,
0.215596330275,,,
0.206422018349,,,
0.389908256881,,,
0.591743119266,,,
0.435779816514,,,
0.440366972477,,,
0.325688073394,,,
0.325688073394,,,
0.247706422018,,,
0.266055045872,,,
0.206422018349,,,
0.0779816513761,,,
0.178899082569,,,
0.293577981651,,,
0.197247706422,,,
0.261467889908,,,
0.192660550459,,,
0.155963302752,,,
0.0963302752294,,,
0.211009174312,,,
0.302752293578,,,
0.224770642202,,,
0.229357798165,,,
0.215596330275,,,
0.128440366972,,,
0.316513761468,,,
0.45871559633,,,
0.385321100917,,,
0.591743119266,,,
0.605504587156,,,
0.532110091743,,,
0.587155963303,,,
0.467889908257,,,
0.197247706422,,,
0.220183486239,,,
0.128440366972,,,
0.266055045872,,,
0.243119266055,,,
0.605504587156,,,
0.628440366972,,,
0.47247706422,,,
0.51376146789,,,
0.357798165138,,,
0.178899082569,,,
0.211009174312,,,
0.137614678899,,,
0.128440366972,,,
0.155963302752,,,
0.137614678899,,,
0.155963302752,,,
0.252293577982,,,
0.380733944954,,,
0.504587155963,,,
0.509174311927,,,
0.302752293578,,,
0.275229357798,,,
0.344036697248,,,
0.215596330275,,,
0.155963302752,,,
0.0917431192661,,,
0.371559633028,,,
0.256880733945,,,
0.344036697248,,,
0.238532110092,,,
0.146788990826,,,
0.114678899083,,,
0.229357798165,,,
0.188073394495,,,
0.114678899083,,,
0.0917431192661,,,
0.137614678899,,,
0.215596330275,,,
0.165137614679,,,
0.165137614679,,,
0.270642201835,,,
0.490825688073,,,
0.366972477064,,,
0.302752293578,,,
0.266055045872,,,
0.284403669725,,,
0.229357798165,,,
0.174311926606,,,
0.43119266055,,,
0.490825688073,,,
0.582568807339,,,
0.321100917431,,,
0.128440366972,,,
0.100917431193,,,
0.155963302752,,,
0.0642201834862,,,
0.279816513761,,,
0.165137614679,,,
0.123853211009,,,
0.151376146789,,,
0.229357798165,,,
0.302752293578,,,
0.192660550459,,,
0.0688073394495,,,
0.288990825688,,,
0.362385321101,,,
0.261467889908,,,
0.385321100917,,,
0.669724770642,,,
0.761467889908,,,
0.747706422018,,,
0.711009174312,,,
0.440366972477,,,
0.201834862385,,,
0.518348623853,,,
0.536697247706,,,
0.422018348624,,,
0.348623853211,,,
0.325688073394,,,
0.288990825688,,,
0.206422018349,,,
0.0963302752294,,,
0.252293577982,,,
0.243119266055,,,
0.178899082569,,,
0.233944954128,,,
0.220183486239,,,
0.119266055046,,,
0.298165137615,,,
0.348623853211,,,
0.275229357798,,,
0.247706422018,,,
0.339449541284,,,
0.399082568807,,,
0.302752293578,,,
0.252293577982,,,
0.247706422018,,,
0.256880733945,,,
0.490825688073,,,
0.408256880734,,,
0.376146788991,,,
0.252293577982,,,
0.371559633028,,,
0.224770642202,,,
0.119266055046,,,
0.192660550459,,,
0.261467889908,,,
0.311926605505,,,