Datos Originales,Pronostico Sin Reconstruccion,Pronostico Reconstruccion
0.24050633,0.22811459,0.06223296
0.28101266,0.242505,0.10993068
0.27848101,0.28461026,0.1057286
0.44050633,0.30699534,0.09990595
0.55949367,0.43557628,0.1756635
0.34683544,0.54736842,0.19108225
0.23037975,0.28874084,0.2906713
0.26075949,0.21905396,0.31861219
0.17974684,0.27315123,0.15965469
0.18987342,0.18827448,0.33304257
0.19493671,0.21518987,0.51166169
0.22531646,0.21985343,0.50742014
0.06582278,0.24890073,0.52119855
0.08101266,0.12591606,0.3607406
0.07848101,0.11618921,0.13944151
0.07341772,0.1248501,0.17648043
0.09113924,0.1248501,0.14965803
0.08101266,0.10473018,0.12621519
0.03037975,0.11419054,0.09886326
0.04810127,0.09047302,0.107198
0.36962025,0.10393071,0.06144906
0.49873418,0.50752831,0.07563027
0.54177215,0.49620253,0.14105585
0.64050633,0.491006,0.12107557
0.70126582,0.61039307,0.13201282
0.71898734,0.66022652,0.12144943
0.69113924,0.66542305,0.11557252
0.56455696,0.61838774,0.07945882
0.40506329,0.4449034,0.14963924
0.33417722,0.33164557,0.09436219
0.23797468,0.29846769,0.19406552
0.21772152,0.23291139,0.21527245
0.16708861,0.23224517,0.35826383
0.17468354,0.11685543,0.32466418
0.10126582,0.17401732,0.39150521
0.11898734,0.14230513,0.49302103
0.07088608,0.12631579,0.5392337
0.07088608,0.13484344,0.41067086
0.08101266,0.11792139,0.34834693
0.07594937,0.12338441,0.17891898
0.12151899,0.12858095,0.2026137
0.09113924,0.13790806,0.15648526
0.02025316,0.0994004,0.19215808
0.04303797,0.10339773,0.08309179
0.0835443,0.08061292,0.09366303
0.18987342,0.1260493,0.08767705
0.23291139,0.22518321,0.10189894
0.05822785,0.24277149,0.09865527
0.22278481,0.12578281,0.14622326
0.49873418,0.33431046,0.09879724
0.57721519,0.45276482,0.04238279
0.6278481,0.50259827,0.0921988
0.46582278,0.57801466,0.07034608
0.17974684,0.41892072,0.18963341
0.17468354,0.17188541,0.23564459
0.18481013,0.19706862,0.19495021
0.16202532,0.21292472,0.28187173
0.09620253,0.15589607,0.25024361
0.09367089,0.1041972,0.33369527
0.10126582,0.14856762,0.38791624
0.09113924,0.1272485,0.25654025
0.12151899,0.12098601,0.09570769
0.09620253,0.17241839,0.13731156
0.11392405,0.11419054,0.20097863
0.12405063,0.11059294,0.19245832
0.10632911,0.12058628,0.08082631
0.04810127,0.11499001,0.11977933
0.08101266,0.09087275,0.12794288
0.03037975,0.10286476,0.1619998
0.13417722,0.09047302,0.12419985
0.16962025,0.16908728,0.19959508
0.29113924,0.1781479,0.1215889
0.2556962,0.27848101,0.13765169
0.35189873,0.25862758,0.11829128
0.49367089,0.36748834,0.13661029
0.64810127,0.49900067,0.09458791
0.52151899,0.53510993,0.08836993
0.38481013,0.41638907,0.0897024
0.2,0.31459027,0.14445222
0.23544304,0.20866089,0.2213966
0.21265823,0.24543638,0.19103857
0.24556962,0.24077282,0.22659828
0.08860759,0.26395736,0.22713401
0.06075949,0.14163891,0.55159754
0.05822785,0.10153231,0.43333348
0.08860759,0.06955363,0.28881534
0.09367089,0.10113258,0.17483063
0.13417722,0.15496336,0.22314058
0.10379747,0.17375083,0.13585784
0.04303797,0.10846103,0.20512208
0.07341772,0.08740839,0.26039577
0.01772152,0.09726849,0.29068238
0.10126582,0.09060626,0.14928047
0.16455696,0.15469687,0.11111183
0.14177215,0.18934044,0.1517075
0.22025316,0.15682878,0.08302983
0.18227848,0.23171219,0.16756627
0.26329114,0.1781479,0.16069332
0.35443038,0.27848101,0.08311052
0.26329114,0.36548967,0.14330889
0.08607595,0.23517655,0.13672875
0.10886076,0.14417055,0.18841051
0.18481013,0.11192538,0.48555962
0.18227848,0.23984011,0.49810855
0.09367089,0.20666223,0.46322004
0.11898734,0.1479014,0.49183541
0.14683544,0.14097268,0.66060684
0.16962025,0.12951366,0.63897856
0.12405063,0.15363091,0.58771772
0.20253165,0.13351099,0.47693453
0.12911392,0.22678215,0.48487949
0.13670886,0.12205197,0.49488649
0.15189873,0.11365756,0.3407456
0.15189873,0.12498334,0.12249139
0.0835443,0.16295803,0.19794617
0.02025316,0.08767488,0.19389202
0.04303797,0.09287142,0.10741212
0.09113924,0.08061292,0.20210899
0.16202532,0.12071952,0.10710591
0.14683544,0.16935376,0.34459605
0.17974684,0.14377082,0.33047838
0.19746835,0.16429047,0.23426968
0.61518987,0.22171885,0.15541574
0.53164557,0.53764157,0.33162156
0.35443038,0.43544304,0.49793876
0.16962025,0.28074617,0.69071061
0.21772152,0.18134577,0.76540385
0.15696203,0.22504997,0.67814123
0.21518987,0.12045303,0.75465037
0.27088608,0.2242505,0.72692912
0.29620253,0.28314457,0.74989238
0.16202532,0.31472352,0.72815366
0.11139241,0.13257828,0.74593406
0.17468354,0.1164557,0.51771268
0.0556962,0.23064624,0.66685717
0.10126582,0.11085943,0.66214136
0.13924051,0.14830113,0.53648236
0.10126582,0.16988674,0.47926995
0.10632911,0.10073284,0.24311292
0.08860759,0.11592272,0.2023596
0.15949367,0.10233178,0.23396504
0.48607595,0.1661559,0.11728526
0.55696203,0.46808794,0.18130725
0.46329114,0.49993338,0.1003286
0.4556962,0.4083944,0.09816957
0.68101266,0.49047302,0.04922682
0.72911392,0.55842771,0.09944023
0.72151899,0.67115256,0.0982865
0.58227848,0.63864091,0.16103417
0.55443038,0.50139907,0.18293879
0.55443038,0.45502998,0.13591004
0.42025316,0.48607595,0.33224777
0.17721519,0.33510993,0.55697801
0.16455696,0.19546969,0.62158102
0.16708861,0.1769487,0.58058047
0.10379747,0.18187875,0.42162995
0.20506329,0.12658228,0.34933219
0.14683544,0.25369753,0.44118211
0.34177215,0.1260493,0.2659342
0.38481013,0.39746835,0.23989255
0.30632911,0.3443038,0.2076235
0.16455696,0.26888741,0.06919416
0.27341772,0.1538974,0.040525
0.38987342,0.26942039,0.07186403
0.60506329,0.40652898,0.12494853
0.75189873,0.59173884,0.12547793
0.70126582,0.68421053,0.14163693
0.73670886,0.62385077,0.07596595
0.74177215,0.66715523,0.09791556
0.78227848,0.65849434,0.08785946
0.8,0.73670886,0.09192388
0.7721519,0.73790806,0.0293695
0.54177215,0.71632245,0.06262918
0.79240506,0.44450366,0.21940294
0.87594937,0.70353098,0.29572625
0.73417722,0.76842105,0.28666799
0.60506329,0.65582945,0.29176508
0.27848101,0.5164557,0.39184314
0.18481013,0.25276482,0.32931326
0.23797468,0.17948035,0.29161385
0.09367089,0.27475017,0.18825441
0.12911392,0.13191206,0.16491646
0.07594937,0.18267821,0.07235737
0.11139241,0.12578281,0.12548412
0.07848101,0.12378414,0.06671707
0.09367089,0.14643571,0.11898284
0.03291139,0.12258494,0.12509361
0.03544304,0.08834111,0.12651901
0.07088608,0.08700866,0.08293905
0.0556962,0.11672219,0.14112465
0.24303797,0.08794137,0.11706067
0.51898734,0.34736842,0.12967577
0.6,0.49953364,0.1414102
0.63544304,0.5709527,0.15761266
0.44050633,0.61292472,0.14637563
0.36202532,0.41012658,0.17764377
0.37721519,0.30939374,0.131142
0.22278481,0.3610926,0.11164405
0.23797468,0.18627582,0.08685726
0.23797468,0.23557628,0.29098442
0.08860759,0.25902732,0.3002516
0.05063291,0.13804131,0.33752235
0.07341772,0.10073284,0.36769653
0.0556962,0.10606262,0.31436965
0.04556962,0.09193871,0.49897588
0.08607595,0.07701532,0.31170282
0.04303797,0.11379081,0.29239836
0.07848101,0.09646902,0.14290461
0.08101266,0.12085276,0.18747324
0.11898734,0.12978015,0.11083852
0.0556962,0.16442372,0.23003713
0.0278481,0.09047302,0.09185536
0.17974684,0.0922052,0.13118658
0.24556962,0.21172552,0.06361753
0.21265823,0.26422385,0.10969973
0.16962025,0.25649567,0.1188059
0.32658228,0.11658894,0.12273261
0.30632911,0.33124584,0.11066848
0.29113924,0.33897402,0.14010473
0.18987342,0.34990007,0.07513858
0.15949367,0.17588274,0.25588141
0.06835443,0.15669554,0.46622669
0.12658228,0.08634244,0.52133086
0.10126582,0.16389074,0.50732765
0.10886076,0.11552298,0.46718271
0.10632911,0.11472352,0.52471908
0.12658228,0.11445703,0.60534118
0.08860759,0.12551632,0.64337678
0.14177215,0.10686209,0.59504717
0.12405063,0.1988008,0.47335762
0.13924051,0.12098601,0.49966119
0.15189873,0.11658894,0.41381653
0.14936709,0.13257828,0.45109848
0.13670886,0.14563624,0.3346007
0.14177215,0.14123917,0.17096428
0.08607595,0.12138574,0.10316585
0.05822785,0.10446369,0.12114748
0.01265823,0.0946036,0.13701426
0.22278481,0.09393738,0.19101442
0.27594937,0.31112592,0.10782454
0.33417722,0.26475683,0.1610548
0.3721519,0.33417722,0.03893986
0.35696203,0.35336442,0.15148211
0.57974684,0.37268488,0.12786633
0.41518987,0.54403731,0.16436728
0.35189873,0.3224517,0.16966429
0.15949367,0.2982012,0.16090481
0.18481013,0.1952032,0.16781703
0.11392405,0.1781479,0.23513581
0.2278481,0.14057295,0.25897621
0.09873418,0.26768821,0.39203076
0.10886076,0.11725516,0.58863411
0.04556962,0.108994,0.56620999
0.08860759,0.09233844,0.42909683
0.09620253,0.11152565,0.3572126
0.08101266,0.14630247,0.22437727
0.06582278,0.09393738,0.18009545
0.09873418,0.08221186,0.09219778
0.05316456,0.11432378,0.07135882
0.20253165,0.08954031,0.04866178
0.45822785,0.27834777,0.10569162
0.5443038,0.45662891,0.08218748
0.53417722,0.51165889,0.09748163
0.49113924,0.49766822,0.13539532
0.56202532,0.4775483,0.0979848
0.64810127,0.50526316,0.0835943
0.71898734,0.61319121,0.09543181
0.72405063,0.68540973,0.01697687
0.57974684,0.64330446,0.05358969
0.60253165,0.49780147,0.1385075
0.50886076,0.53311126,0.21746475
0.56455696,0.46009327,0.32304166
0.4278481,0.49526982,0.42903638
0.23544304,0.33830779,0.43397102
0.0835443,0.21212525,0.46409854
0.12405063,0.13777482,0.32980492
0.15696203,0.18654231,0.34181624
0.18734177,0.11805463,0.34618933
0.13164557,0.17135243,0.16867921
0.16455696,0.13244504,0.208302
0.0556962,0.15336442,0.18301096
0.10632911,0.08647568,0.10177357
0.0556962,0.1407062,0.10944087
0.03544304,0.09273817,0.12198109
0.03037975,0.07888075,0.16899186
0.03291139,0.08141239,0.15568498
0.07088608,0.08687542,0.13682395
0.12658228,0.11698867,0.12966979
0.15696203,0.15349767,0.09110171
0.30886076,0.12058628,0.14859215
0.6,0.33311126,0.11573202
0.65822785,0.53644237,0.08414509
0.47848101,0.64503664,0.09310803
0.39746835,0.3952032,0.13243945
0.21772152,0.34803464,0.28732067
0.19240506,0.20652898,0.24593839
0.1164557,0.19933378,0.16292537
0.08101266,0.12804797,0.27314507
0.03544304,0.1284477,0.432839
0.10126582,0.09913391,0.57964982
0.08101266,0.17761492,0.50082658
0.04810127,0.10926049,0.38002911
0.12151899,0.09766822,0.32348624
0.04303797,0.17748168,0.21802525
0.07594937,0.08740839,0.20223001
0.09113924,0.12085276,0.18318435
0.03291139,0.10766156,0.2343874
0.04303797,0.08767488,0.22969605
0.11392405,0.09646902,0.08524847
0.2,0.17161892,0.05616482
0.30886076,0.25436376,0.09223107
0.39493671,0.30886076,0.07967174
0.3721519,0.39360426,0.10873673
0.37721519,0.37121919,0.07630671
0.32405063,0.37188541,0.09650032
0.34936709,0.31139241,0.07550282
0.37468354,0.34976682,0.08150991
0.18987342,0.34283811,0.09357636
0.12911392,0.20079947,0.1146001
0.1443038,0.13484344,0.41164155
0.12911392,0.12018654,0.39845765
0.13164557,0.1176549,0.48804767
0.12658228,0.1200533,0.50659493
0.15443038,0.11752165,0.48574442
0.14177215,0.12298468,0.49430928
0.13417722,0.14736842,0.40435237
0.15443038,0.11285809,0.27162898
0.10379747,0.12458361,0.28922877
0.14683544,0.1077948,0.22463246
0.1164557,0.15602931,0.16227041
0.07594937,0.12578281,0.15978042
0.01518987,0.1344437,0.0732214
0.02025316,0.09060626,0.11878225
0.19746835,0.06968688,0.054716
0.18227848,0.22718188,0.0631528
0.08860759,0.19027315,0.06877868
0.19493671,0.14563624,0.06990203
0.4278481,0.23237841,0.08167363
0.68607595,0.45116589,0.09512224
0.61265823,0.55762825,0.06213705
0.48607595,0.52898068,0.09674862
0.37974684,0.45716189,0.17064316
0.2556962,0.35136576,0.2196612
0.24303797,0.25969354,0.2030394
0.22278481,0.27701532,0.18324559
0.25822785,0.24636909,0.32426556
0.24303797,0.24770153,0.64614223
0.11392405,0.27594937,0.5946189
0.06075949,0.1356429,0.51440966
0.06835443,0.09633578,0.30728503
0.04303797,0.08341106,0.21418432
0.07848101,0.10699534,0.20409367
0.05316456,0.12085276,0.14212595
0.05822785,0.09513658,0.04518734
0.04303797,0.08647568,0.07292702
0.04303797,0.08687542,0.07643871
0.03291139,0.09420386,0.03099506
0.04810127,0.09007328,0.08697948
0.34683544,0.10046636,0.09732006
0.3721519,0.45662891,0.12719894
0.43797468,0.34990007,0.08496963
0.47341772,0.41505663,0.09083243
0.51139241,0.46995336,0.10883933
0.54936709,0.46075949,0.08242482
0.47848101,0.48514324,0.10598528
0.3164557,0.46089274,0.11953826
0.27594937,0.26369087,0.2917264
0.25063291,0.2775483,0.26897182
0.22278481,0.27381746,0.38845969
0.21772152,0.25862758,0.34442064
0.08860759,0.21545636,0.38072863
0.09873418,0.11832112,0.41456043
0.05316456,0.14803464,0.32539547
0.05063291,0.08954031,0.45071976
0.04556962,0.09207195,0.19303275
0.07341772,0.09860093,0.18724566
0.09873418,0.10446369,0.11906151
0.11139241,0.10273151,0.0774336
0.05316456,0.11325783,0.16676729
0.03544304,0.08421053,0.14792072
0.08860759,0.07888075,0.11499448
0.12405063,0.1308461,0.0871714
0.1164557,0.1817455,0.1027446
0.07594937,0.11072618,0.08766903
0.23037975,0.1344437,0.06235102
0.70126582,0.33644237,0.12000156
0.67594937,0.59920053,0.13425391
0.57974684,0.60399734,0.07663605
0.35949367,0.50086609,0.10106975
0.22531646,0.302998,0.14369918
0.21772152,0.22358428,0.13693842
0.17974684,0.22171885,0.27003909
0.04303797,0.16295803,0.21535389
0.04556962,0.10752831,0.25400798
0.06835443,0.09273817,0.33861172
0.05316456,0.10433045,0.3236269
0.08860759,0.09833444,0.23162977
0.05822785,0.1041972,0.39012687
0.09620253,0.1017988,0.16523593
0.07088608,0.13590939,0.26980296
0.09873418,0.10619587,0.16285966
0.09367089,0.09593604,0.0939953
0.05822785,0.12898068,0.13694117
0.0556962,0.09273817,0.10489215
0.07341772,0.07461692,0.12191091
0.25316456,0.09127249,0.07176679
0.22531646,0.36455696,0.09209286
0.32151899,0.25862758,0.09906025
0.27848101,0.33417722,0.09910659
0.36202532,0.25676216,0.12189351
0.40759494,0.37108594,0.12585334
0.36708861,0.34390406,0.05823386
0.49620253,0.33004664,0.07326399
0.21265823,0.49886742,0.23301802
0.16202532,0.17974684,0.22646061
0.15696203,0.12618254,0.25088805
0.12658228,0.1661559,0.24688665
0.17974684,0.13777482,0.32035972
0.14177215,0.21532312,0.21909103
0.1164557,0.14283811,0.24043832
0.07088608,0.11512325,0.28221725
0.09367089,0.13244504,0.2163024
0.09873418,0.09780147,0.25222178
0.06582278,0.13244504,0.33977888
0.11392405,0.10979347,0.4932782
0.11898734,0.13191206,0.21456045
0.05063291,0.1212525,0.43872318
0.01518987,0.097002,0.36585371
0.04556962,0.09020653,0.06814036
0.0556962,0.08554297,0.18608129
0.17974684,0.08807462,0.16186725
0.16455696,0.19680213,0.17077174
0.18987342,0.17841439,0.18893623
0.29113924,0.19027315,0.12655943
0.3164557,0.26968688,0.0704491
0.23797468,0.30139907,0.10520816
0.4278481,0.23984011,0.0930286
0.22025316,0.42571619,0.16762417
0.27594937,0.20639574,0.3954458
0.2,0.26782145,0.47126955
0.11392405,0.2023984,0.38705054
0.13670886,0.11685543,0.28923649
0.09873418,0.12045303,0.45072285
0.12658228,0.10606262,0.49318601
0.07341772,0.19933378,0.51036847
0.07088608,0.1164557,0.46915762
0.07848101,0.11658894,0.49811033
0.10379747,0.1200533,0.42228173
0.11139241,0.11538974,0.23226914
0.10126582,0.12445037,0.23451339
0.04303797,0.10433045,0.26906286
0.02278481,0.09553631,0.1601255
0.18734177,0.0775483,0.22744547
0.19493671,0.22291805,0.34889304
0.21265823,0.23157895,0.10368253
0.21265823,0.23197868,0.13912986
0.29367089,0.21132578,0.14113378
0.20506329,0.30699534,0.11945468
0.20253165,0.20799467,0.10729714
0.25822785,0.23291139,0.15718098
0.23544304,0.27128581,0.34074094
0.25316456,0.27301799,0.59309254
0.33670886,0.25916056,0.57798376
0.59493671,0.36202532,0.52090201
0.30886076,0.54536975,0.48073514
0.49113924,0.25356429,0.52017753
0.4556962,0.46728847,0.59776515
0.12658228,0.46982012,0.60436707
0.16202532,0.17428381,0.53628718
0.16202532,0.14350433,0.37381123
0.18227848,0.1526982,0.38372301
0.18481013,0.18907395,0.29034751
0.13670886,0.20133245,0.10018265
0.07341772,0.1284477,0.2296317
0.07341772,0.09447035,0.25292075
0.03037975,0.1200533,0.15505611
0.10886076,0.09140573,0.0770717
0.34683544,0.16522318,0.10541527
0.46329114,0.4362425,0.07047114
0.37974684,0.45716189,0.05598811
0.30126582,0.33777482,0.04369369
0.4278481,0.26995336,0.04079284
0.52405063,0.40879414,0.16384716
0.5443038,0.53057961,0.10519206
0.48860759,0.48647568,0.14915492
0.52405063,0.47235177,0.17054543
0.40506329,0.45183211,0.27382426
0.23544304,0.34323784,0.24668908
0.22278481,0.2290473,0.19689974
0.27341772,0.23677548,0.27264453
0.18481013,0.2592938,0.28753631
0.21265823,0.17774817,0.30134752
0.40506329,0.22891406,0.18705639
0.15189873,0.40453031,0.2351868
0.10632911,0.17774817,0.24613523
0.11898734,0.10672885,0.17962152
0.12658228,0.11805463,0.18221235
0.09620253,0.12205197,0.10648091
0.1164557,0.11259161,0.11777282
0.31139241,0.15376416,0.14718192
0.58734177,0.37295137,0.12832504
0.64303797,0.52684877,0.10419484
0.55949367,0.61892072,0.18609069
0.52911392,0.41638907,0.18651144
0.47848101,0.48314457,0.11008771
0.53924051,0.47315123,0.12899652
0.57974684,0.47848101,0.13751931
0.5443038,0.51512325,0.09693925
0.39746835,0.45489674,0.06249285
0.42278481,0.33897402,0.10631693
0.35189873,0.41065956,0.54355296
0.14177215,0.28247835,0.52305774
0.21265823,0.17401732,0.44050341
0.26582278,0.20186542,0.3707693
0.17721519,0.28101266,0.3438031
0.06075949,0.17788141,0.34740649
0.09620253,0.11379081,0.39211438
0.0556962,0.12818121,0.38996788
0.05822785,0.08807462,0.19303171
0.04810127,0.0727515,0.18493703
0.0278481,0.07781479,0.18031926
0.11898734,0.08047968,0.22215612
0.0278481,0.15176549,0.16433104
0.04810127,0.07981346,0.22533543
0.07848101,0.10393071,0.09925454
0.19493671,0.09993338,0.05630364
0.18481013,0.22025316,0.10059625
0.15696203,0.20346436,0.11092303
0.21012658,0.15709527,0.10608555
0.24050633,0.2242505,0.0687663
0.30126582,0.24903398,0.12796806
0.20506329,0.29207195,0.05464537
0.24303797,0.22824783,0.16461546
0.26075949,0.26835443,0.19222642
0.21265823,0.25742838,0.24564881
0.21772152,0.24903398,0.5351466
0.12151899,0.2146569,0.5324171
0.12151899,0.12871419,0.53958352
0.16962025,0.11152565,0.56488853
0.17721519,0.18241173,0.56193371
0.13670886,0.18067955,0.59831013
0.18734177,0.13684211,0.44284148
0.18987342,0.15096602,0.2943577
0.12405063,0.22251832,0.2934483
0.14936709,0.1248501,0.20048696
0.13670886,0.12564957,0.15543405
0.0556962,0.14123917,0.14745457
0.01012658,0.09447035,0.10072718
0.05063291,0.09167222,0.09972934
0.56708861,0.09047302,0.09162538
0.57974684,0.5224517,0.09622766
0.46582278,0.49433711,0.15723039
0.39240506,0.40759494,0.09570957
0.35949367,0.35682878,0.10397561
0.36202532,0.35536309,0.08459559
0.41772152,0.38987342,0.10177127
0.44303797,0.36908728,0.1057274
0.2,0.43464357,
0.14936709,0.20746169,
0.18481013,0.14177215,
0.27088608,0.16322452,
0.16962025,0.28021319,
0.18734177,0.18014657,
0.10126582,0.194004,
0.03544304,0.15016656,
0.06075949,0.09033977,
0.07341772,0.10926049,
0.07848101,0.09247169,
0.03797468,0.12498334,
0.10379747,0.11045969,
0.02278481,0.16882079,
0.06329114,0.08794137,
0.06835443,0.11139241,
0.16708861,0.07714857,
0.51139241,0.16722185,
0.57721519,0.50353098,
0.58481013,0.51112592,
0.58481013,0.49447035,
0.63037975,0.46955363,
0.70632911,0.61225849,
0.59746835,0.66022652,
0.39240506,0.52178548,
0.31392405,0.33964024,
0.23291139,0.31219187,
0.20506329,0.24583611,
0.19493671,0.21545636,
0.1443038,0.23570953,
0.10632911,0.14390406,
0.11898734,0.10433045,
0.10379747,0.11805463,
0.12658228,0.11978681,
0.07594937,0.14603598,
0.07594937,0.1332445,
0.07594937,0.11898734,
0.07341772,0.11898734,
0.03544304,0.11938708,
0.29873418,0.09873418,