ccopy_reg
_reconstructor
p0
(cneurolab.core
Net
p1
c__builtin__
object
p2
Ntp3
Rp4
(dp5
S'layers'
p6
(lp7
g0
(cneurolab.layer
Perceptron
p8
g2
Ntp9
Rp10
(dp11
S'initf'
p12
cneurolab.init
initnw
p13
sS'ci'
p14
I5
sS'co'
p15
I2
sS'cn'
p16
I2
sS'inp_minmax'
p17
cnumpy.core.multiarray
_reconstruct
p18
(cnumpy
ndarray
p19
(I0
tp20
S'b'
p21
tp22
Rp23
(I1
(I5
I2
tp24
cnumpy
dtype
p25
(S'f8'
p26
I0
I1
tp27
Rp28
(I3
S'<'
p29
NNNI-1
I-1
I0
tp30
bI00
S'\x00\x00\x00\x00\x00\x00\x00\x00\x00\x00\x00\x00\x00\x00\xf0?\x00\x00\x00\x00\x00\x00\x00\x00\x00\x00\x00\x00\x00\x00\xf0?\x00\x00\x00\x00\x00\x00\x00\x00\x00\x00\x00\x00\x00\x00\xf0?\x00\x00\x00\x00\x00\x00\x00\x00\x00\x00\x00\x00\x00\x00\xf0?\x00\x00\x00\x00\x00\x00\x00\x00\x00\x00\x00\x00\x00\x00\xf0?'
p31
tp32
bsS'inp'
p33
g18
(g19
(I0
tp34
g21
tp35
Rp36
(I1
(I5
tp37
g28
I00
S'\t6c\x90\xbd\xea\xb7?j\x88\xa6\xc4\xe2\x00\xbf?\xf3M\xa8\x02]\xb7\xc1?\xeet\xfc\x83\x0b\x93\xaa?U\xa0\xeb6\x82\xcd\xa8?'
p38
tp39
bsS's'
p40
g18
(g19
(I0
tp41
g21
tp42
Rp43
(I1
(I2
tp44
g28
I00
S'\x8e\xef\xd8/^\xf1\xef\xbf\xe2\xc3b\xb7\x92\x0c\x00@'
p45
tp46
bsS'np'
p47
(dp48
g21
g18
(g19
(I0
tp49
g21
tp50
Rp51
(I1
(I2
tp52
g28
I00
S'\xd9\xda\xef\x08\x89\xe8\xeb\xbf\xc8\x0e\x1a\xb2f\xd0\x00@'
p53
tp54
bsS'w'
p55
g18
(g19
(I0
tp56
g21
tp57
Rp58
(I1
(I2
I5
tp59
g28
I00
S'+\xd3\xd2\xea\xf2\x1d\xcf?\n\xad.4\xb0\xd4\xdf\xbf\xf9\xb2\xc1\x11\xe3g\xce?\x94\x94{\x81$\xa3\xc5\xbf\xf5Ir\xe8\xec\x9a\x02\xc0\xbf\xe82L:\x99\xda?\x18\xd0\xf2Z#B\xd9?w\xa4\x05`\xf4\xfd\xe3\xbf%\x9b\x10\x90r\xd9\xd1?i\x99".\xed4\x02\xc0'
p60
tp61
bssS'transf'
p62
(ineurolab.trans
TanSig
p63
(dp64
bsS'out_minmax'
p65
g18
(g19
(I0
tp66
g21
tp67
Rp68
(I1
(I2
I2
tp69
g28
I00
S'\x00\x00\x00\x00\x00\x00\xf0\xbf\x00\x00\x00\x00\x00\x00\xf0?\x00\x00\x00\x00\x00\x00\xf0\xbf\x00\x00\x00\x00\x00\x00\xf0?'
p70
tp71
bsS'out'
p72
g18
(g19
(I0
tp73
g21
tp74
Rp75
(I1
(I2
tp76
g28
I00
S'NB\xb6k\xd3X\xe8\xbf\x10\x99\xd7\x9f\xd8\xdc\xee?'
p77
tp78
bsbag0
(g8
g2
Ntp79
Rp80
(dp81
g12
g13
sg14
I2
sg15
I1
sg16
I1
sg17
g18
(g19
(I0
tp82
g21
tp83
Rp84
(I1
(I2
I2
tp85
g28
I00
S'\x00\x00\x00\x00\x00\x00\xf0\xbf\x00\x00\x00\x00\x00\x00\xf0?\x00\x00\x00\x00\x00\x00\xf0\xbf\x00\x00\x00\x00\x00\x00\xf0?'
p86
tp87
bsg33
g75
sg40
g18
(g19
(I0
tp88
g21
tp89
Rp90
(I1
(I1
tp91
g28
I00
S'\xb0\xf0\xb3\xa4\x14\xc3\xb7?'
p92
tp93
bsg47
(dp94
g21
g18
(g19
(I0
tp95
g21
tp96
Rp97
(I1
(I1
tp98
g28
I00
S'\x18\x87l\xb1\xda>\xd5?'
p99
tp100
bsg55
g18
(g19
(I0
tp101
g21
tp102
Rp103
(I1
(I1
I2
tp104
g28
I00
S'\x8d\xc6\x12\xa9k\x86\xec\xbf\x90(\xc6X\xf9o\xee\xbf'
p105
tp106
bssg62
g63
sg65
g18
(g19
(I0
tp107
g21
tp108
Rp109
(I1
(I1
I2
tp110
g28
I00
S'\x00\x00\x00\x00\x00\x00\xf0\xbf\x00\x00\x00\x00\x00\x00\xf0?'
p111
tp112
bsg72
g18
(g19
(I0
tp113
g21
tp114
Rp115
(I1
(I1
tp116
g28
I00
S'\xbe\xd7g\xb7\xab\xb1\xb7?'
p117
tp118
bsbasg14
I5
sg15
I1
sg17
g18
(g19
(I0
tp119
g21
tp120
Rp121
(I1
(I5
I2
tp122
g28
I00
S'\x00\x00\x00\x00\x00\x00\x00\x00\x00\x00\x00\x00\x00\x00\xf0?\x00\x00\x00\x00\x00\x00\x00\x00\x00\x00\x00\x00\x00\x00\xf0?\x00\x00\x00\x00\x00\x00\x00\x00\x00\x00\x00\x00\x00\x00\xf0?\x00\x00\x00\x00\x00\x00\x00\x00\x00\x00\x00\x00\x00\x00\xf0?\x00\x00\x00\x00\x00\x00\x00\x00\x00\x00\x00\x00\x00\x00\xf0?'
p123
tp124
bsg33
g36
sS'trainf'
p125
g0
(cneurolab.core
Trainer
p126
g2
Ntp127
Rp128
(dp129
S'_train_class'
p130
cneurolab.train.gd
TrainRprop
p131
sS'__module__'
p132
S'neurolab.train.gd'
p133
sS'params'
p134
(dp135
S'epochs'
p136
I150
sS'train'
p137
(dp138
S'rate_min'
p139
F1e-09
sS'lr'
p140
F0.07
sS'adapt'
p141
I00
sS'rate_inc'
p142
F1.2
sS'rate_max'
p143
I50
sS'rate_dec'
p144
F0.5
ssS'goal'
p145
F2e-05
sS'show'
p146
I0
ssS'defaults'
p147
(dp148
g136
I500
sg137
(dp149
g139
F1e-09
sg140
F0.07
sg141
I00
sg142
F1.2
sg143
I50
sg144
F0.5
ssg145
F0.01
sg146
I100
ssS'error'
p150
(lp151
cnumpy.core.multiarray
scalar
p152
(g28
S'\xac\x95\xcey\xd0\xc27@'
p153
tp154
Rp155
ag152
(g28
S'\x1eU\x951%@|@'
p156
tp157
Rp158
ag152
(g28
S'\xbcp0\xd2\xf5\x1e^@'
p159
tp160
Rp161
ag152
(g28
S'\xe7\xc8\xf7\xf2@\x08F@'
p162
tp163
Rp164
ag152
(g28
S']\xd5\x92\xdb\xbc\xd0/@'
p165
tp166
Rp167
ag152
(g28
S'\x14\xdd\n\xb0\xd4\x170@'
p168
tp169
Rp170
ag152
(g28
S'\x82\xbe`\xc9H\xda&@'
p171
tp172
Rp173
ag152
(g28
S't7~\xb3\x00c0@'
p174
tp175
Rp176
ag152
(g28
S'D\x94\xc0\x9c\x0b0(@'
p177
tp178
Rp179
ag152
(g28
S'TM\xcd\xfb\x9fR&@'
p180
tp181
Rp182
ag152
(g28
S't\x9e\x9f\x9d\xab\x19&@'
p183
tp184
Rp185
ag152
(g28
S'\r\xac\x95\xde\xa4\xe6%@'
p186
tp187
Rp188
ag152
(g28
S'\xc12\x8b\xe1[\xdd%@'
p189
tp190
Rp191
ag152
(g28
S'\xd2\xa8x\x05\xf2\xd7%@'
p192
tp193
Rp194
ag152
(g28
S'H:w\xef\x17\xd1%@'
p195
tp196
Rp197
ag152
(g28
S'W\xe0WQ6\xc9%@'
p198
tp199
Rp200
ag152
(g28
S'=\x91\xaa\xc6\x9a\xc0%@'
p201
tp202
Rp203
ag152
(g28
S'\xdfcN\x0e\xc7\xb5%@'
p204
tp205
Rp206
ag152
(g28
S'\x9a\xf2J\xd9\xd3\xa8%@'
p207
tp208
Rp209
ag152
(g28
S'\xba\x87\xab,]\x99%@'
p210
tp211
Rp212
ag152
(g28
S'\xca\xd5B\xf1\xf4\x86%@'
p213
tp214
Rp215
ag152
(g28
S'h\xe5\x9b*0q%@'
p216
tp217
Rp218
ag152
(g28
S'g\x88\x9a\xad\xb4W%@'
p219
tp220
Rp221
ag152
(g28
S'\xe2yE\xee_:%@'
p222
tp223
Rp224
ag152
(g28
S'\xef\xa9}C\xf1\x19%@'
p225
tp226
Rp227
ag152
(g28
S'\xc0\xd4\xee\x8c\xb1\xf7$@'
p228
tp229
Rp230
ag152
(g28
S'\xaco\xe2\xaeZ?%@'
p231
tp232
Rp233
ag152
(g28
S'\xd89l\x8f*\xd6$@'
p234
tp235
Rp236
ag152
(g28
S't|sD\xbb\x94$@'
p237
tp238
Rp239
ag152
(g28
S"|{\x95N'_$@"
p240
tp241
Rp242
ag152
(g28
S'>\x00\xc4$\x95!$@'
p243
tp244
Rp245
ag152
(g28
S'J\xc9D\xa2b\xee#@'
p246
tp247
Rp248
ag152
(g28
S'\xc2\x19#\xb4\x0e\xad#@'
p249
tp250
Rp251
ag152
(g28
S'\x04\xdc\xda\xe45q#@'
p252
tp253
Rp254
ag152
(g28
S'\xf2@\xfa\xa0\xff"#@'
p255
tp256
Rp257
ag152
(g28
S'x\xb72\x92\xbf\xbe"@'
p258
tp259
Rp260
ag152
(g28
S'\xd2h\xe984N"@'
p261
tp262
Rp263
ag152
(g28
S'\xd0\xadG\xcc\x8b\xd6!@'
p264
tp265
Rp266
ag152
(g28
S'\xf6\x0f\xe5\x99jy!@'
p267
tp268
Rp269
ag152
(g28
S'~\xb8E\xa4\xcff!@'
p270
tp271
Rp272
ag152
(g28
S'\xe6\xd3\xee ] !@'
p273
tp274
Rp275
ag152
(g28
S'\xd4\xe3exb\xf5 @'
p276
tp277
Rp278
ag152
(g28
S'\xd9\x88\x1b\x04\xe6\xcd @'
p279
tp280
Rp281
ag152
(g28
S'\xb4\xbc(\x1a\xc3\xad @'
p282
tp283
Rp284
ag152
(g28
S'I\x8a2L\xa5\x83 @'
p285
tp286
Rp287
ag152
(g28
S'}\xf5\xf97+X @'
p288
tp289
Rp290
ag152
(g28
S"\x8e\x9ej\xc5\x03' @"
p291
tp292
Rp293
ag152
(g28
S'\xe1\xb6\xe0\xeeb\xf1\x1f@'
p294
tp295
Rp296
ag152
(g28
S'\x00X\xc1\x1a\xa1\x8a\x1f@'
p297
tp298
Rp299
ag152
(g28
S'* \xa8D\xff\x1b\x1f@'
p300
tp301
Rp302
ag152
(g28
S'\x98\x13\xd9o)\xaa\x1e@'
p303
tp304
Rp305
ag152
(g28
S'dn\x93\xe1\xe0H\x1e@'
p306
tp307
Rp308
ag152
(g28
S'\xa0\x9fk\xf1,\x16\x1e@'
p309
tp310
Rp311
ag152
(g28
S'\xafE\x1c\x9a6X\x1e@'
p312
tp313
Rp314
ag152
(g28
S'>\x1c|~t\x14\x1e@'
p315
tp316
Rp317
ag152
(g28
S'\xee0?<\xac\x11\x1e@'
p318
tp319
Rp320
ag152
(g28
S'$\x88\x8b\x13\xec\x04\x1e@'
p321
tp322
Rp323
ag152
(g28
S'\xe9\xf9\xd8i\xd6\t\x1e@'
p324
tp325
Rp326
ag152
(g28
S'\xab\xfbd\xbdW\x02\x1e@'
p327
tp328
Rp329
ag152
(g28
S'\xdd\xdd\xa7V\x17\x03\x1e@'
p330
tp331
Rp332
ag152
(g28
S'\x92V\x80\x01K\x01\x1e@'
p333
tp334
Rp335
ag152
(g28
S'\xfcY\x15mA\x01\x1e@'
p336
tp337
Rp338
ag152
(g28
S'R\xb1\xfb\xc3\xb3\x00\x1e@'
p339
tp340
Rp341
ag152
(g28
S'\xe62\x16\xf1y\x00\x1e@'
p342
tp343
Rp344
ag152
(g28
S'z<\xa8\x88d\x00\x1e@'
p345
tp346
Rp347
ag152
(g28
S'm\xeb\xb3\xe5.\x00\x1e@'
p348
tp349
Rp350
ag152
(g28
S'P\xd9(\x8b\x07\x00\x1e@'
p351
tp352
Rp353
ag152
(g28
S'\x8e\x17\xfcC\xd0\xff\x1d@'
p354
tp355
Rp356
ag152
(g28
S'8?\x96\xfc\xb5\xff\x1d@'
p357
tp358
Rp359
ag152
(g28
S'\xc9E\x0b\x13\xa2\xff\x1d@'
p360
tp361
Rp362
ag152
(g28
S'\xbc\xb6\xe12\x8c\xff\x1d@'
p363
tp364
Rp365
ag152
(g28
S'\xac\r}\xcfr\xff\x1d@'
p366
tp367
Rp368
ag152
(g28
S'\xaaPm\xb8T\xff\x1d@'
p369
tp370
Rp371
ag152
(g28
S'\x9aH\x82\xa01\xff\x1d@'
p372
tp373
Rp374
ag152
(g28
S'\x824\xbd\xf8\x08\xff\x1d@'
p375
tp376
Rp377
ag152
(g28
S'\xcd.\xbb\xcb\xd9\xfe\x1d@'
p378
tp379
Rp380
ag152
(g28
S'\x92J\r\xc5\xa3\xfe\x1d@'
p381
tp382
Rp383
ag152
(g28
S'\x0c\xda5\x90g\xfe\x1d@'
p384
tp385
Rp386
ag152
(g28
S'd\xb7BS$\xfe\x1d@'
p387
tp388
Rp389
ag152
(g28
S'<\xaf\xe5\xb8\x01\xfe\x1d@'
p390
tp391
Rp392
ag152
(g28
S'j,*\xe2\xe4\xfd\x1d@'
p393
tp394
Rp395
ag152
(g28
S'\x9f\xea\xe5a\xc3\xfd\x1d@'
p396
tp397
Rp398
ag152
(g28
S'\xd6\x8cv\x14\xa0\xfd\x1d@'
p399
tp400
Rp401
ag152
(g28
S'f\xff~\xc6x\xfd\x1d@'
p402
tp403
Rp404
ag152
(g28
S'\x10uN:K\xfd\x1d@'
p405
tp406
Rp407
ag152
(g28
S'\xff\xf1\x03\xb7\x16\xfd\x1d@'
p408
tp409
Rp410
ag152
(g28
S'\xe3\x8f\x99\x8c\xda\xfc\x1d@'
p411
tp412
Rp413
ag152
(g28
S'\xc8\\\xbe\x84\x96\xfc\x1d@'
p414
tp415
Rp416
ag152
(g28
S'\xa1\xdbe\\x\xfc\x1d@'
p417
tp418
Rp419
ag152
(g28
S'\xf5\xef6U[\xfc\x1d@'
p420
tp421
Rp422
ag152
(g28
S'v\x01\x86s8\xfc\x1d@'
p423
tp424
Rp425
ag152
(g28
S'(\xa7)\xed\x12\xfc\x1d@'
p426
tp427
Rp428
ag152
(g28
S'\xb5\x88\x9f\xd2\xe6\xfb\x1d@'
p429
tp430
Rp431
ag152
(g28
S'\xdf\x86\xd3\x01\xc1\xfb\x1d@'
p432
tp433
Rp434
ag152
(g28
S'\x10;8\xac\x8e\xfb\x1d@'
p435
tp436
Rp437
ag152
(g28
S'\xcd\xdd\x0f{V\xfb\x1d@'
p438
tp439
Rp440
ag152
(g28
S'\xceX.\xf0\x17\xfb\x1d@'
p441
tp442
Rp443
ag152
(g28
S'(\xa9>\x83\xd1\xfa\x1d@'
p444
tp445
Rp446
ag152
(g28
S':\xcdG\xaf\xb2\xfa\x1d@'
p447
tp448
Rp449
ag152
(g28
S'H\xd1\x0b\x8d\x92\xfa\x1d@'
p450
tp451
Rp452
ag152
(g28
S'\xf6\x08+tf\xfa\x1d@'
p453
tp454
Rp455
ag152
(g28
S'8g\xebl<\xfa\x1d@'
p456
tp457
Rp458
ag152
(g28
S'l+z\xc9\x0b\xfa\x1d@'
p459
tp460
Rp461
ag152
(g28
S'\xc7d\n\xc1\xe2\xf9\x1d@'
p462
tp463
Rp464
ag152
(g28
S'\xf4M9\x9d\xab\xf9\x1d@'
p465
tp466
Rp467
ag152
(g28
S'\x04\xe2.\xccn\xf9\x1d@'
p468
tp469
Rp470
ag152
(g28
S'<4\xa9\xc3+\xf9\x1d@'
p471
tp472
Rp473
ag152
(g28
S'\x9dw\xeb\x7f\xe0\xf8\x1d@'
p474
tp475
Rp476
ag152
(g28
S'\xa0\xaeb\x1e\xbe\xf8\x1d@'
p477
tp478
Rp479
ag152
(g28
S'={\x98\x8d\x9a\xf8\x1d@'
p480
tp481
Rp482
ag152
(g28
S'"\xca\x08\xaff\xf8\x1d@'
p483
tp484
Rp485
ag152
(g28
S'\xc7\xf9\x8a88\xf8\x1d@'
p486
tp487
Rp488
ag152
(g28
S'\xeeK\xec@\x11\xf8\x1d@'
p489
tp490
Rp491
ag152
(g28
S'.\x8b7\xe0\xdd\xf7\x1d@'
p492
tp493
Rp494
ag152
(g28
S'\x18[<\x13\xa4\xf7\x1d@'
p495
tp496
Rp497
ag152
(g28
S'\x8e:E{b\xf7\x1d@'
p498
tp499
Rp500
ag152
(g28
S'\x7f9\x80k\x18\xf7\x1d@'
p501
tp502
Rp503
ag152
(g28
S'\x83z\x1f\x9d\xf8\xf6\x1d@'
p504
tp505
Rp506
ag152
(g28
S'\xd0\x9e\x92j\xd8\xf6\x1d@'
p507
tp508
Rp509
ag152
(g28
S'\x04\x95\xb3\xfa\xb0\xf6\x1d@'
p510
tp511
Rp512
ag152
(g28
S'\xe8\x7fw\x82\x87\xf6\x1d@'
p513
tp514
Rp515
ag152
(g28
S'\x10\x83L\xc8a\xf6\x1d@'
p516
tp517
Rp518
ag152
(g28
S'\x18\xc0=44\xf6\x1d@'
p519
tp520
Rp521
ag152
(g28
S'\xf2@1+\xff\xf5\x1d@'
p522
tp523
Rp524
ag152
(g28
S'r\xd7\x04|\xc2\xf5\x1d@'
p525
tp526
Rp527
ag152
(g28
S'\x90G\x8c*}\xf5\x1d@'
p528
tp529
Rp530
ag152
(g28
S'\xdcW\xabL/\xf5\x1d@'
p531
tp532
Rp533
ag152
(g28
S'P\x17\x15X\x10\xf5\x1d@'
p534
tp535
Rp536
ag152
(g28
S'\xb2_\xa9\xe7\xec\xf4\x1d@'
p537
tp538
Rp539
ag152
(g28
S'R\xe6R?\xbb\xf4\x1d@'
p540
tp541
Rp542
ag152
(g28
S'\xb7\xf6\x06\xe9\x8c\xf4\x1d@'
p543
tp544
Rp545
ag152
(g28
S'\x07\xd1\xb8\xccc\xf4\x1d@'
p546
tp547
Rp548
ag152
(g28
S'\x1c-s\x112\xf4\x1d@'
p549
tp550
Rp551
ag152
(g28
S'bqkS\xf8\xf3\x1d@'
p552
tp553
Rp554
ag152
(g28
S'\x8cA\x88y\xb6\xf3\x1d@'
p555
tp556
Rp557
ag152
(g28
S'\x84\xc89\x07l\xf3\x1d@'
p558
tp559
Rp560
ag152
(g28
S'\x8c\xd2\xd5{\x18\xf3\x1d@'
p561
tp562
Rp563
ag152
(g28
S'50\x9b\x82\xf6\xf2\x1d@'
p564
tp565
Rp566
ag152
(g28
S'g\xaaso\xcf\xf2\x1d@'
p567
tp568
Rp569
ag152
(g28
S'F}\xc4\xc4\x94\xf2\x1d@'
p570
tp571
Rp572
ag152
(g28
S'\x01\x89W\xa1f\xf2\x1d@'
p573
tp574
Rp575
ag152
(g28
S'Y\x87}\xdd9\xf2\x1d@'
p576
tp577
Rp578
ag152
(g28
S'\xae\x90mh\x05\xf2\x1d@'
p579
tp580
Rp581
ag152
(g28
S'O\xae\xba3\xc8\xf1\x1d@'
p582
tp583
Rp584
ag152
(g28
S'V\xba\xbf(\x82\xf1\x1d@'
p585
tp586
Rp587
ag152
(g28
S'\x9d{\xd1e2\xf1\x1d@'
p588
tp589
Rp590
ag152
(g28
S't\xb8\xcap\xd8\xf0\x1d@'
p591
tp592
Rp593
ag152
(g28
S'Q>\xa5\x8a\xa1\xf0\x1d@'
p594
tp595
Rp596
ag152
(g28
S'n\xfc>\xa5u\xf0\x1d@'
p597
tp598
Rp599
ag152
(g28
S'|}\xdb\xc7E\xf0\x1d@'
p600
tp601
Rp602
asS'__name__'
p603
S'TrainRprop'
p604
sS'__doc__'
p605
S'\n    Resilient Backpropagation\n    \n    :Support networks:\n        newff (multi-layers perceptron)\n    :Parameters:\n        input: array like (l x net.ci)\n            train input patterns\n        target: array like (l x net.co)\n            train target patterns\n        epochs: int (default 500)\n            Number of train epochs\n        show: int (default 100)\n            Print period\n        goal: float (default 0.01)\n            The goal of train\n        lr: float (defaults 0.07)\n            learning rate (init rate)\n        adapt bool (default False)\n            type of learning\n        rate_dec: float (default 0.5)\n            Decrement to weight change\n        rate_inc: float (default 1.2)\n            Increment to weight change\n        rate_min: float (default 1e-9)\n            Minimum performance gradient\n        rate_max: float (default 50)\n            Maximum weight change\n    \n    '
p606
sbsS'connect'
p607
(lp608
(lp609
I-1
aa(lp610
I0
aa(lp611
I1
aasS'errorf'
p612
(ineurolab.error
SSE
p613
(dp614
bsg65
g18
(g19
(I0
tp615
g21
tp616
Rp617
(I1
(I1
I2
tp618
g28
I00
S'\x00\x00\x00\x00\x00\x00\xf0\xbf\x00\x00\x00\x00\x00\x00\xf0?'
p619
tp620
bsg72
g115
sb.