ccopy_reg
_reconstructor
p0
(cneurolab.core
Net
p1
c__builtin__
object
p2
Ntp3
Rp4
(dp5
S'layers'
p6
(lp7
g0
(cneurolab.layer
Perceptron
p8
g2
Ntp9
Rp10
(dp11
S'initf'
p12
cneurolab.init
initnw
p13
sS'ci'
p14
I46
sS'co'
p15
I1
sS'cn'
p16
I1
sS'inp_minmax'
p17
cnumpy.core.multiarray
_reconstruct
p18
(cnumpy
ndarray
p19
(I0
tp20
S'b'
p21
tp22
Rp23
(I1
(I46
I2
tp24
cnumpy
dtype
p25
(S'f8'
p26
I0
I1
tp27
Rp28
(I3
S'<'
p29
NNNI-1
I-1
I0
tp30
bI00
S'\x00\x00\x00\x00\x00\x00\x00\x00\x00\x00\x00\x00\x00\x00\xf0?\x00\x00\x00\x00\x00\x00\x00\x00\x00\x00\x00\x00\x00\x00\xf0?\x00\x00\x00\x00\x00\x00\x00\x00\x00\x00\x00\x00\x00\x00\xf0?\x00\x00\x00\x00\x00\x00\x00\x00\x00\x00\x00\x00\x00\x00\xf0?\x00\x00\x00\x00\x00\x00\x00\x00\x00\x00\x00\x00\x00\x00\xf0?\x00\x00\x00\x00\x00\x00\x00\x00\x00\x00\x00\x00\x00\x00\xf0?\x00\x00\x00\x00\x00\x00\x00\x00\x00\x00\x00\x00\x00\x00\xf0?\x00\x00\x00\x00\x00\x00\x00\x00\x00\x00\x00\x00\x00\x00\xf0?\x00\x00\x00\x00\x00\x00\x00\x00\x00\x00\x00\x00\x00\x00\xf0?\x00\x00\x00\x00\x00\x00\x00\x00\x00\x00\x00\x00\x00\x00\xf0?\x00\x00\x00\x00\x00\x00\x00\x00\x00\x00\x00\x00\x00\x00\xf0?\x00\x00\x00\x00\x00\x00\x00\x00\x00\x00\x00\x00\x00\x00\xf0?\x00\x00\x00\x00\x00\x00\x00\x00\x00\x00\x00\x00\x00\x00\xf0?\x00\x00\x00\x00\x00\x00\x00\x00\x00\x00\x00\x00\x00\x00\xf0?\x00\x00\x00\x00\x00\x00\x00\x00\x00\x00\x00\x00\x00\x00\xf0?\x00\x00\x00\x00\x00\x00\x00\x00\x00\x00\x00\x00\x00\x00\xf0?\x00\x00\x00\x00\x00\x00\x00\x00\x00\x00\x00\x00\x00\x00\xf0?\x00\x00\x00\x00\x00\x00\x00\x00\x00\x00\x00\x00\x00\x00\xf0?\x00\x00\x00\x00\x00\x00\x00\x00\x00\x00\x00\x00\x00\x00\xf0?\x00\x00\x00\x00\x00\x00\x00\x00\x00\x00\x00\x00\x00\x00\xf0?\x00\x00\x00\x00\x00\x00\x00\x00\x00\x00\x00\x00\x00\x00\xf0?\x00\x00\x00\x00\x00\x00\x00\x00\x00\x00\x00\x00\x00\x00\xf0?\x00\x00\x00\x00\x00\x00\x00\x00\x00\x00\x00\x00\x00\x00\xf0?\x00\x00\x00\x00\x00\x00\x00\x00\x00\x00\x00\x00\x00\x00\xf0?\x00\x00\x00\x00\x00\x00\x00\x00\x00\x00\x00\x00\x00\x00\xf0?\x00\x00\x00\x00\x00\x00\x00\x00\x00\x00\x00\x00\x00\x00\xf0?\x00\x00\x00\x00\x00\x00\x00\x00\x00\x00\x00\x00\x00\x00\xf0?\x00\x00\x00\x00\x00\x00\x00\x00\x00\x00\x00\x00\x00\x00\xf0?\x00\x00\x00\x00\x00\x00\x00\x00\x00\x00\x00\x00\x00\x00\xf0?\x00\x00\x00\x00\x00\x00\x00\x00\x00\x00\x00\x00\x00\x00\xf0?\x00\x00\x00\x00\x00\x00\x00\x00\x00\x00\x00\x00\x00\x00\xf0?\x00\x00\x00\x00\x00\x00\x00\x00\x00\x00\x00\x00\x00\x00\xf0?\x00\x00\x00\x00\x00\x00\x00\x00\x00\x00\x00\x00\x00\x00\xf0?\x00\x00\x00\x00\x00\x00\x00\x00\x00\x00\x00\x00\x00\x00\xf0?\x00\x00\x00\x00\x00\x00\x00\x00\x00\x00\x00\x00\x00\x00\xf0?\x00\x00\x00\x00\x00\x00\x00\x00\x00\x00\x00\x00\x00\x00\xf0?\x00\x00\x00\x00\x00\x00\x00\x00\x00\x00\x00\x00\x00\x00\xf0?\x00\x00\x00\x00\x00\x00\x00\x00\x00\x00\x00\x00\x00\x00\xf0?\x00\x00\x00\x00\x00\x00\x00\x00\x00\x00\x00\x00\x00\x00\xf0?\x00\x00\x00\x00\x00\x00\x00\x00\x00\x00\x00\x00\x00\x00\xf0?\x00\x00\x00\x00\x00\x00\x00\x00\x00\x00\x00\x00\x00\x00\xf0?\x00\x00\x00\x00\x00\x00\x00\x00\x00\x00\x00\x00\x00\x00\xf0?\x00\x00\x00\x00\x00\x00\x00\x00\x00\x00\x00\x00\x00\x00\xf0?\x00\x00\x00\x00\x00\x00\x00\x00\x00\x00\x00\x00\x00\x00\xf0?\x00\x00\x00\x00\x00\x00\x00\x00\x00\x00\x00\x00\x00\x00\xf0?\x00\x00\x00\x00\x00\x00\x00\x00\x00\x00\x00\x00\x00\x00\xf0?'
p31
tp32
bsS'inp'
p33
g18
(g19
(I0
tp34
g21
tp35
Rp36
(I1
(I46
tp37
g28
I00
S"\x7fNX\xc3;\xa3\xc7?u\xe3\xdf[GP\xca?\xdb\xb6m\xdb\xb6m\xdb?\xeek\x99,r\x80\xe0?\x7fNX\xc3;\xa3\xc7?\xf9\xf7\xd6\x11\x94f\xd3?U?'\xac\xe1\x9d\xd1?\xf0\xad#(\xcd\xa6\xcb?lxg\xf4R\xfd\xcc?L\xf5s\xc2\x1a\xde\xc9?\xf9\x18\x9c\x8f\xc1\xf9\x98?i6\xdd\xf8\xf7\xd6\xb1?\xd1*0\xf6\x94\x87\xc8?7\xdd\xf8\xf7\xd6\x11\xc4?\xb1\xa7<\xc4\\h\xc5?\xda\x95\xa8]\x89\xda\xd5?\xee\x8c^\xaa\x9f\x13\xd6?_\xcbd\x91\x03\x84\xd4?\xfb\x18\x9c\x8f\xc1\xf9\xa8?\r\xef\x8c^\xaa\x9f\xa3?\x0e\xef\x8c^\xaa\x9f\xc3?\xbb\x12\xb5+Q\xbb\xb2?\x04\x84\x14\xf7\xb5L\xb6?\x0e\xef\x8c^\xaa\x9f\xc3?8\x1f\x83\xf318\xbf?\xbb\x12\xb5+Q\xbb\xb2?\x9e\xd1K\xf5s\xc2\xca?\xa6\x1b\xff\xde:\x82\xd2?\xda\x95\xa8]\x89\xda\xd5?B\x8a\xfbZ&\x8b\xcc?L\xf5s\xc2\x1a\xde\xc9?-r\x80\x90\xe2\xbe\xc6?i6\xdd\xf8\xf7\xd6\xc1?C\x8a\xfbZ&\x8b\x9c?\xc5}-\x93E\x0e\xb0?\xe6B\xab\xc0\xd8S\xae?M\xf5s\xc2\x1a\xde\xb9?\x0e\xef\x8c^\xaa\x9f\xb3?\xbc\x12\xb5+Q\xbb\xc2?M\xf5s\xc2\x1a\xde\xb9?\xb1\xa7<\xc4\\h\xa5?\xf1\xad#(\xcd\xa6\xbb?\x04\x84\x14\xf7\xb5L\xb6?\x94f\xd3\x8d\x7fo\xbd?\x17Z\x05\xc6\x9e\xf2\xc0?V`\xec)\x0f1\xa7?"
p38
tp39
bsS's'
p40
g18
(g19
(I0
tp41
g21
tp42
Rp43
(I1
(I1
tp44
g28
I00
S'\xe9\x1a\xd1\xd9\xef2\xe8?'
p45
tp46
bsS'np'
p47
(dp48
g21
g18
(g19
(I0
tp49
g21
tp50
Rp51
(I1
(I1
tp52
g28
I00
S':\xfb\xeb\x16\x9d\n\xf0?'
p53
tp54
bsS'w'
p55
g18
(g19
(I0
tp56
g21
tp57
Rp58
(I1
(I1
I46
tp59
g28
I00
S'\xad\xbejE\r\x1a\xd2\xbf\x9d\xa1\xfa\x0c\xf7\x8e\xc6\xbf\\\x1a\xf4?;J\xcf?\xe1\xf2\x96Z\x81\x83\xb5?\xbb\x9b\x9d\xaf\xd9\xa0\xc2?T\x8d\x8a\xd2\x90\xfd\xc2?v<\x14\xc1\xd8\xbb\xc2?B\xc2;\x9e\xe3\xaa\xe0\xbf\x9e\x0e\x14h<\x8d\xda?\xa0\x93\xe5\xcf\x85\x9d\xd9?\x8d\xfcAe\x83\xdb\x8f?Z\x1a4b\xe4\xc1\xaa?\xd3\xfc\x82\xfa\x05!\xdc?U2\xb1\x92\xb5 \xd4\xbf\x00\xd5\x7f\\\xa1\xa8\xc2\xbf\xe7\x8a\xfe;\xe2\'\xa3\xbf\x14c\x85\x06k\xd4\xae?k\n\x01\xd6u\x1b\xb8\xbf\xa7\xe1\xf1\'\x0e\x0e\xb4\xbf.\x16\xacNi\xfa\xdd?Y\x0f\xb8I\xe5\xf3\xc3\xbf\x1f\x96%\x0c@g\xc8\xbf\xb3\xa4S\xb9\xa4m\xb6?X\xc9}\x06i\xcb\xda\xbf|\x83v\x9d\xd5q\xe9\xbf\n\n\xd8\x04\xcb\xc0\xd8\xbf\xeb\xca)\xae{\xdc\xa4?=Y\'\xa6i\x0e}\xbfz\xfc\x88\x00./\xdf\xbf\x91P<\xa2\xa8\x90\x80?\xbd\xb3\x97\xa0M\x16\xc8\xbf\xd2\xd1\xbc\x0f\xb6\x1d\xc6\xbf\x1f`# \xd2\xc3\xcc?h\x19Foe\xa3\xc0?\x00K\r\xc2t\x8c\xc3\xbf\xe3+\x93\x99d"\xd0\xbf\x9c\x96\x92\x90\xe0\xde\xd3?\xd5\xdb\x03\xd3)\xe4\xd2?;\x95_\xe6\x84\xa1\xc1\xbf_\xfa\x8a\xff\x87\xa7\xb9\xbf\xd71\xa7\x15\xb3\x90\xd1?\xa6\xe2S\x88\'&\xc3?\xa7L\xc9\xc1\x98\xbf\xa6?:\xd3\xde\xb9.\xfc\xc3\xbf\xf4\xab\xd5mY?\x84?WQ\xa7qh\x9a\xff\xbf'
p60
tp61
bssS'transf'
p62
(ineurolab.trans
TanSig
p63
(dp64
bsS'out_minmax'
p65
g18
(g19
(I0
tp66
g21
tp67
Rp68
(I1
(I1
I2
tp69
g28
I00
S'\x00\x00\x00\x00\x00\x00\xf0\xbf\x00\x00\x00\x00\x00\x00\xf0?'
p70
tp71
bsS'out'
p72
g18
(g19
(I0
tp73
g21
tp74
Rp75
(I1
(I1
tp76
g28
I00
S'\xfaj\x89\x95hq\xe4?'
p77
tp78
bsbag0
(g8
g2
Ntp79
Rp80
(dp81
g12
g13
sg14
I1
sg15
I1
sg16
I1
sg17
g18
(g19
(I0
tp82
g21
tp83
Rp84
(I1
(I1
I2
tp85
g28
I00
S'\x00\x00\x00\x00\x00\x00\xf0\xbf\x00\x00\x00\x00\x00\x00\xf0?'
p86
tp87
bsg33
g75
sg40
g18
(g19
(I0
tp88
g21
tp89
Rp90
(I1
(I1
tp91
g28
I00
S'\x1d\x85~Q\x82\xc0\xc2?'
p92
tp93
bsg47
(dp94
g21
g18
(g19
(I0
tp95
g21
tp96
Rp97
(I1
(I1
tp98
g28
I00
S'\x88\xa5R\x18\xb0\xd6\xd3?'
p99
tp100
bsg55
g18
(g19
(I0
tp101
g21
tp102
Rp103
(I1
(I1
I1
tp104
g28
I00
S'\xd1\x91jQ\xa0`\xd0\xbf'
p105
tp106
bssg62
g63
sg65
g18
(g19
(I0
tp107
g21
tp108
Rp109
(I1
(I1
I2
tp110
g28
I00
S'\x00\x00\x00\x00\x00\x00\xf0\xbf\x00\x00\x00\x00\x00\x00\xf0?'
p111
tp112
bsg72
g18
(g19
(I0
tp113
g21
tp114
Rp115
(I1
(I1
tp116
g28
I00
S'\x0e\xc2LIu\x9e\xc2?'
p117
tp118
bsbasg14
I46
sg15
I1
sg17
g18
(g19
(I0
tp119
g21
tp120
Rp121
(I1
(I46
I2
tp122
g28
I00
S'\x00\x00\x00\x00\x00\x00\x00\x00\x00\x00\x00\x00\x00\x00\xf0?\x00\x00\x00\x00\x00\x00\x00\x00\x00\x00\x00\x00\x00\x00\xf0?\x00\x00\x00\x00\x00\x00\x00\x00\x00\x00\x00\x00\x00\x00\xf0?\x00\x00\x00\x00\x00\x00\x00\x00\x00\x00\x00\x00\x00\x00\xf0?\x00\x00\x00\x00\x00\x00\x00\x00\x00\x00\x00\x00\x00\x00\xf0?\x00\x00\x00\x00\x00\x00\x00\x00\x00\x00\x00\x00\x00\x00\xf0?\x00\x00\x00\x00\x00\x00\x00\x00\x00\x00\x00\x00\x00\x00\xf0?\x00\x00\x00\x00\x00\x00\x00\x00\x00\x00\x00\x00\x00\x00\xf0?\x00\x00\x00\x00\x00\x00\x00\x00\x00\x00\x00\x00\x00\x00\xf0?\x00\x00\x00\x00\x00\x00\x00\x00\x00\x00\x00\x00\x00\x00\xf0?\x00\x00\x00\x00\x00\x00\x00\x00\x00\x00\x00\x00\x00\x00\xf0?\x00\x00\x00\x00\x00\x00\x00\x00\x00\x00\x00\x00\x00\x00\xf0?\x00\x00\x00\x00\x00\x00\x00\x00\x00\x00\x00\x00\x00\x00\xf0?\x00\x00\x00\x00\x00\x00\x00\x00\x00\x00\x00\x00\x00\x00\xf0?\x00\x00\x00\x00\x00\x00\x00\x00\x00\x00\x00\x00\x00\x00\xf0?\x00\x00\x00\x00\x00\x00\x00\x00\x00\x00\x00\x00\x00\x00\xf0?\x00\x00\x00\x00\x00\x00\x00\x00\x00\x00\x00\x00\x00\x00\xf0?\x00\x00\x00\x00\x00\x00\x00\x00\x00\x00\x00\x00\x00\x00\xf0?\x00\x00\x00\x00\x00\x00\x00\x00\x00\x00\x00\x00\x00\x00\xf0?\x00\x00\x00\x00\x00\x00\x00\x00\x00\x00\x00\x00\x00\x00\xf0?\x00\x00\x00\x00\x00\x00\x00\x00\x00\x00\x00\x00\x00\x00\xf0?\x00\x00\x00\x00\x00\x00\x00\x00\x00\x00\x00\x00\x00\x00\xf0?\x00\x00\x00\x00\x00\x00\x00\x00\x00\x00\x00\x00\x00\x00\xf0?\x00\x00\x00\x00\x00\x00\x00\x00\x00\x00\x00\x00\x00\x00\xf0?\x00\x00\x00\x00\x00\x00\x00\x00\x00\x00\x00\x00\x00\x00\xf0?\x00\x00\x00\x00\x00\x00\x00\x00\x00\x00\x00\x00\x00\x00\xf0?\x00\x00\x00\x00\x00\x00\x00\x00\x00\x00\x00\x00\x00\x00\xf0?\x00\x00\x00\x00\x00\x00\x00\x00\x00\x00\x00\x00\x00\x00\xf0?\x00\x00\x00\x00\x00\x00\x00\x00\x00\x00\x00\x00\x00\x00\xf0?\x00\x00\x00\x00\x00\x00\x00\x00\x00\x00\x00\x00\x00\x00\xf0?\x00\x00\x00\x00\x00\x00\x00\x00\x00\x00\x00\x00\x00\x00\xf0?\x00\x00\x00\x00\x00\x00\x00\x00\x00\x00\x00\x00\x00\x00\xf0?\x00\x00\x00\x00\x00\x00\x00\x00\x00\x00\x00\x00\x00\x00\xf0?\x00\x00\x00\x00\x00\x00\x00\x00\x00\x00\x00\x00\x00\x00\xf0?\x00\x00\x00\x00\x00\x00\x00\x00\x00\x00\x00\x00\x00\x00\xf0?\x00\x00\x00\x00\x00\x00\x00\x00\x00\x00\x00\x00\x00\x00\xf0?\x00\x00\x00\x00\x00\x00\x00\x00\x00\x00\x00\x00\x00\x00\xf0?\x00\x00\x00\x00\x00\x00\x00\x00\x00\x00\x00\x00\x00\x00\xf0?\x00\x00\x00\x00\x00\x00\x00\x00\x00\x00\x00\x00\x00\x00\xf0?\x00\x00\x00\x00\x00\x00\x00\x00\x00\x00\x00\x00\x00\x00\xf0?\x00\x00\x00\x00\x00\x00\x00\x00\x00\x00\x00\x00\x00\x00\xf0?\x00\x00\x00\x00\x00\x00\x00\x00\x00\x00\x00\x00\x00\x00\xf0?\x00\x00\x00\x00\x00\x00\x00\x00\x00\x00\x00\x00\x00\x00\xf0?\x00\x00\x00\x00\x00\x00\x00\x00\x00\x00\x00\x00\x00\x00\xf0?\x00\x00\x00\x00\x00\x00\x00\x00\x00\x00\x00\x00\x00\x00\xf0?\x00\x00\x00\x00\x00\x00\x00\x00\x00\x00\x00\x00\x00\x00\xf0?'
p123
tp124
bsg33
g36
sS'trainf'
p125
g0
(cneurolab.core
Trainer
p126
g2
Ntp127
Rp128
(dp129
S'_train_class'
p130
cneurolab.train.spo
TrainBFGS
p131
sS'__module__'
p132
S'neurolab.train.spo'
p133
sS'params'
p134
(dp135
S'epochs'
p136
I150
sS'train'
p137
(dp138
S'rr'
p139
I0
ssS'goal'
p140
F2e-05
sS'show'
p141
I0
ssS'defaults'
p142
(dp143
g136
I500
sg137
(dp144
g139
I0
ssg140
F0.01
sg141
I100
ssS'error'
p145
(lp146
cnumpy.core.multiarray
scalar
p147
(g28
S'\x04\n\xb3?\xce\x14j@'
p148
tp149
Rp150
ag147
(g28
S'\xdaq$D\r]\\@'
p151
tp152
Rp153
ag147
(g28
S')\xaa\xb8\x96\x0c]\\@'
p154
tp155
Rp156
ag147
(g28
S'\xc0\xb2\xe57\xa5\\\\@'
p157
tp158
Rp159
ag147
(g28
S'\xb6\x8d\x03]3\x91[@'
p160
tp161
Rp162
ag147
(g28
S'\x1c\x1d\x11\x14\xd6\x8f[@'
p163
tp164
Rp165
ag147
(g28
S'\xd2\xf8\xb4ifLY@'
p166
tp167
Rp168
ag147
(g28
S'f\x8a\x86\x8bV\x13Y@'
p169
tp170
Rp171
ag147
(g28
S'~\xfdB\xdbW\xbdX@'
p172
tp173
Rp174
ag147
(g28
S'$gL4\x19}W@'
p175
tp176
Rp177
ag147
(g28
S'\x84!n\xa2\x93\xb4V@'
p178
tp179
Rp180
ag147
(g28
S'E?-\x82\x13:V@'
p181
tp182
Rp183
ag147
(g28
S'\x82x\xc7\xf0\xf8\x07S@'
p184
tp185
Rp186
ag147
(g28
S'f\xac~\x15\xe7\xcdR@'
p187
tp188
Rp189
ag147
(g28
S'\x08q\xbf\xc1g_R@'
p190
tp191
Rp192
ag147
(g28
S'Z.J\xda\x19=M@'
p193
tp194
Rp195
ag147
(g28
S'\x11\x93\xf0\xcd\xe3\x0bG@'
p196
tp197
Rp198
ag147
(g28
S'\x92Y\x81\xa0\xf0\xe2B@'
p199
tp200
Rp201
ag147
(g28
S'\xa29\xcf}\xcf\xca?@'
p202
tp203
Rp204
ag147
(g28
S'\x98\x12\xaa\xce\xac\\<@'
p205
tp206
Rp207
ag147
(g28
S'p5\x95)l\x8d6@'
p208
tp209
Rp210
ag147
(g28
S'*O\x0c\x81\xa200@'
p211
tp212
Rp213
ag147
(g28
S"pt\xd0\xea\xf8U'@"
p214
tp215
Rp216
ag147
(g28
S'\x9aQq\xd8\xedp%@'
p217
tp218
Rp219
ag147
(g28
S'\xd0\xcc6\x89\xcc\xe2"@'
p220
tp221
Rp222
ag147
(g28
S'F\x0f\xa3\xb3\x8b~ @'
p223
tp224
Rp225
ag147
(g28
S'\x00`]]\xde3\x1c@'
p226
tp227
Rp228
ag147
(g28
S'\xfa0U\xd1s\x89\x19@'
p229
tp230
Rp231
ag147
(g28
S'\xc4\xaf%to\x14\x18@'
p232
tp233
Rp234
ag147
(g28
S'p0@g\x98V\x17@'
p235
tp236
Rp237
ag147
(g28
S'M\xb8\xdb\xb7\xa2X\x16@'
p238
tp239
Rp240
ag147
(g28
S'\x128c\x11\xf7Q\x15@'
p241
tp242
Rp243
ag147
(g28
S'6\x8e\x1d(\xad\xf5\x13@'
p244
tp245
Rp246
ag147
(g28
S'nO\x04\xcd\x9f@\x13@'
p247
tp248
Rp249
ag147
(g28
S'\xd4\xbeo\x92 \x88\x12@'
p250
tp251
Rp252
ag147
(g28
S'\x06\xdf\xed8\x11\xe6\x11@'
p253
tp254
Rp255
ag147
(g28
S'*\x14\xf2\x14\xa3\x95\x11@'
p256
tp257
Rp258
ag147
(g28
S'8\xcaq\xeb\x02#\x11@'
p259
tp260
Rp261
ag147
(g28
S'\xbf\xad\xf0#M\xa9\x10@'
p262
tp263
Rp264
ag147
(g28
S' ~d\xad4-\x10@'
p265
tp266
Rp267
ag147
(g28
S'\xe8\x1d$!\xf6.\x0f@'
p268
tp269
Rp270
ag147
(g28
S'\xf9$\x81\x8c?}\x0e@'
p271
tp272
Rp273
ag147
(g28
S'lv\x0e\xc7\xfar\r@'
p274
tp275
Rp276
ag147
(g28
S'\x9e/o\x0cgu\x0c@'
p277
tp278
Rp279
ag147
(g28
S'\xfb1\x17U\xfd\xa2\x0b@'
p280
tp281
Rp282
ag147
(g28
S'\xd4\xe9\x7f\xf8\xa4\xc2\n@'
p283
tp284
Rp285
ag147
(g28
S'\x87\x1d\tvZ\xfd\t@'
p286
tp287
Rp288
ag147
(g28
S'\x04\xa1\xe6\xd6\x19\x1d\t@'
p289
tp290
Rp291
ag147
(g28
S'X\xaf\xd65"\x94\x08@'
p292
tp293
Rp294
ag147
(g28
S'\xbe[y-\xac\xdd\x07@'
p295
tp296
Rp297
ag147
(g28
S'~Q\xb0\rk\t\x07@'
p298
tp299
Rp300
ag147
(g28
S'l<{\xa7\xf3f\x06@'
p301
tp302
Rp303
ag147
(g28
S'\xd4\x05\x10\x8b\xd6\xa8\x05@'
p304
tp305
Rp306
ag147
(g28
S':Z\x97\x00(\xd7\x04@'
p307
tp308
Rp309
ag147
(g28
S'\xf6\x98\x8a\xf2\x92w\x04@'
p310
tp311
Rp312
ag147
(g28
S'\xa4Zi\xcc\xa5\xf7\x03@'
p313
tp314
Rp315
ag147
(g28
S'(i\xb6\xe7\xac\xb2\x03@'
p316
tp317
Rp318
ag147
(g28
S'\x95`\t\xee\xde:\x03@'
p319
tp320
Rp321
ag147
(g28
S'|\x18\xc1\x85\xc2\xab\x02@'
p322
tp323
Rp324
ag147
(g28
S'\x8a\x00\xc0^\xad\x07\x02@'
p325
tp326
Rp327
ag147
(g28
S'\x08 \x96\xd2\xabs\x01@'
p328
tp329
Rp330
ag147
(g28
S'\xcb\xfd\x90\x91\xf7\xd1\x00@'
p331
tp332
Rp333
ag147
(g28
S'\xc0\xcc\xafC\xffM\x00@'
p334
tp335
Rp336
ag147
(g28
S'\x89\xa9\xfd\x8e\xb4Z\xff?'
p337
tp338
Rp339
ag147
(g28
S'\x8e\x8b7\xdf\xe7\xd9\xfe?'
p340
tp341
Rp342
ag147
(g28
S'\xf5J\xeeO\xe7\x18\xfe?'
p343
tp344
Rp345
ag147
(g28
S'a\x0b\x8av;\x04\xfd?'
p346
tp347
Rp348
ag147
(g28
S'G\xe3\x11\x8fC\xe4\xfb?'
p349
tp350
Rp351
ag147
(g28
S'\xf4$\r\xa1x\x81\xfb?'
p352
tp353
Rp354
ag147
(g28
S'6\x96\x9f\x0e\xf1\xda\xfa?'
p355
tp356
Rp357
ag147
(g28
S'K\xb9\x92\xc7\xd1\xe3\xf9?'
p358
tp359
Rp360
ag147
(g28
S'lX\x88V5Q\xf9?'
p361
tp362
Rp363
ag147
(g28
S'\xba\xca\xb7\xc9\x00\x9d\xf8?'
p364
tp365
Rp366
ag147
(g28
S'\xc4\xd2\xa4\x90\xc4"\xf8?'
p367
tp368
Rp369
ag147
(g28
S'x_\xba\xe7Le\xf7?'
p370
tp371
Rp372
ag147
(g28
S'\x0c Kq7f\xf6?'
p373
tp374
Rp375
ag147
(g28
S'B\xad\xe9\x0eV\xbf\xf5?'
p376
tp377
Rp378
ag147
(g28
S'\xd8\xd0\xeb)vT\xf5?'
p379
tp380
Rp381
ag147
(g28
S'\xf1\xfa\x89\x0e\t\xb8\xf4?'
p382
tp383
Rp384
ag147
(g28
S'\x92\xf3\xab\xa8 \xe3\xf3?'
p385
tp386
Rp387
ag147
(g28
S'\x98\xfe(mt.\xf3?'
p388
tp389
Rp390
ag147
(g28
S'/W\xc46B\x9e\xf2?'
p391
tp392
Rp393
ag147
(g28
S't\x03\xf7\xf0A\xe9\xf1?'
p394
tp395
Rp396
ag147
(g28
S'\x90\xc7)\xad\t]\xf1?'
p397
tp398
Rp399
ag147
(g28
S'\xb5\xca\xc6\x81\xe4\xd0\xf0?'
p400
tp401
Rp402
ag147
(g28
S'\xac\xd3\xdc\xd8l1\xf0?'
p403
tp404
Rp405
ag147
(g28
S'0s\xf5]\x12E\xef?'
p406
tp407
Rp408
ag147
(g28
S'&E[\xb4!]\xee?'
p409
tp410
Rp411
ag147
(g28
S'\xc2J7\xdd*[\xed?'
p412
tp413
Rp414
ag147
(g28
S'\x8e1|\\\x19k\xec?'
p415
tp416
Rp417
ag147
(g28
S'p\x816m\x80n\xeb?'
p418
tp419
Rp420
ag147
(g28
S'r\x14@bH\xa7\xea?'
p421
tp422
Rp423
ag147
(g28
S'r2\x95vC\x04\xea?'
p424
tp425
Rp426
ag147
(g28
S'\xda\xb3\x11#\xa1t\xe9?'
p427
tp428
Rp429
ag147
(g28
S'Y\x97O\x88\xb1\xc7\xe8?'
p430
tp431
Rp432
ag147
(g28
S')\xe5\xc0\xf5y&\xe8?'
p433
tp434
Rp435
ag147
(g28
S'P,kX\xc5\x9a\xe7?'
p436
tp437
Rp438
ag147
(g28
S'\x15\xe7\xa4\xd3\xf3\xdc\xe6?'
p439
tp440
Rp441
ag147
(g28
S'\xbc\xb1Tr0\x1b\xe6?'
p442
tp443
Rp444
ag147
(g28
S'\xdc\ny\xfb*\x97\xe5?'
p445
tp446
Rp447
ag147
(g28
S'@\xf2;)q\xf2\xe4?'
p448
tp449
Rp450
ag147
(g28
S'<pEz\x1d)\xe4?'
p451
tp452
Rp453
ag147
(g28
S'\xc9Z@]w\x92\xe3?'
p454
tp455
Rp456
ag147
(g28
S'\xd0\xc3\x99\xdb3\xf0\xe2?'
p457
tp458
Rp459
ag147
(g28
S' !#`~o\xe2?'
p460
tp461
Rp462
ag147
(g28
S'v\x9f\xf6\xc3\x1d\xf6\xe1?'
p463
tp464
Rp465
ag147
(g28
S'cV\xf4\xfb[W\xe1?'
p466
tp467
Rp468
ag147
(g28
S'\x9eQ\x9d\xfb\x05\xb3\xe0?'
p469
tp470
Rp471
ag147
(g28
S'\xa4\x1b\xc8\xdcr3\xe0?'
p472
tp473
Rp474
ag147
(g28
S"\xdf'\xc8\x81\x9c\x87\xdf?"
p475
tp476
Rp477
ag147
(g28
S'\xa4\xc4zN\x88\xb4\xde?'
p478
tp479
Rp480
ag147
(g28
S'\xe8\xa6\xd3\xff\x9f\xf1\xdd?'
p481
tp482
Rp483
ag147
(g28
S'\xf0;\x99\x93\xc1w\xdd?'
p484
tp485
Rp486
ag147
(g28
S'j]\xfd\x13\xc8\xd0\xdc?'
p487
tp488
Rp489
ag147
(g28
S'R.~\xdcQ\x18\xdc?'
p490
tp491
Rp492
ag147
(g28
S'\xc2\n\xf5\xa8\x80b\xdb?'
p493
tp494
Rp495
ag147
(g28
S'\x10^\xd4U\x83|\xda?'
p496
tp497
Rp498
ag147
(g28
S'n\xb5:\x84}\xbc\xd9?'
p499
tp500
Rp501
ag147
(g28
S'\x90\xbf\xc0\xdc\xc9\n\xd9?'
p502
tp503
Rp504
ag147
(g28
S'\xd8\xd7\xfbz\x06G\xd8?'
p505
tp506
Rp507
ag147
(g28
S'\xd1\x16SV\\\xba\xd7?'
p508
tp509
Rp510
ag147
(g28
S'`\xf5CWP\x01\xd7?'
p511
tp512
Rp513
ag147
(g28
S'\xd8!\xd5\x98\x8eI\xd6?'
p514
tp515
Rp516
ag147
(g28
S'\xc4\x99\xd4\x97^\x9d\xd5?'
p517
tp518
Rp519
ag147
(g28
S'^\xc2N\x03\x07\x0c\xd5?'
p520
tp521
Rp522
ag147
(g28
S'\x8aX\xbb\xba\x93\xa5\xd4?'
p523
tp524
Rp525
ag147
(g28
S'\x1ej@\x1bf7\xd4?'
p526
tp527
Rp528
ag147
(g28
S'\xbcW\x8fLO\xae\xd3?'
p529
tp530
Rp531
ag147
(g28
S'\xb5\x11\xf3\xc8F4\xd3?'
p532
tp533
Rp534
ag147
(g28
S'\xea\xe8\xad\xc6l\x8c\xd2?'
p535
tp536
Rp537
ag147
(g28
S'8\xa93f\x9c\xd8\xd1?'
p538
tp539
Rp540
ag147
(g28
S'V1\xc6qHF\xd1?'
p541
tp542
Rp543
ag147
(g28
S'\xbc\x04\xab\xbc\x8f\xc9\xd0?'
p544
tp545
Rp546
ag147
(g28
S'i\x1b\x8e\x10\xe6A\xd0?'
p547
tp548
Rp549
ag147
(g28
S'\xd1P\xbe\x13\xd4\x9f\xcf?'
p550
tp551
Rp552
ag147
(g28
S'\xeb\xf2OZ\xbe\xd0\xce?'
p553
tp554
Rp555
ag147
(g28
S'\xbaH0?\x0b\xff\xcd?'
p556
tp557
Rp558
ag147
(g28
S'\xb6*8\x9c\x9d2\xcd?'
p559
tp560
Rp561
ag147
(g28
S'\x89\xe7\xdf\xa1\x9d\x80\xcc?'
p562
tp563
Rp564
ag147
(g28
S'\xc2(\xcf\xb6\xc6\xe7\xcb?'
p565
tp566
Rp567
ag147
(g28
S'7\x8f\xad9D`\xcb?'
p568
tp569
Rp570
ag147
(g28
S'\x9cG\xb9&\xe1\xc6\xca?'
p571
tp572
Rp573
ag147
(g28
S'\xe2\x860m\x020\xca?'
p574
tp575
Rp576
ag147
(g28
S'\xa4\xd6\rF\xdf\xbb\xc9?'
p577
tp578
Rp579
ag147
(g28
S'8E\xb6\x85\xdc6\xc9?'
p580
tp581
Rp582
ag147
(g28
S'\xe9QR\xc4\x7f\xac\xc8?'
p583
tp584
Rp585
ag147
(g28
S'\x89ho\x82w,\xc8?'
p586
tp587
Rp588
ag147
(g28
S'\xc9Z\x8b\x12L\xb3\xc7?'
p589
tp590
Rp591
ag147
(g28
S'\r\xa1u\x0b\xa65\xc7?'
p592
tp593
Rp594
ag147
(g28
S'\x1d~\x1d\xae\xa3\xbd\xc6?'
p595
tp596
Rp597
asS'__name__'
p598
S'TrainBFGS'
p599
sS'__doc__'
p600
S'\n    Broyden\xc2\x96Fletcher\xc2\x96Goldfarb\xc2\x96Shanno (BFGS) method\n    Using scipy.optimize.fmin_bfgs\n\n    :Support networks:\n        newff (multi-layers perceptron)\n    :Parameters:\n        input: array like (l x net.ci)\n            train input patterns\n        target: array like (l x net.co)\n            train target patterns\n        epochs: int (default 500)\n            Number of train epochs\n        show: int (default 100)\n            Print period\n        goal: float (default 0.01)\n            The goal of train\n        rr float (defaults 0.0)\n            Regularization ratio\n            Must be between {0, 1}\n\n    '
p601
sbsS'connect'
p602
(lp603
(lp604
I-1
aa(lp605
I0
aa(lp606
I1
aasS'errorf'
p607
(ineurolab.error
SSE
p608
(dp609
bsg65
g18
(g19
(I0
tp610
g21
tp611
Rp612
(I1
(I1
I2
tp613
g28
I00
S'\x00\x00\x00\x00\x00\x00\xf0\xbf\x00\x00\x00\x00\x00\x00\xf0?'
p614
tp615
bsg72
g115
sb.