ccopy_reg
_reconstructor
p0
(cneurolab.core
Net
p1
c__builtin__
object
p2
Ntp3
Rp4
(dp5
S'layers'
p6
(lp7
g0
(cneurolab.layer
Perceptron
p8
g2
Ntp9
Rp10
(dp11
S'initf'
p12
cneurolab.init
initnw
p13
sS'ci'
p14
I40
sS'co'
p15
I17
sS'cn'
p16
I17
sS'inp_minmax'
p17
cnumpy.core.multiarray
_reconstruct
p18
(cnumpy
ndarray
p19
(I0
tp20
S'b'
p21
tp22
Rp23
(I1
(I40
I2
tp24
cnumpy
dtype
p25
(S'f8'
p26
I0
I1
tp27
Rp28
(I3
S'<'
p29
NNNI-1
I-1
I0
tp30
bI00
S'\x00\x00\x00\x00\x00\x00\x00\x00\x00\x00\x00\x00\x00\x00\xf0?\x00\x00\x00\x00\x00\x00\x00\x00\x00\x00\x00\x00\x00\x00\xf0?\x00\x00\x00\x00\x00\x00\x00\x00\x00\x00\x00\x00\x00\x00\xf0?\x00\x00\x00\x00\x00\x00\x00\x00\x00\x00\x00\x00\x00\x00\xf0?\x00\x00\x00\x00\x00\x00\x00\x00\x00\x00\x00\x00\x00\x00\xf0?\x00\x00\x00\x00\x00\x00\x00\x00\x00\x00\x00\x00\x00\x00\xf0?\x00\x00\x00\x00\x00\x00\x00\x00\x00\x00\x00\x00\x00\x00\xf0?\x00\x00\x00\x00\x00\x00\x00\x00\x00\x00\x00\x00\x00\x00\xf0?\x00\x00\x00\x00\x00\x00\x00\x00\x00\x00\x00\x00\x00\x00\xf0?\x00\x00\x00\x00\x00\x00\x00\x00\x00\x00\x00\x00\x00\x00\xf0?\x00\x00\x00\x00\x00\x00\x00\x00\x00\x00\x00\x00\x00\x00\xf0?\x00\x00\x00\x00\x00\x00\x00\x00\x00\x00\x00\x00\x00\x00\xf0?\x00\x00\x00\x00\x00\x00\x00\x00\x00\x00\x00\x00\x00\x00\xf0?\x00\x00\x00\x00\x00\x00\x00\x00\x00\x00\x00\x00\x00\x00\xf0?\x00\x00\x00\x00\x00\x00\x00\x00\x00\x00\x00\x00\x00\x00\xf0?\x00\x00\x00\x00\x00\x00\x00\x00\x00\x00\x00\x00\x00\x00\xf0?\x00\x00\x00\x00\x00\x00\x00\x00\x00\x00\x00\x00\x00\x00\xf0?\x00\x00\x00\x00\x00\x00\x00\x00\x00\x00\x00\x00\x00\x00\xf0?\x00\x00\x00\x00\x00\x00\x00\x00\x00\x00\x00\x00\x00\x00\xf0?\x00\x00\x00\x00\x00\x00\x00\x00\x00\x00\x00\x00\x00\x00\xf0?\x00\x00\x00\x00\x00\x00\x00\x00\x00\x00\x00\x00\x00\x00\xf0?\x00\x00\x00\x00\x00\x00\x00\x00\x00\x00\x00\x00\x00\x00\xf0?\x00\x00\x00\x00\x00\x00\x00\x00\x00\x00\x00\x00\x00\x00\xf0?\x00\x00\x00\x00\x00\x00\x00\x00\x00\x00\x00\x00\x00\x00\xf0?\x00\x00\x00\x00\x00\x00\x00\x00\x00\x00\x00\x00\x00\x00\xf0?\x00\x00\x00\x00\x00\x00\x00\x00\x00\x00\x00\x00\x00\x00\xf0?\x00\x00\x00\x00\x00\x00\x00\x00\x00\x00\x00\x00\x00\x00\xf0?\x00\x00\x00\x00\x00\x00\x00\x00\x00\x00\x00\x00\x00\x00\xf0?\x00\x00\x00\x00\x00\x00\x00\x00\x00\x00\x00\x00\x00\x00\xf0?\x00\x00\x00\x00\x00\x00\x00\x00\x00\x00\x00\x00\x00\x00\xf0?\x00\x00\x00\x00\x00\x00\x00\x00\x00\x00\x00\x00\x00\x00\xf0?\x00\x00\x00\x00\x00\x00\x00\x00\x00\x00\x00\x00\x00\x00\xf0?\x00\x00\x00\x00\x00\x00\x00\x00\x00\x00\x00\x00\x00\x00\xf0?\x00\x00\x00\x00\x00\x00\x00\x00\x00\x00\x00\x00\x00\x00\xf0?\x00\x00\x00\x00\x00\x00\x00\x00\x00\x00\x00\x00\x00\x00\xf0?\x00\x00\x00\x00\x00\x00\x00\x00\x00\x00\x00\x00\x00\x00\xf0?\x00\x00\x00\x00\x00\x00\x00\x00\x00\x00\x00\x00\x00\x00\xf0?\x00\x00\x00\x00\x00\x00\x00\x00\x00\x00\x00\x00\x00\x00\xf0?\x00\x00\x00\x00\x00\x00\x00\x00\x00\x00\x00\x00\x00\x00\xf0?\x00\x00\x00\x00\x00\x00\x00\x00\x00\x00\x00\x00\x00\x00\xf0?'
p31
tp32
bsS'inp'
p33
g18
(g19
(I0
tp34
g21
tp35
Rp36
(I1
(I40
tp37
g28
I00
S"u\xe3\xdf[GP\xca?\xdb\xb6m\xdb\xb6m\xdb?\xeek\x99,r\x80\xe0?\x7fNX\xc3;\xa3\xc7?\xf9\xf7\xd6\x11\x94f\xd3?U?'\xac\xe1\x9d\xd1?\xf0\xad#(\xcd\xa6\xcb?lxg\xf4R\xfd\xcc?L\xf5s\xc2\x1a\xde\xc9?\xf9\x18\x9c\x8f\xc1\xf9\x98?i6\xdd\xf8\xf7\xd6\xb1?\xd1*0\xf6\x94\x87\xc8?7\xdd\xf8\xf7\xd6\x11\xc4?\xb1\xa7<\xc4\\h\xc5?\xda\x95\xa8]\x89\xda\xd5?\xee\x8c^\xaa\x9f\x13\xd6?_\xcbd\x91\x03\x84\xd4?\xfb\x18\x9c\x8f\xc1\xf9\xa8?\r\xef\x8c^\xaa\x9f\xa3?\x0e\xef\x8c^\xaa\x9f\xc3?\xbb\x12\xb5+Q\xbb\xb2?\x04\x84\x14\xf7\xb5L\xb6?\x0e\xef\x8c^\xaa\x9f\xc3?8\x1f\x83\xf318\xbf?\xbb\x12\xb5+Q\xbb\xb2?\x9e\xd1K\xf5s\xc2\xca?\xa6\x1b\xff\xde:\x82\xd2?\xda\x95\xa8]\x89\xda\xd5?B\x8a\xfbZ&\x8b\xcc?L\xf5s\xc2\x1a\xde\xc9?-r\x80\x90\xe2\xbe\xc6?i6\xdd\xf8\xf7\xd6\xc1?C\x8a\xfbZ&\x8b\x9c?\xc5}-\x93E\x0e\xb0?\xe6B\xab\xc0\xd8S\xae?M\xf5s\xc2\x1a\xde\xb9?\x0e\xef\x8c^\xaa\x9f\xb3?\xbc\x12\xb5+Q\xbb\xc2?M\xf5s\xc2\x1a\xde\xb9?\xb1\xa7<\xc4\\h\xa5?"
p38
tp39
bsS's'
p40
g18
(g19
(I0
tp41
g21
tp42
Rp43
(I1
(I17
tp44
g28
I00
S'>\xc5\x07}\xb5\xb9\x06@\x181\xbab\x90\x11\xe9?(\xfe\xd2oR\xf4\r\xc01\xfc\xb3\xa0\xf9\x15\x04@\x02\x06#_W\x1c\xf0\xbf\xb8NrR\x08,\xf5\xbf\x9bP\x1d\x88\x18\x81\x0c@\xdd\xc4\xbf<y2\xeb\xbf\xe8T\xd4\x13$\xb6\xf7?l\x9e\x96i\x1a\x8e\x95?V\xc5\x8a\xf3Ik\x0f\xc0hgK\x90\x92\xb0\xf2\xbf\x07nW\x16\xfc1\xf4?Y\x8ak\x17a\xc1\xeb?\xc4EA\x180\xd1\x00@\xb5\xfb]\xc1\xc8\x9d\xe2?\xa0\xdb\xd4\xdc\x04 \x11@'
p45
tp46
bsS'np'
p47
(dp48
g21
g18
(g19
(I0
tp49
g21
tp50
Rp51
(I1
(I17
tp52
g28
I00
S"\x04\xa8'jm\xbe\x07@\xaa\x11\xa3`\xe4}\xfb?\xbcb\xd8\x92Z\x80\r\xc0\x9c\x15\x86\xc3\xe5\x83\x00@!M\x90$\xbd\xc9\xf8\xbf%\x00\xa3\x95\xf7\x13\xe8\xbf\xc0\x90e\xa2 v\x13@\x1fW\xab\x1e\xa7\xfd\xe8?\x80.\xd5EO[\xed?/\x05\xbdc\x17O\xba?\xf4A=\xf9'\xf4\x0b\xc0^\xc7R\xba\x01\x82\xc6\xbfrm1\x1dG\x81\xf2?[@?On1\xe6?\xbfi\x83\xd4\xcfA\t@\xe0G\x17\xad\x8d+\xee?P\xf0\xdd\xd7t\x9d\x14@"
p53
tp54
bsS'w'
p55
g18
(g19
(I0
tp56
g21
tp57
Rp58
(I1
(I17
I40
tp59
g28
I00
S'\xee4\xc0#X\xc9\xe6\xbf\x17\x8dk\xd6\x1a\xa6\xe1\xbfP\xb9\x1e\xe2\xb2\x96\xa1?\x8fM\xb7c\x82w\xde\xbf\xd7\x10\x18~\x16\x9a\xa0\xbf!.@&\x8a\x19\xc5\xbf\x94\xbf\xf1\x8e\x96J\xe2\xbf\x064\xe5\x06%#\xca?/\x16Z\xf1\\\t\xe6?\xf0HP\x9c\xfa\'\xe3?\x1e\xfa\xdb\xdf\x1b\x17\xcd?\x02\x03\xff\xe1\xacH\xe2?\xbeH\xcf|\nU\xc4\xbf\x1d\xc4s\x0b12\xb4?9\xd823\xa6\x8f\xd2\xbf\x06S\xd7\xec\xc3\xe8\xa3\xbf\x01?\xcaa7\xd3\xe7?\x84N\x85\xaeV\xed\xe2\xbf\xbdI\xd1\xf9\x9e\xbf\xe1\xbfR\x99Z\xc6\x849\xe3\xbf\x85\xf2\x99\xa0\xe2\xbe\xc6\xbf^\xfa;\x11\x86\x01\xdf?:\x0f\xe1d\x15|\xe1?\x04;\xc7H\xf6T\xe3?O\xfd\x99\xfe\x05\xaf\xe6\xbf\x13\x9f\xda\x1e\x01i\xcf?P\xbd\x95:\x88\t\xe2?\xf4\xa1\xc3\x02\x8a\xc7\xe1\xbf\xc2\x07\xac5=`\xe5\xbf\xb2\xa1@""\xe9\xe4?Z\xc5\xa4y\x1a\x86\xe4?\x1ay\xfb\x08n,\xd7?\xa4\x9eS\x16\xa1}\xd1\xbfT\xe8\xfa+\x03\xc3\xd5\xbfr@\x88G\xc3\xb5\xd2?\xc5\x00\x13,\xa4\x80\xcd\xbf\x81\xa4\x90\xd7\x0c\x07\xc3?@\xa1n-_4\xb5?}\x04\x03\xe3\x0cv\xe4\xbfI\x91\x10^\x92\x85\xe2\xbfn\xd8\x13\x00\xee\x92\xe2?\xde2\xa6\x97\xbf\xf1\xd9?r\xd6\x07\x95\xb1\x7f\xe6\xbf\x02\xfd8\xdf\xd5Z\xe6\xbf\t\xc3\x0f \x87\x07\xb5?\xae[kS\x8bZ\xe1\xbf\x83\xe1v\x88q\x1b\xb3\xbf\xcf\xdc<\x8d\t7\xd2?\xddEE\t\x8f\x9c\xd1\xbf\xb9\xbc\xf2\x02\xde\xc9\xb8\xbfR\x11\xa3s\xbd\xb9\xd7?%aN\x90.\xc6\xe5\xbfNE\xc9\xf4\xe8_\xe9\xbf\x02\xd8\xf3\x8b\xef\x1c\xdf\xbf\xf6\x063$G\xf4\x9e?\xb9\xe3\xb0|r\xe4\xe7\xbf\x12\x13\xf9u\xea`\xd9\xbf\xc2\x18\x19s\x91.\xea\xbf\x1bp2]\x8cl\xd1?\xb9\xa4\xdde+z\xd1?N\x1a\xb1\xd2\xc4\xb6\xc9\xbf\x07\xc6bj1\x04\xa2?\x9f\xc1w1\xbb\x95\xe2?9\x84.*5/\x7f\xbf#5\xacL\xb8\xaf\xac\xbf\xc5E}E(\x9b\xe0\xbf \x84\xcd(\xe5m\xd9?\x81\xef*\xc9\xf7\xb0\xc4\xbfOB\xef\xd5\t\xbc\xdc\xbfA\xeb\x11\x8d\xd2O\xe8?0\xc1\xc9\x9b\x04\x0f\xd3\xbf\xb6|\xaa\t\x92\x02\xf0?\xeb68\xd7\x8cA\xd1?n#\xeb\xda\xa36\xdf?U\x99\x0b\xdcD\x88\xe4\xbf\xb2\xddV\xdd\xc9\x91\xc6?\xcd\xda\xf2\x06z\x15\xdb\xbf\x16t\x9b\x16H\xcd\xe2\xbfs\x90>O}\xde\xc3\xbf\xd9\x83mi\x864\xe1?\xfd\xba|\x9b\xaco\xe9\xbfhI\n\xe0\xe2\xf7\xe9\xbf\xd6\xed{\x84\x11\x92\xac\xbf\x19vU\xb1\xa48\xd6?\xd4.\xa4\xf7!\x94\xe4\xbf\x07\xfbo\xe3t\xff\xd7?\xaa\xfc!\x08}@\xcd\xbf\xf3\x0f\xa6B\xf5t\xd3?\xb4\xd6M\x7fT\xd4\xc5?r\xdd\x9c\r^}\xcd?\x07\x13\xdf\x01\xdd\x13\xe2\xbfD\xb5\x1a\xf9\xcb+\xd9?\x8e\xf5\x1d\xa5aL\xe3? \xae\x8e4\x8c\xeb\xaf?\x92\x1e,\x1b\r_\xd0?\x90\x8a\\B\xf18\xdd\xbf\xa3\xc9t\x97\xf50\xe5\xbf\xde3-8+\x01\xe2?Vb-\x96<M\xea?\x05\x15"}\xa7P\xe8?\x19WX\x96\xdd\x98\xa5?A\xa7\x15\xd3\xe2\xbb\xe7?\xcb!E^\x12\xda\xd5\xbf\xef4!\xf1\x05B\xd5\xbf\x077yx\xa4V\xd2?U\xf7zt\x90-\xd6?\xb33\xabU*\xa3\x96?v/%4\x07\xa9\xdc?\xede\xd9\x05\xf8\x19\xd0\xbfpl}"\xcb\xdf\xda?\xda\r\x9d\xc5~\x94\xd7\xbfg\x0f6\xc43\x07\xe3?@\x16\x1bF\xb3k\xa7\xbf\xa83\xe8v\xe9M\xe1?W]okm\xb2\xe2?\x1f\x08P\xcd\x16\xaf\xc5?\x93f%\x0c=\xa2\xc0?\x8ckZ^\x965\xe0?M\x1f<\'X\x85\xa8?\x15\xda\x83f\xc2\xaa\xe6\xbf)\x07\xf9B\xba\xd2\xdf\xbf\xed\xfb\x85\x9a\xca \xb8\xbf0\xd6\xf7\xd6\xbb\xb0\xd2?[SC?\xc36\xc1?\x97@\xf2\x91*\x9e\xe2?O\xe9\x08\xab\x9c\xf5\xe4\xbf+\x8cr\xa2\xb6=\xb1?\x8fp\xf7\xe9\xb7\x05\xd2?\xbfvV\x86\x10j\xe7?c\xb6N]\xdb\x19\xde\xbf\x11\x98;W+u\xd3?\xa8\xcb\x91\x9f\x93\xa4\xbf?g\xf4#xR\xc8\xaf\xbfg\x81\xa9C\xbe\x90\xa4?\xf3\xef\xcaY\x1d\x7f\xb6?H\x00\xd6\x0b]\xbb\xe1\xbf\xe8\x0esf&v\xd9?\x90B<%\xa54\xdd?f\x82\xa0\x92\xf7,\xa8\xbf\xaf\x8796Hx\xd2?\xbb=0\xf7F\xb2\xb1?\x92\x03\xc0\xe9\xa3\x02\xe8?\xf8\xd0\xa9\xd0X\x9d\xe4\xbfn\xb1G\x8bU(\xe0?ex\x04 \xfe%\xe2?u\x88\xf9n\x86#\xe8\xbfvP\x94\xcf\x11w\xed?P\x9b\xb3\x9f%\xa0\xe1\xbfkYw\x0f\xd4@\xd7\xbf\xf0\xf7A\xe0=\x91\xc8?\x04\xd8\xd8\x84\x93\xa2\xd1\xbf\x8a\x10\xa8\x98\xc6o\xec?\xe3\x12!\xc0\xd0\xec\xd2\xbf\xec\xa6\xac\xd3\xd3\xa4z\xbf\x0b%\xc4h\xde(\xd8?k\xdc^c4c\xdf\xbf\x99m\xc9SG\x7f\xca?\xd0\x8d\xd4\xe9qJ\xef?\x03\x9b\x83\x15M\xb3\xd2\xbf\x87\xf0F\x9e\xb8S\xc9?>+\nB\x04\x07\xe9\xbf\xe4\x8d\x0c\x93BU\xd8\xbflg\x12\x9c\x1b\xb7\xd5?\xf6}\xe0\xad\xf6\xb2\xe9?\xd3\x85\xec\xb8Q\xb4\xed?\xab\xf7\xaa\xd9\x85\xe1\xea?\x88\xb0\xaf\t\xae\x90\xeb?\xf8\x8e\\+@\xd2\xd8?\xb3\\\xec\xbaK\xe4\xe6\xbf\xbf\x96\xcb\x9eD}\xd3\xbf\x17\x0f\x0c+<\x89\xe1?/{\x7fz\xe5\xd3\xdc\xbf]1\x14\xc7>e\xbb?\xa9\x1a\x9b\xbf\x15\xa0\xe3\xbfu\xc4R\xdd.\xf2\xd6?H\xe4\xbf\x12\x06\xbb\xd5\xbf\\\x17\xe6\xde\xaaK\xec\xbf\xa6\x13)\xbb$\xae\xda\xbff\xaf\xf4\xaf\xb3\x81\xd4\xbf\xe6\xe5~%\x86\xbb\xd4\xbf\xd9 \xe2HI\xf9\xe1\xbf\\\x1e\x89szD\xe5?\xcb,\x98\x86a\xf8\xb9?]\x15@\x7f\xc6y\xd1?\xbd\x1f]4\xd2$\xda\xbf1\x14\x0c\xc5\xa4~\xda\xbf\xf1\x00\xdd\xda%\x90\xe9?\xf6j\x1c\x8f@`\xcc?+\xad\x9f\xe2R\x14\xbe\xbf\xcdd6\xd6\x8c\x08\xe9?gP\x1b\xbd\x97\x02\xe7?\xfa\xae\xa1\xdf\xc2\x85\xd3\xbf\x80\x12}m\xa2\xb8\xb2?\x0389\x01\xe7\x0b\xd1\xbf\xf4\x0f\x149\x0b%\xd7\xbf\xc8\x86\xee:\xd7\xdb\xd9\xbf\x82\xee\n\x98\xf0\x9d\x97?[NJ\x89\r\xcc\xd8?\xc0\x91/_\xae>\xd3\xbfY\x84\xd0\xabg\x96\xe0\xbf\x04\xf0:\xea\xfd\xc3\xa2?\xea\t:#\xf4\xac\xeb\xbf\xa2\x0f\xba\x9e\x8a\xe1\xd1\xbfZ\xc7\x08\xcf\xc2J\xec\xbfY$\xa3\xfb{\x1f\xcb?\x9d3R\xea\xe7T\xed\xbf\xcd\x90\xf2\x0b\xb6\xd3\xaa\xbf\x17\xf6\xc2\x81S\xb5\xbc?Z\xb2.{\xdc\x13\xf2\xbf\xb1\xaf9lu\xc4\xe4\xbf\xc9\xac\xbb\xa8J:\xe0\xbf<\xd3\xf2\xf6\xa1A\xe9\xbf\x10\xba\x08\x87s\x14\xf1\xbf"\xd2\xb6\r\xbd\xf2\xe4\xbfG\xf9y\x95\x04P\xc7\xbf\xdfL\xb6\xe5Y\x97\xd4\xbfkdl\xee\x1eU\x9d?\x1d\x11\x88#\xab\xa4\xee\xbf\xf4\xe47KR\xd2\xcf\xbf\xf9\x99\xa7b\x86\x19\xe3?\x91\xe2\xbea\x17\x13\xd4\xbf\xef"\x9d\x17\x84<\x9b?\x1a\xdb\x0c\xcf\xa4\x16\xe9?\xb8\xd6q],\xea\xef?\xd3$n\x156\x1b\xf7?\xf0jw\x82\x7f"\xe9?\x14\xbf]%\n\x83\xe0?\x86\x14\xbe\xe1\x86\xf3\xea?\x88t\x94v\xf7\xd3\xad?\xb8\xc2\x061\xa1_\xe6?\x06,@\xc7\xb5\xf9\xdf?.!\xb5=\xc9\x8f\xe1?\xcb"\x07\xaf?\x8c\xe6?.\xad$\x96\x13\xa2\xc0?m\x7f\xa8\xd0\x88\xbb\xa5\xbf\x01\xda^\xa4\xc2K\xc8\xbf\xf8\xd6i\xfc\xeai\xcc\xbf8{\x85L\x8el\xcb\xbfj\xb0D\xb4\xaf\xe8\xeb\xbf\xf2\x12Eg\x02\x94\xc5\xbfld\x06\tJ9\xe3\xbfA\x9d\xb4\x02\x8dj\xd7\xbf\xaa*kOe\xf1\xe0\xbf\x84\xf4g\xec\xdc\x02\xbd\xbfqN7\xe6\xb3\xdb\xe2\xbfF\x9ag\x06q}\xd3?kE\xaf\xe7\xaa*\xda\xbf\\\xd5H\x19\xc0H\xc7?B\xf2\x9ck\x1di\xea?R7\xdb\xee\x13\xce\xb1\xbf\xf1\x01\'\x05.\x89\xe0?\xde\xb6{\xe7\xa1\x17\xd3\xbf\x0c`\x85\xae:\xac\x8f\xbf\x9c\xd8N8Gj\xc7\xbf0\x06p\xb0\xef~\xe3\xbf\xa7>\xf8\xc1\xea\x1d\xe7\xbf\xcd\x1do]H\xfa\xe6\xbf\x8cNU\x1f\x9b\x98\xd9?\xcf9\xa4\xd0\x10\xd6\xce\xbf\x11\xea\xde\x009\xe4\xd2?H\xde\xbd\x13\xfc\x10\xd0\xbf\xfb=\t\x91\xee3\xd6\xbf\xfc\x0f\x15\xd6\n\xa3\xe8?\xd5\xd9\xd5\xa7s\xdd\xcf?sD2\xcds\x9d\xd5?8\xc04\xd4\x0e\x06\x93?Q\xc6\x17E\xf9\x8d\xe7\xbf}\x95\x87\x17\xa5b\xc9?b\xb6\x06[,-\xd8?zV\x14\x9b0\xf1\xe6?\xa84\xfb\x94W\xe2\xdb\xbf\x16T\xfc\xb3r\xce\xde?\xfdS\xa6\xc0\x8fR\xb2\xbf\xe1\xb5\x17\x1cKC\xd3\xbfu\x0f3.\x06\xbe\xc4?\xdc\xb6\xf7\xb4\x0e\xf5\xd9\xbf\xeaXi#Y\xbf\xe6\xbf+\xde\xa6\xe8\x1b\xa4\xe8\xbf\x01\x81sx|\xb1\xe4\xbf\xfb\x0c\xcc\x99v\xe8\xda?N}j\r\xedS\xc8\xbf,\xca\xf5\xb0\x84+\xe0?\xfa\x0e=\x08\x1bc\xe7\xbf\xe9\xa0I_\x99\xda\xe5\xbfD\x8c\xee\xbd\xcbV\xdb\xbf!\xeb\xe1\xe2\x89\xe9\xe8\xbf\xe3\xba\xffF\xcb\xbe\xe9\xbfQ&*\x93\xfbf\xbd?`j\x99\xd2\x92\xaa\xda\xbfS\xf5\xe8\x80\x1b\xb8\xd5?\xac\x1cB\x05\xbe\xbd\xc5\xbfse\xc6Nn1\xcf\xbfeN\xcb\x18Y\x99\xe1\xbf\xed\xd4\xafh\x81\x7f\xe6\xbf\xfb\xcaX\x18L\x02\xe5\xbf\x04\xc7l\x90\xef,\xd2?8\x18V\xcf\x17\xeb\xd5?\x07\x08\x01\x83\x8d\xa7\xd4\xbf\x0b\xdd`Hv6\xe3?\xd0z\xc2\xc2\xb7\x0b\xc4?8=\xef\xc4\xac\x81\xcd\xbf\xcaw\x0f\xb3J{\xee\xbfm\x82,\x07~\xfb\xd3\xbf\x19fqO }\xf1\xbf2q\x91\xc9_\x1c\xdc?<\xda\x92\x80\xf9.\xe0\xbf<\xcc\xae\x0e6\xe8\xe3\xbf\xb8\xdf\xd9|\xde\x1d\xc6\xbf\xa2\xc55\x86\x13\xff\x9a\xbf\x7f\x9d\xcf\xa7\xc5V\xe0?\x91V\xec\x04\x94`\xdf\xbf\n\xbf\x16$\x80T\xea?\x8a\x83\xf3\x96\xd0\xdc\xd4?\xeb\x0c\t\xaf\xc9I\xce\xbfi\x8bx\x0c\xf1\xe0\xe3?G\xec\x1d\xafM\xcc\xc9?\xc3\xb7\xdc\x91\x81I\xc9?\xec\xe9\x95\x89\xef\\\xe3\xbf\xa6\xb4\xd8~iG\xcc?\x9a\xc0\x87F\xa0\xdc\xe0\xbfF\x8b\rxP<\xe9?b\x84\xc6\x8e\tu\xd1?7\x87J\xe3\xd8\xec\xe0\xbf\x85\xe7\xe4\xdf\x9f-\xdd\xbfE\x1e\xbd\xffs}\xe2\xbf[\xed\x16\x07<\x18v\xbf\x86\xc6d\x9aL\xa5\xce\xbfcz\xeeq\xda\xb1\xba?\xd9?\xc9\x14\xfd;\xd3\xbf&}[\x1b\xd7l\xe9\xbfT\xb3\xa3fJ\xd3\xc0?\x99\x13\xc9=\xf3#\xe6?\x84\xb8\x9bm\xa2\xe6\xe4?\xce^5Zz\xae\xdd\xbfdS\x1e\xa8\xbd\x9e\xe3?Y\xa1\x8fLf\x80\xd3\xbf\x0b\x1b\x1f\xcc\xa3K\xe8?\x12\n\x96\xc6\x8e\xd5\xbc\xbf\xea\xd7\xcd\xe11j\xe5?@\xdc\x87\xf0{\xc9\xa4\xbf\x8e[n\x88\x0f\x83\xe7?8\xb17b\xce\xbc\xc3\xbf\xc98\xa85c\xb0\xe2\xbf\xf5\xdbK\xd0[\xb6\xdd?\xd1V\xd8:VG\xd5?_\xf2\x86\xd9s\x03\xeb?\x17\xb4;\xd6C\x11\xd5?rfal\x8f\xda\xcc?7\x0b\x8b\xb7\x9b%\xba\xbf\xb1\xa6\xf3,n\x9f\xdb?\xf8\x0f\x8a^\x1d\xe6\xe0?\x97\xbe^\xb2\xfd\xf2\xc3?\x02\xe0\xf3do/\xce\xbf\x07\xab\xbe\xb0\xb7m\xe6\xbfx\xb1\xc7\x9a\x03\xa8\xde\xbf"\xf4\x81\x85\x07$\xd3\xbfI\xfb(\xf3\xca;\xd0\xbf \x18\xaf\x1c\xa8m\xc2?\xa7\x19\xda\x93vx\xd4\xbf$\xfc(\xb7\xb6]\xe0\xbf\xa8kG\x8fx\xad\xe7\xbf\xefR\xbb\x8f\xa3r\xe2?\xfc\xc3\x03\x1aa\xc7\xcd\xbf`X|\xa24.\xdf?\xb9\xdbR\x17`5\xec\xbf:\xe0\x8f\xdd\xe5\t\xdb?\xf0\x132?\\\x99\xae?\xd4i\xf3\x07\xcbu\xe9?\x0e\xb5\xcc\x81YE\xeb?\xa7\xa7\xd0zi\xd0\xe4?\xc3\xbdT\xb1`\xad\xe2?\xd4u\xb3\x03\x95\x0c\xd5?3\x9e\xd3\xe8Ra\xec\xbf\xe9\xc8\x16g\x10\xce\xd3?z\xcb\xb1\xca\x98$\xd7\xbf\xb8\xcf\x83\x0fS\xa2\xc3\xbf\xad\xde\xe1e\xe2D\xcd?Z\xccK\x8f\x19B\xe4\xbf\xe5\xde\xf0N\r_\xb1?VK\xe6T\x99D\xce\xbf"\xc8G\x84Qz\xe6\xbfS\x9e}\x0f\xfc\xde\xc2\xbf\x17~*\xc6x\xb5\xf6\xbf\x0b\x89\xf0\xc3C\xd9\xf0\xbf)\xe9\xc6\xf5\x8a\xf4\xe9\xbf\\7\xcc\x9c\xe3\xab\xcd?O\xcc\x0cI/\xba\xda?Xz\x9e\xe6CA\xcb\xbf\n\x87\xf5\x9aC\x95\xc9\xbf\xab,\t*\x1c\x92\xd1\xbf\x7f\xbe\xc33\x0f\xc2\xe0?>\xb8\x81\xd9\xd9\x90\xe6?J\x9e8yX^\xe7?\xb7z)\x14\\V\xd2?\x0e\xc2\xd9c\tH\xd8\xbf%\xfa\x92w\xaf\xc4\xe0?6\x00\xcb\x83\x95\xdb\xd6?\x85h\x12\xffj\xb2\xca?\xe3\xb3\x11\xdb\xb5\xb1\xe9\xbf\x0ch\x1a\x96Z\x10\xd0?M\x8d\xfc\x87&$\xd2?T+\xd8b\xfcl\xdc\xbf0\xc2\x99N\xf1\xe0\xe5\xbf\xaa\x15,_)1\xc2?\x1d\xaad\xb9\x87\xdd\xe4?(\x90S\xd5o(\xe1\xbfm\x12<Jp\xd2\xc6?\x88\x16\x17\xee:\xa4\xe7\xbf{\xd0\xb0\xeb\x8aU\xe0?e\xfa\xb6uf;\xc4?\x1a\x829\xc9\xe9*\xd5?\xf2/\x90\xc4\xf0m\xe4?Tm\xc2g(\t\xe9\xbf\xce\xb35\x9b\x97\xe5\xe0\xbf`\xaa\x9e!\x05\xda\x87\xbf\x90\x96\xf0\xa4\x17\n\xba?_\xf5\x10n\xcb\xc1\xe2?7\xf2>V\xb6F\xc7?\x98\xa9$\x9b\x9c[~\xbf\xee\xf5\xa5\x0fEb\xea\xbf\x1c\x1d\x1cn\xf5\x10\xbc?\xf9Tssh\xd2\xcc?\x8f\x83G\xe3\xa8\x15\xd0\xbf\xfb-kH<[\x9d\xbf\xd6\xb6Z\x8b\xado\xe7?\xabIM\x15\xf4\x88\xe5\xbfE>\xb9\xe0\xd3\x1d\xca?\x12\x9c\x04\xdbj\xc7\xbb\xbf\x04\xecji\x8b&\xd7\xbf\xa1\xd9\xcefx\x8d\xd4?\xf7\x8fl\x06W\xf7\xb7?lq\x8e\xbf$\xc6\xe8\xbf[\xcc\xc2\xf9\xb9\xd8\xe3?l\'\x91\xde]Z\xd6?\xacA*\x87\xcb\xd2\xdd?\x14\xd4\x0e\xb0\xac\xa6\xb1?\xa4\xd5\xf2D\x99\xa8\xc2?\x8bu;\x8a\xc5\xf3\xc0?\xfb\xc6\xf8\x16\xd6\xcd\xd2?M\xec\xb1)EQ\xd5?\x1f\xb828\xa1$\xe2\xbf?B\xcb_\xea@\xbe?\xb1U\t\x9cz\x0e\xf2\xbf\xb9\xa8\x96I\xc0\xfe\x9e\xbf\xc8\x06=\xd6\x8bu\xe9\xbf\xa8\x17z\xfd0\xaa\xc5??\xdb\xe6V\x8f\xe3\xe4?\xe5e\xf67\x1a\xe5\xd8\xbf\x1f\xe69\xe9\xca\xf1\xac\xbf\x9c\xfd\xbc\xddg\xe8\xc2\xbf.\xc9d\xcbIb\xed?\x89\xdfM\xc4\x11d\xe5\xbf\xe1\x94\xee\x86\xcf\xfd\xde\xbfX\xf1\xce\\Z\x1c\xdd\xbf\x8efD\xca\xccO\xda\xbf"\xc76\xc6<\x18\xe3?\xca\xad\xc5S\xaf\xfb\xd8\xbf\xea\xc3\x87Np\xeb\xcd\xbf\x0c\xfa\xfb$dD\xe1\xbf\xe6Ll\x9b\x152\xbb?$\x13\x14\xae{\xd0\xec?U? \xc2AA\xeb?\xbb\xdb\x8b%\xab!\xd5?\xee\xf2\xb8?\r\xd3\xe8?\xa0=qM\xab6\xb5\xbf[\x07\xa6\x84\x8b(\xc8\xbf\xa3\x86\x12\xc6\xe4\x9e\xaa\xbfEmE\xf58h\xe6?\x98\xb8\xf8\xe5\x1f\xcc\xc8\xbfQ\xff\x05\x06\x01\xfe\xde?\xe4%o\xfb\xd7\xf9\xde\xbf\xf9\x98\xe2\x8a\xcc\xfa\xc2\xbfo\xc6,ER\xba\xe6?\x9f\x05\x99L\x8f\xc6\xe1\xbf\xfb\xad\t\xef\x06\xdf\xe6\xbf^\r\xbd\xbeW\xc8\xde\xbf\xfd\xd8\xe3\xe5\x13c\xd4\xbf"\n\xc3w\xff+\xe5\xbf{\xc9\x80q\x11\xe5\xea\xbf\\\xf1\x9al\xe2\xf4\xcd?\x1c\x87\x1a;F\x02\xde\xbf\x0b\xf4h5\x1d\x16\xcf?\xd9\x92\x95\xf7\xca\x8f\xa1?\x02\xd1W\xbe\x18\x9e\xe4?"\xc1\xd5\x96.\x88\xba\xbf\xd26}xi\xf5\xc3\xbf\x83\x1a\xedh~G\xe3\xbf\x93\x01\x17A\xcb*\xe5\xbf\x91\x12\x03\xdcmg\xe2\xbfW\xbf\x0f\x8a\xb5\xb5\xea?%5w\x92.q\xae\xbf\xb9\xe06<\x9cK\xe2\xbf<\x8aJ:\xa9\xa0\xd0\xbf\xaf\xec\x15\xf9\xc4p\xd3?\x8d\xfba\xf8L\x81\xe1?\xfb\xb5\x19~\xc5w\xcb?\x8cU\x05\xd0\xd4Z\xe3\xbfsBdMZ(\xe6\xbf\x89R}\xb1Q\xcd\xe0\xbf\x03z\xbd%e=\xe1\xbf\xac\x83I\x15\xab\n\xa9?\xd0\x96\xc2\xf9\xce\xdd\xd6?iPeEw[\xb0\xbf\xdc<\x16\x14m\xd9\xea?\xe6\xc3\xca\x8f\xd6\xfb\xd2\xbfj\xbd\xc5\xc8Q\xdb\xb8?\x9c<\xa6\xb7z\x81\xe4?\x9cVUe\xbe\xae\xc3?|\xb4\xfa\xe2U\\\xd9?\x1a=\xf0\xc6\xa8"\xda\xbf\xec\x95\x01\xc4n\x04\xd3?y%ZL5m\xe1?R\xdc\xfc\xac\xb5E\xec\xbfn\x87\xfc\xc7\xfd(\xcc\xbf\xbb\x81\x03\xcb\xf5[\xe6?YY\x10\xd6\xf5/\xe4\xbfB\x17\xa9i)\xee\xbc?0I\xff{n\xfe\xea?\x89\x82\xed\x05\xf6\xb2\xd0?x\xa4c\n\xcb.\xd1\xbf\x93P\xf2\x03\xd3k\xcc?_\xa4\xd8}\xb0Y\xe4\xbf\x055[\xc4\xc3\xdf\xe0\xbfIu\xa0\xb3\x1b\xf4\xcf\xbf-8,\x17\x9fy\xe0?\xb4\xf5*\xc3\x1c\x92\xdf?\x19\xf8\x8f\x7f=\xf0\xcd?Z\xbb\xb0\xbb\x977\xe7?\x87\xa6\xd1`\xb5\x15\xdd?\x05\x8f\xd7V|\xa5\xe1\xbf\x85&c\'\x1b\xfe\xe5?-\xc0\xc4W\xa7\xb4\xd3\xbf\xf40\xc0(\xf9\xed\xd9\xbfccz\xe0\x06\xad\xe8?\x85|x\xe3-\xec\xd7?\xa5!\x00^\xf5\'\xe7?\xd6\xd9x\xb3xU\xde\xbfp\x0c"\x85\xad\x17\xe1\xbfjC^\x16*b\xde?\x99N\xab\xe1\x9a\xb6\xdc?\xc4\xdfe\x8ad\xfe\xe3\xbf\xecc\xd6\xe3\xce\xfe\xe4?["\xefl\xe4\xe2\xe0\xbf:2\x1fVKS\xb0\xbf\xdb\xf8\x13)\xfa\xa7\xd7\xbf\x9a\x027\xb6\xef\x8b\xb0?\x95O\x95\xe3\xc5\xc1\xcf\xbf\xc4\xef\xcd5\xceS\xd5\xbf\x9d\x1c\xc2I=\x06\xe9?\x1d\xca\xd2\xd7]\x80\x95?\x81\x82\x02\xfer\xa3\xe7\xbf\x7f\x9c\xd0s\xec?\xcd?\xbe_\x14\xb0\xa9\xf3\xd0\xbf\xfb\xce o^m\xe2?\x85\x0b\xfe\xc8\xe2\xf4\xd8\xbf\xe1\x84\x8cti\xeb\xd6\xbf\xae\xca6\xce\x08\x0f\xcc\xbf;\xb0fS\xe5\x84\xdc?id\x07\xe6\x15J\xc6\xbfM\x14\xfb\xd5.\xce\xce\xbfF\x16&\xe5c\xb3\xd1\xbf\x82\x05\x8b\x9c\xd5\xaf\xd3\xbf\xdeS93`J\xd1\xbf\xe0q\xbe\xf3\x8f\x86\x91\xbf\x83\x19>\xa7i\x9e\xc1\xbf\x1c8/\x08_F\xe5\xbfV\xc5>O\xa2\xeb\xeb\xbfL\xd4-\xd4\xd3\xab\xe3?\x02\x1f*\xc7\xc6\xc2\xcb\xbf\xe6Cw>\x1e\x17\xe8\xbf\xf6y\xc8\xe9\x12\xef\xe0\xbf\x9eN\xbfhik\xd4\xbfF\x04ZR]\x99\xe5?1\xd5}\xfc\nA\xc4\xbf\xd5\xb3&\xe1\xc2\xbd\xda?U\xbdjc\xed\x1d\xa0?\x821\x95\xdfa\xf5\xd0\xbf\xbdj\xcagd#\xdb?\xa3\xe3\xf3\'2\x12\xe0\xbf8\x9bb.\x84\x92\xde\xbf\x9d$wP\x15\xec\xd3?\xd6 L,R\xa7\xe1\xbf\x05\xe6\xb5\xa8\xbb\x17\xec?,\xec\xeb\x800l\xa0?\xcc\xe7\xb1\xd4\xacs\xe0\xbf\x0c\x14\xb7\x9f\x92\xcc\xd7?n\xaf\xe7\x05\xd9\xcd\xe0\xbf\xa8\x8ev\xb4\xb3\x19\xe0?\x8f\xe3\x96\x02\xb0\xdf\xe9\xbf\xd5;@\x062u\xdb\xbf\xf2QV\xdc\xd8\xe5\xe7\xbf\xf9\x0e\xdd\x99\x08\t\xdb?\x93i\xc3\x1f\xb5\xc2\xcb\xbf\xa1b\x8b\x86\x00\\\xe7\xbf\xb1\x9c\x8e\x85\xa9+\xe6\xbf\xd4\x0cIu!\xb1\xdc\xbf\xd9j\r\x92\x8fs\xd2\xbf\xc7\x1a\xac\xe5\x19\x06\xbd\xbfG\xa7fDI4\xd8\xbfI\x94\xe6#\xe4\xca\xd9?\xfc\x9e\xd7Q\xae)\xc9?=\x9c5\xb5\xecd\xe3\xbf\x9eJ\xbc\xdc\xb2\xb1\xd2\xbfX\x8cM\xc0B\x83\xe6\xbf\x0f\xe2\x89\x04.\x0e\xcc\xbfJJ\xa2\x0b\x8b\t\xde?9\xba\xb9\rB\xe2\xe5?\xc8\xd5\x1d\x86\xc7\xd1\xde\xbf7\xa4\x88(\xe1N\xe3\xbf\xd2t\x16\xc7\x9ef\xd0?\xcc\x87N\x05<\xe1\xbc\xbf%r\xf8xV\xbd\xe2?(\xcc$\x9a~\xe2\xe0?\x0e:\x9c<\xe2\xf4\xe4?\xaeK\x15\xa1\x08\xf0\xd2\xbf!\xa4\xa9\xb3m?\xdb\xbf$\x99P\x04\xa2\xa9\xe6?_\xfb\xb3x\xc3\xc3\xdb?\x1e\xe6\x9b\x92\xf7\'\xe0\xbf\xcc\x19Hf3\xb2\x91?\x9e\xab\x1c\xe3Pb\xcf\xbf\x83\xa7\xb8\xe9\xf3\xff\xe6?-\x05\x88\x8c\xa4;\xe0\xbf\x7f\xba\xfcz\xde\xbf\xc2?\x93\x1c\x83\xb1\xd9\x18\xe7\xbf/\x06\xa2\xd8/\xf2\xbd\xbfQ`t\xe9\x9e$\xdc\xbf\xbf\x01zR\x83\xbd\xe6?\xa9\x86\xd7$O\x8f\xbd\xbf\x9f\x05\x07\xf6\x9f\xb5\xdb\xbf\xcb\xdeb0k\xc1\xc8\xbf]\\\xe6\x98\xfef\xb6\xbf\x16n\x15\xd6\xa7\x82\xdf?#\xfc\xbc\x1f\xf0\xfe\xd7?:\x8drk\xd1\xd3\xb9\xbf^\xb5\xff\xf1@Y\xe9?\xcf\xda\xca\x8f\x82B\xdc\xbfN\xa8G\xd18 \xe1\xbf\xd5z\xac\xab\x12S\xc9\xbf\n\xf1p6Xe\xe7?wR\x86\xd8\x92\xbf\xd8?\xa3\xf8\x87\xc1\xcf\xc8\xae?\x042\x88\x05\xca*\xe2\xbf\xbb\xb5\x1f\xdb\x8f\xfe\xe8?~Xh\xac\x02\x06\xe8\xbf\x89\xbf\xce\xa4\x8d9\xd5?D\x96\x9f\xd0\x10\x1f\xe0\xbfj\x1d\xecd\x00\r\xe4?\xb9 H\\\n\x8d\xe8\xbf#,\xc7B\x15B\xd8?IE\xde\xea\xaa\x12\xbb\xbf\x83]\xf0\xaa-\xd9\xb4\xbf\xb4\xf0\xba)%\x86\xc9?K\x86H\xc9\xe5\xb0\xdd?q\x07%FNM\xc1?\xc4i\x01\xc1\xaft\xe2\xbf\xa4\x94\x11J\xbbG\xda?\x03\x95g\x0e\x89\x82\xc1\xbf\xaf{\xbb\xed\xdc\x1c\xcb\xbf\xdc\xd0\xed\x13Z\x9e\xe9\xbf\xff\x97[\x12\x03D\xe5\xbf\xc8\x01H\x91!\xb1\xb6?h\xfd\xbe\xc3\xd2\xf5\xca?\x100r\x1b\x0b6\xd0\xbf\xcc\x16\xc7\x17C\xd2\xde?\xbf\x88\xb9\xa2\xa4\xc5\xdc\xbf\xee\x8e<1\xca\xcf\xea\xbfp\xbb\xe8\x9cT}\xe2?\xbd\xc5\r#\x9c\x0f\xd9\xbf\x9c\x01\xa0\xe5Y\xcf\xe3\xbf\xff\x01\xbbl\x9c\x05\xea\xbf\x9c\xae\xd7\xeeA\xc4\xe0?\xaaC\xd6\x92\t\x9a\xc3\xbfcY\xb6\x84?\x14\xd3?1\x1al(\xaa"\x9b\xbf\r\xd8\tF\xd9\x8b\xae?4\x0c\xfaI\x11<\xd0\xbfAM\xeaw\xd1.\x82?1R\x9e\xfa`\xd2\xdd\xbf\xcc\xc3\x16\x1b\xb7\xf2\xe9\xbf'
p60
tp61
bssS'transf'
p62
(ineurolab.trans
TanSig
p63
(dp64
bsS'out_minmax'
p65
g18
(g19
(I0
tp66
g21
tp67
Rp68
(I1
(I17
I2
tp69
g28
I00
S'\x00\x00\x00\x00\x00\x00\xf0\xbf\x00\x00\x00\x00\x00\x00\xf0?\x00\x00\x00\x00\x00\x00\xf0\xbf\x00\x00\x00\x00\x00\x00\xf0?\x00\x00\x00\x00\x00\x00\xf0\xbf\x00\x00\x00\x00\x00\x00\xf0?\x00\x00\x00\x00\x00\x00\xf0\xbf\x00\x00\x00\x00\x00\x00\xf0?\x00\x00\x00\x00\x00\x00\xf0\xbf\x00\x00\x00\x00\x00\x00\xf0?\x00\x00\x00\x00\x00\x00\xf0\xbf\x00\x00\x00\x00\x00\x00\xf0?\x00\x00\x00\x00\x00\x00\xf0\xbf\x00\x00\x00\x00\x00\x00\xf0?\x00\x00\x00\x00\x00\x00\xf0\xbf\x00\x00\x00\x00\x00\x00\xf0?\x00\x00\x00\x00\x00\x00\xf0\xbf\x00\x00\x00\x00\x00\x00\xf0?\x00\x00\x00\x00\x00\x00\xf0\xbf\x00\x00\x00\x00\x00\x00\xf0?\x00\x00\x00\x00\x00\x00\xf0\xbf\x00\x00\x00\x00\x00\x00\xf0?\x00\x00\x00\x00\x00\x00\xf0\xbf\x00\x00\x00\x00\x00\x00\xf0?\x00\x00\x00\x00\x00\x00\xf0\xbf\x00\x00\x00\x00\x00\x00\xf0?\x00\x00\x00\x00\x00\x00\xf0\xbf\x00\x00\x00\x00\x00\x00\xf0?\x00\x00\x00\x00\x00\x00\xf0\xbf\x00\x00\x00\x00\x00\x00\xf0?\x00\x00\x00\x00\x00\x00\xf0\xbf\x00\x00\x00\x00\x00\x00\xf0?\x00\x00\x00\x00\x00\x00\xf0\xbf\x00\x00\x00\x00\x00\x00\xf0?'
p70
tp71
bsS'out'
p72
g18
(g19
(I0
tp73
g21
tp74
Rp75
(I1
(I17
tp76
g28
I00
S'\x8a\xb5\x0e{V\xc8\xef?Z(\xff\x92\xe5\xf2\xe4?\x14^\x9b\xe6\xd6\xf6\xef\xbf\xca\xfa\xe0?\xa8\x94\xef?\xde\xc9!\xce\xa8v\xe8\xbf\xd5\xd9\xa8\xecK\xc3\xeb\xbf\xcd\x91\x01\x06\xd7\xf2\xef?\xc1\xcfK\x90\xdc\x1c\xe6\xbf\x12\x80\x98F\xd7\xdb\xec?Dy\xe4\xcdI\x8d\x95?\xa0N\xc0\xad\xa5\xf9\xef\xbf\xbbs{jv[\xea\xbf\xd1&\xf9G\xe2@\xeb?\xc8\xdf\xfb\x95\xa1f\xe6?\xe8fyH\xf6\x0e\xef?\xaa\x9dm<&\xc4\xe0?>\r\xeaz\xde\xfc\xef?'
p77
tp78
bsbag0
(g8
g2
Ntp79
Rp80
(dp81
g12
g13
sg14
I17
sg15
I1
sg16
I1
sg17
g18
(g19
(I0
tp82
g21
tp83
Rp84
(I1
(I17
I2
tp85
g28
I00
S'\x00\x00\x00\x00\x00\x00\xf0\xbf\x00\x00\x00\x00\x00\x00\xf0?\x00\x00\x00\x00\x00\x00\xf0\xbf\x00\x00\x00\x00\x00\x00\xf0?\x00\x00\x00\x00\x00\x00\xf0\xbf\x00\x00\x00\x00\x00\x00\xf0?\x00\x00\x00\x00\x00\x00\xf0\xbf\x00\x00\x00\x00\x00\x00\xf0?\x00\x00\x00\x00\x00\x00\xf0\xbf\x00\x00\x00\x00\x00\x00\xf0?\x00\x00\x00\x00\x00\x00\xf0\xbf\x00\x00\x00\x00\x00\x00\xf0?\x00\x00\x00\x00\x00\x00\xf0\xbf\x00\x00\x00\x00\x00\x00\xf0?\x00\x00\x00\x00\x00\x00\xf0\xbf\x00\x00\x00\x00\x00\x00\xf0?\x00\x00\x00\x00\x00\x00\xf0\xbf\x00\x00\x00\x00\x00\x00\xf0?\x00\x00\x00\x00\x00\x00\xf0\xbf\x00\x00\x00\x00\x00\x00\xf0?\x00\x00\x00\x00\x00\x00\xf0\xbf\x00\x00\x00\x00\x00\x00\xf0?\x00\x00\x00\x00\x00\x00\xf0\xbf\x00\x00\x00\x00\x00\x00\xf0?\x00\x00\x00\x00\x00\x00\xf0\xbf\x00\x00\x00\x00\x00\x00\xf0?\x00\x00\x00\x00\x00\x00\xf0\xbf\x00\x00\x00\x00\x00\x00\xf0?\x00\x00\x00\x00\x00\x00\xf0\xbf\x00\x00\x00\x00\x00\x00\xf0?\x00\x00\x00\x00\x00\x00\xf0\xbf\x00\x00\x00\x00\x00\x00\xf0?\x00\x00\x00\x00\x00\x00\xf0\xbf\x00\x00\x00\x00\x00\x00\xf0?'
p86
tp87
bsg33
g75
sg40
g18
(g19
(I0
tp88
g21
tp89
Rp90
(I1
(I1
tp91
g28
I00
S'wA\x8a\xaaq\x89\xc8?'
p92
tp93
bsg47
(dp94
g21
g18
(g19
(I0
tp95
g21
tp96
Rp97
(I1
(I1
tp98
g28
I00
S'X\xebq\x86K\x88\xb0?'
p99
tp100
bsg55
g18
(g19
(I0
tp101
g21
tp102
Rp103
(I1
(I1
I17
tp104
g28
I00
S'x\xde\r\xa2Lk\xd9?\xe2\xfaF\xc0\xee\x06\xb7\xbf\x82\xf2\x94\xafn\xec\xc8\xbf\xac\x94\xd7i\x05\x16\xae\xbf\x9f[\xfa\xec\xcc`\xbb\xbf\xe3C\xa1\xf0)\xa0\xbe?\xe6)\x86\xc8\xcc\xb0\xcd\xbf\xa4\xc4\x9e\xfd\xac\t\xa3\xbf\xf6eY]aec?\xbcb3*\xaa\xa9\xb0\xbf\x8b\x1fg\x17>\xf4\xcc?^[\xf7+\x8e\x8e\xbf?\x06\xee|\xd1\xba\xb4\x8f\xbf\x84\xcc\xb0\xc0\xac\xf3\x8b\xbf\xac\x12\xe5D\x0e\xf5\xbc\xbf~\xa1\xe3J\xfe\xa0`\xbf\xb3\xd2\x0157\xfb\xd5?'
p105
tp106
bssg62
g63
sg65
g18
(g19
(I0
tp107
g21
tp108
Rp109
(I1
(I1
I2
tp110
g28
I00
S'\x00\x00\x00\x00\x00\x00\xf0\xbf\x00\x00\x00\x00\x00\x00\xf0?'
p111
tp112
bsg72
g18
(g19
(I0
tp113
g21
tp114
Rp115
(I1
(I1
tp116
g28
I00
S'\xa910\x11\x9e=\xc8?'
p117
tp118
bsbasg14
I40
sg15
I1
sg17
g18
(g19
(I0
tp119
g21
tp120
Rp121
(I1
(I40
I2
tp122
g28
I00
S'\x00\x00\x00\x00\x00\x00\x00\x00\x00\x00\x00\x00\x00\x00\xf0?\x00\x00\x00\x00\x00\x00\x00\x00\x00\x00\x00\x00\x00\x00\xf0?\x00\x00\x00\x00\x00\x00\x00\x00\x00\x00\x00\x00\x00\x00\xf0?\x00\x00\x00\x00\x00\x00\x00\x00\x00\x00\x00\x00\x00\x00\xf0?\x00\x00\x00\x00\x00\x00\x00\x00\x00\x00\x00\x00\x00\x00\xf0?\x00\x00\x00\x00\x00\x00\x00\x00\x00\x00\x00\x00\x00\x00\xf0?\x00\x00\x00\x00\x00\x00\x00\x00\x00\x00\x00\x00\x00\x00\xf0?\x00\x00\x00\x00\x00\x00\x00\x00\x00\x00\x00\x00\x00\x00\xf0?\x00\x00\x00\x00\x00\x00\x00\x00\x00\x00\x00\x00\x00\x00\xf0?\x00\x00\x00\x00\x00\x00\x00\x00\x00\x00\x00\x00\x00\x00\xf0?\x00\x00\x00\x00\x00\x00\x00\x00\x00\x00\x00\x00\x00\x00\xf0?\x00\x00\x00\x00\x00\x00\x00\x00\x00\x00\x00\x00\x00\x00\xf0?\x00\x00\x00\x00\x00\x00\x00\x00\x00\x00\x00\x00\x00\x00\xf0?\x00\x00\x00\x00\x00\x00\x00\x00\x00\x00\x00\x00\x00\x00\xf0?\x00\x00\x00\x00\x00\x00\x00\x00\x00\x00\x00\x00\x00\x00\xf0?\x00\x00\x00\x00\x00\x00\x00\x00\x00\x00\x00\x00\x00\x00\xf0?\x00\x00\x00\x00\x00\x00\x00\x00\x00\x00\x00\x00\x00\x00\xf0?\x00\x00\x00\x00\x00\x00\x00\x00\x00\x00\x00\x00\x00\x00\xf0?\x00\x00\x00\x00\x00\x00\x00\x00\x00\x00\x00\x00\x00\x00\xf0?\x00\x00\x00\x00\x00\x00\x00\x00\x00\x00\x00\x00\x00\x00\xf0?\x00\x00\x00\x00\x00\x00\x00\x00\x00\x00\x00\x00\x00\x00\xf0?\x00\x00\x00\x00\x00\x00\x00\x00\x00\x00\x00\x00\x00\x00\xf0?\x00\x00\x00\x00\x00\x00\x00\x00\x00\x00\x00\x00\x00\x00\xf0?\x00\x00\x00\x00\x00\x00\x00\x00\x00\x00\x00\x00\x00\x00\xf0?\x00\x00\x00\x00\x00\x00\x00\x00\x00\x00\x00\x00\x00\x00\xf0?\x00\x00\x00\x00\x00\x00\x00\x00\x00\x00\x00\x00\x00\x00\xf0?\x00\x00\x00\x00\x00\x00\x00\x00\x00\x00\x00\x00\x00\x00\xf0?\x00\x00\x00\x00\x00\x00\x00\x00\x00\x00\x00\x00\x00\x00\xf0?\x00\x00\x00\x00\x00\x00\x00\x00\x00\x00\x00\x00\x00\x00\xf0?\x00\x00\x00\x00\x00\x00\x00\x00\x00\x00\x00\x00\x00\x00\xf0?\x00\x00\x00\x00\x00\x00\x00\x00\x00\x00\x00\x00\x00\x00\xf0?\x00\x00\x00\x00\x00\x00\x00\x00\x00\x00\x00\x00\x00\x00\xf0?\x00\x00\x00\x00\x00\x00\x00\x00\x00\x00\x00\x00\x00\x00\xf0?\x00\x00\x00\x00\x00\x00\x00\x00\x00\x00\x00\x00\x00\x00\xf0?\x00\x00\x00\x00\x00\x00\x00\x00\x00\x00\x00\x00\x00\x00\xf0?\x00\x00\x00\x00\x00\x00\x00\x00\x00\x00\x00\x00\x00\x00\xf0?\x00\x00\x00\x00\x00\x00\x00\x00\x00\x00\x00\x00\x00\x00\xf0?\x00\x00\x00\x00\x00\x00\x00\x00\x00\x00\x00\x00\x00\x00\xf0?\x00\x00\x00\x00\x00\x00\x00\x00\x00\x00\x00\x00\x00\x00\xf0?\x00\x00\x00\x00\x00\x00\x00\x00\x00\x00\x00\x00\x00\x00\xf0?'
p123
tp124
bsg33
g36
sS'trainf'
p125
g0
(cneurolab.core
Trainer
p126
g2
Ntp127
Rp128
(dp129
S'_train_class'
p130
cneurolab.train.spo
TrainCG
p131
sS'__module__'
p132
S'neurolab.train.spo'
p133
sS'params'
p134
(dp135
S'epochs'
p136
I150
sS'train'
p137
(dp138
S'rr'
p139
I0
ssS'goal'
p140
F2e-05
sS'show'
p141
I0
ssS'defaults'
p142
(dp143
g136
I500
sg137
(dp144
g139
I0
ssg140
F0.01
sg141
I100
ssS'error'
p145
(lp146
cnumpy.core.multiarray
scalar
p147
(g28
S'P.\x02\x00\x8d7j@'
p148
tp149
Rp150
asS'__name__'
p151
S'TrainCG'
p152
sS'__doc__'
p153
S'\n    Newton-CG method\n    Using scipy.optimize.fmin_ncg\n\n    :Support networks:\n        newff (multi-layers perceptron)\n    :Parameters:\n        input: array like (l x net.ci)\n            train input patterns\n        target: array like (l x net.co)\n            train target patterns\n        epochs: int (default 500)\n            Number of train epochs\n        show: int (default 100)\n            Print period\n        goal: float (default 0.01)\n            The goal of train\n        rr float (defaults 0.0)\n            Regularization ratio\n            Must be between {0, 1}\n        \n    '
p154
sbsS'connect'
p155
(lp156
(lp157
I-1
aa(lp158
I0
aa(lp159
I1
aasS'errorf'
p160
(ineurolab.error
SSE
p161
(dp162
bsg65
g18
(g19
(I0
tp163
g21
tp164
Rp165
(I1
(I1
I2
tp166
g28
I00
S'\x00\x00\x00\x00\x00\x00\xf0\xbf\x00\x00\x00\x00\x00\x00\xf0?'
p167
tp168
bsg72
g115
sb.