Target,Output
 0.75619835, 0.71384298
 0.75619835, 0.75103306
 0.95867769, 0.66038223
 0.87603306, 0.67975207
 0.79752066, 0.62241736
 0.73553719, 0.58057851
 0.55785124, 0.43672521
 0.26033058, 0.35201446
 0.52892562, 0.28331612
 0.48760331, 0.25051653
 0.28099174, 0.22055785
 0.10330579, 0.18233471
 0.16942149, 0.15444215
 0.18181818, 0.14721074
 0.15702479, 0.14204545
 0.2231405, 0.13584711
 0.19421488, 0.14746901
 0.14049587, 0.16373967
 0.09504132, 0.17355372
 0.10743802, 0.16193182
 0.10330579, 0.15547521
 0.23966942, 0.1598657
 0.24793388, 0.27995868
 0.45454545, 0.24793388
 0.73966942, 0.52040289
 0.83057851, 0.75
 0.88842975, 0.76885331
 0.85123967, 0.73011364
 0.7231405, 0.62086777
 0.62396694, 0.55139463
 0.40909091, 0.46771694
 0.25206612, 0.31275826
 0.2768595, 0.27582645
 0.26446281, 0.22882231
 0.1446281, 0.18465909
 0.17768595, 0.12732438
 0.10330579, 0.14566116
 0.11983471, 0.12035124
 0.0785124, 0.14127066
 0.13636364, 0.14876033
 0.08264463, 0.14772727
 0.18595041, 0.14385331
 0.08264463, 0.17691116
 0.08264463, 0.13972107
 0.18595041, 0.11027893
 0.21487603, 0.15625
 0.28512397, 0.21771694
 0.62809917, 0.35330579
 0.69421488, 0.64333678
 0.90495868, 0.75
 0.88016529, 0.7339876
 0.81404959, 0.64282025
 0.62809917, 0.62164256
 0.54132231, 0.55242769
 0.35950413, 0.41219008
 0.47520661, 0.34994835
 0.41735537, 0.27298554
 0.3677686, 0.22184917
 0.17355372, 0.19008264
 0.21900826, 0.16322314
 0.28512397, 0.15470041
 0.19834711, 0.16683884
 0.11570248, 0.14953512
 0.19421488, 0.13842975
 0.24380165, 0.17561983
 0.22727273, 0.18930785
 0.12809917, 0.17794421
 0.1446281, 0.15005165
 0.18595041, 0.17122934
 0.19008264, 0.17484504
 0.2107438, 0.19137397
 0.26446281, 0.19628099
 0.30165289, 0.24405992
 0.54958678, 0.30165289
 0.69834711, 0.6177686
 0.59504132, 0.72443182
 0.71487603, 0.55707645
 0.5661157, 0.58703512
 0.35950413, 0.39772727
 0.18181818, 0.32438017
 0.11570248, 0.18982438
 0.15702479, 0.20454545
 0.11157025, 0.16813017
 0.12809917, 0.1410124
 0.07438017, 0.13972107
 0.06198347, 0.13558884
 0.03719008, 0.13507231
 0.18181818, 0.14850207
 0.30165289, 0.55759298
 0.21487603, 0.41942149
 0.29338843, 0.31921488
 0.11157025, 0.27944215
 0.06198347, 0.27918388
 0.07024793, 0.15082645
 0.09504132, 0.15160124
 0.28099174, 0.16115702
 0.23140496, 0.16503099
 0.17355372, 0.16451446
 0.25206612, 0.15418388
 0.22727273, 0.25025826
 0.15702479, 0.22443182
 0.28512397, 0.19163223
 0.46694215, 0.26833678
 0.58677686, 0.51988636
 0.75206612, 0.6330062
 0.69421488, 0.66916322
 0.59090909, 0.60769628
 0.48347107, 0.41451446
 0.4338843, 0.34168388
 0.34297521, 0.3481405
 0.26446281, 0.2892562
 0.26033058, 0.18259298
 0.66942149, 0.14721074
 0.46694215, 0.18336777
 0.24380165, 0.15702479
 0.26859504, 0.15754132
 0.28512397, 0.17174587
 0.34710744, 0.19059917
 0.15702479, 0.3081095
 0.09090909, 0.19628099
 0.1322314, 0.16167355
 0.0661157, 0.16373967
 0.06198347, 0.14953512
 0.06198347, 0.15418388
 0.16528926, 0.14772727
 0.2107438, 0.14772727
 0.16942149, 0.13507231
 0.12396694, 0.12267562
 0.04958678, 0.16683884
 0.11983471, 0.16477273
 0.25619835, 0.15340909
 0.31818182, 0.22985537
 0.30578512, 0.35769628
 0.39256198, 0.42768595
 0.40909091, 0.44498967
 0.40082645, 0.43155992
 0.45041322, 0.41244835
 0.24793388, 0.40934917
 0.09917355, 0.21229339
 0.04545455, 0.15444215
 0.08264463, 0.20170455
 0.04545455, 0.19266529
 0.18595041, 0.16296488
 0.09917355, 0.1794938
 0.11157025, 0.15599174
 0.10330579, 0.14127066
 0.03719008, 0.13378099
 0.02479339, 0.12267562
 0.16528926, 0.13119835
 0.23140496, 0.15160124
 0.19421488, 0.22365702
 0.21487603, 0.25284091
 0.18181818, 0.2231405
 0.11983471, 0.18362603
 0.20661157, 0.15779959
 0.24793388, 0.2151343
 0.24793388, 0.21823347
 0.22727273, 0.2463843
 0.3677686, 0.26807851
 0.43801653, 0.32076446
 0.38429752, 0.46590909
 0.34710744, 0.45196281
 0.17768595, 0.41709711
 0.09090909, 0.22004132
 0.17768595, 0.20557851
 0.40909091, 0.19318182
 0.41322314, 0.26730372
 0.19008264, 0.33367769
 0.19008264, 0.17768595
 0.04132231, 0.13636364
 0.04132231, 0.15728306
 0.08264463, 0.15521694
 0.19834711, 0.16503099
 0.21900826, 0.21203512
 0.16115702, 0.16632231
 0.08264463, 0.13817149
 0.08264463, 0.12241736
 0.16942149, 0.13713843
 0.23140496, 0.18285124
 0.22727273, 0.25748967
 0.2892562, 0.27530992
 0.31404959, 0.33083678
 0.3553719, 0.34710744
 0.40909091, 0.36905992
 0.38429752, 0.39333678
 0.37603306, 0.39695248
 0.2892562, 0.37577479
 0.12809917, 0.25929752
 0.17768595, 0.20015496
 0.1446281, 0.24664256
 0.09504132, 0.23992769
 0.08264463, 0.20971074
 0.12809917, 0.17045455
 0.11570248, 0.16399793
 0.10743802, 0.1366219
 0.23140496, 0.13894628
 0.19834711, 0.19498967
 0.16115702, 0.24018595
 0.20247934, 0.1911157
 0.11983471, 0.19705579
 0.18181818, 0.15160124
 0.17355372, 0.15650826
 0.19834711, 0.19783058
 0.20247934, 0.18104339
 0.30578512, 0.20402893
 0.2768595, 0.29958678
 0.37603306, 0.30681818
 0.45867769, 0.3830062
 0.35950413, 0.45325413
 0.40082645, 0.36286157
 0.4214876, 0.43233471
 0.57024793, 0.3793905
 0.6322314, 0.44137397
 0.48760331, 0.42045455
 0.70247934, 0.35511364
 0.61983471, 0.41709711
 0.51239669, 0.32515496
 0.21487603, 0.3677686
 0.12396694, 0.29416322
 0.10743802, 0.18440083
 0.04132231, 0.13791322
 0.04132231, 0.14488636
 0.05785124, 0.1286157
 0.12809917, 0.12345041
 0.23553719, 0.14230372
 0.28512397, 0.15392562
 0.23140496, 0.1598657
 0.31404959, 0.2964876
 0.28099174, 0.3481405
 0.24380165, 0.34065083
 0.23140496, 0.33703512
 0.26033058, 0.33341942
 0.32644628, 0.3241219
 0.25206612, 0.35201446
 0.41735537, 0.24147727
 0.52892562, 0.45532025
 0.55785124, 0.50154959
 0.52066116, 0.50774793
 0.75619835, 0.42097107
 0.33057851, 0.57024793
 0.53719008, 0.31120868
 0.40495868, 0.35201446
 0.60743802, 0.29003099
 0.45454545, 0.30216942
 0.23553719, 0.21255165
 0.0785124, 0.14152893
 0.10330579, 0.11415289
 0.09090909, 0.15495868
 0.19008264, 0.14876033
 0.15702479, 0.16838843
 0.18181818, 0.15831612
 0.24793388, 0.1802686
 0.19834711, 0.18853306
 0.29752066, 0.15211777
 0.35950413, 0.28125
 0.42975207, 0.42097107
 0.49586777, 0.47365702
 0.65289256, 0.49251033
 0.55371901, 0.63016529
 0.32644628, 0.43620868
 0.26446281, 0.22933884
 0.39256198, 0.25077479
 0.42561983, 0.31353306
 0.2892562, 0.28202479
 0.08677686, 0.22908058
 0.20247934, 0.11053719
 0.16942149, 0.29855372
 0.18181818, 0.21306818
 0.12809917, 0.25748967
 0.09504132, 0.17097107
 0.10330579, 0.12732438
 0.11983471, 0.13972107
 0.1322314, 0.13997934
 0.09917355, 0.14282025
 0.11983471, 0.13429752
 0.10743802, 0.14979339
 0.13636364, 0.15315083
 0.14876033, 0.14669421
 0.14049587, 0.15599174
 0.09504132, 0.16503099
 0.16115702, 0.16890496
 0.25206612, 0.16632231
 0.30991736, 0.24922521
 0.3553719, 0.38791322
 0.46694215, 0.47417355
 0.46280992, 0.50206612
 0.25206612, 0.50154959
 0.29338843, 0.34220041
 0.29338843, 0.29829545
 0.36363636, 0.31663223
 0.32231405, 0.38068182
 0.25619835, 0.33057851
 0.38429752, 0.3052686
 0.25206612, 0.32205579
 0.05371901, 0.23295455
 0.10330579, 0.13920455
 0.1446281, 0.14695248
 0.12396694, 0.13378099
 0.16528926, 0.14953512
 0.10330579, 0.1642562
 0.03719008, 0.13713843
 0.08677686, 0.1206095
 0.18181818, 0.15056818
 0.21487603, 0.18956612
 0.26859504, 0.2231405
 0.33884298, 0.30036157
 0.33884298, 0.43181818
 0.38429752, 0.43491736
 0.41735537, 0.38713843
 0.39669421, 0.41916322
 0.54545455, 0.38403926
 0.4214876, 0.45325413
 0.38842975, 0.34504132
 0.50826446, 0.3168905
 0.47520661, 0.36492769
 0.29752066, 0.31224174
 0.32231405, 0.29881198
 0.18595041, 0.22055785
 0.17355372, 0.17432851
 0.08677686, 0.19576446
 0.09917355, 0.15702479
 0.08677686, 0.13765496
 0.10330579, 0.15289256
 0.16115702, 0.15599174
 0.14876033, 0.14591942
 0.2107438, 0.11286157
 0.11157025, 0.15625
 0.17355372, 0.16141529
 0.29338843, 0.2071281
 0.36363636, 0.28693182
 0.3553719, 0.39230372
 0.34297521, 0.43827479
 0.25619835, 0.36751033
 0.13636364, 0.31430785
 0.35123967, 0.30216942
 0.45867769, 0.42716942
 0.21487603, 0.4723657
 0.23966942, 0.39669421
 0.20661157, 0.2543905
 0.1322314, 0.1955062
 0.12809917, 0.18930785
 0.17355372, 0.16219008
 0.16528926, 0.16735537
 0.10743802, 0.1802686
 0.14049587, 0.15134298
 0.18595041, 0.15082645
 0.18595041, 0.1634814
 0.18181818, 0.17561983
 0.17355372, 0.20506198
 0.24380165, 0.19576446
 0.34710744, 0.24509298
 0.18595041, 0.33264463
 0.25206612, 0.28202479
 0.23553719, 0.31069215
 0.25619835, 0.30965909
 0.28099174, 0.32541322
 0.32644628, 0.3168905
 0.21487603, 0.30991736
 0.21487603, 0.2652376
 0.17768595, 0.2151343
 0.30991736, 0.19344008
 0.38842975, 0.31998967
 0.14049587, 0.36647727
 0.35950413, 0.24044421
 0.11157025, 0.30216942
 0.04545455, 0.19395661
 0.22727273, 0.13946281
 0.23553719, 0.19369835
 0.09090909, 0.20557851
 0.20247934, 0.15108471
 0.09504132, 0.17716942
 0.04132231, 0.14178719
 0.1322314, 0.13920455
 0.38429752, 0.17536157
 0.51652893, 0.33032025
 0.4338843, 0.55965909
 0.45041322, 0.54261364
 0.44628099, 0.51575413
 0.69834711, 0.44498967
 0.54958678, 0.56663223
 0.38016529, 0.42639463
 0.3677686, 0.3161157
 0.37190083, 0.34865702
 0.2892562, 0.26084711
 0.16115702, 0.17200413
 0.20661157, 0.16580579
 0.12396694, 0.14152893
 0.26446281, 0.13403926
 0.18595041, 0.15573347
 0.09504132, 0.15495868
 0.12809917, 0.16528926
 0.14049587, 0.14385331
 0.08264463, 0.15108471
 0.12809917, 0.14488636
 0.14876033, 0.18620868
 0.17355372, 0.2419938
 0.13636364, 0.17097107
 0.11157025, 0.15934917
 0.2231405, 0.16373967
 0.13636364, 0.24147727
 0.26859504, 0.18078512
 0.2768595, 0.25516529
 0.30991736, 0.29442149
 0.38842975, 0.37086777
 0.37190083, 0.46177686
 0.48760331, 0.39850207
 0.4338843, 0.50671488
 0.23966942, 0.38042355
 0.26446281, 0.25129132
 0.23553719, 0.2143595
 0.20661157, 0.25387397
 0.17355372, 0.30397727
 0.11570248, 0.23889463
 0.02892562, 0.16193182
 0.08264463, 0.1490186
 0.11983471, 0.15495868
 0.12809917, 0.15650826
 0.18595041, 0.18569215
 0.1322314, 0.19421488
 0.15702479, 0.14333678
 0.16528926, 0.17045455
 0.19834711, 0.16942149
 0.2231405, 0.19860537
 0.12396694, 0.21590909
 0.1446281, 0.17923554
 0.34297521, 0.17019628
 0.37190083, 0.28150826
 0.39256198, 0.41373967
 0.28099174, 0.47727273
 0.39669421, 0.3589876
 0.3677686, 0.41813017
 0.2107438, 0.33600207
 0.18595041, 0.33677686
 0.09504132, 0.22365702
 0.11570248, 0.24044421
 0.18181818, 0.19214876
 0.2231405, 0.16735537
 0.20247934, 0.17665289
 0.21900826, 0.15237603
 0.1446281, 0.16477273
 0.16115702, 0.1838843
 0.14876033, 0.18130165
 0.1446281, 0.17665289
 0.16942149, 0.17768595
 0.09504132, 0.16632231
 0.11157025, 0.12190083
 0.17355372, 0.14927686
 0.19008264, 0.19498967
 0.19421488, 0.19963843
 0.25619835, 0.20893595
 0.32231405, 0.2660124
 0.26859504, 0.38894628
 0.33884298, 0.31404959
 0.34710744, 0.37422521
 0.32231405, 0.40418388
 0.3677686, 0.38352273
 0.19008264, 0.3982438
 0.25619835, 0.29829545
 0.42975207, 0.2892562
 0.23553719, 0.3902376
 0.27272727, 0.35123967
 0.2231405, 0.27582645
 0.2231405, 0.19240702
 0.16528926, 0.22107438
 0.0785124, 0.20170455
 0.18181818, 0.14927686
 0.19834711, 0.16193182
 0.18181818, 0.16735537
 0.11570248, 0.14746901
 0.09917355, 0.15289256
 0.11983471, 0.14927686
 0.24793388, 0.17897727
 0.23553719, 0.21332645
 0.26446281, 0.2580062
 0.28099174, 0.29907025
 0.28512397, 0.28460744
 0.37603306, 0.30759298
 0.17768595, 0.38171488
 0.77272727, 0.35459711
 0.47520661, 0.61518595
 0.24793388, 0.41735537
 0.2231405, 0.25981405
 0.28512397, 0.20532025
 0.30991736, 0.23811983
 0.19834711, 0.24225207
 0.1322314, 0.18207645
 0.0785124, 0.12474174
 0.09917355, 0.16658058
 0.12396694, 0.14540289
 0.11983471, 0.1758781
 0.15289256, 0.20118802
 0.15289256, 0.16503099
 0.12396694, 0.12706612
 0.10330579, 0.13713843
 0.08264463, 0.14850207
 0.12809917, 0.1606405
 0.17355372, 0.14953512
 0.2107438, 0.16890496
 0.25619835, 0.24586777
 0.2231405, 0.27944215
 0.37190083, 0.24457645
 0.44214876, 0.38481405
 0.35123967, 0.46358471
 0.39256198, 0.43698347
 0.28512397, 0.42639463
 0.2892562, 0.33806818
 0.08677686, 0.25697314
 0.27272727, 0.16296488
 0.26033058, 0.27195248
 0.1446281, 0.25335744
 0.05371901, 0.19344008
 0.12396694, 0.17484504
 0.18595041, 0.13894628
 0.13636364, 0.15573347
 0.16942149, 0.18052686
 0.12396694, 0.18595041
 0.0661157, 0.17303719
 0.09917355, 0.1634814
 0.10743802, 0.14282025
 0.14876033, 0.15754132
 0.17355372, 0.1490186
 0.28099174, 0.18904959
 0.34297521, 0.27582645
 0.33057851, 0.40883264
 0.38016529, 0.40909091
 0.3677686, 0.42122934
 0.74380165, 0.42716942
 0.45867769, 0.65160124
 0.2107438, 0.35485537
 0.24793388, 0.23114669
 0.46694215, 0.20015496
 0.37190083, 0.25335744
 0.23140496, 0.27892562
 0.18595041, 0.16451446
 0.11983471, 0.11415289
 0.10330579, 0.16477273
 0.09090909, 0.14540289
 0.0661157, 0.14927686
 0.13636364, 0.15211777
 0.12396694, 0.1518595
 0.06198347, 0.14333678
 0.09917355, 0.12396694
 0.14876033, 0.12267562
 0.20247934, 0.12990702
 0.27272727, 0.2027376
 0.32644628, 0.2972624
 0.47520661, 0.41219008
 0.54545455, 0.52970041
 0.55371901, 0.58109504
 0.49586777, 0.52970041
 0.52892562, 0.4956095
 0.54545455, 0.38016529
