Target,Output
 0.26706231, 0.39192833
 0.18397626, 0.21871599
 0.1305638, 0.19601803
 0.20178042, 0.15558501
 0.11869436, 0.21139352
 0.22255193, 0.14320742
 0.13946588, 0.23052257
 0.07121662, 0.15632598
 0.05341246, 0.11232257
 0.07418398, 0.08889708
 0.09198813, 0.10035898
 0.06824926, 0.11427278
 0.0652819, 0.09866763
 0.16617211, 0.09512683
 0.13649852, 0.17918767
 0.16617211, 0.15156052
 0.19881306, 0.1797432
 0.23145401, 0.20469773
 0.3264095, 0.23150263
 0.32344214, 0.31105549
 0.30563798, 0.29299971
 0.27002967, 0.28166034
 0.17210682, 0.25407705
 0.30267062, 0.18238369
 0.29673591, 0.29664684
 0.19881306, 0.27225961
 0.31750742, 0.19767264
 0.30563798, 0.30923838
 0.08308605, 0.27764897
 0.04747774, 0.13752782
 0.17804154, 0.0931259
 0.09198813, 0.19179496
 0.03560831, 0.12264473
 0.05934718, 0.08219434
 0.01186944, 0.08901578
 0.02373887, 0.0564528
 0.09198813, 0.05889563
 0.13353116, 0.11379807
 0.18694362, 0.14717924
 0.32047478, 0.19435506
 0.43026706, 0.30445315
 0.37388724, 0.38566901
 0.23145401, 0.30840327
 0.22551929, 0.21235374
 0.33234421, 0.23162117
 0.26409496, 0.31744953
 0.22551929, 0.23805228
 0.11275964, 0.22484764
 0.09792285, 0.14534376
 0.21364985, 0.12777961
 0.1305638, 0.22008225
 0.05934718, 0.14983009
 0.16023739, 0.1038059
 0.12166172, 0.17713056
 0.10682493, 0.14049615
 0.11275964, 0.13208385
 0.04747774, 0.13445065
 0.09792285, 0.09003688
 0.05934718, 0.12203448
 0.08011869, 0.09241843
 0.11275964, 0.1064001
 0.08011869, 0.13150193
 0.06824926, 0.10918435
 0.12759644, 0.09912431
 0.1305638, 0.14542737
 0.1958457, 0.14652265
 0.27002967, 0.20377149
 0.34124629, 0.26359259
 0.32344214, 0.31960039
 0.30860534, 0.29031194
 0.28486647, 0.28510963
 0.05637982, 0.26656232
 0.08308605, 0.12730877
 0.18694362, 0.11691293
 0.31454006, 0.19559954
 0.41246291, 0.29795252
 0.42433234, 0.3725078
 0.52818991, 0.3651456
 0.38278932, 0.46058386
 0.35311573, 0.28622139
 0.41543027, 0.32011663
 0.35311573, 0.37802602
 0.29673591, 0.29629787
 0.10089021, 0.26939129
 0.20474777, 0.14476251
 0.38575668, 0.22038586
 0.3620178, 0.34730616
 0.14540059, 0.30875205
 0.22255193, 0.16369217
 0.21958457, 0.23638276
 0.45994065, 0.21790896
 0.26706231, 0.38813911
 0.38872404, 0.20605973
 0.08308605, 0.3694879
 0.14540059, 0.13955125
 0.07418398, 0.17388347
 0.15430267, 0.10963843
 0.05341246, 0.17144443
 0.10979228, 0.09979871
 0.09495549, 0.13390711
 0.0652819, 0.1182218
 0.08308605, 0.09845513
 0.11275964, 0.10877613
 0.18397626, 0.13174464
 0.13649852, 0.19244702
 0.15133531, 0.15374325
 0.13946588, 0.16816396
 0.0652819, 0.1565496
 0.08308605, 0.10622479
 0.35608309, 0.11071222
 0.51928783, 0.30886207
 0.53115727, 0.43990298
 0.43620178, 0.43583437
 0.43620178, 0.34516318
 0.74777448, 0.38399873
 0.75667656, 0.54825759
 0.74777448, 0.67467104
 0.60534125, 0.68456139
 0.50148368, 0.50753404
 0.43620178, 0.39900023
 0.40949555, 0.36481462
 0.36795252, 0.35450942
 0.62908012, 0.31830621
 0.26409496, 0.49508185
 0.24332344, 0.19824064
 0.14540059, 0.25483921
 0.10089021, 0.16495405
 0.23145401, 0.13262499
 0.12462908, 0.23610414
 0.06824926, 0.14684093
 0.08605341, 0.10892401
 0.04154303, 0.11250304
 0.12462908, 0.08032298
 0.29376855, 0.14486202
 0.54896142, 0.27915079
 0.54005935, 0.43634884
 0.55192878, 0.42919495
 0.61424332, 0.46891473
 0.6231454, 0.52747813
 0.69436202, 0.52901904
 0.81602374, 0.60733515
 0.70919881, 0.72676176
 0.62908012, 0.64338174
 0.42136499, 0.53789251
 0.29376855, 0.30635437
 0.44510386, 0.2609204
 0.27002967, 0.40589093
 0.3264095, 0.21501016
 0.30860534, 0.31836652
 0.47477745, 0.28096216
 0.46884273, 0.42002071
 0.39465875, 0.38494127
 0.26409496, 0.3243236
 0.1958457, 0.23355141
 0.06231454, 0.20375163
 0.29673591, 0.11718916
 0.33827893, 0.28209694
 0.16023739, 0.30691868
 0.08605341, 0.16902038
 0.21068249, 0.12789421
 0.25816024, 0.22019472
 0.17804154, 0.25010685
 0.34421365, 0.18407044
 0.58160237, 0.32522079
 0.63204748, 0.4655373
 0.45400593, 0.52205041
 0.25816024, 0.33439287
 0.13946588, 0.22651236
 0.02077151, 0.16771797
 0.05341246, 0.08812529
 0.06231454, 0.08617165
 0.06824926, 0.0888899
 0.09792285, 0.09530975
 0.0504451, 0.11940316
 0.04747774, 0.08770437
 0.30563798, 0.08090886
 0.29970326, 0.28072023
 0.22255193, 0.26923827
 0.29376855, 0.21502159
 0.38278932, 0.28898018
 0.26706231, 0.35249889
 0.03264095, 0.22954939
 0.28486647, 0.12033118
 0.14836795, 0.27559933
 0.19287834, 0.15799546
 0.24925816, 0.20718765
 0.29080119, 0.24673164
 0.39465875, 0.2784381
 0.12462908, 0.3633203
 0.0504451, 0.15155828
 0.13353116, 0.10443044
 0.10979228, 0.15379476
 0.04451039, 0.13031733
 0.17210682, 0.08884588
 0.1958457, 0.18803171
 0.06231454, 0.19784288
 0.15133531, 0.11433281
 0.11869436, 0.17186515
 0.05341246, 0.13810431
 0.07121662, 0.09613863
 0.04747774, 0.10006144
 0.22551929, 0.08127296
 0.1958457, 0.23033643
 0.27299703, 0.19417368
 0.49554896, 0.2702347
 0.47477745, 0.41620112
 0.30563798, 0.37980193
 0.42136499, 0.24589249
 0.47477745, 0.39348962
 0.39465875, 0.40978169
 0.5074184, 0.31740308
 0.47774481, 0.45185311
 0.34718101, 0.38721807
 0.23145401, 0.27941579
 0.28783383, 0.22038245
 0.2462908, 0.28507675
 0.15430267, 0.23366544
 0.12462908, 0.17146624
 0.05341246, 0.14994836
 0.01780415, 0.09726139
 0.09198813, 0.0623979
 0.08011869, 0.1161506
 0.13353116, 0.10466027
 0.08011869, 0.15058172
 0.08605341, 0.11153418
 0.07715134, 0.11328384
 0.06231454, 0.10467172
 0.06824926, 0.09350375
 0.12759644, 0.09633095
 0.17804154, 0.14463817
 0.18397626, 0.18592666
 0.20771513, 0.19110536
 0.14540059, 0.212859
 0.18991098, 0.16274379
 0.18397626, 0.20139065
 0.14836795, 0.19116673
 0.24332344, 0.16537998
 0.19287834, 0.24598607
 0.22551929, 0.19411004
 0.16023739, 0.23026806
 0.22551929, 0.17298505
 0.27596439, 0.23200499
 0.21661721, 0.26717267
 0.27002967, 0.21131162
 0.16617211, 0.26804714
 0.09495549, 0.17525339
 0.10089021, 0.13135897
 0.0504451, 0.12675397
 0.03560831, 0.08924494
 0.06231454, 0.07261427
 0.04747774, 0.08960316
 0.04747774, 0.07944809
 0.11275964, 0.07915085
 0.18397626, 0.1321162
 0.16023739, 0.1908743
 0.11869436, 0.17125155
 0.17210682, 0.14336815
 0.22551929, 0.18528278
 0.36795252, 0.22652294
 0.45697329, 0.34108591
 0.38872404, 0.40256274
 0.27299703, 0.31486506
 0.4925816, 0.24126804
 0.23145401, 0.42249502
 0.08902077, 0.18398439
 0.10682493, 0.1405649
 0.08605341, 0.1341759
 0.07715134, 0.11309975
 0.0504451, 0.10580137
 0.03264095, 0.08537171
 0.03264095, 0.06959509
 0.10089021, 0.06656905
 0.08902077, 0.12196051
 0.07418398, 0.11241346
 0.02670623, 0.10364674
 0.11869436, 0.07014904
 0.07121662, 0.14042411
 0.115727, 0.10196393
 0.1305638, 0.13678037
 0.20178042, 0.14655999
 0.2462908, 0.2083825
 0.37091988, 0.24257343
 0.21661721, 0.34497752
 0.27596439, 0.19499913
 0.27002967, 0.27749693
 0.28783383, 0.25613246
 0.06824926, 0.27582054
 0.11869436, 0.13024915
 0.03560831, 0.14689521
 0.04451039, 0.08349174
 0.02670623, 0.07854377
 0.02967359, 0.06308564
 0.04747774, 0.06366276
 0.08902077, 0.07660635
 0.05341246, 0.11075816
 0.11275964, 0.08735766
 0.07418398, 0.13360985
 0.10682493, 0.10416658
 0.0504451, 0.12896431
 0.05934718, 0.08942745
 0.07418398, 0.09017057
 0.08902077, 0.09962867
 0.10089021, 0.11217672
 0.10979228, 0.12260917
 0.09792285, 0.13057074
 0.16913947, 0.12238567
 0.27893175, 0.18149364
 0.5578635, 0.27089919
 0.32344214, 0.43294166
 0.28486647, 0.22211487
 0.13946588, 0.27553464
 0.11869436, 0.16211991
 0.16617211, 0.14676575
 0.20474777, 0.17925816
 0.24332344, 0.20901082
 0.10979228, 0.24122867
 0.07121662, 0.14254981
 0.01186944, 0.10951451
 0.10682493, 0.06198401
 0.06231454, 0.13116509
 0.04154303, 0.09414103
 0.10979228, 0.07836109
 0.12462908, 0.13054082
 0.08605341, 0.14046324
 0.04451039, 0.11556814
 0.09495549, 0.08440574
 0.09198813, 0.11841281
 0.10682493, 0.1147279
 0.12759644, 0.1282849
 0.19287834, 0.14504748
 0.14836795, 0.20044288
 0.26706231, 0.16282523
 0.36795252, 0.26581546
 0.35905045, 0.33987858
 0.21068249, 0.31515638
 0.0652819, 0.19824777
 0.1305638, 0.12341447
 0.05341246, 0.15396457
 0.0504451, 0.09500353
 0.10682493, 0.0847098
 0.11869436, 0.1270021
 0.08011869, 0.13606839
 0.02670623, 0.11089156
 0.0148368, 0.07247869
 0.05341246, 0.05461249
 0.10979228, 0.08135077
 0.08902077, 0.1277364
 0.05637982, 0.11396569
 0.09198813, 0.09181694
 0.12759644, 0.11571753
 0.12462908, 0.14361483
 0.115727, 0.14290269
 0.15727003, 0.13750869
 0.08011869, 0.17110485
 0.17804154, 0.11585865
 0.29376855, 0.19243751
 0.22255193, 0.28181345
 0.15727003, 0.21116375
 0.30563798, 0.17484705
 0.11869436, 0.29633938
 0.05934718, 0.14679473
 0.08011869, 0.10552006
 0.0652819, 0.10730531
 0.0652819, 0.09476612
 0.06824926, 0.09440806
 0.02967359, 0.09599542
 0.04451039, 0.06989202
 0.08902077, 0.07608502
 0.08308605, 0.11083477
 0.15727003, 0.10773153
 0.10089021, 0.17101398
 0.08902077, 0.1272732
 0.10682493, 0.11765874
 0.10089021, 0.12849428
 0.2462908, 0.1239349
 0.28783383, 0.24632281
 0.27893175, 0.27235631
 0.21958457, 0.26279598
 0.25519288, 0.21565108
 0.12759644, 0.25485267
 0.18694362, 0.15273569
 0.19881306, 0.20187265
 0.1810089, 0.2029196
 0.03857567, 0.18993413
 0.02670623, 0.10268915
 0.11869436, 0.06843074
 0.14243323, 0.13887066
 0.12166172, 0.15429448
 0.15133531, 0.14218852
 0.1305638, 0.16669333
 0.08308605, 0.14917262
 0.08605341, 0.11587754
 0.1305638, 0.11329124
 0.0504451, 0.14743724
 0.03857567, 0.09419168
 0.02077151, 0.07592126
 0.05637982, 0.05892707
 0.10979228, 0.08423703
 0.18397626, 0.12786421
 0.15727003, 0.19142492
 0.18991098, 0.1688604
 0.20771513, 0.19969188
 0.30563798, 0.21149386
 0.28783383, 0.2951008
 0.23145401, 0.26494802
 0.2462908, 0.2243741
 0.27299703, 0.24586688
 0.27596439, 0.2647717
 0.32344214, 0.26328376
 0.19287834, 0.30652483
 0.07418398, 0.18878299
 0.09198813, 0.12430884
 0.11275964, 0.12034177
 0.02967359, 0.13215327
 0.08308605, 0.08007841
 0.02967359, 0.10997581
 0.03560831, 0.07126546
 0.08902077, 0.06993024
 0.01780415, 0.11118239
 0.09198813, 0.06643273
 0.10089021, 0.11771152
 0.115727, 0.12026255
 0.14243323, 0.13541331
 0.17804154, 0.15757322
 0.17210682, 0.18734682
 0.19287834, 0.182033
 0.2611276, 0.20107112
 0.23442136, 0.25800024
 0.23442136, 0.22701807
 0.41839763, 0.23394915
 0.1810089, 0.37488974
 0.14540059, 0.16909842
 0.20474777, 0.17248462
 0.32344214, 0.21300878
 0.115727, 0.30733243
 0.02373887, 0.14686244
 0.10385757, 0.08612533
 0.11275964, 0.12905764
 0.07418398, 0.13016237
 0.05637982, 0.10619771
 0.1305638, 0.09016292
 0.07121662, 0.14847863
 0.1305638, 0.10477475
 0.02077151, 0.15010748
 0.07715134, 0.07965865
 0.21958457, 0.10606735
 0.39169139, 0.22213952
 0.11869436, 0.35187476
 0.37091988, 0.14769116
 0.46290801, 0.33283878
 0.64094955, 0.40237231
 0.65578635, 0.52910412
 0.53412463, 0.55447729
 0.33531157, 0.41993266
 0.08308605, 0.26192534
 0.16320475, 0.14533207
 0.11869436, 0.18710909
 0.10682493, 0.13951691
 0.09495549, 0.13207319
 0.09792285, 0.12077115
 0.03264095, 0.12190385
 0.12166172, 0.07848886
 0.27893175, 0.14353809
 0.21958457, 0.2681046
 0.02967359, 0.2092477
 0.02670623, 0.10936844
 0.03560831, 0.06915709
 0.17804154, 0.06745611
 0.08605341, 0.1906289
 0.05934718, 0.11894218
 0.18694362, 0.09622608
 0.38278932, 0.19859653
 0.21958457, 0.34128317
 0.24035608, 0.19255742
 0.16023739, 0.24650472
 0.03264095, 0.17326584
 0.14243323, 0.09723507
 0.25519288, 0.16504424
 0.17507418, 0.24951616
 0.16320475, 0.17977447
 0.15133531, 0.17973768
 0.04747774, 0.16731983
 0.0504451, 0.09944554
 0.07715134, 0.08515563
 0.17507418, 0.10166786
 0.12166172, 0.18536677
 0.07715134, 0.14188124
 0.09792285, 0.11199833
 0.18991098, 0.12206294
 0.14836795, 0.19817044
 0.08308605, 0.16168524
 0.09495549, 0.11931539
 0.16913947, 0.12097741
 0.32047478, 0.18047363
 0.20474777, 0.30219569
 0.25519288, 0.19337166
 0.45994065, 0.25835437
 0.4272997, 0.39782981
 0.54302671, 0.34525619
 0.48961424, 0.47454572
 0.43620178, 0.38838071
 0.21364985, 0.36432242
 0.14540059, 0.19504628
 0.05637982, 0.172351
 0.06824926, 0.10459025
 0.18694362, 0.098988
 0.1810089, 0.19664413
 0.09198813, 0.18571889
 0.06824926, 0.12789975
 0.10979228, 0.103087
 0.21958457, 0.1306304
 0.12166172, 0.2226182
 0.08308605, 0.14501707
 0.07418398, 0.11770453
 0.05934718, 0.10403818
 0.10385757, 0.09099426
 0.14836795, 0.12502268
 0.32937685, 0.16103116
 0.45400593, 0.30680877
 0.23145401, 0.40083985
 0.51928783, 0.1923119
 0.36795252, 0.41471804
 0.46290801, 0.26170572
 0.55192878, 0.42373774
 0.43620178, 0.47118231
 0.16023739, 0.33180571
 0.17507418, 0.17462167
 0.23145401, 0.19801193
 0.22255193, 0.23325243
 0.04747774, 0.2205777
 0.14243323, 0.11446313
 0.24332344, 0.16630002
 0.10089021, 0.24031382
 0.07418398, 0.13626283
 0.13649852, 0.11062846
 0.07121662, 0.15382423
 0.07715134, 0.10630644
 0.08605341, 0.10615224
 0.13649852, 0.11047256
 0.27002967, 0.15225633
 0.38872404, 0.26372513
 0.37091988, 0.35510458
 0.43026706, 0.31929667
 0.43916914, 0.38751132
 0.40652819, 0.37667855
 0.34124629, 0.34461258
 0.33827893, 0.2939684
 0.4421365, 0.31112803
 0.33531157, 0.40005353
 0.10979228, 0.26887624
 0.18397626, 0.15181741
 0.18397626, 0.20377419
 0.08902077, 0.19002537
 0.12759644, 0.12642252
 0.23145401, 0.14929942
 0.21068249, 0.23275014
 0.20474777, 0.20874252
 0.10979228, 0.21027617
 0.04747774, 0.14084142
 0.09495549, 0.09325574
 0.16023739, 0.11934897
 0.03264095, 0.17112336
 0.09495549, 0.09261002
 0.06824926, 0.12231331
 0.06824926, 0.09728179
 0.05934718, 0.09745674
 0.14540059, 0.08979909
 0.28189911, 0.16120234
 0.13946588, 0.27178986
 0.14243323, 0.15659586
 0.20771513, 0.16509708
 0.32937685, 0.21391001
 0.12759644, 0.31170867
 0.12759644, 0.15167091
 0.09792285, 0.15532957
 0.08605341, 0.12466683
 0.03857567, 0.11403754
 0.05934718, 0.07971671
 0.16913947, 0.08881856
 0.11869436, 0.18101368
 0.29673591, 0.13889984
 0.13649852, 0.28581528
 0.09198813, 0.15398318
 0.20178042, 0.12805833
 0.09792285, 0.21133678
 0.21364985, 0.12988013
 0.0504451, 0.22391417
 0.115727, 0.11037807
 0.08011869, 0.14189672
 0.19287834, 0.10829614
 0.13946588, 0.20350323
 0.1810089, 0.1546829
 0.19881306, 0.19340372
 0.34421365, 0.20384588
 0.43916914, 0.32376082
 0.5074184, 0.39062736
