Target,Output
 0.28064516, 0.28891129
 0.34193548, 0.30060484
 0.36129032, 0.33214606
 0.44193548, 0.31149194
 0.55483871, 0.35665323
 0.45483871, 0.43427419
 0.47419355, 0.39032258
 0.22258065, 0.41532258
 0.20322581, 0.25607079
 0.22580645, 0.17320788
 0.07419355, 0.14363799
 0.05806452, 0.13794803
 0.05483871, 0.09012097
 0.05806452, 0.10241935
 0.1516129, 0.1
 0.09032258, 0.16693548
 0.11612903, 0.09979839
 0.09677419, 0.10987903
 0.02903226, 0.11108871
 0.11290323, 0.06774193
 0.18064516, 0.11330645
 0.50322581, 0.17016129
 0.6, 0.49193548
 0.53225806, 0.48512545
 0.50967742, 0.46751792
 0.55806452, 0.51975806
 0.63225806, 0.4532258
 0.60322581, 0.46532258
 0.49677419, 0.48931451
 0.42903226, 0.4421371
 0.1, 0.34395161
 0.14193548, 0.19202509
 0.11612903, 0.14807348
 0.10645161, 0.14287634
 0.11612903, 0.10584678
 0.18709677, 0.1124552
 0.1516129, 0.1828853
 0.10645161, 0.13870968
 0.05483871, 0.09435484
 0.14516129, 0.10524194
 0.16451613, 0.12858423
 0.11612903, 0.14594534
 0.0483871, 0.15201613
 0.06774194, 0.07762097
 0.12258065, 0.09572133
 0.18709677, 0.12466398
 0.19032258, 0.17331989
 0.23548387, 0.22883065
 0.22903226, 0.24567652
 0.32258065, 0.26068548
 0.19354839, 0.33926971
 0.15483871, 0.22641129
 0.27096774, 0.15947581
 0.21290323, 0.20069444
 0.13548387, 0.20423387
 0.09354839, 0.15120968
 0.16774194, 0.09435484
 0.09354839, 0.12103495
 0.14516129, 0.09798387
 0.14516129, 0.13951613
 0.06451613, 0.14278674
 0.12258065, 0.09475806
 0.11612903, 0.12289427
 0.03225806, 0.12387993
 0.08387097, 0.07701613
 0.12258065, 0.10201613
 0.04193548, 0.1266129
 0.08064516, 0.08729839
 0.14516129, 0.08991936
 0.33225806, 0.15020161
 0.26129032, 0.36008065
 0.26129032, 0.25454749
 0.58709677, 0.33918011
 0.82580645, 0.3233871
 0.9, 0.57016129
 0.7, 0.684431
 0.57419355, 0.64401882
 0.59032258, 0.49899193
 0.55806452, 0.4702957
 0.62258065, 0.45138889
 0.51612903, 0.46149193
 0.12258065, 0.42459677
 0.21935484, 0.24706541
 0.12903226, 0.22155018
 0.12903226, 0.14646057
 0.10967742, 0.11814516
 0.12580645, 0.11592742
 0.13870968, 0.10589158
 0.05806452, 0.12708333
 0.01290323, 0.08651434
 0.04516129, 0.0858871
 0.1516129, 0.08528226
 0.29354839, 0.14818548
 0.21612903, 0.25604839
 0.29032258, 0.22721774
 0.53548387, 0.30631721
 0.48387097, 0.34780466
 0.36451613, 0.37096774
 0.35483871, 0.34316756
 0.54516129, 0.36962366
 0.50967742, 0.39072581
 0.28709677, 0.36612903
 0.10967742, 0.30367384
 0.05806452, 0.15866935
 0.09032258, 0.14283154
 0.09354839, 0.1375
 0.18064516, 0.09117383
 0.17419355, 0.16021505
 0.09354839, 0.21330645
 0.06774194, 0.09516129
 0.11612903, 0.09294355
 0.17419355, 0.11850359
 0.1483871, 0.16209677
 0.11935484, 0.17625448
 0.0483871, 0.09758065
 0.12258065, 0.0891129
 0.12258065, 0.1140681
 0.17419355, 0.14798387
 0.21612903, 0.16646505
 0.20322581, 0.22674731
 0.20645161, 0.23461022
 0.17741935, 0.21579301
 0.10645161, 0.16814516
 0.02580645, 0.12403674
 0.19354839, 0.09395161
 0.17741935, 0.16491936
 0.20645161, 0.17096774
 0.07096774, 0.24012097
 0.06451613, 0.09979839
 0.0516129, 0.10499552
 0.15806452, 0.09052419
 0.08709677, 0.14012097
 0.06129032, 0.09697581
 0.11935484, 0.0922267
 0.05806452, 0.10403226
 0.06129032, 0.08467742
 0.08387097, 0.09054659
 0.03548387, 0.09879032
 0.03548387, 0.08044355
 0.08064516, 0.08084677
 0.12258065, 0.09596774
 0.18064516, 0.12715054
 0.27419355, 0.22258065
 0.29354839, 0.28346774
 0.29354839, 0.28841846
 0.3483871, 0.31355287
 0.30645161, 0.35687724
 0.18387097, 0.25748208
 0.28387097, 0.1609319
 0.21612903, 0.18624552
 0.10645161, 0.19110663
 0.06129032, 0.13165323
 0.15806452, 0.08427419
 0.1516129, 0.11653226
 0.06774194, 0.1233871
 0.10967742, 0.09092742
 0.12258065, 0.10927419
 0.17741935, 0.1218638
 0.06774194, 0.12762097
 0.05483871, 0.09919355
 0.0516129, 0.08608871
 0.0483871, 0.06987007
 0.04193548, 0.06875
 0.06451613, 0.08508064
 0.12903226, 0.08201165
 0.24193548, 0.14012097
 0.20322581, 0.22157258
 0.35806452, 0.26532258
 0.31290323, 0.36431452
 0.34516129, 0.28514785
 0.33870968, 0.28987455
 0.21290323, 0.30327061
 0.25806452, 0.18640233
 0.22903226, 0.17517921
 0.15806452, 0.18781362
 0.10967742, 0.19498208
 0.1, 0.10212814
 0.13870968, 0.11160394
 0.15806452, 0.11978047
 0.06129032, 0.14271953
 0.10322581, 0.08331093
 0.14516129, 0.11229839
 0.23225806, 0.14737903
 0.16129032, 0.25040323
 0.06774194, 0.17681452
 0.04516129, 0.08891129
 0.04193548, 0.10826613
 0.03870968, 0.08145161
 0.11290323, 0.07762097
 0.20322581, 0.11915323
 0.29354839, 0.24395161
 0.23870968, 0.30020161
 0.20645161, 0.24657258
 0.31290323, 0.26178315
 0.26774194, 0.32016129
 0.18709677, 0.22358871
 0.15483871, 0.20645161
 0.28064516, 0.17923387
 0.17096774, 0.19193548
 0.10967742, 0.15403226
 0.18064516, 0.13467742
 0.16129032, 0.12217742
 0.0483871, 0.18776882
 0.07741935, 0.08568548
 0.18064516, 0.09590054
 0.14193548, 0.16471774
 0.16451613, 0.13104839
 0.06451613, 0.18104839
 0.08064516, 0.09354839
 0.10645161, 0.10483871
 0.08064516, 0.10497312
 0.0483871, 0.08649193
 0.17419355, 0.0999552
 0.27741935, 0.18185484
 0.21935484, 0.24233871
 0.28387097, 0.25745968
 0.22903226, 0.30651882
 0.25483871, 0.23900089
 0.33225806, 0.21774193
 0.25806452, 0.39126344
 0.13225806, 0.23387097
 0.17096774, 0.18205645
 0.19677419, 0.16780914
 0.05483871, 0.1515681
 0.12903226, 0.10221774
 0.1, 0.11290322
 0.05483871, 0.1046371
 0.15483871, 0.11512097
 0.12903226, 0.13084677
 0.11612903, 0.14475806
 0.03870968, 0.14153226
 0.10645161, 0.06995968
 0.08387097, 0.10197133
 0.06774194, 0.08891129
 0.08064516, 0.08810484
 0.07741935, 0.08306452
 0.15806452, 0.09038979
 0.23548387, 0.15342742
 0.22580645, 0.21633065
 0.13225806, 0.28176523
 0.21612903, 0.15080645
 0.3, 0.19807348
 0.22580645, 0.24657258
 0.18387097, 0.2203629
 0.21612903, 0.23991935
 0.26129032, 0.17932348
 0.26129032, 0.19274194
 0.07419355, 0.2547491
 0.10967742, 0.15201613
 0.20645161, 0.07883064
 0.06451613, 0.13306452
 0.07096774, 0.11133513
 0.08709677, 0.07157258
 0.1483871, 0.09184588
 0.10645161, 0.13810484
 0.08709677, 0.11106631
 0.04516129, 0.09753584
 0.03870968, 0.09489247
 0.03225806, 0.06507616
 0.05806452, 0.06592742
 0.10645161, 0.0921371
 0.14516129, 0.12018369
 0.17419355, 0.15987903
 0.27096774, 0.18830645
 0.20322581, 0.27706093
 0.21935484, 0.24715502
 0.23978495, 0.23528226
 0.33297491, 0.26615143
 0.31003584, 0.35994624
 0.23584229, 0.31908602
 0.23297491, 0.23991936
 0.18602151, 0.19395161
 0.19820789, 0.17051971
 0.18673835, 0.19984319
 0.15483871, 0.21129032
 0.14910394, 0.21081989
 0.10752688, 0.1531586
 0.13082437, 0.11704749
 0.1344086, 0.12741936
 0.1297491, 0.11778674
 0.10143369, 0.12461918
 0.10537634, 0.0953405
 0.08243728, 0.10396505
 0.0827957, 0.08879928
 0.08387097, 0.09296595
 0.090681, 0.09614695
 0.07526882, 0.09614695
 0.07921147, 0.08808244
 0.07741935, 0.0859319
 0.08494624, 0.09247312
 0.10250896, 0.08490143
 0.1046595, 0.09175627
 0.10752688, 0.09419803
 0.11075269, 0.1046371
 0.0921147, 0.09820788
 0.11792115, 0.09383961
 0.15197133, 0.11306004
 0.20501792, 0.18353495
 0.22258065, 0.20766129
 0.27491039, 0.25694445
 0.24480287, 0.27004928
 0.30896057, 0.28577509
 0.34265233, 0.33353495
 0.39390681, 0.38198925
 0.33799283, 0.33160842
 0.29498208, 0.31059588
 0.23046595, 0.22755376
 0.16666667, 0.17222222
 0.14874552, 0.14581093
 0.13727599, 0.16276882
 0.10609319, 0.14930556
 0.08458781, 0.12578405
 0.09569892, 0.11700269
 0.0921147, 0.09574373
 0.07956989, 0.08797043
 0.09462366, 0.09271953
 0.09354839, 0.09137545
 0.08888889, 0.09413082
 0.10358423, 0.09088262
 0.08566308, 0.09453405
 0.0874552, 0.09271953
 0.1046595, 0.09596774
 0.10860215, 0.09632616
 0.09247312, 0.10387545
 0.08136201, 0.09516129
 0.0921147, 0.09585573
 0.10179211, 0.09276434
 0.10501792, 0.09227151
 0.08709677, 0.10282258
 0.08924731, 0.09623656
 0.09462366, 0.09941756
 0.11290323, 0.09296595
 0.11505376, 0.11373208
 0.14121864, 0.10633961
 0.2297491, 0.17119176
 0.24301075, 0.2124328
 0.25949821, 0.27056452
 0.25770609, 0.25174731
 0.31075269, 0.29036738
 0.3437276, 0.34643817
 0.38243728, 0.35943101
 0.32544803, 0.35221774
 0.29498208, 0.2797043
 0.22401434, 0.23396057
 0.16666667, 0.17222222
 0.14874552, 0.14316756
 0.13297491, 0.16538978
 0.12043011, 0.14668459
 0.09856631, 0.12753136
 0.10143369, 0.11657706
 0.12150538, 0.10403226
 0.10107527, 0.11129032
 0.08996416, 0.09424283
 0.090681, 0.09959677
 0.07419355, 0.09027778
 0.0921147, 0.08718638
 0.11505376, 0.09641577
 0.10967742, 0.10519713
 0.07598566, 0.10828853
 0.10286738, 0.09332437
 0.08817204, 0.11335125
 0.10035842, 0.09392921
 0.11146953, 0.10224014
 0.1, 0.09332437
 0.11469534, 0.09829749
 0.11326165, 0.11126792
 0.14551971, 0.10262097
 0.19605735, 0.16137993
 0.24587814, 0.19097222
 0.21827957, 0.24735663
 0.28888889, 0.24117384
 0.33082437, 0.31552419
 0.34516129, 0.3624328
 0.31039427, 0.33821685
 0.27741935, 0.26901882
 0.22365591, 0.21635305
 0.16487455, 0.18232527
 0.1483871, 0.1703405
 0.15985663, 0.14901434
 0.1702509, 0.15889337
 0.12473118, 0.16946685
 0.12114695, 0.13940412
 0.10824373, 0.12988351
 0.09928315, 0.11218638
 0.1078853, 0.10336022
 0.12795699, 0.09605735
 0.09354839, 0.11046147
 0.11146953, 0.09005376
 0.11612903, 0.11070788
 0.13297491, 0.10922939
 0.14336918, 0.13039875
 0.21433692, 0.18111559
 0.16953405, 0.21162634
 0.18888889, 0.20181452
 0.18960573, 0.19657258
 0.17240143, 0.14798387
 0.15806452, 0.19852151
 0.14910394, 0.14791667
 0.1437276, 0.15584677
 0.12724014, 0.14885753
 0.12401434, 0.13720878
 0.10967742, 0.11111111
 0.09820789, 0.11066308
 0.09103943, 0.10078405
 0.08243728, 0.0906362
 0.08566308, 0.09016577
 0.08315412, 0.09408602
 0.08387097, 0.09240591
 0.08172043, 0.08962814
 0.2483871, 0.0874328
 0.18387097, 0.25221774
 0.08064516, 0.18870968
 0.15806452, 0.10584677
 0.18709677, 0.12076613
 0.08709677, 0.13225807
 0.09677419, 0.10806452
 0.14516129, 0.08931452
 0.16451613, 0.11733871
 0.2, 0.1375
 0.17419355, 0.24294355
 0.10967742, 0.21491936
 0.08387097, 0.11944444
 0.06774194, 0.11487455
 0.12580645, 0.09713262
 0.13225806, 0.1234543
 0.17741935, 0.15725806
 0.09354839, 0.18888889
 0.09677419, 0.10564516
 0.17096774, 0.08407258
 0.15806452, 0.14153226
 0.13225806, 0.1358871
 0.32258065, 0.14133065
 0.30322581, 0.30992383
 0.30645161, 0.27741936
 0.48387097, 0.32224462
 0.57096774, 0.38723118
 0.29354839, 0.42923387
 0.22580645, 0.24746864
 0.29677419, 0.22721774
 0.22903226, 0.1937948
 0.18709677, 0.18763441
 0.16129032, 0.18629032
 0.09032258, 0.17632169
 0.07419355, 0.10353943
 0.05806452, 0.11462814
 0.02903226, 0.08382617
 0.05483871, 0.07051971
 0.08709677, 0.07262545
 0.10322581, 0.10013441
 0.08709677, 0.12977151
 0.0516129, 0.11774194
 0.0516129, 0.09173387
 0.1483871, 0.08803763
 0.2, 0.15403226
 0.20645161, 0.22439516
 0.20645161, 0.25504032
 0.23870968, 0.26462814
 0.30322581, 0.28310932
 0.20967742, 0.31816756
 0.11290323, 0.22943548
 0.14193548, 0.1671371
 0.12580645, 0.11946684
 0.10322581, 0.10571237
 0.11612903, 0.11426971
 0.07741935, 0.10801971
 0.17096774, 0.08823925
 0.13225806, 0.17219982
 0.07419355, 0.12159498
 0.11935484, 0.08814964
 0.08709677, 0.12995072
 0.02903226, 0.08790323
 0.0483871, 0.07358871
 0.08387097, 0.07379032
 0.03870968, 0.11274642
 0.07741935, 0.07217742
 0.04193548, 0.08806004
 0.08709677, 0.07217742
 0.19354839, 0.08931452
 0.21290323, 0.17620968
 0.32258065, 0.22076613
 0.6, 0.31370968
 0.60322581, 0.44399642
 0.55806452, 0.49657258
 0.32903226, 0.50604839
 0.21935484, 0.37116936
 0.1, 0.19928315
 0.1, 0.14767025
 0.17741935, 0.12392473
 0.1516129, 0.11971326
 0.09677419, 0.090569
 0.06774194, 0.09576613
 0.07741935, 0.10725806
 0.07096774, 0.09047939
 0.03870968, 0.07414874
 0.04516129, 0.0766129
 0.04193548, 0.07096774
 0.2, 0.07862903
 0.13225806, 0.21129032
 0.03225806, 0.15282258
 0.08064516, 0.07379032
 0.19032258, 0.09872312
 0.67419355, 0.17379032
 0.66451613, 0.51149194
 0.76129032, 0.59334677
 0.76129032, 0.63543907
 0.72903226, 0.60974462
 0.58709677, 0.51671147
 0.6, 0.48387097
 0.57096774, 0.46142473
 0.25806452, 0.46711469
 0.23870968, 0.23626792
 0.24516129, 0.22226703
 0.10645161, 0.17851702
 0.18709677, 0.1219086
 0.09677419, 0.1500672
 0.2, 0.11881721
 0.18387097, 0.15282258
 0.11935484, 0.21310484
 0.14193548, 0.12903226
 0.16129032, 0.11975806
 0.16774194, 0.13203405
 0.07096774, 0.16451613
 0.07419355, 0.09596774
 0.16451613, 0.10851254
 0.54193548, 0.15100807
 0.68387097, 0.46552419
 0.76129032, 0.52423835
 0.71612903, 0.64854391
 0.62903226, 0.61861559
 0.53548387, 0.52556003
 0.46774194, 0.44388441
 0.37419355, 0.33234767
 0.35483871, 0.28037634
 0.33225806, 0.27293907
 0.25483871, 0.27016129
 0.29677419, 0.18174283
 0.08709677, 0.20333781
 0.07741935, 0.15445788
 0.09354839, 0.13888889
 0.10967742, 0.11592742
 0.10967742, 0.11355287
 0.07419355, 0.10880376
 0.17741935, 0.09327957
 0.06451613, 0.20062724
 0.12258065, 0.10685484
 0.07419355, 0.10625
 0.03225806, 0.10595878
 0.07096774, 0.07741935
 0.1, 0.08689516
 0.16774194, 0.11532258
 0.17741935, 0.21975807
 0.24193548, 0.19737903
 0.30322581, 0.25546595
 0.33548387, 0.26382168
 0.29354839, 0.31895161
 0.1483871, 0.27486559
 0.37419355, 0.16875
 0.18709677, 0.25020161
 0.30967742, 0.17237903
 0.10322581, 0.22379032
 0.11290323, 0.17580645
 0.17419355, 0.12054212
 0.17096774, 0.12399194
 0.07096774, 0.12544803
 0.09032258, 0.09495968
 0.09354839, 0.10201613
 0.1483871, 0.09637097
 0.16129032, 0.13931452
 0.05806452, 0.18308692
 0.04516129, 0.08770162
 0.01935484, 0.08098118
 0.06774194, 0.06512097
 0.13225806, 0.08528226
 0.19354839, 0.14092742
 0.21612903, 0.21108871
 0.22903226, 0.25403226
 0.21612903, 0.25044803
 0.25806452, 0.2577733
 0.21612903, 0.29966398
 0.20322581, 0.21754032
 0.23548387, 0.20201613
 0.21612903, 0.21823477
 0.18709677, 0.18487903
 0.07741935, 0.1891129
 0.11935484, 0.11572581
 0.07096774, 0.12999552
 0.09032258, 0.09274193
 0.06774194, 0.09979839
 0.08709677, 0.09576613
 0.05483871, 0.11211918
 0.07741935, 0.08819444
 0.08709677, 0.09648297
 0.10322581, 0.09090502
 0.11935484, 0.09760305
