Target,Output,
0.16955017,0.18895599,0.000376586
0.11764706,0.18780749,0.004922486
0.12802768,0.12263031,2.91316E-05
0.12802768,0.14110629,0.00017105
0.16262976,0.11561082,0.002210781
0.10034602,0.16747322,0.004506061
0.03114187,0.12790196,0.009362515
0.08650519,0.08392278,6.66884E-06
0.11072664,0.11739494,4.44662E-05
0.1349481,0.16586988,0.000956156
0.1799308,0.17800971,3.69059E-06
0.14532872,0.21837294,0.005335458
0.16262976,0.15023916,0.000153527
0.12802768,0.17095784,0.001842999
0.11764706,0.18284106,0.004250258
0.13148789,0.16971275,0.00146114
0.12802768,0.17930058,0.00262891
0.14878893,0.17454986,0.000663626
0.33564014,0.15622151,0.032191045
0.16262976,0.31852886,0.024304529
0.30103806,0.18960762,0.012416743
0.33910035,0.30159483,0.001406664
0.41868512,0.34968433,0.004761109
0.32525952,0.37319075,0.002297403
0.3633218,0.3233783,0.001595483
0.26297578,0.34093279,0.006077295
0.24567474,0.23232074,0.000178329
0.08650519,0.23079778,0.020820352
0.06574394,0.10437119,0.001492064
0.12456747,0.10435268,0.000408638
0.17647059,0.13428733,0.001779427
0.1799308,0.16684199,0.000171317
0.14532872,0.17406867,0.000825985
0.05190311,0.12551844,0.005419217
0.06574394,0.06744796,2.90368E-06
0.05536332,0.07683899,0.000461204
0.15224913,0.13450248,0.000314944
0.28719723,0.18594963,0.010251077
0.07958478,0.29346888,0.045746408
0.11764706,0.1117141,3.52E-05
0.13148789,0.12070277,0.000116319
0.16608997,0.1496766,0.000269399
0.20761246,0.19148908,0.000259963
0.1799308,0.2246627,0.002000943
0.23183391,0.20673219,0.000630096
0.17647059,0.22714811,0.002568211
0.44290657,0.18775125,0.065104237
0.36678201,0.44007562,0.005371953
0.40484429,0.34529945,0.003545588
0.20415225,0.37416724,0.028905097
0.11072664,0.20271653,0.00846214
0.0899654,0.14020983,0.002524503
0.08650519,0.1148488,0.00080336
0.20761246,0.10175697,0.011205385
0.25605536,0.17283751,0.006925211
0.16608997,0.2357889,0.004857941
0.23183391,0.13038772,0.010291329
0.20415225,0.21720193,0.000170294
0.183391,0.23982166,0.003184419
0.09688581,0.21126093,0.013081668
0.19723183,0.15622524,0.00168154
0.1384083,0.22417222,0.00735545
0.15224913,0.13998189,0.000150485
0.14186851,0.16151453,0.000385966
0.12456747,0.15390059,0.000860432
0.09342561,0.10045911,4.94701E-05
0.25605536,0.12604897,0.016901661
0.1799308,0.2489213,0.004759689
0.21453287,0.19762642,0.000285828
0.43252595,0.21598866,0.046888398
0.4532872,0.44092892,0.000152727
0.48442907,0.39978775,0.007164153
0.26643599,0.43963113,0.029996557
0.16955017,0.28627619,0.013624964
0.11072664,0.17728139,0.004429535
0.21799308,0.13015468,0.007715585
0.21107266,0.1773295,0.001138601
0.1799308,0.16198115,0.00032219
0.24913495,0.17355637,0.005712122
0.10726644,0.21247622,0.011069098
0.10034602,0.09779503,6.50755E-06
0.21453287,0.09312169,0.014740675
0.11418685,0.24340331,0.016696894
0.11418685,0.15166255,0.001404428
0.08650519,0.1391433,0.002770771
0.10380623,0.08167566,0.000489762
0.09688581,0.08487257,0.000144318
0.12456747,0.12851775,1.56047E-05
0.10380623,0.17558166,0.005151712
0.16608997,0.16242817,1.34088E-05
0.12802768,0.13726486,8.53255E-05
0.23875433,0.17883294,0.003590573
0.28373702,0.26764291,0.00025902
0.30449827,0.29383018,0.000113808
0.38408304,0.3128761,0.005070428
0.32871972,0.39191771,0.003993986
0.32179931,0.3338553,0.000145347
0.3183391,0.32907986,0.000115364
0.19031142,0.29230018,0.010401707
0.34256055,0.16790993,0.030502839
0.31141869,0.3142598,8.07191E-06
0.39792388,0.26265557,0.018297516
0.27681661,0.35342809,0.005869319
0.10380623,0.25691304,0.023441695
0.12110727,0.1340485,0.000167475
0.12110727,0.15077321,0.000880068
0.14532872,0.12943649,0.000252563
0.14186851,0.13096199,0.000118952
0.07958478,0.14866853,0.004772565
0.06920415,0.07369097,2.01316E-05
0.06228374,0.08155257,0.000371288
0.08304498,0.07023251,0.000164159
0.17301038,0.15003855,0.000527705
0.22145329,0.20831308,0.000172665
0.20415225,0.24253443,0.001473192
0.41522491,0.20306867,0.04501027
0.5017301,0.43456219,0.004511528
0.28027682,0.47586548,0.038254924
0.14532872,0.28132523,0.018495051
0.183391,0.20659526,0.000538438
0.31141869,0.22132882,0.008116185
0.34948097,0.25357436,0.009198078
0.39446367,0.27706334,0.013782837
0.26989619,0.34385614,0.005470074
0.31487889,0.22069009,0.00887153
0.25259516,0.28884392,0.001313973
0.15916955,0.23430609,0.0056455
0.23529412,0.14688139,0.007816811
0.34602076,0.21234988,0.017867904
0.29065744,0.30344712,0.000163576
0.34948097,0.24948642,0.00999891
0.23529412,0.34054163,0.011077038
0.23183391,0.22497056,4.71056E-05
0.11072664,0.23007597,0.014244263
0.11418685,0.12949183,0.000234242
0.29065744,0.12602869,0.027102625
0.33910035,0.2571863,0.006709912
0.24221453,0.29194076,0.002472698
0.39100346,0.22274322,0.028311508
0.4083045,0.35997154,0.002336075
0.15570934,0.37685002,0.0489032
0.02768166,0.15322331,0.015760706
0.05882353,0.13105473,0.005217346
0.02422145,0.10103727,0.00590067
0.1349481,0.07322885,0.003809266
0.15224913,0.1372742,0.000224249
0.10380623,0.1494376,0.002082222
0.09342561,0.09933531,3.49246E-05
0.08304498,0.08094365,4.41559E-06
0.12110727,0.11618908,2.41886E-05
0.1799308,0.14462936,0.001246192
0.06228374,0.14852321,0.007437246
0.08650519,0.09984785,0.000178027
0.07266436,0.15178928,0.006260753
0.03114187,0.13773564,0.011362232
0.04844291,0.04697277,2.16131E-06
0.01730104,0.06224709,0.002020147
0.0449827,0.04345142,2.34482E-06
0.0899654,0.09194637,3.92424E-06
0.05882353,0.11946783,0.003677731
0.08304498,0.09519804,0.000147697
0.11764706,0.11666775,9.59048E-07
0.20069204,0.13631231,0.00414475
0.05190311,0.11746746,0.004298684
0.04844291,0.10441043,0.003132363
0.05536332,0.09550929,0.001611699
0.07612457,0.08800839,0.000141225
0.07958478,0.10702616,0.000753029
0.10380623,0.07463038,0.00085123
0.07612457,0.0965291,0.000416345
0.10380623,0.08591693,0.000320027
0.11418685,0.12827344,0.000198432
0.10380623,0.17255951,0.004727014
0.14186851,0.16401886,0.000490638
0.12456747,0.19091077,0.004401433
0.0449827,0.1770525,0.017442432
0.07612457,0.13416775,0.003369011
0.10726644,0.11215338,2.38822E-05
0.11764706,0.16416097,0.002163544
0.11764706,0.16732864,0.002468259
0.4083045,0.17428812,0.054763666
0.35986159,0.4198363,0.003596966
0.58823529,0.34965123,0.056922354
0.30103806,0.52292503,0.049233827
0.39446367,0.30668974,0.007704263
0.37370242,0.41790705,0.001954049
0.41176471,0.36569495,0.002122423
0.29757785,0.34000287,0.001799882
0.27681661,0.23454562,0.001786837
0.19377163,0.25754791,0.004067414
0.17647059,0.17854574,4.30625E-06
0.05536332,0.18227867,0.016107506
0.07266436,0.09185463,0.000368266
0.06574394,0.06695982,1.47836E-06
0.03114187,0.10513575,0.005475094
0.02076125,0.04741256,0.000710292
0.05190311,0.04669542,2.712E-05
0.11418685,0.06519615,0.002400089
0.07266436,0.09598348,0.000543781
0.10380623,0.10657697,7.677E-06
0.16608997,0.12838741,0.001421483
0.15570934,0.17008327,0.00020661
0.183391,0.19692435,0.000183152
0.31141869,0.22018781,0.008323073
0.5916955,0.32586368,0.070666557
0.5017301,0.53613143,0.001183452
0.64013841,0.46411754,0.030983347
0.41868512,0.54813692,0.016757769
0.21453287,0.41450286,0.039987997
0.16955017,0.20555227,0.001296151
0.06574394,0.1645286,0.009758409
0.03114187,0.08105125,0.002490946
0.06228374,0.06971363,5.52033E-05
0.05190311,0.10191694,0.002501383
0.02768166,0.05186906,0.00058503
0.03806228,0.05886696,0.000432835
0.02422145,0.06585386,0.001733258
0.0449827,0.05051669,3.0625E-05
0.05536332,0.09628727,0.00167477
0.02768166,0.09691525,0.00479329
0.00692042,0.08216421,0.005661628
0.04844291,0.07718916,0.000826347
0.05190311,0.09658336,0.001996325
0.02768166,0.13659106,0.011861257
0.07266436,0.12710408,0.002963683
0.06920415,0.15608683,0.0075486
0.17647059,0.10945341,0.004491302
0.20069204,0.21878209,0.00032725
0.16262976,0.21837495,0.003107526
0.15570934,0.20054514,0.002010249
0.16608997,0.20629803,0.001616688
0.19031142,0.20811816,0.00031708
0.22491349,0.22176532,9.91097E-06
0.24221453,0.241443,5.95259E-07
0.2283737,0.25291716,0.000602381
0.16262976,0.21806914,0.003073525
0.28719723,0.17157796,0.013367816
0.38062284,0.27495401,0.011165902
0.28373702,0.33669642,0.002804698
0.31141869,0.2440107,0.004543837
0.29065744,0.30125205,0.000112246
0.15224913,0.27477772,0.015013255
0.10726644,0.15159792,0.00196528
0.06228374,0.13084467,0.004700601
0.03806228,0.09703497,0.003477778
0.09342561,0.08666793,4.56662E-05
0.07612457,0.12330684,0.002226167
0.11764706,0.06517719,0.002753087
0.07266436,0.10208511,0.000865581
0.12110727,0.0781712,0.001843506
0.08304498,0.14174352,0.003445519
0.10380623,0.15567095,0.002689949
0.1384083,0.16712249,0.000824505
0.19031142,0.18562963,2.19192E-05
0.19377163,0.22164754,0.000777066
0.29065744,0.22224972,0.004679616
0.3633218,0.31331371,0.002500809
0.36678201,0.3657925,9.7913E-07
0.38062284,0.36858738,0.000144852
0.3633218,0.38516387,0.000477076
0.19377163,0.36510917,0.029356553
0.28373702,0.17885784,0.010999642
0.29065744,0.26532497,0.000641734
0.23183391,0.24091834,8.25269E-05
0.11418685,0.19394539,0.006361425
0.12802768,0.13476097,4.53372E-05
0.12802768,0.10805165,0.000399042
0.06574394,0.1415882,0.005752352
0.12456747,0.10444237,0.00040502
0.04844291,0.14037618,0.008451726
0.02076125,0.0549099,0.00116613
0.03114187,0.04893687,0.000316662
0.06920415,0.05517581,0.000196794
0.10034602,0.10019883,2.16649E-08
0.17301038,0.16192989,0.000122777
0.13148789,0.1722891,0.001664739
0.183391,0.1830322,1.28737E-07
0.21799308,0.19048274,0.000756819
0.21453287,0.24874667,0.001170584
0.21453287,0.23512198,0.000423911
0.35294118,0.23829261,0.013144295
0.16955017,0.36017476,0.036337734
0.19031142,0.19086391,3.05245E-07
0.21799308,0.19935184,0.000347496
0.24221453,0.24225634,1.74808E-09
0.19723183,0.21085625,0.000185625
0.14532872,0.18203492,0.001347345
0.13148789,0.1561867,0.000610031
0.08650519,0.14805355,0.003788201
0.05536332,0.12373993,0.004675361
0.03806228,0.09897656,0.00371055
0.06574394,0.09334547,0.000761844
0.05882353,0.06389116,2.56809E-05
0.07266436,0.06165155,0.000121282
0.10034602,0.07246996,0.000777075
0.0899654,0.12472759,0.00120841
0.10726644,0.11734022,0.000101481
0.15570934,0.12856044,0.000737063
0.10034602,0.20197486,0.010328421
0.12802768,0.16016181,0.001032602
0.09688581,0.18535252,0.007826359
0.11072664,0.16125973,0.002553593
0.09688581,0.16831241,0.005101759
0.1349481,0.16017673,0.000636484
0.20069204,0.18335963,0.000300412
0.29757785,0.22876744,0.004734873
0.09688581,0.31187698,0.046221203
0.05190311,0.15595413,0.010826615
0.05536332,0.10718307,0.002685286
0.0449827,0.09918703,0.002938109
0.0449827,0.12401308,0.006245801
0.0899654,0.12495157,0.001224032
0.01730104,0.0752318,0.003355973
0.03460208,0.04202448,5.5092E-05
0.05882353,0.06437603,3.08303E-05
0.03114187,0.10166074,0.004972911
0.04152249,0.12632611,0.007191654
0.06574394,0.09095621,0.000635659
0.06228374,0.10313958,0.0016692
0.07266436,0.0983515,0.000659829
0.06228374,0.10895118,0.00217785
0.11764706,0.09999545,0.000311579
0.15224913,0.13302728,0.00036948
0.23875433,0.19660918,0.001776214
0.23183391,0.26069372,0.000832889
0.24221453,0.253245,0.000121671
0.28719723,0.27034207,0.000284096
0.27681661,0.30738144,0.000934209
0.17647059,0.28544607,0.011875655
0.11764706,0.20271906,0.007237245
0.04152249,0.17270243,0.017208177
0.10034602,0.09238249,6.34178E-05
0.15224913,0.12300122,0.00085544
0.19723183,0.14753605,0.002469671
0.15570934,0.18404025,0.00080264
0.11764706,0.12516584,5.65321E-05
0.04844291,0.11078875,0.003887004
0.05190311,0.09873788,0.002193496
0.08650519,0.13957882,0.00281681
0.06920415,0.14717708,0.006079778
0.04152249,0.13798911,0.009305809
0.02422145,0.05299627,0.00082799
0.0449827,0.05186144,4.73171E-05
0.04844291,0.09529704,0.002195309
0.06574394,0.09276573,0.000730177
0.16955017,0.14460957,0.000622034
0.24221453,0.16812577,0.005489144
0.23875433,0.2649521,0.000686323
0.25605536,0.26327478,5.212E-05
0.24567474,0.28733559,0.001735626
0.23875433,0.27092799,0.001035144
0.31141869,0.25709135,0.00295146
0.2283737,0.31343419,0.007235287
0.23875433,0.23050606,6.8034E-05
0.26989619,0.22306444,0.002193213
0.23529412,0.25248388,0.000295488
0.20761246,0.21092209,1.09537E-05
0.19723183,0.19724334,1.3248E-10
0.12110727,0.19218604,0.005052192
0.15916955,0.13405706,0.000630637
0.13148789,0.16895493,0.001403779
0.07958478,0.13923644,0.003558321
0.10726644,0.11209999,2.33632E-05
0.13148789,0.09338664,0.001451705
0.12802768,0.10312581,0.000620103
0.09342561,0.14309097,0.002466648
0.07266436,0.12831399,0.003096881
0.08650519,0.10711125,0.00042461
0.07958478,0.11534855,0.001279047
0.13148789,0.15072363,0.000370014
0.183391,0.18010887,1.07724E-05
0.21799308,0.21646333,2.34014E-06
0.08650519,0.24544108,0.025260617
0.1349481,0.15814593,0.000538139
0.2283737,0.15484145,0.005406992
0.23183391,0.25041355,0.000345203
0.16955017,0.23564002,0.004367868
0.19723183,0.2009044,1.34878E-05
0.1799308,0.15991532,0.000400619
0.19723183,0.18106187,0.000261468
0.10726644,0.19303538,0.007356311
0.05882353,0.15797606,0.009831224
0.05536332,0.10435815,0.002400493
0.03460208,0.06117897,0.000706331
0.06574394,0.09144831,0.000660715
0.07612457,0.10594545,0.000889285
0.0449827,0.07010903,0.000631332
0.06920415,0.05655689,0.000159953
0.12110727,0.07735626,0.001914151
0.07958478,0.13741597,0.003344447
0.0899654,0.14978654,0.003578569
0.10034602,0.16258644,0.00387387
0.10034602,0.12185731,0.000462736
0.12456747,0.16303474,0.001479731
0.08650519,0.17921453,0.008595022
0.09342561,0.15353324,0.003612927
0.12456747,0.16147555,0.001362206
0.10380623,0.18168521,0.006065136
0.11418685,0.16179183,0.002266234
0.3633218,0.17261371,0.036369576
0.25951557,0.37710727,0.013827808
0.183391,0.25750382,0.00549271
0.12110727,0.19355869,0.005249208
0.16262976,0.14723558,0.000236981
0.16262976,0.20107298,0.001477881
0.18685121,0.18506536,3.18926E-06
0.03460208,0.20332637,0.028467886
0.05190311,0.08576054,0.001146326
0.04844291,0.07287065,0.000596714
0.03460208,0.05890268,0.000590519
0.04152249,0.08944506,0.002296573
0.02768166,0.13064181,0.010600792
0.02422145,0.04846967,0.000587976
0.07612457,0.04911493,0.000729521
0.10380623,0.11556536,0.000138277
0.06920415,0.1646053,0.009101379
0.02768166,0.14757435,0.014374257
0.05190311,0.08760062,0.001274312
0.28027682,0.09904292,0.032845727
0.52941176,0.29846392,0.053336905
0.50519031,0.4885478,0.000276973
0.56401384,0.46982298,0.008871918
0.63321799,0.54196093,0.008327851
0.59515571,0.57334345,0.000475775
0.55017301,0.53227139,0.000320468
0.61937716,0.49426304,0.015653543
0.40138408,0.5067775,0.011107773
0.29065744,0.31955798,0.000835241
0.24913495,0.25950554,0.000107549
0.26989619,0.21975561,0.002514078
0.29065744,0.22092997,0.00486192
0.07266436,0.24399256,0.029353352
0.19377163,0.1029425,0.008249931
0.12456747,0.16700896,0.00180128
0.1384083,0.10284304,0.001264888
0.05190311,0.14832453,0.00929709
0.07958478,0.10203409,0.000503972
0.03806228,0.0761567,0.001451185
0.01384083,0.05141816,0.001412056
0.05536332,0.04442372,0.000119675
0.05190311,0.09346231,0.001727167
0.09342561,0.05921105,0.001170636
0.15916955,0.11800019,0.001694916
0.21107266,0.16560432,0.00206737
0.20069204,0.24014076,0.001556202
0.14878893,0.23603526,0.007611922
0.06228374,0.20000216,0.018966363
0.11418685,0.14521038,0.000962459
0.0899654,0.17336457,0.006955422
0.12110727,0.14528749,0.000584683
0.20761246,0.16628837,0.00170768
0.20415225,0.20131681,8.03972E-06
0.22145329,0.19895818,0.00050603
0.24913495,0.22370637,0.000646613
0.55709343,0.28054023,0.076481672
0.43252595,0.52121655,0.007866023
0.183391,0.39957203,0.046734238
0.12456747,0.18310106,0.003426181
0.0899654,0.15559867,0.004307726
0.12110727,0.11455932,4.28756E-05
0.05882353,0.11293699,0.002928267
0.01730104,0.08612312,0.004736479
0.04152249,0.03519513,4.00355E-05
0.09342561,0.06879782,0.000606528
0.06920415,0.09218728,0.000528224
0.06574394,0.11028713,0.001984096
0.16955017,0.10554945,0.004096092
0.15224913,0.17450445,0.000495299
0.14186851,0.19588982,0.002918302
0.14878893,0.1922549,0.001889291
0.10380623,0.19894948,0.009052238
0.14532872,0.16385797,0.000343333
0.16955017,0.19280304,0.000540696
0.21107266,0.20124214,9.66391E-05
0.28719723,0.22882183,0.003407687
0.34256055,0.27117307,0.005096172
0.4532872,0.31869761,0.018114358
0.16955017,0.41862918,0.062040353
0.12802768,0.2002953,0.005222609
0.05190311,0.1935082,0.020052002
0.08304498,0.13505747,0.002705299
0.11764706,0.10038945,0.000297825
0.05536332,0.11814822,0.003941944
0.09688581,0.09566242,1.49668E-06
0.14186851,0.09151627,0.002535348
0.11072664,0.13224894,0.000463209
0.15570934,0.16960986,0.000193224
0.20415225,0.20671372,6.56113E-06
0.14878893,0.2341204,0.00728146
0.09688581,0.18935098,0.008549808
0.12802768,0.16683265,0.001505826
0.12456747,0.18293386,0.003406635
0.12110727,0.17047834,0.002437503
0.15570934,0.17060201,0.000221792
0.14532872,0.19622205,0.002590131
0.19377163,0.15528954,0.001480871
0.17647059,0.19841348,0.00048149
0.14878893,0.21347806,0.004184684
0.17301038,0.19266498,0.000386303
0.29065744,0.21410181,0.005860764
0.35640138,0.30204698,0.002954401
0.19031142,0.34714599,0.024597082
0.14878893,0.18069263,0.001017846
0.23529412,0.1291441,0.011267827
0.18685121,0.23289962,0.002120456
0.1349481,0.16278229,0.000774742
0.11072664,0.13619675,0.000648727
0.11764706,0.13282852,0.000230477
0.10726644,0.09513931,0.000147067
0.13148789,0.13489575,1.16135E-05
0.14532872,0.14508886,5.75328E-08
0.15570934,0.1529734,7.48537E-06
0.1349481,0.12414273,0.000116756
0.13148789,0.15430331,0.000520543
0.12456747,0.18623405,0.003802767
0.15570934,0.17806515,0.000499782
0.20415225,0.196945,5.19445E-05
0.16262976,0.22839773,0.004325426
0.14532872,0.19799294,0.00277352
0.19031142,0.16105482,0.000855949
0.32179931,0.22942363,0.008533266
0.53287197,0.32723322,0.042287296
0.44290657,0.46771273,0.000615346
0.44636678,0.38885557,0.003307539
0.43252595,0.426757,3.32808E-05
0.26989619,0.41354571,0.020635185
0.29065744,0.23419852,0.00318761
0.3633218,0.25349136,0.012062726
0.22145329,0.30130128,0.006375702
0.21107266,0.17300886,0.001448853
0.10034602,0.21029514,0.012088809
0.10726644,0.0834121,0.00056903
0.11764706,0.08799844,0.000879041
0.14532872,0.13677731,7.31266E-05
0.10034602,0.14551712,0.002040428
0.11072664,0.12526504,0.000211365
0.05190311,0.10374673,0.002687761
0.06228374,0.06128003,1.00743E-06
0.16262976,0.06877621,0.008808489
0.16955017,0.20229685,0.001072345
0.14532872,0.19835199,0.002811467
0.183391,0.19214202,7.65804E-05
0.14186851,0.18937601,0.002256963
0.19377163,0.19018291,1.28789E-05
0.26643599,0.22860729,0.001431011
0.2283737,0.27624469,0.002291632
0.11764706,0.23690419,0.014222263
0.08650519,0.14057972,0.002924055
0.04844291,0.08441735,0.00129416
0.07958478,0.1326136,0.002812056
0.20415225,0.10982566,0.008897506
0.15570934,0.1870578,0.000982726
0.19723183,0.15245817,0.002004681
0.14878893,0.16700839,0.000331949
0.1799308,0.12936707,0.002556691
0.16955017,0.22165668,0.002715088
0.20761246,0.20422787,1.14554E-05
0.2733564,0.2270818,0.002141339
0.2733564,0.27967739,3.99549E-05
0.19377163,0.25286935,0.003492541
0.1349481,0.18960378,0.002987243
0.17301038,0.15764007,0.000236246
0.1384083,0.17501072,0.001339737
0.13148789,0.13845559,4.85488E-05
0.16608997,0.13744179,0.000820718
0.1799308,0.16861418,0.000128066
0.19377163,0.18080831,0.000168048
0.17647059,0.19582733,0.000374683
0.16262976,0.18168294,0.000363024
0.09688581,0.20391899,0.011456102
0.28027682,0.1272878,0.02340564
0.17301038,0.29978971,0.016072999
0.19723183,0.19082883,4.09984E-05
0.183391,0.19599182,0.000158781
0.10726644,0.19070116,0.006961353
0.0899654,0.13059347,0.00165064
0.06228374,0.12329167,0.003721968
0.10726644,0.14012028,0.001079375
0.11418685,0.12286424,7.52971E-05
0.07266436,0.1364199,0.004064769
0.13148789,0.0669861,0.004160481
0.1349481,0.11400022,0.000438814
0.1384083,0.14469195,3.94843E-05
0.05190311,0.18686506,0.018214728
0.09342561,0.13913178,0.002089054
0.10380623,0.12009041,0.000265175
0.14532872,0.16329844,0.000322911
0.17647059,0.18686651,0.000108075
0.20415225,0.20877139,2.13365E-05
0.28373702,0.23680113,0.002202978
0.19377163,0.30633973,0.012671577
0.1799308,0.22536507,0.002064273
0.1349481,0.21903789,0.007071093
0.1799308,0.18426246,1.87633E-05
0.12110727,0.20683367,0.007349016
0.1799308,0.12823527,0.002672428
0.23529412,0.17739372,0.003352456
0.25259516,0.22007137,0.001057797
0.17647059,0.23927287,0.003944126
0.26643599,0.17988285,0.007491446
0.20415225,0.26557142,0.003772314
0.16608997,0.22342484,0.003287287
0.14878893,0.16718308,0.000338345
0.19723183,0.19007515,5.12181E-05
0.17647059,0.18707207,0.000112391
0.17301038,0.16807755,2.43328E-05
0.16608997,0.17569928,9.23388E-05
0.2283737,0.16987224,0.003422421
0.15916955,0.22473683,0.004299068
0.16608997,0.16060928,3.0038E-05
0.16955017,0.1732634,1.37881E-05
0.11418685,0.1724526,0.003394898
0.16955017,0.13259476,0.001365702
0.15916955,0.17416452,0.000224849
0.1349481,0.16019843,0.000637579
0.14532872,0.14516957,2.53287E-08
0.1349481,0.16351081,0.000815828
0.3183391,0.14910452,0.028640343
0.47058824,0.29966807,0.029213705
0.31487889,0.42127078,0.011319234
0.36678201,0.2753789,0.008354529
0.26643599,0.37086013,0.010904401
0.30795848,0.28897226,0.000360477
0.22491349,0.27375898,0.002385882
0.12802768,0.22418752,0.009246715
0.13148789,0.1253505,3.76676E-05
0.183391,0.14343861,0.001596193
0.14186851,0.18271544,0.001668472
0.16955017,0.13977595,0.000886504
0.1799308,0.17927037,4.36168E-07
0.20069204,0.14031986,0.0036448
0.07958478,0.15982603,0.006438658
0.06574394,0.11776442,0.00270613
0.06574394,0.10459954,0.001509758
0.0899654,0.14312864,0.00282633
0.16608997,0.1168745,0.002422162
0.14532872,0.16463885,0.000372881
0.14532872,0.15377098,7.12718E-05
0.19377163,0.12118104,0.005269394
0.41176471,0.19904873,0.045248088
0.52941176,0.41322436,0.013499512
0.58477509,0.4875614,0.009450502
0.80276817,0.53085945,0.073934352
0.87543253,0.59924071,0.076281921
0.57093426,0.6089719,0.001446862
0.4083045,0.48417671,0.005756592
0.2733564,0.38125976,0.011643135
0.26297578,0.22726687,0.001275126
0.20761246,0.19350887,0.000198911
0.08304498,0.14988581,0.004467697
0.11072664,0.09424463,0.000271657
0.16608997,0.09615136,0.004891409
0.12456747,0.1444247,0.00039431
0.14186851,0.09778133,0.001943679
0.05536332,0.1207559,0.00427619
0.08650519,0.0640357,0.000504878
0.16262976,0.08588739,0.005889391
0.21453287,0.20691476,5.80356E-05
0.05190311,0.2284698,0.031175796
0.07612457,0.13347021,0.003288522
0.2283737,0.08723314,0.019920658
0.61591696,0.21710485,0.159051099
0.7266436,0.54539965,0.032849369
0.74740484,0.58364803,0.026816293
0.76816609,0.58287301,0.034333525
0.67474048,0.59725079,0.006004652
0.42906574,0.5599734,0.017136815
0.49480969,0.39321246,0.010321997
0.60899654,0.41574407,0.037346517
0.22145329,0.47150667,0.062526693
0.11418685,0.1521066,0.001437907
0.3633218,0.14264454,0.048698453
0.44982699,0.31095045,0.019286693
0.12110727,0.36996327,0.061929309
0.0899654,0.12179536,0.001013146
0.0899654,0.10271826,0.000162635
0.06228374,0.09084131,0.000815535
0.04152249,0.10510523,0.004042765
0.04844291,0.08658365,0.001454716
0.03806228,0.0475548,9.01079E-05
0.05190311,0.05575655,1.4849E-05
0.10380623,0.07405196,0.000885317
0.12110727,0.12522403,1.69477E-05
0.12110727,0.17668721,0.00308913
0.13148789,0.18050237,0.002402419
0.30103806,0.14530552,0.024252624
0.4532872,0.32121787,0.017442308
0.56747405,0.43684183,0.017064777
0.71280277,0.51882552,0.037627174
0.44982699,0.59495867,0.021063205
0.35986159,0.437459,0.006021358
0.27681661,0.35309255,0.005818019
0.22145329,0.28072208,0.003512789
0.16262976,0.16515271,6.36528E-06
0.22145329,0.13115577,0.008153642
0.17647059,0.18971536,0.000175424
0.1384083,0.16463623,0.000687904
0.10380623,0.1216993,0.000320162
0.15224913,0.09526498,0.003247193
0.15916955,0.12402067,0.001235444
0.06920415,0.16215727,0.008640283
0.11072664,0.10870041,4.10561E-06
0.12802768,0.09652935,0.000992145
0.16262976,0.10357084,0.003487956
0.1349481,0.16524464,0.00091788
0.16262976,0.18327277,0.000426134
0.08304498,0.16299708,0.006392338
0.37370242,0.15525852,0.047717737
0.63321799,0.39363427,0.057400359
0.70934256,0.548878,0.025748875
0.70588235,0.55804756,0.021855125
0.83391003,0.57310212,0.068020766
0.59861592,0.60884436,0.000104621
0.62975779,0.50308376,0.01604631
0.61245675,0.52618628,0.007442594
0.35640138,0.48684483,0.017015494
0.11418685,0.26037598,0.021371262
0.16608997,0.1216832,0.001971961
0.13148789,0.16637398,0.001217039
0.05536332,0.11629045,0.003712115
0.10034602,0.09267741,5.88076E-05
0.1349481,0.08548824,0.002446278
0.11072664,0.11527389,2.06775E-05
0.11418685,0.10448986,9.40316E-05
0.10034602,0.10773341,5.45735E-05
0.13148789,0.1218736,9.24346E-05
0.13148789,0.14332087,0.000140019
0.10726644,0.18246453,0.005654753
0.10380623,0.16407774,0.003632655
0.183391,0.16758838,0.000249723
0.4083045,0.22201733,0.03470291
0.52941176,0.40495219,0.015490185
0.63321799,0.49012185,0.020476505
0.61591696,0.53628725,0.006340891
0.52941176,0.53447858,2.56727E-05
0.61591696,0.48140292,0.018094027
0.57439446,0.55100488,0.000547072
0.78546713,0.46941924,0.099886269
0.93771626,0.57728679,0.129909403
0.43598616,0.61257854,0.031184869
0.43944637,0.35555405,0.007037921
0.2283737,0.44131216,0.045342788
0.12456747,0.20557768,0.006562654
0.14878893,0.10546105,0.001877305
0.20761246,0.12990516,0.006038424
0.17301038,0.16424138,7.68954E-05
0.23875433,0.12029909,0.014031644
0.26989619,0.2273581,0.001809489
0.26643599,0.22282632,0.001901803
0.14186851,0.26626284,0.015473949
0.20069204,0.15786669,0.001834011
0.13148789,0.23726666,0.011189148
0.12456747,0.17089106,0.002145875
0.15224913,0.13567198,0.000274802
0.26643599,0.15499567,0.012418945
0.33910035,0.24564449,0.008733998
0.55363322,0.3097551,0.059476537
0.63321799,0.49821996,0.018224468
0.51557093,0.53261629,0.000290544
0.62975779,0.46755145,0.026310897
0.66782007,0.54535579,0.0149975
0.43598616,0.5416355,0.011161783
0.44290657,0.35200079,0.008263861
0.42906574,0.39540462,0.001133071
0.29411765,0.36127381,0.00450995
0.31141869,0.23273881,0.006190524
0.28027682,0.27984833,1.83604E-07
0.17647059,0.23900805,0.003910934
0.15224913,0.16638568,0.000199842
0.17301038,0.17121855,3.21065E-06
0.15916955,0.17143586,0.000150462
0.14878893,0.15793138,8.35844E-05
0.11418685,0.16067199,0.002160868
0.18685121,0.09293607,0.008820054
0.15224913,0.15087414,1.8906E-06
0.12802768,0.16062069,0.001062304
0.11764706,0.14535557,0.000767762
0.11072664,0.14230533,0.000997214
0.14532872,0.1352975,0.000100625
0.21453287,0.15502899,0.003540712
0.24221453,0.23825628,1.56677E-05
0.15916955,0.25578714,0.009334959
0.26989619,0.16898478,0.010183113
0.35640138,0.27134692,0.007234261
0.1349481,0.35722099,0.049405238
0.23529412,0.16855002,0.004454775
0.19723183,0.24023215,0.001849028
0.30795848,0.21910356,0.007895197
0.15570934,0.27147492,0.01340167
0.15916955,0.15094899,6.75776E-05
0.14532872,0.12312283,0.000493102
0.16608997,0.1595233,4.31212E-05
0.18685121,0.17127633,0.000242577
0.15224913,0.17172527,0.00037932
0.19723183,0.15805287,0.001534991
0.19031142,0.19662167,3.98193E-05
0.21453287,0.19601308,0.000342983
0.15916955,0.20512392,0.002111804
0.16608997,0.16374355,5.50569E-06
0.16955017,0.17205689,6.28365E-06
0.14532872,0.17099598,0.000658808
0.21799308,0.15143866,0.004429491
0.11072664,0.20703817,0.009275911
0.19031142,0.12853141,0.00381677
0.18685121,0.19582315,8.04957E-05
0.17301038,0.18591495,0.000166528
0.25605536,0.16953121,0.007486429
0.26989619,0.2455881,0.000590883
0.21107266,0.24837093,0.001391161
0.29757785,0.19847652,0.009821074
0.29757785,0.2928347,2.24975E-05
0.17301038,0.2972553,0.0154368
0.22491349,0.16598008,0.003473147
0.17647059,0.22278328,0.002144865
0.21107266,0.16578356,0.002051103
0.13148789,0.19481545,0.00401038
0.13148789,0.14117912,9.39199E-05
0.12456747,0.14536085,0.000432365
0.1349481,0.14488028,9.86482E-05
0.15224913,0.15033696,3.65639E-06
0.16262976,0.15621371,4.11657E-05
0.15916955,0.16988193,0.000114755
0.14186851,0.16700215,0.0006317
0.20069204,0.1601428,0.001644241
0.15224913,0.23356902,0.006612925
0.19377163,0.19028006,1.21911E-05
0.15916955,0.22606034,0.004474378
0.11072664,0.19799284,0.00761539
0.14532872,0.13315584,0.000148179
0.19377163,0.15965701,0.001163807
0.29065744,0.18589636,0.010974884
0.16262976,0.26113282,0.009702853
0.15224913,0.16317546,0.000119385
0.14186851,0.1286727,0.000174129
0.14878893,0.1621894,0.000179573
0.17301038,0.18619126,0.000173736
0.2283737,0.19821161,0.000909752
,,
,,0.006685374