ccopy_reg
_reconstructor
p0
(cneurolab.core
Net
p1
c__builtin__
object
p2
Ntp3
Rp4
(dp5
S'layers'
p6
(lp7
g0
(cneurolab.layer
Perceptron
p8
g2
Ntp9
Rp10
(dp11
S'initf'
p12
cneurolab.init
initnw
p13
sS'ci'
p14
I3
sS'co'
p15
I7
sS'cn'
p16
I7
sS'inp_minmax'
p17
cnumpy.core.multiarray
_reconstruct
p18
(cnumpy
ndarray
p19
(I0
tp20
S'b'
p21
tp22
Rp23
(I1
(I3
I2
tp24
cnumpy
dtype
p25
(S'f8'
p26
I0
I1
tp27
Rp28
(I3
S'<'
p29
NNNI-1
I-1
I0
tp30
bI00
S'\x00\x00\x00\x00\x00\x00\x00\x00\x00\x00\x00\x00\x00\x00\xf0?\x00\x00\x00\x00\x00\x00\x00\x00\x00\x00\x00\x00\x00\x00\xf0?\x00\x00\x00\x00\x00\x00\x00\x00\x00\x00\x00\x00\x00\x00\xf0?'
p31
tp32
bsS'inp'
p33
g18
(g19
(I0
tp34
g21
tp35
Rp36
(I1
(I3
tp37
g28
I00
S'[\xa6\x95\xcb\xb4r\xc9?\x81\xc5<\xb0\x98\x07\xd6?\x07\xc7\xda\xe0X\x1b\xdc?'
p38
tp39
bsS's'
p40
g18
(g19
(I0
tp41
g21
tp42
Rp43
(I1
(I7
tp44
g28
I00
S'\x04\xb4\x80\xce\xe4\xc4\x1c@@ub\xda\xe9G\xdb?\xd3]\x08*\x89\x00\x13\xc0\xac\xbd\x05\x8a\xd1\xaa\x16@\xfc\xd5/m\xc8\xfe\xcb?\x86c\xa2\xfd\x7f\x93\x05\xc0by\xca\x83\xc1>\xfd?'
p45
tp46
bsS'np'
p47
(dp48
g21
g18
(g19
(I0
tp49
g21
tp50
Rp51
(I1
(I7
tp52
g28
I00
S'\xa3\xce\xfbL\xc0\xa8!@\x1f\x0f\xdc\x83!6\xbc\xbf\xafLoO\xbc\x94\x14\xc0"\x8b\x84}\x9a\x8b @\xae\xc4\xe0\xa2d\x84\xd8\xbf\x7f\x83\xf1\x97\xe8G\x15\xc0L\xe4\x86\x17\xcc;\x0f@'
p53
tp54
bsS'w'
p55
g18
(g19
(I0
tp56
g21
tp57
Rp58
(I1
(I7
I3
tp59
g28
I00
S"\x02,O,\xd6\xeb\x04\xc0\xb1\x1bX!\xd3:\x12\xc0\x03f\x9d\xf2\x98q\xf0?\xa5\x9d\x90Q\xb7s\xb3?\xba\x17\xab\xcb\xdb\x16\x0f@\x9c\xb5\x00\x1c~\xbd\xfd\xbf\x9e\xed\x84q\x89&\x10@P=\x15f\x92F\x00@xm\xf95`0\x04\xc0\x9d]@:z\xf0\x0c\xc0\xead\xd4s\xe0m\x10\xc0l\x0b\x0c\x88M:\xf1\xbfN\xd8\xce]\xb68\xaf?8\xc2\x94\x1a\xfd\xa9\t\xc0k(\x8e\xeeI\xdb\x0e@s\x8f\xce0\x17\xc3\xd4?\xe4\x13f\x94\x04\xd3\x11@\xca\x9d\x86\x95M\xab\x02@\xcc\xa8^\x95\xb9Q\t\xc0\xd4\xc6|%\x00%\x12\xc0\xc4\xcbL'/\xa6\xd0?"
p60
tp61
bssS'transf'
p62
(ineurolab.trans
TanSig
p63
(dp64
bsS'out_minmax'
p65
g18
(g19
(I0
tp66
g21
tp67
Rp68
(I1
(I7
I2
tp69
g28
I00
S'\x00\x00\x00\x00\x00\x00\xf0\xbf\x00\x00\x00\x00\x00\x00\xf0?\x00\x00\x00\x00\x00\x00\xf0\xbf\x00\x00\x00\x00\x00\x00\xf0?\x00\x00\x00\x00\x00\x00\xf0\xbf\x00\x00\x00\x00\x00\x00\xf0?\x00\x00\x00\x00\x00\x00\xf0\xbf\x00\x00\x00\x00\x00\x00\xf0?\x00\x00\x00\x00\x00\x00\xf0\xbf\x00\x00\x00\x00\x00\x00\xf0?\x00\x00\x00\x00\x00\x00\xf0\xbf\x00\x00\x00\x00\x00\x00\xf0?\x00\x00\x00\x00\x00\x00\xf0\xbf\x00\x00\x00\x00\x00\x00\xf0?'
p70
tp71
bsS'out'
p72
g18
(g19
(I0
tp73
g21
tp74
Rp75
(I1
(I7
tp76
g28
I00
S'r\x841\xa0\xfd\xff\xef?\x83M\xc7I\x8e\xbd\xd9?\xee\x98\x86f\xc6\xfe\xef\xbfB\xbc.\xd2\xcd\xff\xef?\xddY; \xa7\x8e\xcb?\xb91Y\x18\xe5\xb5\xef\xbf\xfa\xadc\xba9c\xee?'
p77
tp78
bsbag0
(g8
g2
Ntp79
Rp80
(dp81
g12
g13
sg14
I7
sg15
I1
sg16
I1
sg17
g18
(g19
(I0
tp82
g21
tp83
Rp84
(I1
(I7
I2
tp85
g28
I00
S'\x00\x00\x00\x00\x00\x00\xf0\xbf\x00\x00\x00\x00\x00\x00\xf0?\x00\x00\x00\x00\x00\x00\xf0\xbf\x00\x00\x00\x00\x00\x00\xf0?\x00\x00\x00\x00\x00\x00\xf0\xbf\x00\x00\x00\x00\x00\x00\xf0?\x00\x00\x00\x00\x00\x00\xf0\xbf\x00\x00\x00\x00\x00\x00\xf0?\x00\x00\x00\x00\x00\x00\xf0\xbf\x00\x00\x00\x00\x00\x00\xf0?\x00\x00\x00\x00\x00\x00\xf0\xbf\x00\x00\x00\x00\x00\x00\xf0?\x00\x00\x00\x00\x00\x00\xf0\xbf\x00\x00\x00\x00\x00\x00\xf0?'
p86
tp87
bsg33
g75
sg40
g18
(g19
(I0
tp88
g21
tp89
Rp90
(I1
(I1
tp91
g28
I00
S'\xae\xda\xaa\xc3\x0eg\xda?'
p92
tp93
bsg47
(dp94
g21
g18
(g19
(I0
tp95
g21
tp96
Rp97
(I1
(I1
tp98
g28
I00
S'Ar\x04\n\x0fw\xb8\xbf'
p99
tp100
bsg55
g18
(g19
(I0
tp101
g21
tp102
Rp103
(I1
(I1
I7
tp104
g28
I00
S'"\x1d`\xf6\x14\x1f\xbd?0\x9d\xdb\xcfU\xfc\xd2?\x8b\xd9z\x8f\n@\xd9\xbfT\xf3{I\xb5\xbb\xb6?\xe9,\x86&\x11#\xd8?\xf6\xbe\xf9\xb5\x11\x18\xd1?M\xd9\xab\xfa\xb7\xb0\x9a\xbf'
p105
tp106
bssg62
g63
sg65
g18
(g19
(I0
tp107
g21
tp108
Rp109
(I1
(I1
I2
tp110
g28
I00
S'\x00\x00\x00\x00\x00\x00\xf0\xbf\x00\x00\x00\x00\x00\x00\xf0?'
p111
tp112
bsg72
g18
(g19
(I0
tp113
g21
tp114
Rp115
(I1
(I1
tp116
g28
I00
S'\x96J\xf6\xe0\t\x00\xd9?'
p117
tp118
bsbasg14
I3
sg15
I1
sg17
g18
(g19
(I0
tp119
g21
tp120
Rp121
(I1
(I3
I2
tp122
g28
I00
S'\x00\x00\x00\x00\x00\x00\x00\x00\x00\x00\x00\x00\x00\x00\xf0?\x00\x00\x00\x00\x00\x00\x00\x00\x00\x00\x00\x00\x00\x00\xf0?\x00\x00\x00\x00\x00\x00\x00\x00\x00\x00\x00\x00\x00\x00\xf0?'
p123
tp124
bsg33
g36
sS'trainf'
p125
g0
(cneurolab.core
Trainer
p126
g2
Ntp127
Rp128
(dp129
S'_train_class'
p130
cneurolab.train.spo
TrainNCG
p131
sS'__module__'
p132
S'neurolab.train.spo'
p133
sS'params'
p134
(dp135
S'epochs'
p136
I6000
sS'train'
p137
(dp138
S'rr'
p139
I0
ssS'goal'
p140
F2e-05
sS'show'
p141
I0
ssS'defaults'
p142
(dp143
g136
I500
sg137
(dp144
g139
I0
ssg140
F0.01
sg141
I100
ssS'error'
p145
(lp146
cnumpy.core.multiarray
scalar
p147
(g28
S'\xdefW\xbc)yf@'
p148
tp149
Rp150
ag147
(g28
S'Pb7\xeb\x91_c@'
p151
tp152
Rp153
ag147
(g28
S'\xab\xe5\xf4\xad\x1a\x95[@'
p154
tp155
Rp156
ag147
(g28
S'\xb6\xfb\xe6!\xdc:G@'
p157
tp158
Rp159
ag147
(g28
S'\xdft\xecS\x1b\xbbE@'
p160
tp161
Rp162
ag147
(g28
S'q\x19{a\xa7\xe5B@'
p163
tp164
Rp165
ag147
(g28
S'\x9f\x17i\xdaw\x06<@'
p166
tp167
Rp168
ag147
(g28
S'c\xb7\xde\xcdN\xe5/@'
p169
tp170
Rp171
ag147
(g28
S'>\xed\xb7\x16<\xc1/@'
p172
tp173
Rp174
ag147
(g28
S'\x98\xe6\x9f\xd0-z.@'
p175
tp176
Rp177
ag147
(g28
S'\rO[#h\xa5,@'
p178
tp179
Rp180
ag147
(g28
S"\xb5*px\xde',@"
p181
tp182
Rp183
ag147
(g28
S'[g\xb7\xe7\xa9\xb7*@'
p184
tp185
Rp186
ag147
(g28
S'\xe8v|\x85\xd6\x92*@'
p187
tp188
Rp189
ag147
(g28
S'\xb197H\x0e_)@'
p190
tp191
Rp192
ag147
(g28
S'Zv/O\xb8])@'
p193
tp194
Rp195
ag147
(g28
S'\xc3\xf7\x7f\x809S)@'
p196
tp197
Rp198
ag147
(g28
S'\x0f\xd1\xadUa\xf1(@'
p199
tp200
Rp201
ag147
(g28
S'\x8f\x01\xadd\xb5M(@'
p202
tp203
Rp204
ag147
(g28
S'\xac\xccg\xf9@M(@'
p205
tp206
Rp207
ag147
(g28
S'\x1a\xd4\x87*\xae\x04(@'
p208
tp209
Rp210
ag147
(g28
S"\x85\xff}\x80\xbc\xa2'@"
p211
tp212
Rp213
ag147
(g28
S"\xba\xa1l\x14M\xa2'@"
p214
tp215
Rp216
ag147
(g28
S"\xb3\x94.\x94va'@"
p217
tp218
Rp219
ag147
(g28
S"\xef\x0e\x9d7\xdb\x12'@"
p220
tp221
Rp222
ag147
(g28
S"H\xc1\xf3B_\x12'@"
p223
tp224
Rp225
ag147
(g28
S')\xe0\x0fw\xe5\xdd&@'
p226
tp227
Rp228
ag147
(g28
S'\xb9\xb0\x93\xd6\xd1\xd9&@'
p229
tp230
Rp231
ag147
(g28
S'W\x93\xaa\xc8\xaa\xd3&@'
p232
tp233
Rp234
ag147
(g28
S'\xcf1\x99\xe0\x9b\xd1&@'
p235
tp236
Rp237
ag147
(g28
S'\x914y\x14\xb2\xcf&@'
p238
tp239
Rp240
ag147
(g28
S'\xe2Q\xf4Z\xf7\xcb&@'
p241
tp242
Rp243
ag147
(g28
S'=\xd8\x99\x88\xed\xcb&@'
p244
tp245
Rp246
ag147
(g28
S'\xc9\xcd\xdaI"\xc6&@'
p247
tp248
Rp249
ag147
(g28
S'o9>>\x06\xc6&@'
p250
tp251
Rp252
ag147
(g28
S'\x10\xe0\x1a$\xde\xc5&@'
p253
tp254
Rp255
ag147
(g28
S'\xf0\x04\xfd\xd2\xd4\xc5&@'
p256
tp257
Rp258
ag147
(g28
S'\xce\xc4\x96\x1f\x8f\xc0&@'
p259
tp260
Rp261
ag147
(g28
S'\xa57\xa0\x93P\xc0&@'
p262
tp263
Rp264
ag147
(g28
S'n\xfa3Q\xde\xbf&@'
p265
tp266
Rp267
ag147
(g28
S'\xcdC<\xdd.\xbf&@'
p268
tp269
Rp270
ag147
(g28
S'@\x8f3Z\x89\xbe&@'
p271
tp272
Rp273
ag147
(g28
S'9j\xa2\x1b\x88\xbe&@'
p274
tp275
Rp276
asS'__name__'
p277
S'TrainNCG'
p278
sS'__doc__'
p279
S'\n    Conjugate gradient algorithm\n    Using scipy.optimize.fmin_ncg\n\n    :Support networks:\n        newff (multi-layers perceptron)\n    :Parameters:\n        input: array like (l x net.ci)\n            train input patterns\n        target: array like (l x net.co)\n            train target patterns\n        epochs: int (default 500)\n            Number of train epochs\n        show: int (default 100)\n            Print period\n        goal: float (default 0.01)\n            The goal of train\n        rr float (defaults 0.0)\n            Regularization ratio\n            Must be between {0, 1}\n        \n    '
p280
sbsS'connect'
p281
(lp282
(lp283
I-1
aa(lp284
I0
aa(lp285
I1
aasS'errorf'
p286
(ineurolab.error
SSE
p287
(dp288
bsg65
g18
(g19
(I0
tp289
g21
tp290
Rp291
(I1
(I1
I2
tp292
g28
I00
S'\x00\x00\x00\x00\x00\x00\xf0\xbf\x00\x00\x00\x00\x00\x00\xf0?'
p293
tp294
bsg72
g115
sb.