original,forecast,
0.23809524,0.19823002,0.001589236
0.21428571,0.25483821,0.001644505
0.31904762,0.24212316,0.005917373
0.31428571,0.28000014,0.0011755
0.14285714,0.26415408,0.014712948
0.13809524,0.17002309,0.001019388
0.15238095,0.18091869,0.000814403
0.13333333,0.19719503,0.004078317
0.18095238,0.18126406,9.71444E-08
0.22380952,0.21425943,9.12042E-05
0.37142857,0.23321703,0.01910243
0.20952381,0.35210457,0.020329273
0.06666667,0.23006129,0.026697802
0.08095238,0.11872929,0.001427095
0.1952381,0.08877146,0.011335145
0.18571429,0.14437879,0.001708624
0.18095238,0.19016719,8.49127E-05
0.22380952,0.20769625,0.000259637
0.22380952,0.26075988,0.001365329
0.33809524,0.24916818,0.007908022
0.2952381,0.26049431,0.001207131
0.23333333,0.24393722,0.000112442
0.23809524,0.20329565,0.001211011
0.27142857,0.21981486,0.002663975
0.2047619,0.23908455,0.001178044
0.18571429,0.21736191,0.001001572
0.33333333,0.22302431,0.01216808
0.33333333,0.28688205,0.002157721
0.18095238,0.26269264,0.00668147
0.17142857,0.1594882,0.000142572
0.16666667,0.21910265,0.002749532
0.13809524,0.17408561,0.001295307
0.1,0.16493296,0.004216289
0.08095238,0.1638905,0.006878732
0.05714286,0.17448482,0.013769136
0.12380952,0.15680226,0.001088521
0.15714286,0.15432102,7.96278E-06
0.15238095,0.13126686,0.000445805
0.14761905,0.1296742,0.000322018
0.3,0.1948276,0.011061234
0.25714286,0.2684768,0.000128458
0.20952381,0.23299415,0.000550857
0.07619048,0.24777504,0.029441261
0.14285714,0.17350619,0.000939364
0.15238095,0.16517326,0.000163643
0.22380952,0.16401828,0.003574992
0.22857143,0.23319143,2.13444E-05
0.2047619,0.23566407,0.000954944
0.1952381,0.21948223,0.000587778
0.35238095,0.24048351,0.012521037
0.33809524,0.33610751,3.95107E-06
0.33333333,0.29162714,0.001739406
0.22857143,0.27218765,0.001902375
0.17142857,0.20677168,0.001249135
0.13333333,0.17954013,0.002135068
0.11904762,0.13721848,0.00033018
0.10952381,0.11968278,0.000103205
0.08095238,0.14384187,0.003955088
0.05714286,0.12312836,0.004354086
0.12857143,0.12012301,7.13758E-05
0.11904762,0.1507117,0.001002614
0.06666667,0.136066,0.004816267
0.08095238,0.11212539,0.000971757
0.21904762,0.1700651,0.002399287
0.27619048,0.25128509,0.000620278
0.24285714,0.23420464,7.48658E-05
0.08571429,0.21084732,0.015658275
0.25714286,0.1476278,0.011993548
0.26666667,0.22684446,0.001585808
0.23333333,0.2438028,0.00010961
0.24285714,0.22573408,0.000293199
0.25238095,0.26106391,7.53938E-05
0.15238095,0.277538,0.015664287
0.11428571,0.21199699,0.009547494
0.2952381,0.17679975,0.014027643
0.30952381,0.2702628,0.001541427
0.15238095,0.27942762,0.016140856
0.12857143,0.15496856,0.000696808
0.12380952,0.1442161,0.000416429
0.07619048,0.12973513,0.00286703
0.16190476,0.10669706,0.00304789
0.29047619,0.13157153,0.025250691
0.36190476,0.19451069,0.028020775
0.18571429,0.30788881,0.014926613
0.12857143,0.19395018,0.004274381
0.18571429,0.14340349,0.001790204
0.19047619,0.16546664,0.000625478
0.18095238,0.19415043,0.000174189
0.3047619,0.19177692,0.012765606
0.18095238,0.26249874,0.006649809
0.31428571,0.21576727,0.009705883
0.3,0.25264515,0.002242482
0.16666667,0.25134062,0.007169678
0.15714286,0.20447914,0.002240723
0.25714286,0.19495661,0.00386713
0.13809524,0.23138629,0.00870322
0.1952381,0.1676189,0.00076282
0.12380952,0.2215906,0.00956114
0.26666667,0.18379528,0.006867667
0.31428571,0.25221123,0.003853241
0.19047619,0.25364832,0.003990718
0.13333333,0.16963362,0.001317711
0.14285714,0.15974006,0.000285033
0.10952381,0.16738321,0.00334771
0.0952381,0.14229674,0.002214516
0.08095238,0.12497866,0.001938313
0.05714286,0.13947825,0.006779116
0.15238095,0.15006395,5.36849E-06
0.18571429,0.1668868,0.000354474
0.31428571,0.16764728,0.021502829
0.13333333,0.27344632,0.01963165
0.23333333,0.14804609,0.007273913
0.14761905,0.2319634,0.007113969
0.27142857,0.17664606,0.008983724
0.29047619,0.25721923,0.001106025
0.21904762,0.26528451,0.00213785
0.23333333,0.20403688,0.000858282
0.14285714,0.22078424,0.006072633
0.27142857,0.20209402,0.00480728
0.24285714,0.2154871,0.000749119
0.20952381,0.21953784,0.000100281
0.19047619,0.23154035,0.001686265
0.22380952,0.22349216,1.00717E-07
0.34285714,0.21887276,0.015372126
0.25714286,0.26652481,8.8021E-05
0.17142857,0.21256507,0.001692212
0.13809524,0.1479897,9.79003E-05
0.13333333,0.14367128,0.000106873
0.1,0.12849,0.00081168
0.05714286,0.16026201,0.010633559
0.04761905,0.09935863,0.002676984
0.16666667,0.13918428,0.000755282
0.13809524,0.17667369,0.001488297
0.18571429,0.13471744,0.002600679
0.34761905,0.20416317,0.02057959
0.21904762,0.30796748,0.007906742
0.27619048,0.22931854,0.002196979
0.27142857,0.23964034,0.001010492
0.18571429,0.25866471,0.005321764
0.12380952,0.20103976,0.00596451
0.31904762,0.14744679,0.029446845
0.22857143,0.27382035,0.002047465
0.25714286,0.22425752,0.001081446
0.21904762,0.27160908,0.002762707
0.23809524,0.21748308,0.000424861
0.18571429,0.22135949,0.00127058
0.27619048,0.22474665,0.002646468
0.15714286,0.28060597,0.01524314
0.11904762,0.18508586,0.004361049
0.12857143,0.13733271,7.676E-05
0.12380952,0.13852606,0.000216577
0.15714286,0.13166392,0.000649176
0.11904762,0.1475209,0.000810728
0.14285714,0.13676773,3.70809E-05
0.06666667,0.13978561,0.005346379
0.16666667,0.0887209,0.006075543
0.0952381,0.19880107,0.010725289
0.17619048,0.15447163,0.000471708
0.2952381,0.2063689,0.007897735
0.33809524,0.27331935,0.004195916
0.28571429,0.27284878,0.000165521
0.20952381,0.25595493,0.002155849
0.23809524,0.21989363,0.000331299
0.21428571,0.21798295,1.36696E-05
0.15714286,0.21222513,0.003034056
0.25238095,0.17483495,0.006013382
0.18571429,0.26793028,0.006759469
0.07619048,0.22805805,0.023063759
0.14285714,0.15332443,0.000109564
0.34761905,0.16768829,0.032375078
0.48571429,0.29133629,0.037782807
0.42857143,0.39398122,0.001196483
0.3952381,0.31949673,0.005736755
0.35714286,0.31039394,0.002185462
0.46666667,0.25403754,0.045211147
0.46666667,0.31189802,0.023953335
0.35714286,0.31146745,0.002086243
0.15714286,0.28325511,0.0159043
0.15238095,0.1974094,0.002027561
0.05238095,0.16488747,0.012657717
0.06666667,0.11660179,0.002493516
0.3047619,0.14290763,0.026196805
0.28095238,0.30448798,0.000553924
0.30952381,0.29543511,0.000198491
0.2952381,0.28213083,0.000171801
0.09047619,0.28517166,0.037906326
0.16190476,0.14648737,0.000237696
0.11428571,0.17717833,0.003955482
0.11428571,0.14321701,0.00083702
0.10952381,0.15559641,0.002122684
0.14285714,0.17012582,0.000743581
0.19047619,0.16632041,0.000583502
0.15238095,0.20848041,0.003147149
0.13809524,0.21688828,0.006208343
0.31428571,0.24643183,0.004604149
0.28095238,0.31192452,0.000959273
0.26666667,0.28271532,0.000257559
0.16666667,0.27726549,0.012232099
0.14761905,0.20696595,0.003522055
0.18095238,0.15648142,0.000598828
0.12380952,0.16267409,0.001510455
0.08095238,0.12031173,0.001549158
0.05714286,0.11774874,0.003673073
0.04761905,0.08939539,0.001745263
0.12380952,0.0613478,0.003901466
0.06666667,0.1334039,0.004453858
0.18095238,0.1359466,0.00202552
0.17619048,0.225931,0.002474119
0.09047619,0.2154486,0.015618103
0.2,0.16900308,0.000960809
0.18571429,0.18822229,6.29006E-06
0.18095238,0.16309782,0.000318785
0.24285714,0.16358682,0.006283784
0.3047619,0.21193543,0.008616754
0.25238095,0.26955153,0.000294829
0.21428571,0.23611358,0.000476456
0.25238095,0.20446356,0.002296076
0.14285714,0.24038671,0.009512017
0.2952381,0.21936813,0.005756252
0.30952381,0.30486795,2.1677E-05
0.15238095,0.26703544,0.013145652
0.13809524,0.18112755,0.00185178
0.14285714,0.18954388,0.002179652
0.12857143,0.17010898,0.001725368
0.11428571,0.13527012,0.000440345
0.08095238,0.10187278,0.000437663
0.11904762,0.08476852,0.001175057
0.1047619,0.11686897,0.000146581
0.16190476,0.13352812,0.000805234
0.41904762,0.17591065,0.059115586
0.45238095,0.3184469,0.01793833
0.31904762,0.39850482,0.006313447
0.25714286,0.24351195,0.000185802
0.27619048,0.19889002,0.005975361
0.36666667,0.23818583,0.016507326
0.23809524,0.26875022,0.000939728
0.23333333,0.2092762,0.000578746
0.08571429,0.23626281,0.022664857
0.18571429,0.17552055,0.000103912
0.15714286,0.19363035,0.001331337
0.17619048,0.16211611,0.000198088
0.1952381,0.20471345,8.97823E-05
0.30952381,0.23650442,0.005331831
0.37142857,0.29585541,0.005711303
0.21428571,0.29662313,0.006779451
0.16190476,0.1852123,0.000543241
0.14285714,0.17618612,0.001110821
0.12380952,0.14326214,0.000378404
0.07142857,0.12244427,0.002602602
0.07142857,0.11044434,0.00152223
0.08095238,0.11787568,0.00136333
0.16666667,0.14344294,0.000539342
0.2047619,0.20148527,1.07363E-05
0.16190476,0.2264093,0.004160836
0.26666667,0.24346719,0.000538216
0.1952381,0.24594383,0.002571071
0.26666667,0.22875285,0.001437458
0.23809524,0.24506868,4.86289E-05
0.13809524,0.22481943,0.007521085
0.25714286,0.1640809,0.008660528
0.25238095,0.20572208,0.00217705
0.29047619,0.22864477,0.003823124
0.15238095,0.28212127,0.016832551
0.25714286,0.19931911,0.003343586
0.22380952,0.2231191,4.7668E-07
0.18571429,0.22009804,0.001182242
0.28095238,0.22599738,0.003020052
0.28095238,0.28116817,4.65653E-08
0.15714286,0.24220522,0.007235605
0.11904762,0.15598193,0.001364143
0.10952381,0.1354654,0.000672966
0.11428571,0.10142085,0.000165505
0.09047619,0.14002425,0.00245501
0.04761905,0.12569887,0.006096458
0.07619048,0.10369097,0.000756277
0.05714286,0.10457385,0.002249699
0.08095238,0.11472885,0.00114085
0.16666667,0.16154072,2.62754E-05
0.16190476,0.19600706,0.001162967
0.22380952,0.2455928,0.000474511
0.31428571,0.20996736,0.010882318
0.12380952,0.2632082,0.019431992
0.2,0.17774003,0.000495506
0.26666667,0.2327498,0.001150354
0.17142857,0.2395336,0.004638295
0.3,0.16583606,0.017999963
0.2047619,0.28159745,0.005903702
0.28095238,0.22245893,0.003421484
0.26190476,0.27164242,9.4822E-05
0.28571429,0.25655535,0.000850244
0.25238095,0.27055982,0.000330471
0.32857143,0.25456274,0.005477286
0.32857143,0.25774466,0.005016431
0.13333333,0.24520498,0.012515266
0.14285714,0.13683355,3.62836E-05
0.07619048,0.12628051,0.002509011
0.08571429,0.12745346,0.001742158
0.06666667,0.08224166,0.00024258
0.23809524,0.10927112,0.016595654
0.12380952,0.21120238,0.007637512
0.03333333,0.15709305,0.015316468
0.22380952,0.117239,0.011357276
0.24761905,0.21881379,0.000829743
0.16666667,0.23012041,0.004026377
0.13809524,0.19062414,0.002759285
0.2,0.18861589,0.000129598
0.25714286,0.18821345,0.004751264
0.23333333,0.25651807,0.000537532
0.26666667,0.21050133,0.003154545
0.26190476,0.25853522,1.13538E-05
0.19047619,0.29263017,0.010435436
0.17619048,0.21892632,0.001826352
0.29047619,0.19292452,0.009516328
0.3047619,0.27022806,0.001192586
0.27142857,0.31933758,0.002295273
0.21904762,0.26769449,0.002366518
0.2047619,0.20812563,1.13147E-05
0.25714286,0.19485788,0.003879419
0.14761905,0.19704975,0.002443394
0.08095238,0.14120566,0.003630458
0.1,0.10195824,3.8347E-06
0.11428571,0.11840676,1.69831E-05
0.14285714,0.12481711,0.000325443
0.14761905,0.150553,8.60806E-06
0.06666667,0.16113871,0.008924966
0.17619048,0.12708528,0.002411321
0.26666667,0.20628573,0.003645858
0.27142857,0.22611039,0.002053737
0.27142857,0.23809241,0.0011113
0.11428571,0.24771472,0.017803301
0.23333333,0.17106162,0.003877766
0.24285714,0.21224088,0.000937355
0.05714286,0.2255283,0.028353656
0.0047619,0.13788259,0.017721118
0.08095238,0.12397194,0.001850683
0.21428571,0.15145687,0.003947463
0.1,0.2299228,0.016879934
0.2047619,0.161187,0.001898772
0.23809524,0.22886438,8.52088E-05
0.33333333,0.25895196,0.005532588
0.20952381,0.26968294,0.003619121
0.12857143,0.19995916,0.005096208
0.1047619,0.13157839,0.000719124
0.07619048,0.12597873,0.00247887
0.09047619,0.10146327,0.000120716
0.06190476,0.12574318,0.004075344
0.06190476,0.13019562,0.004663642
0.2952381,0.25321022,0.001766343
0.15714286,0.22935397,0.005214444
0.15714286,0.1838006,0.000710635
0.23333333,0.20328987,0.000902609
0.24761905,0.24389974,1.38333E-05
0.17142857,0.22580915,0.002957247
0.33333333,0.19203948,0.019963952
0.23809524,0.36072888,0.01503901
0.15714286,0.19806557,0.001674668
0.21904762,0.14866331,0.004953951
0.23333333,0.19675494,0.001337979
0.35238095,0.17543427,0.031310128
0.37619048,0.27191849,0.010872648
0.22380952,0.31378709,0.008095963
0.2047619,0.25565252,0.002589855
0.33809524,0.26595297,0.005204507
0.27142857,0.28997067,0.000343809
0.16190476,0.23447654,0.005266663
0.2047619,0.19299034,0.00013857
0.15238095,0.25057149,0.009641382
0.1047619,0.18008073,0.005672926
0.22380952,0.11883968,0.011018667
0.32857143,0.21797047,0.012232572
0.3047619,0.32551254,0.000430589
0.11904762,0.32299891,0.041596129
0.15238095,0.17568616,0.000543133
0.33809524,0.16577455,0.02969442
0.24761905,0.28552107,0.001436563
0.1952381,0.21220552,0.000287893
0.22380952,0.19960195,0.000586006
0.23333333,0.2450703,0.000137756
0.45238095,0.25200051,0.040152321
0.20952381,0.32351346,0.01299364
0.38571429,0.17295614,0.04526603
0.27619048,0.34660273,0.004957885
0.19047619,0.28295155,0.008551692
0.1,0.16705147,0.0044959
0.14285714,0.15085869,6.40248E-05
0.08571429,0.19649055,0.01227138
0.04761905,0.18932307,0.020080029
0.22380952,0.14001618,0.007021324
0.19047619,0.20962062,0.000366509
0.24285714,0.18611203,0.003220008
0.24285714,0.19021587,0.002771103
0.28571429,0.26331547,0.000501707
0.29047619,0.26506622,0.000645667
0.13809524,0.29094911,0.023364306
0.31428571,0.19208939,0.014931941
0.34761905,0.23926506,0.011740587
0.20952381,0.28740074,0.006064816
0.32380952,0.21322033,0.012229969
0.31428571,0.28026584,0.001157352
0.25714286,0.24009725,0.000290553
0.26666667,0.27856581,0.00014159
0.29047619,0.26191623,0.000815671
0.2952381,0.30318034,6.30792E-05
0.24761905,0.30513562,0.003308156
0.14285714,0.2108491,0.004622907
0.14285714,0.19770288,0.003008055
0.14761905,0.17861205,0.000960566
0.11428571,0.17254263,0.003393869
0.06190476,0.15112201,0.007959718
0.04761905,0.09045509,0.001834926
0.11428571,0.10485282,8.89794E-05
0.14761905,0.15085388,1.04641E-05
0.07142857,0.18782929,0.013549128
0.13333333,0.14119837,6.18589E-05
0.17142857,0.18499093,0.000183938
0.28095238,0.20617917,0.005591033
0.17619048,0.25127305,0.005637392
0.13809524,0.2199759,0.006704442
0.2952381,0.19005797,0.01106286
0.27142857,0.25382197,0.000309992
0.18095238,0.23504566,0.002926083
0.26190476,0.21161435,0.002529125
0.24285714,0.28387327,0.001682323
0.18095238,0.26202195,0.006572275
0.21904762,0.19828318,0.000431162
0.25238095,0.22830251,0.000579771
0.30952381,0.25976126,0.002476311
0.14285714,0.290029,0.021659556
0.1047619,0.15698574,0.002727329
0.1047619,0.12842392,0.000559891
0.11428571,0.11635622,4.28701E-06
0.08095238,0.12432634,0.0018813
0.05238095,0.10456139,0.002722798
0.03809524,0.07071268,0.001063897
0.11428571,0.11677291,6.18616E-06
0.34761905,0.16384913,0.033771383
0.23333333,0.25720275,0.000569749
0.15238095,0.21725821,0.004209059
0.12380952,0.1957681,0.005178037
0.18095238,0.17621886,2.24062E-05
0.19047619,0.17251865,0.000322473
0.2,0.20045177,2.04096E-07
0.22857143,0.21949838,8.23202E-05
0.23333333,0.23853913,2.71004E-05
0.25238095,0.2535842,1.44781E-06
0.25238095,0.25406721,2.84347E-06
0.28571429,0.25362357,0.001029814
0.28095238,0.27679114,1.73159E-05
0.19047619,0.29015114,0.009935096
0.26190476,0.20315649,0.003451359
0.33809524,0.24824834,0.008072465
0.32380952,0.28544176,0.001472085
0.14285714,0.22049333,0.006027378
0.1047619,0.15048164,0.002090295
0.0952381,0.1182084,0.000527635
0.08571429,0.10929999,0.000556285
0.06666667,0.10422108,0.001410334
0.01904762,0.1040701,0.007228822
0.04285714,0.10659908,0.004063035
0.13333333,0.12418311,8.37265E-05
0.15238095,0.17243499,0.000402165
0.26666667,0.15549355,0.012359463
0.28095238,0.25750326,0.000549861
0.08095238,0.26817052,0.035050632
0.18571429,0.13406317,0.002667838
0.1047619,0.18239814,0.006027386
0.15714286,0.14479575,0.000152451
0.21904762,0.17861562,0.001634747
0.25238095,0.22862252,0.000564463
0.18095238,0.27601234,0.009036396
0.28095238,0.20572649,0.005658935
0.21428571,0.2676106,0.002843544
0.22380952,0.22021894,1.28923E-05
0.25238095,0.24170856,0.0001139
0.2952381,0.27266925,0.000509353
0.12857143,0.26166813,0.017714732
0.15238095,0.12648712,0.00067049
0.17619048,0.14081558,0.001251384
0.13809524,0.17356058,0.00125779
0.15238095,0.13783114,0.000211697
0.1047619,0.12957094,0.000615488
0.12857143,0.09812462,0.000927008
0.11428571,0.14091958,0.000709363
0.10952381,0.15332481,0.001918528
0.1952381,0.16898464,0.000689244
0.09047619,0.19623624,0.011185188
0.17619048,0.14646278,0.000883736
0.13809524,0.17139969,0.001109186
0.30952381,0.1590322,0.022647725
0.26666667,0.27004872,1.14383E-05
0.0952381,0.2404379,0.021082982
0.28095238,0.13730588,0.020634317
0.16190476,0.2671458,0.011075677
0.10952381,0.19878112,0.007966867
0.11428571,0.18656407,0.005224161
0.18095238,0.17795038,9.012E-06
0.16666667,0.19604844,0.000863288
0.1952381,0.21589463,0.000426692
0.23333333,0.19828967,0.001228058
0.2047619,0.23437183,0.000876748
0.12380952,0.20159092,0.006049946
0.13809524,0.12298816,0.000228224
0.14285714,0.1332722,9.18711E-05
0.11428571,0.11076165,1.2419E-05
0.09047619,0.15661708,0.004374617
0.11428571,0.1344631,0.000407127
0.10952381,0.12710547,0.000309115
0.18095238,0.12407539,0.003234992
0.27619048,0.16890277,0.011510653
0.17619048,0.24700844,0.005015183
0.12857143,0.14810794,0.000381675
0.17619048,0.1854561,8.58517E-05
0.3047619,0.17190109,0.017651995
0.10952381,0.24083887,0.017243645
0.02380952,0.16256926,0.019254265
0.16666667,0.11952965,0.002221899
0.21904762,0.18482833,0.00117096
0.27142857,0.1935765,0.006060945
0.2047619,0.23283605,0.000788158
0.1047619,0.19749569,0.008599556
0.12857143,0.14939928,0.000433799
0.27142857,0.18657428,0.007200251
0.3952381,0.20898223,0.034691249
0.35714286,0.3044991,0.002771365
0.26190476,0.28548962,0.000556246
0.1,0.20920866,0.011926531
0.10952381,0.13376983,0.000587869
0.09047619,0.11525267,0.000613874
0.07142857,0.12824639,0.003228265
0.28571429,0.11346157,0.029671
0.16666667,0.24270104,0.005781225
0.25714286,0.19578271,0.003765068
0.26190476,0.23041829,0.000991398
0.1,0.22340504,0.015228804
0.18571429,0.12600436,0.003565276
0.23333333,0.19686949,0.001329612
0.20952381,0.22040944,0.000118497
0.2047619,0.19842769,4.01222E-05
0.26190476,0.20449763,0.003295579
0.2,0.21778599,0.000316341
0.22857143,0.19604219,0.001058151
0.26666667,0.22778514,0.001511773
0.26190476,0.24473762,0.000294711
0.19047619,0.22022645,0.000885078
0.22857143,0.21411205,0.000209074
0.26666667,0.26783993,1.37654E-06
0.3,0.23745665,0.003911671
0.23333333,0.26406879,0.000944669
0.2047619,0.20653057,3.12819E-06
0.12380952,0.19167902,0.004606269
0.14285714,0.13568136,5.14918E-05
0.16190476,0.16097303,8.68121E-07
0.06190476,0.15596706,0.008847716
0.02857143,0.08997208,0.00377004
0.16666667,0.10968305,0.003247133
0.21904762,0.20167869,0.00030168
0.3047619,0.22749857,0.005969622
0.10952381,0.26649996,0.024641512
0.16666667,0.12805355,0.001490973
0.2,0.17900796,0.000440666
0.16666667,0.1869902,0.000413046
0.16666667,0.17440517,5.98844E-05
0.20952381,0.187882,0.000468368
0.17142857,0.18642493,0.000224891
0.3,0.19847028,0.010308284
0.26190476,0.29101384,0.000847339
0.21904762,0.2447267,0.000659415
0.17142857,0.2136992,0.001786806
0.07142857,0.17194863,0.010104282
0.3047619,0.12727073,0.031503115
0.22380952,0.28846872,0.004180812
0.28571429,0.23760261,0.002314734
0.11428571,0.23010703,0.013414578
0.10952381,0.12406781,0.000211528
0.13809524,0.10175234,0.001320806
0.06666667,0.12429006,0.003320455
0.05714286,0.11816983,0.003724291
0.03333333,0.09804798,0.004187986
0.1047619,0.131824,0.000732357
0.05238095,0.1682105,0.013416485
0.11904762,0.12783136,7.71541E-05
0.12380952,0.13989962,0.000258891
0.06190476,0.18054847,0.01407633
0.08571429,0.11989354,0.001168221
0.22857143,0.14222722,0.007455323
0.14285714,0.22612896,0.006934196
0.25714286,0.17774283,0.006304365
0.17142857,0.2493574,0.006072903
0.08095238,0.19466088,0.012929623
0.09047619,0.17060324,0.006420344
0.03333333,0.12647562,0.008675486
0.13333333,0.11840392,0.000222887
0.28095238,0.16127607,0.014322419
0.32857143,0.27839963,0.00251721
0.36666667,0.33395177,0.001070265
0.45714286,0.29480594,0.026353276
0.22380952,0.33924378,0.013325068
0.10952381,0.16929404,0.00357248
0.10952381,0.11369697,1.74153E-05
0.07142857,0.14540404,0.00547237
0.07142857,0.1176156,0.002133242
0.35238095,0.11394889,0.056849847
0.15714286,0.28496151,0.016337607
0.05238095,0.17232654,0.014386945
0.1047619,0.11158555,4.65622E-05
0.19047619,0.12278293,0.004582377
0.18095238,0.15534382,0.000655798
0.11428571,0.14006255,0.000664445
0.0952381,0.18987722,0.008956563
0.18095238,0.18939027,7.1198E-05
0.06666667,0.18176898,0.013248542
0.17619048,0.11789522,0.003398337
0.28571429,0.16264246,0.015146675
0.24285714,0.24444132,2.50963E-06
0.36190476,0.26744853,0.008921979
0.25714286,0.28686144,0.000883194
0.22857143,0.25432095,0.000663038
0.2047619,0.29225583,0.007655188
0.42380952,0.236726,0.035000243
0.41904762,0.36400706,0.003029463
0.23809524,0.32211878,0.007059955
0.13809524,0.23686304,0.009755078
0.11428571,0.15424274,0.001596564
0.10952381,0.13513083,0.000655719
0.16190476,0.13202891,0.000892566
0.27619048,0.18011346,0.009230794
0.11904762,0.23156317,0.012659749
0.10952381,0.14052216,0.000960898
0.16666667,0.14072388,0.000673028
0.1952381,0.21147999,0.000263799
0.09047619,0.1752938,0.007194027
0.05238095,0.1356468,0.006933202
0.18095238,0.12399832,0.003243765
0.14285714,0.17795613,0.001231939
0.06190476,0.19565647,0.01788952
0.24285714,0.09860121,0.020809773
0.28571429,0.22715414,0.003429291
0.28571429,0.25294378,0.001073906
0.23333333,0.27619141,0.001836815
0.2,0.24191093,0.001756526
0.17142857,0.2215352,0.002510674
0.26190476,0.23694275,0.000623102
0.35714286,0.25631858,0.010165535
0.25714286,0.29425668,0.001377436
0.26666667,0.2513389,0.000234941
0.16666667,0.23436954,0.004583679
0.13809524,0.15763728,0.000381891
0.48095238,0.09258313,0.150830674
0.51904762,0.41838948,0.010132061
0.43333333,0.40199416,0.000982144
0.27619048,0.33138566,0.003046508
0.27619048,0.27292132,1.06874E-05
0.4952381,0.23442184,0.068025121
0.45714286,0.33939593,0.01386434
0.2952381,0.32899495,0.001139525
0.17142857,0.24852189,0.00594338
0.20952381,0.18885185,0.00042733
0.15238095,0.20799134,0.003092515
0.10952381,0.17148288,0.003838926
0.12380952,0.15405909,0.000915036
0.04285714,0.18022013,0.018868591
0.14761905,0.15274858,2.63121E-05
0.2047619,0.20443825,1.04749E-07
0.17142857,0.25003867,0.006179548
0.2,0.20206539,4.26584E-06
0.3,0.22827444,0.005144556
0.21428571,0.2668167,0.002759505
0.32380952,0.25235999,0.005105035
0.31428571,0.29973271,0.00021179
0.31904762,0.26823745,0.002581673
0.24761905,0.26786098,0.000409736
0.11904762,0.26894648,0.022469668
0.13333333,0.1981873,0.004206037
0.27142857,0.17561681,0.009179893
0.57142857,0.25563722,0.099724177
0.60952381,0.48258184,0.016114264
0.16666667,0.53572346,0.136202914
0.20952381,0.21282752,1.09145E-05
0.2047619,0.1685168,0.001313707
0.21428571,0.1419379,0.005234206
0.2,0.17812349,0.000478582
0.13333333,0.26613102,0.017635226
0.17142857,0.23608973,0.004181066
0.10952381,0.15670968,0.002226506
0.25714286,0.11708472,0.019616283
0.24761905,0.25591201,6.87732E-05
0.23333333,0.25315066,0.000392727
0.17619048,0.28021377,0.010820845
0.16666667,0.20840275,0.0017419
0.26190476,0.18752302,0.005532643
0.15714286,0.28335533,0.015929588
0.19047619,0.20228308,0.000139403
0.30952381,0.20447034,0.011036232
0.5047619,0.26950141,0.055347498
0.72857143,0.34355237,0.148239677
0.68571429,0.51906672,0.027771413
0.55714286,0.57247053,0.000234937
0.36190476,0.58544826,0.049971696
0.26666667,0.36859454,0.010389291
0.48571429,0.24432111,0.058270667
0.22857143,0.38811684,0.025454738
0.3,0.25488625,0.00203525
0.23333333,0.33667352,0.010679195
0.37142857,0.2277931,0.020631148
0.24285714,0.2663433,0.0005516
0.08095238,0.20671415,0.015816023
0.08571429,0.12769161,0.001762095
0.16190476,0.15005976,0.000140304
0.32380952,0.20508094,0.014096476
0.3047619,0.36381266,0.003486992
0.42380952,0.33427274,0.008016835
0.35238095,0.38826565,0.001287712
0.3047619,0.32131175,0.000273898
0.22857143,0.24011404,0.000133232
0.27142857,0.19340374,0.006087874
0.23809524,0.25625571,0.000329803
0.16190476,0.2682968,0.011319266
0.37142857,0.26538287,0.01124569
0.41428571,0.40572407,7.33017E-05
0.67142857,0.38319786,0.083076942
0.6047619,0.49635348,0.011752386
0.42380952,0.51469482,0.008260138
0.48571429,0.46973957,0.000255192
0.62857143,0.45074787,0.031621218
0.27619048,0.45115865,0.030613861
0.2,0.22038516,0.000415555
0.19047619,0.237589,0.002219617
0.37142857,0.26097051,0.012200983
0.26190476,0.32026462,0.003405873
0.16666667,0.23216842,0.004290479
0.08571429,0.22002381,0.018039047
0.1,0.20836057,0.011742013
0.13809524,0.2289222,0.008249537
0.17619048,0.2260907,0.002490032
0.15238095,0.32603509,0.03015576
0.15238095,0.32731143,0.030600673
0.16666667,0.25385445,0.007601709
0.28571429,0.24731046,0.001474854
0.26666667,0.27195377,2.79534E-05
0.12380952,0.2944539,0.029119504
0.14761905,0.12009154,0.000757764
0.12380952,0.1738306,0.002502108
0.08095238,0.25093335,0.02889353
0.08095238,0.24176213,0.025859776
0.04285714,0.20423949,0.026044263
0.12857143,0.14857785,0.000400257
0.28571429,0.2202381,0.004287131
0.2047619,0.32112926,0.013541362
0.1,0.21919514,0.014207481
0.07142857,0.17378856,0.010477568
0.08571429,0.14925705,0.004037682
0.12380952,0.14453959,0.000429736
,,
,,0.006847571
,,
,,
,,
,,
,,
,,
,,
,,
,,
,,
,,
,,
,,
,,
,,
,,
,,
,,
,,
,,
,,
,,
,,
,,
,,
,,
,,
,,
,,
,,
,,
,,
,,
,,
,,
,,
,,
,,
,,
,,
,,
,,
,,
,,
,,
,,
,,
,,
,,
,,
,,
,,
,,
,,
,,
,,
,,
,,
,,
,,
,,
,,
,,
,,
,,
,,
,,
,,
,,
,,
,,
,,
,,
,,
,,
,,
,,
,,
,,
,,
,,
,,
,,
,,
,,
,,
,,
,,
,,
,,
,,
,,
,,
,,
,,
,,
,,
,,
,,
,,
,,
,,
,,
,,
,,
,,
,,
,,
,,
,,
,,
,,
,,
,,
,,
,,
,,
,,
,,
,,
,,
,,