output,target,
0.20372369,0.12385321,0.006379294
0.15218565,0.12844037,0.000563838
0.17107394,0.35779817,0.034865938
0.31824269,0.28899083,0.000855671
0.25579141,0.46788991,0.044985774
0.44010713,0.48165138,0.001725925
0.42417701,0.35321101,0.005036173
0.27744798,0.32568807,0.002327106
0.31353561,0.27981651,0.001136978
0.25092443,0.2706422,0.00038879
0.25390258,0.22477064,0.00084867
0.23088685,0.11926606,0.012459201
0.15405449,0.05963303,0.008915412
0.13491635,0.2293578,0.008919187
0.21181867,0.18348624,0.000802727
0.17682037,0.12385321,0.00280552
0.16783594,0.12385321,0.001934481
0.16810578,0.2293578,0.00375181
0.25472207,0.13302752,0.014809563
0.19313026,0.17889908,0.000202526
0.22655953,0.22018349,4.06539E-05
0.22843837,0.0733945,0.024038602
0.14578961,0.11009174,0.001274338
0.1708041,0.18348624,0.000160837
0.20476305,0.23853211,0.001140349
0.24503808,0.19724771,0.002283919
0.21672563,0.13761468,0.006258542
0.14220184,0.25688073,0.013151248
0.26659471,0.35779817,0.008318071
0.28602267,0.40366972,0.013840828
0.35536967,0.31311587,0.001785384
0.29816514,0.27981651,0.000336672
0.23662329,0.26605505,0.000866228
0.23703304,0.21100917,0.000677242
0.19940637,0.20183486,5.89756E-06
0.19358997,0.22477064,0.000972234
0.23739281,0.24311927,3.27923E-05
0.23073694,0.23377506,9.23017E-06
0.22245208,0.22680938,1.89861E-05
0.2337051,0.21695549,0.000280549
0.22747896,0.21933401,6.63402E-05
0.21043953,0.22799864,0.000308322
0.22185245,0.23105674,8.4719E-05
0.22141272,0.23343527,0.000144542
0.21895425,0.26146789,0.00180741
0.25289321,0.11009174,0.02039226
0.14296137,0.20183486,0.003466088
0.19940637,0.26605505,0.004442047
0.27900701,0.2706422,6.997E-05
0.26740421,0.26605505,1.82023E-06
0.24413863,0.23717295,4.85207E-05
0.2130679,0.23853211,0.000648426
0.2314465,0.24583758,0.000207103
0.23223601,0.41284404,0.032619261
0.33890988,0.39449541,0.003089751
0.34700486,0.27522936,0.005151722
0.26146789,0.26146789,0
0.24422858,0.21559633,0.000819806
0.23941156,0.32568807,0.007443636
0.26524555,0.4587156,0.03743066
0.40501889,0.43577982,0.000946235
0.35402051,0.42201835,0.004623706
0.38478144,0.25229358,0.017553033
0.23259579,0.20642202,0.000685066
0.21242829,0.14220183,0.004931756
0.14813815,0.0733945,0.005586613
0.15002698,0.19724771,0.002229797
0.24860586,0.14678899,0.010366675
0.16028063,0.05963303,0.010129939
0.14244169,0.16972477,0.000744366
0.22194239,0.21100917,0.000119535
0.20150507,0.21100917,9.03279E-05
0.21116907,0.23394495,0.000518741
0.26285703,0.23394495,0.000835908
0.21940397,0.16972477,0.002468023
0.18086786,0.23394495,0.002817177
0.26834363,0.43119266,0.026519807
0.37587696,0.50458716,0.016566316
0.45439827,0.30733945,0.021626297
0.29147928,0.31192661,0.000418093
0.25984889,0.27981651,0.000398706
0.23662329,0.16972477,0.004475412
0.1708041,0.19724771,0.000699265
0.17916892,0.13302752,0.002129029
0.15191581,0.2706422,0.014095956
0.25364274,0.60091743,0.12059971
0.44361496,0.50458716,0.003717609
0.38127361,0.40366972,0.000501586
0.29363794,0.19266055,0.010196433
0.20453319,0.23394495,0.000865052
0.24301933,0.22477064,0.000333015
0.22994743,0.10091743,0.016648741
0.13278767,0.14220183,8.86264E-05
0.15542364,0.12385321,0.000996692
0.16109012,0.23853211,0.005997262
0.25472207,0.37614679,0.014743963
0.3729088,0.39908257,0.000685066
0.36481382,0.27981651,0.007224543
0.25499191,0.24311927,0.00014096
0.23340529,0.29816514,0.004193838
0.30733945,0.46788991,0.02577645
0.44495413,0.47247706,0.000757512
0.38424177,0.40536867,0.000446346
0.3432272,0.36782195,0.000604902
0.31219644,0.2706422,0.001726755
0.25256341,0.26605505,0.000182024
0.24413863,0.24736663,1.042E-05
0.21812476,0.22680938,7.54226E-05
0.23376507,0.20285423,0.00095548
0.21270812,0.76605505,0.306192825
0.47301673,0.45039076,0.000511935
0.3159741,0.2293578,0.007502383
0.2301673,0.17889908,0.00262843
0.1911215,0.06880734,0.014960754
0.13734485,0.08715596,0.002518925
0.1980572,0.22018349,0.000489573
0.22060322,0.1559633,0.004178319
0.17154364,0.25688073,0.007282419
0.25391258,0.25229358,2.62116E-06
0.24900562,0.20642202,0.001813363
0.21242829,0.25229358,0.001589241
0.23638344,0.25229358,0.000253133
0.23686315,0.10550459,0.017255071
0.15572345,0.25229358,0.00932579
0.26269713,0.33027523,0.0045668
0.28359417,0.33944954,0.003119822
0.31786292,0.39449541,0.005872539
0.34619536,0.42201835,0.005749126
0.41284404,0.44495413,0.001031058
0.43335132,0.38990826,0.001887299
0.34295737,0.36238532,0.000377445
0.28278467,0.58256881,0.089870531
0.43038316,0.55045872,0.01441814
0.41284404,0.40825688,2.1042E-05
0.31954188,0.34862385,0.000845761
0.30437129,0.2706422,0.001137652
0.26524555,0.33027523,0.004228859
0.28845116,0.12844037,0.025603453
0.20643201,0.11009174,0.009281448
0.18699406,0.08715596,0.009967646
0.17269293,0.16836561,1.87257E-05
0.22122284,0.19232076,0.00083533
0.19077172,0.18807339,7.28098E-06
0.18191721,0.29357798,0.012468128
0.2714517,0.33486239,0.004020916
0.32865623,0.20183486,0.01608366
0.19749755,0.20829086,0.000116496
0.22560013,0.23156643,3.55967E-05
0.25487198,0.23479443,0.000403108
0.21913414,0.36238532,0.020520901
0.37533729,0.27522936,0.010021598
0.26929304,0.49082569,0.049076715
0.43740881,0.80275229,0.133475858
0.54910955,0.51308189,0.001297992
0.32325958,0.39449541,0.005074543
0.30820891,0.30733945,7.55961E-07
0.26632488,0.6559633,0.151818098
0.43550998,0.39534489,0.001613234
0.32730707,0.58715596,0.067521446
0.44441446,0.68348624,0.057155316
0.5272531,0.16055046,0.134470826
0.19562871,0.20642202,0.000116496
0.21843457,0.24617737,0.000769663
0.22668945,0.43577982,0.043718783
0.34781436,0.28899083,0.003460208
0.24284943,0.16055046,0.00677312
0.17916892,0.12844037,0.002573386
0.20291419,0.16055046,0.001794686
0.22197238,0.2293578,5.45444E-05
0.27327057,0.22477064,0.002352243
0.23380504,0.23394495,1.95748E-08
0.2282285,0.24770642,0.000379389
0.23529412,0.55504587,0.102241182
0.45818593,0.54587156,0.00768877
0.39503508,0.42201835,0.000728097
0.30335192,0.42201835,0.014081722
0.40528872,0.27522936,0.016915437
0.24932542,0.24770642,2.62116E-06
0.2298375,0.23853211,7.55962E-05
0.20690172,0.13761468,0.004800694
0.19293038,0.02752294,0.027359621
0.13974336,0.47247706,0.110711715
0.29018009,0.64678899,0.127169908
0.52347545,0.50458716,0.000356767
0.35536967,0.1559633,0.0397629
0.16891527,0.19724771,0.000802727
0.22691931,0.14220183,0.007177051
0.14004317,0.17957866,0.001563055
0.23973137,0.16904519,0.004996536
0.19670804,0.27522936,0.006165598
0.27765785,0.26146789,0.000262115
0.24422858,0.29357798,0.002435363
0.26443605,0.29816514,0.001137652
0.26254722,0.26639484,1.48042E-05
0.25256341,0.27981651,0.000742731
0.26595511,0.22018349,0.002095041
0.21361756,0.36697248,0.023517731
0.37688633,0.37614679,5.46919E-07
0.30599029,0.47247706,0.027717845
0.40717755,0.44495413,0.00142707
0.34268753,0.44954128,0.011417724
0.39638424,0.45412844,0.003334393
0.38370211,0.31651376,0.004514274
0.29033999,0.25688073,0.001119522
0.25229358,0.68807339,0.189904043
0.47140773,0.68807339,0.046944008
0.49649218,0.63761468,0.01991556
0.47976255,0.6146789,0.018202421
0.46815974,0.83486239,0.134470834
0.54614139,0.59174312,0.002079518
0.37479763,0.37954468,2.25345E-05
0.30497092,0.30801903,9.29097E-06
0.28547301,0.2293578,0.003148917
0.20075553,0.23819232,0.001401513
0.22621974,0.23394495,5.96789E-05
0.22866823,0.20608223,0.000510127
0.25376267,0.20336391,0.002540035
0.19227079,0.21168875,0.000377057
0.23852212,0.25688073,0.000337039
0.22222222,0.27522936,0.002809757
0.27399013,0.22358138,0.002541042
0.22791869,0.59633028,0.1357271
0.3853311,0.40366972,0.000336305
0.32811657,0.3853211,0.003272358
0.34511603,0.35321101,6.55287E-05
0.25688073,0.30394156,0.002214722
0.2879015,0.21100917,0.00591243
0.19589854,0.2706422,0.005586615
0.24635726,0.39449541,0.021944911
0.34457636,0.34369691,7.73432E-07
0.25849973,0.25229358,3.85163E-05
0.25067458,0.18807339,0.003918909
0.18019828,0.20778118,0.000760816
0.20665188,0.21083928,1.75343E-05
0.22456077,0.23496432,0.000108234
0.25997881,0.24549779,0.0002097
0.23027723,0.30275229,0.005252634
0.29654614,0.17889908,0.013840831
0.17835942,0.18552497,5.13451E-05
0.2027443,0.20455318,3.27205E-06
0.20125522,0.23394495,0.001068618
0.24778637,0.26197757,0.00020139
0.25289321,0.21695549,0.00129152
0.24237972,0.2103296,0.00102721
0.18361616,0.21287802,0.000856256
0.20631209,0.2198437,0.000183104
0.21484679,0.23598369,0.000446769
0.23785253,0.23224601,3.14331E-05
0.22816854,0.22986748,2.8864E-06
0.22836841,0.23309548,2.23452E-05
0.22254202,0.21780496,2.24397E-05
0.23250585,0.23139653,1.23059E-06
0.23276569,0.22018349,0.000158312
0.22573005,0.22222222,1.23049E-05
0.224191,0.23173632,5.69319E-05
0.22531031,0.23037717,2.56731E-05
0.22349144,0.2325858,8.27074E-05
0.21175871,0.2324159,0.000426719
0.21823469,0.22035338,4.48885E-06
0.2243509,0.23037717,3.63159E-05
0.22101297,0.22103296,3.996E-10
0.22549019,0.22222222,1.06796E-05
0.22372129,0.23649337,0.000163126
0.23587376,0.22137275,0.000210279
0.2351642,0.23275569,5.80092E-06
0.22643961,0.22816854,2.9892E-06
0.23176631,0.22392117,6.15462E-05
0.23420479,0.22460075,9.22376E-05
0.22861826,0.22901801,1.598E-07
0.22971757,0.2358138,3.7164E-05
0.22780876,0.23292559,2.61819E-05
0.2287182,0.23292559,1.77021E-05
0.21896424,0.22460075,3.17702E-05
0.2298475,0.2293578,2.39806E-07
0.22944774,0.21797486,0.000131627
0.23429474,0.22629969,6.39208E-05
0.22627971,0.23479443,7.25005E-05
0.23024725,0.22137275,7.87568E-05
0.22615978,0.22884811,7.22712E-06
0.22623973,0.22545022,6.23326E-07
0.23424477,0.23003738,1.77021E-05
0.22900801,0.23326538,1.81252E-05
0.21436709,0.22884811,0.0002097
0.23100678,0.23224601,1.53569E-06
0.21931402,0.2196738,1.29442E-07
0.2261298,0.22969759,1.27291E-05
0.22402111,0.2261298,4.44657E-06
0.2348344,0.22477064,0.000101279
0.22909796,0.23190622,7.88632E-06
0.22832844,0.22969759,1.87457E-06
0.22794867,0.23428474,4.01458E-05
0.21733525,0.22375127,4.11653E-05
0.22996742,0.22392117,3.65571E-05
0.22831844,0.23037717,4.23837E-06
0.22880814,0.22748896,1.74024E-06
0.23490436,0.2325858,5.37572E-06
0.22538026,0.2324159,4.95002E-05
0.21823469,0.22867822,0.000109067
0.22937779,0.2706422,0.001702752
0.23259579,0.32568807,0.008666173
0.27927685,0.6559633,0.141892682
0.42282785,0.91284404,0.240115866
0.55126821,0.76605505,0.046133387
0.4414463,0.52293578,0.006640535
0.3424177,0.44495413,0.010513719
0.31246627,0.16972477,0.020375136
0.18753373,0.08256881,0.011017634
0.12817053,0.15137615,0.000538501
0.18375607,0.11926606,0.004158961
0.16972477,0.04587156,0.015339618
0.13329736,0.14492015,0.000135089
0.18024825,0.18807339,6.12328E-05
0.24041095,0.25229358,0.000141197
0.2706422,0.08256881,0.0353716
0.12390318,0.18586476,0.003839237
0.23268573,0.28440367,0.002674745
0.27846735,0.61009174,0.109974736
0.44982111,0.60091743,0.022830098
0.46573125,0.63302752,0.027988042
0.52347545,0.58256881,0.003492025
0.45952509,0.50458716,0.00203059
0.36265515,0.38243289,0.000391159
0.31360556,0.50458716,0.036473972
0.47436589,0.63302752,0.025173513
0.5156503,0.58715596,0.005113059
0.45952509,0.79816514,0.114677083
0.55099838,0.46041454,0.008205432
0.3159741,0.58715596,0.073539601
0.49055586,0.78899083,0.089063431
0.55099838,0.49541284,0.003089752
0.32325958,0.16055046,0.026474258
0.16891527,0.32110092,0.023160472
0.29897464,0.51834862,0.048124943
0.42148868,0.15137615,0.072960779
0.16540745,0.23853211,0.005347216
0.2846735,0.23394495,0.002573386
0.22866823,0.23853211,9.72961E-05
0.22726909,0.22018349,5.02057E-05
0.23579381,0.19792729,0.001433873
0.20074554,0.21950391,0.000351876
0.25591133,0.21491675,0.001680556
0.21125902,0.2485559,0.001391057
0.21244828,0.36238532,0.022481116
0.32703724,0.30054366,0.00070191
0.27926685,0.28406388,2.30115E-05
0.26006876,0.26044852,1.44218E-07
0.23397494,0.2324159,2.43061E-06
0.21138894,0.21916412,6.04534E-05
0.22882813,0.2103296,0.000342196
0.21271811,0.22680938,0.000198564
0.22621974,0.23037717,1.72842E-05
0.22812856,0.22867822,3.02126E-07
0.2245108,0.23224601,5.98335E-05
0.21931402,0.21831464,9.9876E-07
0.22669945,0.22731906,3.83917E-07
0.22396114,0.22901801,2.55719E-05
0.2253203,0.22579001,2.20627E-07
0.23424477,0.22884811,2.91239E-05
0.23102676,0.2291879,3.38141E-06
0.22537027,0.22629969,8.63822E-07
0.23437469,0.23309548,1.63638E-06
0.22971758,0.22069317,8.144E-05
0.2248406,0.22273191,4.44657E-06
0.224191,0.23394495,9.51395E-05
0.22690932,0.22137275,3.06536E-05
0.2256401,0.22477064,7.55961E-07
0.22637965,0.23989127,0.000182564
0.23414483,0.21389738,0.000409959
0.23052707,0.22748896,9.23011E-06
0.23058704,0.2291879,1.95759E-06
0.22534029,0.22392117,2.0139E-06
0.23207611,0.18348624,0.002360975
0.18518519,0.12385321,0.003761612
0.16783594,0.12385321,0.001934481
0.16810578,0.21270812,0.001989369
0.21937399,0.16055046,0.003460208
0.15083648,0.39449541,0.059369674
0.41007575,0.56880734,0.025195718
0.46842957,0.23853211,0.052852842
0.22423098,0.10091743,0.015206232
0.1635486,0.13302752,0.000931536
0.15893146,0.14678899,0.00014744
0.16270912,0.17889908,0.000262115
0.22812856,0.22477064,1.12756E-05
0.22603985,0.24770642,0.00046944
0.22799864,0.15137615,0.005871006
0.15812196,0.3440367,0.034564291
0.31030761,0.40366972,0.008716484
0.33837021,0.26146789,0.005913967
0.23340529,0.55504587,0.103452663
0.44874178,0.66055046,0.044862917
0.51241231,0.63302752,0.014548029
0.48246087,0.25688073,0.0508864
0.27846735,0.22477064,0.002883337
0.24330915,0.1559633,0.007629298
0.17586097,0.17889908,9.23011E-06
0.21301793,0.29357798,0.006489922
0.27549919,0.53669725,0.068224427
0.44307529,0.53669725,0.008765071
0.4133837,0.28440367,0.016635848
0.27852731,0.31192661,0.001115513
0.27253103,0.12844037,0.020762118
0.19562871,0.04587156,0.022427204
0.12031541,0.03211009,0.007780178
0.13356719,0.16055046,0.000728097
0.21141892,0.11009174,0.010267197
0.16756611,0.26146789,0.008817544
0.27475965,0.25229358,0.000504724
0.2398313,0.24311927,1.08107E-05
0.20954008,0.21100917,2.15823E-06
0.22702924,0.31651376,0.008007479
0.24365893,0.21100917,0.001066007
0.20291419,0.47247706,0.072664141
0.37101997,0.34862385,0.000501586
0.31819272,0.33944954,0.000451852
0.31489476,0.32568807,0.000116496
0.30275229,0.23853211,0.004124232
0.2433891,0.25229358,7.92898E-05
0.24793628,0.20183486,0.002125341
0.196778,0.19266055,1.69534E-05
0.20289421,0.17889908,0.000575766
0.16248926,0.33944954,0.031314941
0.28602267,0.05504587,0.053350282
0.14437049,0.22018349,0.005747611
0.22464072,0.28899083,0.004140937
0.26551538,0.35321101,0.007690524
0.3291959,0.29357798,0.001268636
0.25120425,0.1559633,0.009070839
0.17728009,0.11009174,0.004514274
0.19320022,0.13761468,0.003089752
0.17296276,0.10550459,0.004550605
0.20966001,0.23394495,0.000589758
0.22653954,0.27981651,0.002838436
0.2566109,0.23853211,0.000326843
0.21091923,0.19724771,0.00018691
0.21672563,0.26605505,0.002433392
0.28197517,0.25688073,0.000629731
0.24754652,0.27981651,0.001041352
0.29098959,0.25688073,0.001163414
0.24099059,0.24770642,4.51024E-05
0.21325778,0.25229358,0.001523794
0.23313546,0.38073394,0.021785311
0.34646519,0.43577982,0.007977103
0.37425796,0.18348624,0.036393849
0.19589854,0.15137615,0.001982243
0.19266055,0.46788991,0.075751201
0.40366973,0.64678899,0.059106975
0.52239611,0.69266055,0.02898998
0.50971398,0.44954128,0.003620754
0.32218025,0.44036697,0.013968101
0.37803562,0.46788991,0.008073793
0.42120885,0.2706422,0.022670316
0.22800863,0.25229358,0.000589759
0.22749895,0.17889908,0.002361947
0.15672283,0.16972477,0.00016905
0.20372369,0.18348624,0.000409554
0.20723152,0.21100917,1.42706E-05
0.19778737,0.16972477,0.00078751
0.17997841,0.14220183,0.00142707
0.19239072,0.37614679,0.033766293
0.36276509,0.4266055,0.004075598
0.37641662,0.55045872,0.030290653
0.4587156,0.4587156,0
0.34565569,0.71559633,0.136856077
0.52860227,0.83944954,0.096626025
0.51672963,0.86238532,0.119477856
0.49271452,0.71100917,0.047652554
0.4298435,0.46330275,0.001119521
0.32730707,0.30733945,0.000398706
0.27954668,0.28440367,2.35904E-05
0.25820991,0.37155963,0.012848159
0.31489476,0.39449541,0.006336263
0.358068,0.32110092,0.001366565
0.29114949,0.36697248,0.005749126
0.34673503,0.39908257,0.002740265
0.34781436,0.22018349,0.016289639
0.20426336,0.19266055,0.000134625
0.20642202,0.27981651,0.005386751
0.27873718,0.29357798,0.000220249
0.23475445,0.16513761,0.004846504
0.17808958,0.25688073,0.006208045
0.2706422,0.24770642,0.00052605
0.21325778,0.20642202,4.67276E-05
0.20681178,0.30275229,0.009204581
0.29465731,0.35779817,0.003986768
0.34727469,0.32110092,0.000685066
0.31110711,0.3440367,0.001084358
0.33783054,0.36697248,0.000849253
0.3283864,0.27522936,0.002825671
0.26254722,0.30733945,0.002006344
0.25418241,0.26146789,5.30782E-05
0.25067458,0.18348624,0.004514273
0.18694409,0.13761468,0.002433391
0.17647059,0.37155963,0.038059734
0.36762207,0.46788991,0.01005364
0.38046411,0.28899083,0.008367361
0.26794387,0.21559633,0.002740265
0.1980572,0.64678899,0.201360219
0.43390098,0.67889908,0.060024069
0.49811117,0.17431193,0.104845948
0.21667566,0.08256881,0.017984647
0.15299514,0.11009174,0.001840702
0.15920129,0.1559633,1.04846E-05
0.1856449,0.18807339,5.89756E-06
0.22395115,0.24311927,0.000367417
0.25688073,0.1559633,0.010184328
0.1724231,0.14678899,0.000657108
0.2004857,0.29357798,0.008666173
0.27657852,0.38990826,0.01284363
0.32218025,0.28899083,0.001101538
0.25849973,0.23853211,0.000398706
0.22495053,0.36238532,0.018888322
0.36616298,0.32568807,0.001638218
0.29977414,0.33944954,0.001574137
0.33351322,0.27981651,0.002883337
0.26068837,0.24311927,0.000308673
0.23340529,0.09633028,0.018789558
0.15491395,0.57798165,0.178986279
0.41985969,0.60550459,0.034464029
0.48407987,0.6146789,0.017056107
0.47571506,0.47247706,1.04846E-05
0.35348084,0.43577982,0.006773122
0.33567188,0.17431193,0.026037033
0.18996222,0.29816514,0.011707872
0.28764166,0.21100917,0.005872539
0.18753373,0.17889908,7.45572E-05
0.1864544,0.23394495,0.002255352
0.25232356,0.24770642,2.1318E-05
0.23529412,0.26146789,0.000685066
0.26497572,0.28899083,0.000576726
0.27954668,0.2293578,0.002518924
0.21577622,0.28899083,0.005360379
0.27549919,0.49082569,0.046365502
0.45656693,0.38073394,0.005750642
0.31738322,0.28440367,0.001087651
0.25930923,0.32110092,0.003818213
0.28818133,0.35321101,0.004228859
0.33783055,0.31651376,0.000454406
0.29545682,0.29816514,7.335E-06
0.26657472,0.68348624,0.173815216
0.43362115,0.78440367,0.123048376
0.50809498,0.82568807,0.100865371
0.49271452,0.77981651,0.082427553
0.47571506,0.31651376,0.025345054
0.24662709,0.32110092,0.005546351
0.29087965,0.16055046,0.016985698
0.19131139,0.25229358,0.003718827
0.25715057,0.11926606,0.019012138
0.16130999,0.16055046,5.76886E-07
0.19795727,0.2706422,0.005283099
0.27873718,0.21100917,0.004587083
0.18942256,0.13302752,0.003180401
0.1567728,0.19266055,0.001287931
0.21760508,0.21559633,4.03508E-06
0.22759889,0.18348624,0.001945926
0.20669185,0.43577982,0.052481298
0.43577982,0.52752294,0.0084168
0.47247706,0.3440367,0.016496926
0.30551058,0.33486239,0.000861529
0.31705343,0.35321101,0.001307371
0.32703724,0.31192661,0.000228331
0.29923447,0.29357798,3.19959E-05
0.24633727,0.26605505,0.000388791
0.25360277,0.18348624,0.004916328
0.19670804,0.13761468,0.003492025
0.17647059,0.66513761,0.238795456
0.3969339,0.53669725,0.019533794
0.41230437,0.60091743,0.035574886
0.47733405,0.19724771,0.078448358
0.20372369,0.09174312,0.012539648
0.17458176,0.25229358,0.006039127
0.2311267,0.17889908,0.002727724
0.15672283,0.27981651,0.015152054
0.27846735,0.13761468,0.019839475
0.16778597,0.14220183,0.000654548
0.18807339,0.26146789,0.005386753
0.24069077,0.24311927,5.89761E-06
0.2141872,0.14678899,0.004542519
0.17620075,0.14220183,0.001155927
0.19751754,0.36697248,0.028714977
0.36060642,0.46330275,0.010546536
0.37884512,0.36238532,0.000270925
0.34646519,0.43119266,0.007178744
0.36670265,0.36238532,1.86393E-05
0.31030761,0.29816514,0.00014744
0.28142552,0.29357798,0.000147682
0.25359277,0.27981651,0.000687685
0.24509804,0.30733945,0.003873993
0.23772261,0.44495413,0.042944903
0.42066919,0.57798165,0.02474721
0.46438208,0.73853211,0.075158239
0.54776039,0.73394495,0.03466469
0.47571506,1,0.274874698
0.50134916,0.57798165,0.005872539
0.32487858,0.27522936,0.002465045
0.27037237,0.21100917,0.00352399
0.18915273,0.1146789,0.005546351
0.14732866,0.06422018,0.006907019
0.16082029,0.15137615,8.91918E-05
0.21235834,0.18348624,0.000833598
0.24404869,0.30733945,0.00400572
0.23664328,0.38990826,0.023490154
0.35051268,0.51376147,0.026650167
0.45952509,0.47706422,0.000307621
0.34079871,0.46330275,0.01500724
0.32245008,0.65137615,0.10819236
0.50134916,0.47247706,0.000833598
0.3407987,0.29357798,0.002229796
0.27981651,0.3853211,0.011131219
0.31975175,0.2706422,0.002411748
0.25067458,0.58715596,0.113219719
0.43336132,0.4266055,4.56411E-05
0.34808419,0.39908257,0.002600835
0.36238532,0.49541284,0.017696321
0.44819212,0.55963303,0.012419076
0.45493794,0.49541284,0.001638218
0.37263896,0.16972477,0.041174169
0.18051808,0.29816514,0.013840831
0.28764166,0.47706422,0.035880906
0.45036078,0.46788991,0.00030727
0.32676741,0.15137615,0.030762094
0.17647059,0.24770642,0.005074543
0.25849973,0.29357798,0.001230484
0.3135456,0.28440367,0.000849252
0.23781256,0.35779817,0.014396547
0.34430653,0.26146789,0.00686224
0.24015111,0.17431193,0.004334798
0.16751614,0.26146789,0.008826931
0.28305451,0.4266055,0.020606887
0.35914733,0.48623853,0.016152173
0.4414463,0.46330275,0.000477704
0.32245008,0.4266055,0.010848352
0.33864004,0.3853211,0.002179121
0.36508365,0.5412844,0.031046704
0.47166757,0.44954128,0.000489573
0.33189423,0.39449541,0.003918908
0.3424177,0.31192661,0.000929707
0.27630869,0.44954128,0.03000953
0.43550998,0.90366972,0.219173542
0.53669725,0.7706422,0.05473024
0.4414463,0.6146789,0.030009534
0.41230437,0.19724771,0.046249367
0.21343767,0.26605505,0.002768589
0.28197517,0.3440367,0.003851634
0.2862925,0.24311927,0.001863928
0.24878575,0.12844037,0.01448301
0.17539126,0.17889908,1.23048E-05
0.20767124,0.16972477,0.001439935
0.20372369,0.13302752,0.004997948
0.17997841,0.25229358,0.005229484
0.28899083,0.32568807,0.001346687
0.28224501,0.29357798,0.000128436
0.25847974,0.55045872,0.085251725
0.42634567,0.38073394,0.00208043
0.29417761,0.27981651,0.000206241
0.25796006,0.5412844,0.080272682
0.46142392,0.71100917,0.062292797
0.53696708,0.68348624,0.021467864
0.47571506,0.54587156,0.004921934
0.40717755,0.59174312,0.03406445
0.48354021,0.52752294,0.001934481
0.38073394,0.43119266,0.002546082
0.30922828,0.53211009,0.049676301
0.47247706,0.47706422,2.1042E-05
0.33675121,0.22018349,0.013588033
0.20885051,0.20642202,5.89756E-06
0.20721153,0.12385321,0.00694861
0.13977334,0.16513761,0.000643346
0.22062321,0.1146789,0.011224197
0.18078791,0.15137615,0.000865052
0.17296276,0.24770642,0.005586615
0.25849973,0.22018349,0.001468134
0.23456457,0.18348624,0.002608996
0.21567628,0.21559633,6.392E-09
0.22744898,0.24770642,0.000410364
0.2277488,0.37155963,0.020681555
0.32811657,0.33486239,4.55061E-05
0.2738702,0.50458716,0.053230316
0.4298435,0.59633028,0.027717848
0.49217485,0.41284404,0.006293377
0.33567188,0.37155963,0.001287931
0.31246627,0.38990826,0.005997262
0.33486239,0.21100917,0.01533962
0.20777118,0.15137615,0.003180399
0.16506766,0.17431193,8.54565E-05
0.22719914,0.41743119,0.036188233
0.40609822,0.18348624,0.049556094
0.20345386,0.08715596,0.013525202
0.15785213,0.18807339,0.000913325
0.23507425,0.14220183,0.008625286
0.14867782,0.22018349,0.005113061
0.28089584,0.13761468,0.020529491
0.17208331,0.19266055,0.000423423
0.2383822,0.17431193,0.004104999
0.18245688,0.0733945,0.011894603
0.12331355,0.16972477,0.002154001
0.20615219,0.18807339,0.000326843
0.19994603,0.21559633,0.000244932
0.23152645,0.20642202,0.000630232
0.17687034,0.38990826,0.045385155
0.4162819,0.59174312,0.03078664
0.44441446,0.43577982,7.4557E-05
0.33162439,0.44036697,0.011824949
0.42012952,0.32568807,0.008919187
0.30706962,0.32568807,0.000346647
0.29573664,0.24770642,0.002306902
0.24986508,0.26605505,0.000262115
0.27533929,0.20642202,0.00474959
0.21181867,0.07798165,0.017912348
0.16329875,0.17889908,0.00024337
0.22971757,0.29357798,0.004078152
0.27549919,0.19724771,0.006123294
0.17754992,0.26146789,0.007042226
0.26416622,0.19266055,0.005113061
0.19153125,0.1559633,0.001265079
0.1872639,0.09633028,0.008268923
0.17458176,0.21100917,0.001326956
0.18834323,0.30275229,0.013089433
0.27900701,0.22477064,0.002941584
0.21316784,0.2293578,0.000262115
0.22944774,0.21559633,0.000191862
0.22905798,0.12844037,0.010123903
0.15272531,0.31651376,0.026826656
0.31786293,0.4587156,0.019839475
0.45223961,0.3853211,0.004478087
0.33405289,0.59174312,0.066404255
0.4125742,0.60550459,0.037222135
0.47814355,0.53211009,0.002912387
0.3877496,0.58715596,0.039762896
0.50377766,0.46788991,0.001287931
0.35833783,0.19724771,0.025950027
0.20318403,0.22018349,0.000288982
0.229028,0.12844037,0.010117871
0.15454418,0.26605505,0.012434674
0.25796007,0.24311927,0.000220249
0.22168256,0.60550459,0.147319351
0.42607583,0.62844037,0.040951407
0.50755532,0.47247706,0.001230484
0.3407987,0.51376147,0.02991612
0.43847814,0.35779817,0.006509258
0.31171674,0.17889908,0.017640531
0.19668805,0.21100917,0.000205094
0.20149507,0.13761468,0.004080704
0.16425816,0.12844037,0.001282914
0.17566109,0.1559633,0.000388003
0.20740141,0.13761468,0.004870188
0.18942256,0.1559633,0.001119522
0.21765505,0.25229358,0.001199828
0.25715057,0.38073394,0.015272849
0.34646519,0.50458716,0.025002557
0.47436589,0.50917431,0.001211626
0.40609822,0.30275229,0.010680381
0.27987648,0.27522936,2.15957E-05
0.25817993,0.3440367,0.007371385
0.29357798,0.21559633,0.006081138
0.22663948,0.1559633,0.004995122
0.16425816,0.09174312,0.005258431
0.17296276,0.37155963,0.039440717
0.30879854,0.25688073,0.002695459
0.22045332,0.3440367,0.015272852
0.27954668,0.23853211,0.001682195
0.24311927,0.14678899,0.009279523
0.18098779,0.1146789,0.004396869
0.16270912,0.2293578,0.004442047
0.23139653,0.18807339,0.001876894
0.20264436,0.1146789,0.007737922
0.18267674,0.09174312,0.008268923
0.16675661,0.13761468,0.000849252
0.18996222,0.21559633,0.000657108
0.2433891,0.16513761,0.006123296
0.14813815,0.16513761,0.000288982
0.20291419,0.2706422,0.004587083
0.27441986,0.49082569,0.046831483
0.43740881,0.36697248,0.004961277
0.29039995,0.30275229,0.00015258
0.27764786,0.26605505,0.000134393
0.25148408,0.28440367,0.001083699
0.27927685,0.2293578,0.002491912
0.21469689,0.17431193,0.001630945
0.19166117,0.43119266,0.057375335
0.39557474,0.49082569,0.009072743
0.46465192,0.58256881,0.013904393
0.50053967,0.32110092,0.032198265
0.27879715,0.12844037,0.022607161
0.19185105,0.10091743,0.008268923
0.19508905,0.1559633,0.001530824
0.1872639,0.06422018,0.015139757
0.14621934,0.27981651,0.017848204
0.2940377,0.16513761,0.016615233
0.18456557,0.12385321,0.003685991
0.18456557,0.15137615,0.001101538
0.18024825,0.2293578,0.002411748
0.26767404,0.30275229,0.001230484
0.27954668,0.19266055,0.0075492
0.18780356,0.06880734,0.0141601
0.13631548,0.28899083,0.023309762
0.28918071,0.36238532,0.005358915
0.32622774,0.26146789,0.004193838
0.24284943,0.3853211,0.020298177
0.33054506,0.66972477,0.115042876
0.43658932,0.76146789,0.105546085
0.50809498,0.74770642,0.057413642
0.47571506,0.71100917,0.055363318
0.47571506,0.44036697,0.001249487
0.31138694,0.20183486,0.012001658
0.19589854,0.51834862,0.103974054
0.40583838,0.53669725,0.017124044
0.40987588,0.42201835,0.00014744
0.30847874,0.34862385,0.00161163
0.34646519,0.32568807,0.000431689
0.32082109,0.28899083,0.001013165
0.25497192,0.20642202,0.002357093
0.1864544,0.09633028,0.008122357
0.15675281,0.25229358,0.009128039
0.24192001,0.24311927,1.43822E-06
0.20954008,0.17889908,0.000938871
0.17191341,0.23394495,0.003847912
0.25232356,0.22018349,0.001032984
0.22466071,0.11926606,0.011108032
0.14083268,0.29816514,0.024753503
0.31697348,0.34862385,0.001001746
0.3556395,0.27522936,0.006465791
0.26308689,0.24770642,0.000236559
0.2298375,0.33944954,0.012014799
0.283864,0.39908257,0.013275319
0.34538586,0.30275229,0.001817621
0.28926066,0.25229358,0.001366565
0.23165637,0.24770642,0.000257604
0.21595611,0.25688073,0.001674825
0.24797626,0.49082569,0.058975846
0.41986968,0.40825688,0.000134857
0.30572045,0.37614679,0.004959869
0.31948192,0.25229358,0.004514273
0.2169455,0.37155963,0.023905529
0.30491096,0.22477064,0.006422471
0.20669185,0.11926606,0.007643269
0.15405449,0.19266055,0.001490428
0.20345386,0.26146789,0.003365628
,,
,,0.014594348