output,target,
0.26704063,0.27981651,0.000163223
0.25875962,0.26605505,5.32233E-05
0.23875362,0.21100917,0.000769755
0.20291581,0.20183486,1.16845E-06
0.19499352,0.22477064,0.000886677
0.18512864,0.24311927,0.003362913
0.21283053,0.23377506,0.000438673
0.22377047,0.22680938,9.23497E-06
0.20414516,0.21695549,0.000164105
0.19152888,0.21933401,0.000773125
0.21119007,0.22799864,0.000282528
0.19575017,0.23105674,0.001246554
0.21796649,0.23343527,0.000239283
0.21361648,0.26146789,0.002289757
0.22310984,0.11009174,0.012773091
0.14519575,0.20183486,0.003207989
0.22200859,0.26605505,0.001940091
0.25578708,0.2706422,0.000220675
0.23401569,0.26605505,0.001026521
0.25883011,0.23717295,0.000469033
0.23642987,0.23853211,4.41941E-06
0.2555571,0.24583758,9.44691E-05
0.27873565,0.41284404,0.01798506
0.36860909,0.39449541,0.000670102
0.32429224,0.27522936,0.002407166
0.22871481,0.26146789,0.001072764
0.25712725,0.21559633,0.001724817
0.20490866,0.32568807,0.014587666
0.29876842,0.4587156,0.0255831
0.37462851,0.43577982,0.003739483
0.32761483,0.42201835,0.008912025
0.35310333,0.25229358,0.010162606
0.21365337,0.20642202,5.22924E-05
0.21083188,0.14220183,0.004710084
0.17684036,0.0733945,0.010701046
0.13963701,0.19724771,0.003318993
0.22274059,0.14678899,0.005768646
0.17521263,0.05963303,0.013358644
0.14169003,0.16972477,0.000785947
0.22493739,0.21100917,0.000193995
0.20847487,0.21100917,6.42268E-06
0.23577492,0.23394495,3.34879E-06
0.23622793,0.23394495,5.212E-06
0.24485556,0.16972477,0.005644636
0.20309761,0.23394495,0.000951558
0.25709355,0.43119266,0.0303105
0.42612657,0.50458716,0.006156064
0.42517955,0.30733945,0.013886289
0.26638895,0.31192661,0.002073678
0.31113339,0.27981651,0.000980747
0.25861736,0.16972477,0.007901893
0.2078051,0.19724771,0.000111458
0.25131076,0.13302752,0.013990925
0.19747011,0.2706422,0.005354155
0.28269575,0.60091743,0.101265038
0.47742795,0.50458716,0.000737623
0.3493539,0.40366972,0.002950208
0.30248434,0.19266055,0.012061265
0.16600488,0.23394495,0.004615853
0.21901899,0.22477064,3.30815E-05
0.20505829,0.10091743,0.010845319
0.1367732,0.14220183,2.947E-05
0.17332778,0.12385321,0.002447733
0.17133098,0.23853211,0.004515992
0.24520367,0.37614679,0.017146101
0.3478741,0.39908257,0.002622307
0.3233709,0.27981651,0.001896985
0.24722665,0.24311927,1.68706E-05
0.24371119,0.29816514,0.002965233
0.34209874,0.46788991,0.015823418
0.445021,0.47247706,0.000753835
0.37150066,0.40536867,0.001147042
0.3423618,0.36782195,0.000648219
0.30747347,0.2706422,0.001356542
0.2351428,0.26605505,0.000955567
0.25863257,0.24736663,0.000126921
0.23342413,0.22680938,4.37549E-05
0.23828481,0.20285423,0.001255326
0.26102465,0.76605505,0.255055705
0.58133023,0.45039076,0.017145145
0.30817396,0.2293578,0.006211987
0.19450168,0.17889908,0.000243441
0.21473794,0.06880734,0.02129574
0.12424303,0.08715596,0.001375451
0.16789331,0.22018349,0.002734263
0.229004,0.1559633,0.005334944
0.15691885,0.25688073,0.009992377
0.30112692,0.25229358,0.002384695
0.25526839,0.20642202,0.002385968
0.27215177,0.25229358,0.000394348
0.25783259,0.25229358,3.06806E-05
0.24228665,0.10550459,0.018709332
0.16814046,0.25229358,0.007081748
0.3673395,0.33027523,0.00137376
0.32617242,0.33944954,0.000176282
0.33860193,0.39449541,0.003124081
0.37054492,0.42201835,0.002649514
0.3593561,0.44495413,0.007327023
0.35010263,0.38990826,0.001584488
0.37391054,0.36238532,0.000132831
0.3071621,0.58256881,0.075848856
0.48385739,0.55045872,0.004435737
0.48116496,0.40825688,0.005315588
0.33412987,0.34862385,0.000210075
0.3040771,0.2706422,0.001117893
0.18684476,0.33027523,0.0205723
0.25613697,0.12844037,0.016306422
0.13967068,0.11009174,0.000874914
0.17287219,0.08715596,0.007347272
0.15830081,0.16836561,0.0001013
0.19421227,0.19232076,3.57781E-06
0.21384313,0.18807339,0.000664079
0.19526907,0.29357798,0.009664642
0.27021868,0.33486239,0.004178809
0.30480815,0.20183486,0.010603498
0.19493091,0.20829086,0.000178488
0.26115808,0.23156643,0.000875666
0.24595785,0.23479443,0.000124622
0.28066206,0.36238532,0.006678691
0.37968129,0.27522936,0.010910206
0.29334682,0.49082569,0.038997904
0.48132981,0.80275229,0.103312411
0.57412472,0.51308189,0.003726227
0.39185951,0.39449541,6.94797E-06
0.43084879,0.30733945,0.015254557
0.31003536,0.6559633,0.11966614
0.52942402,0.39534489,0.017977213
0.27124042,0.58715596,0.099802628
0.4785017,0.68348624,0.042018662
0.48782951,0.16055046,0.107111577
0.12545692,0.20642202,0.006555347
0.25341039,0.24617737,5.23166E-05
0.19223709,0.43577982,0.059313061
0.31069874,0.28899083,0.000471233
0.23713295,0.16055046,0.005864878
0.16631998,0.12844037,0.001434865
0.21561658,0.16055046,0.003032278
0.18883297,0.2293578,0.001642262
0.2254442,0.22477064,4.53683E-07
0.22791802,0.23394495,3.63239E-05
0.22394357,0.24770642,0.000564673
0.27482214,0.55504587,0.078525339
0.5241499,0.54587156,0.000471831
0.47057058,0.42201835,0.002357319
0.40613921,0.42201835,0.000252147
0.46097663,0.27522936,0.034502048
0.32782058,0.24770642,0.006418279
0.27930751,0.23853211,0.001662633
0.26324951,0.13761468,0.015784111
0.25030943,0.02752294,0.04963382
0.15018705,0.47247706,0.103870851
0.527995,0.64678899,0.014112012
0.51098269,0.50458716,4.09028E-05
0.38815505,0.1559633,0.053913009
0.16045794,0.19724771,0.001353487
0.22152102,0.14220183,0.006291534
0.21009693,0.17957866,0.000931365
0.19138479,0.16904519,0.000499058
0.1888234,0.27522936,0.00746599
0.22691896,0.26146789,0.001193629
0.22769165,0.29357798,0.004341008
0.29975547,0.29816514,2.52915E-06
0.29851439,0.26639484,0.001031665
0.26103401,0.27981651,0.000352782
0.25395788,0.22018349,0.001140709
0.31119046,0.36697248,0.003111634
0.39255431,0.37614679,0.000269207
0.3641624,0.47247706,0.011732066
0.39911714,0.44495413,0.00210103
0.38184502,0.44954128,0.004582784
0.34183236,0.45412844,0.01261041
0.38314764,0.31651376,0.004440074
0.26293414,0.25688073,3.66438E-05
0.22880636,0.68807339,0.210926205
0.55649443,0.68807339,0.017313023
0.51601733,0.63761468,0.014785916
0.51220452,0.6146789,0.010500999
0.43979066,0.83486239,0.156081672
0.54954465,0.59174312,0.001780711
0.35640591,0.37954468,0.000535403
0.30314803,0.30801903,2.37266E-05
0.24812436,0.2293578,0.000352184
0.21796288,0.23819232,0.00040923
0.21605548,0.23394495,0.000320033
0.25446488,0.20608223,0.002340881
0.19342062,0.20336391,9.8869E-05
0.23505495,0.21168875,0.000545979
0.21430307,0.25688073,0.001812857
0.29497308,0.27522936,0.000389814
0.28856914,0.22358138,0.004223409
0.25139431,0.59633028,0.118980823
0.54591643,0.40366972,0.020234127
0.35151459,0.3853211,0.00114288
0.39998514,0.35321101,0.002187819
0.38746435,0.30394156,0.006976056
0.30048712,0.21100917,0.008006304
0.27105383,0.2706422,1.69439E-07
0.38689242,0.39449541,5.78055E-05
0.46270888,0.34369691,0.014163849
0.41130654,0.25229358,0.025285121
0.30446749,0.18807339,0.013547587
0.34412734,0.20778118,0.018590275
0.23881813,0.21083928,0.000782816
0.25191142,0.23496432,0.000287204
0.22277367,0.24549779,0.000516386
0.25291338,0.30275229,0.002483917
0.26290159,0.17889908,0.007056422
0.1950255,0.18552497,9.02601E-05
0.22502397,0.20455318,0.000419053
0.210617,0.23394495,0.000544193
0.21164972,0.26197757,0.002532892
0.28630716,0.21695549,0.004809654
0.23231092,0.2103296,0.000483178
0.24304001,0.21287802,0.000909746
0.29485978,0.2198437,0.005627412
0.24831005,0.23598369,0.000151939
0.28028842,0.23224601,0.002308073
0.22108974,0.22986748,7.70487E-05
0.26570497,0.23309548,0.001063379
0.22273868,0.21780496,2.43416E-05
0.24433951,0.23139653,0.000167521
0.25588395,0.22018349,0.001274523
0.23291458,0.22222222,0.000114327
0.22255115,0.23173632,8.43673E-05
0.21972502,0.23037717,0.000113468
0.21923015,0.2325858,0.000178373
0.22736292,0.2324159,2.55326E-05
0.22932476,0.22035338,8.04857E-05
0.22316696,0.23037717,5.19871E-05
0.2358635,0.22103296,0.000219945
0.20532834,0.22222222,0.000285403
0.21890113,0.23649337,0.000309487
0.22028735,0.22137275,1.17809E-06
0.22486463,0.23275569,6.22688E-05
0.22992882,0.22816854,3.09859E-06
0.22449802,0.22392117,3.32756E-07
0.21716587,0.22460075,5.52774E-05
0.21741677,0.22901801,0.000134589
0.2245903,0.2358138,0.000125967
0.23036567,0.23292559,6.55319E-06
0.22758341,0.23292559,2.85389E-05
0.22785644,0.22460075,1.05995E-05
0.22010557,0.2293578,8.56038E-05
0.22339142,0.21797486,2.93391E-05
0.21791667,0.22629969,7.0275E-05
0.2221545,0.23479443,0.000159768
0.22946585,0.22137275,6.54983E-05
0.21736165,0.22884811,0.000131939
0.22798402,0.22545022,6.42014E-06
0.22271642,0.23003738,5.35965E-05
0.22425885,0.23326538,8.11176E-05
0.22671342,0.22884811,4.5569E-06
0.22314232,0.23224601,8.28772E-05
0.22555509,0.2196738,3.45896E-05
0.21855976,0.22969759,0.000124051
0.22687735,0.2261298,5.58831E-07
0.22213477,0.22477064,6.94781E-06
0.22176424,0.23190622,0.00010286
0.22660046,0.22969759,9.59221E-06
0.2246458,0.23428474,9.29092E-05
0.22708806,0.22375127,1.11342E-05
0.22206142,0.22392117,3.45867E-06
0.22237338,0.23037717,6.40607E-05
0.22766779,0.22748896,3.19802E-08
0.22192757,0.2325858,0.000113598
0.22700679,0.2324159,2.92585E-05
0.22630192,0.22867822,5.6468E-06
0.22119119,0.2706422,0.002445402
0.25497161,0.32568807,0.005000818
0.28498058,0.6559633,0.137628179
0.5138651,0.91284404,0.159184195
0.57290083,0.76605505,0.037308553
0.50883149,0.52293578,0.000198931
0.39939175,0.44495413,0.00207593
0.35116317,0.16972477,0.032919893
0.15719151,0.08256881,0.005568547
0.15349423,0.15137615,4.48626E-06
0.17673767,0.11926606,0.003302986
0.15215533,0.04587156,0.01129624
0.14439389,0.14492015,2.7695E-07
0.20706984,0.18807339,0.000360865
0.19778475,0.25229358,0.002971213
0.240086,0.08256881,0.024811665
0.13483338,0.18586476,0.002604202
0.22804047,0.28440367,0.00317681
0.27202319,0.61009174,0.114290344
0.49634326,0.60091743,0.010935757
0.45518234,0.63302752,0.031628908
0.50127141,0.58256881,0.006609267
0.45325643,0.50458716,0.002634844
0.42885225,0.38243289,0.002154757
0.36662148,0.50458716,0.019034529
0.47749025,0.63302752,0.024191842
0.53092823,0.58715596,0.003161558
0.54228611,0.79816514,0.065474078
0.58298654,0.46041454,0.015023895
0.3473765,0.58715596,0.057494189
0.46856393,0.78899083,0.102673398
0.52855551,0.49541284,0.001098437
0.24897426,0.16055046,0.007818768
0.16963826,0.32110092,0.022940937
0.28268453,0.51834862,0.055537563
0.3501521,0.15137615,0.039511878
0.14129005,0.23853211,0.009456018
0.25218979,0.23394495,0.000332874
0.21193542,0.23853211,0.000707384
0.20999631,0.22018349,0.000103779
0.2769453,0.19792729,0.006243846
0.23440462,0.21950391,0.000222031
0.33737073,0.21491675,0.014994977
0.30253612,0.2485559,0.002913864
0.35522059,0.36238532,5.13334E-05
0.43471891,0.30054366,0.018002998
0.32164392,0.28406388,0.001412259
0.31849384,0.26044852,0.003369259
0.38183032,0.2324159,0.022324669
0.33749855,0.21916412,0.014003037
0.3217914,0.2103296,0.012423733
0.35652005,0.22680938,0.016824858
0.29084892,0.23037717,0.003656833
0.31255102,0.22867822,0.007034647
0.30124238,0.23224601,0.004760499
0.32299915,0.21831464,0.010958847
0.1936849,0.22731906,0.001131257
0.25448518,0.22901801,0.000648577
0.2642403,0.22579001,0.001478425
0.21665537,0.22884811,0.000148663
0.23514405,0.2291879,3.54757E-05
0.21673141,0.22629969,9.1552E-05
0.23377467,0.23309548,4.61299E-07
0.20998841,0.22069317,0.000114592
0.2295488,0.22273191,4.647E-05
0.22658421,0.23394495,5.41805E-05
0.22603577,0.22137275,2.17438E-05
0.23275397,0.22477064,6.37336E-05
0.24748139,0.23989127,5.76099E-05
0.24601012,0.21389738,0.001031228
0.22095167,0.22748896,4.27362E-05
0.22639306,0.2291879,7.81113E-06
0.22729798,0.22392117,1.14028E-05
0.21520299,0.18348624,0.001005952
0.19968802,0.12385321,0.005750918
0.17359654,0.12385321,0.002474399
0.17692156,0.21270812,0.001280678
0.22628377,0.16055046,0.004320868
0.18006013,0.39449541,0.045982489
0.36726717,0.56880734,0.04061844
0.44728121,0.23853211,0.043576187
0.18627923,0.10091743,0.007286637
0.18058553,0.13302752,0.002261764
0.18445534,0.14678899,0.001418754
0.16822935,0.17889908,0.000113843
0.20718304,0.22477064,0.000309324
0.21928421,0.24770642,0.000807822
0.23324615,0.15137615,0.006702697
0.18316392,0.3440367,0.025880051
0.33890915,0.40366972,0.004193931
0.32489578,0.26146789,0.004023097
0.2087423,0.55504587,0.119926163
0.47623594,0.66055046,0.033971842
0.48000501,0.63302752,0.023415889
0.46758098,0.25688073,0.044394595
0.20024973,0.22477064,0.000601275
0.21319742,0.1559633,0.003275744
0.17105996,0.17889908,6.14518E-05
0.1707592,0.29357798,0.015084453
0.25975803,0.53669725,0.076695332
0.44981768,0.53669725,0.00754806
0.38512331,0.28440367,0.010144446
0.28160379,0.31192661,0.000919473
0.34174251,0.12844037,0.045497803
0.15395445,0.04587156,0.011681911
0.11820557,0.03211009,0.007412432
0.13632498,0.16055046,0.000586874
0.19060093,0.11009174,0.00648173
0.16021176,0.26146789,0.010252804
0.29490769,0.25229358,0.001815962
0.25892933,0.24311927,0.000249958
0.22425921,0.21100917,0.000175564
0.2572741,0.31651376,0.003509337
0.35133971,0.21100917,0.01969266
0.24979836,0.47247706,0.049585803
0.48967134,0.34862385,0.019894394
0.34525104,0.33944954,3.36574E-05
0.39235101,0.32568807,0.004443948
0.2738047,0.23853211,0.001244156
0.22357988,0.25229358,0.000824477
0.22767335,0.20183486,0.000667628
0.23404892,0.19266055,0.001712997
0.20344174,0.17889908,0.000602342
0.2931398,0.33944954,0.002144592
0.33101709,0.05504587,0.076160114
0.13280894,0.22018349,0.007634312
0.23339565,0.28899083,0.003090824
0.23082879,0.35321101,0.014977408
0.24302998,0.29357798,0.0025551
0.24063218,0.1559633,0.007168819
0.17875505,0.11009174,0.00471465
0.15737837,0.13761468,0.000390603
0.20110796,0.10550459,0.009140004
0.15876857,0.23394495,0.005651488
0.26149447,0.27981651,0.000335697
0.24252202,0.23853211,1.59194E-05
0.26149548,0.19724771,0.004127776
0.2241381,0.26605505,0.001757031
0.33038902,0.25688073,0.005403469
0.23050996,0.27981651,0.002431136
0.30178794,0.25688073,0.002016658
0.2295695,0.24770642,0.000328948
0.25288435,0.25229358,3.49009E-07
0.22544117,0.38073394,0.024115844
0.34920649,0.43577982,0.007494941
0.32945799,0.18348624,0.021307752
0.17243163,0.15137615,0.000443333
0.20649419,0.46788991,0.068327722
0.39211883,0.64678899,0.06485689
0.48007354,0.69266055,0.045193237
0.49665242,0.44954128,0.00221946
0.36030485,0.44036697,0.006409943
0.35075627,0.46788991,0.01372029
0.35591024,0.2706422,0.007270639
0.18641843,0.25229358,0.004339535
0.21602069,0.17889908,0.001378014
0.1650022,0.16972477,2.23027E-05
0.18683901,0.18348624,1.12411E-05
0.23384942,0.21100917,0.000521677
0.21565777,0.16972477,0.00210984
0.17636655,0.14220183,0.001167228
0.17846565,0.37614679,0.039077833
0.36861839,0.4266055,0.003362505
0.36387545,0.55045872,0.034813317
0.45471595,0.4587156,1.59972E-05
0.38612001,0.71559633,0.108554645
0.53900065,0.83944954,0.090269536
0.57020985,0.86238532,0.085366505
0.57136764,0.71100917,0.019499757
0.51094936,0.46330275,0.002270199
0.36496694,0.30733945,0.003320928
0.30296419,0.28440367,0.000344493
0.36279631,0.37155963,7.67958E-05
0.39642096,0.39449541,3.70774E-06
0.35193181,0.32110092,0.000950544
0.28487038,0.36697248,0.006740755
0.35013185,0.39908257,0.002396173
0.33271229,0.22018349,0.012662731
0.19769722,0.19266055,2.5368E-05
0.19415115,0.27981651,0.007338554
0.25223258,0.29357798,0.001709442
0.23044229,0.16513761,0.004264701
0.20641191,0.25688073,0.002547102
0.26842611,0.24770642,0.000429306
0.2486737,0.20642202,0.001785204
0.25582311,0.30275229,0.002202348
0.38782522,0.35779817,0.000901624
0.42335238,0.32110092,0.010455361
0.36789303,0.3440367,0.000569124
0.46303635,0.36697248,0.009228267
0.44428444,0.27522936,0.02857962
0.39623069,0.30733945,0.007901653
0.36149217,0.26146789,0.010004857
0.28921323,0.18348624,0.011178196
0.20996208,0.13761468,0.005234146
0.19768468,0.37155963,0.030232498
0.38904412,0.46788991,0.006216659
0.4263679,0.28899083,0.018872459
0.2570951,0.21559633,0.001722148
0.24390803,0.64678899,0.162313068
0.5346865,0.67889908,0.020797268
0.46660058,0.17431193,0.085432655
0.15229309,0.08256881,0.004861475
0.18543286,0.11009174,0.005676284
0.17033407,0.1559633,0.000206519
0.1694524,0.18807339,0.000346741
0.2350639,0.24311927,6.4889E-05
0.22689757,0.1559633,0.005031671
0.17910137,0.14678899,0.00104409
0.2100116,0.29357798,0.00698334
0.35198155,0.38990826,0.001438435
0.34746724,0.28899083,0.003419491
0.24179536,0.23853211,1.06488E-05
0.2572058,0.36238532,0.011062731
0.35999625,0.32568807,0.001177051
0.28482838,0.33944954,0.002983471
0.29651453,0.27981651,0.000278824
0.25997121,0.24311927,0.000283988
0.22152177,0.09633028,0.015672909
0.17969022,0.57798165,0.158636063
0.54207657,0.60550459,0.004023114
0.46943803,0.6146789,0.02109491
0.45937005,0.47247706,0.000171794
0.44627446,0.43577982,0.000110137
0.40937295,0.17431193,0.055253683
0.16453839,0.29816514,0.017856108
0.24902031,0.21100917,0.001444847
0.15782937,0.17889908,0.000443933
0.18844628,0.23394495,0.002070129
0.21696066,0.24770642,0.000945302
0.27073801,0.26146789,8.59351E-05
0.22628567,0.28899083,0.003931937
0.25818223,0.2293578,0.000830848
0.19941207,0.28899083,0.008024354
0.34523037,0.49082569,0.021197997
0.41791212,0.38073394,0.001382217
0.3162738,0.28440367,0.001015705
0.27850105,0.32110092,0.001814749
0.33343347,0.35321101,0.000391151
0.29385056,0.31651376,0.000513621
0.3221381,0.29816514,0.000574703
0.28793766,0.68348624,0.156458679
0.53221032,0.78440367,0.063601486
0.56887793,0.82568807,0.065951448
0.58029214,0.77981651,0.039809974
0.57223407,0.31651376,0.065392877
0.22631734,0.32110092,0.008983927
0.33567007,0.16055046,0.030666878
0.14651424,0.25229358,0.011189269
0.24582882,0.11926606,0.016018132
0.1540855,0.16055046,4.17957E-05
0.19063401,0.2706422,0.00640131
0.27368161,0.21100917,0.003927835
0.21610249,0.13302752,0.006901451
0.17355691,0.19266055,0.000364949
0.23913599,0.21559633,0.000554116
0.21097471,0.18348624,0.000755616
0.23798548,0.43577982,0.039122601
0.44902808,0.52752294,0.006161443
0.46800917,0.3440367,0.015369173
0.28727085,0.33486239,0.002264955
0.35491868,0.35321101,2.91614E-06
0.36870511,0.31192661,0.003223798
0.31550025,0.29357798,0.000480586
0.33714136,0.26605505,0.005053263
0.38421922,0.18348624,0.040293729
0.29265529,0.13761468,0.024037591
0.30389447,0.66513761,0.130496606
0.56509429,0.53669725,0.000806392
0.38507019,0.60091743,0.046590031
0.463369,0.19724771,0.070820541
0.15903578,0.09174312,0.004528302
0.18185105,0.25229358,0.00496215
0.23643249,0.17889908,0.003310093
0.16899147,0.27981651,0.012282189
0.24565628,0.13761468,0.011672987
0.17398268,0.14220183,0.001010022
0.1604053,0.26146789,0.010213647
0.31298234,0.24311927,0.004880849
0.21576488,0.14678899,0.004757673
0.18797235,0.14220183,0.002094941
0.21511778,0.36697248,0.02305985
0.42057365,0.46330275,0.001825776
0.41636056,0.36238532,0.002913327
0.31310017,0.43119266,0.013945836
0.40264699,0.36238532,0.001621002
0.30292683,0.29816514,2.26737E-05
0.26958005,0.29357798,0.000575901
0.32310516,0.27981651,0.001873907
0.23707813,0.30733945,0.004936653
0.29039197,0.44495413,0.023889461
0.45739354,0.57798165,0.014541492
0.49717117,0.73853211,0.058255103
0.56532248,0.73394495,0.028433537
0.4645819,1,0.286672542
0.59065092,0.57798165,0.00016051
0.31784379,0.27522936,0.00181599
0.23786929,0.21100917,0.000721466
0.22125741,0.1146789,0.011358979
0.13464106,0.06422018,0.0049591
0.14307451,0.15137615,6.89172E-05
0.17751674,0.18348624,3.56349E-05
0.19604903,0.30733945,0.012385558
0.30554247,0.38990826,0.007117587
0.32025414,0.51376147,0.037445087
0.47502372,0.47706422,4.16364E-06
0.40759263,0.46330275,0.003103617
0.42092523,0.65137615,0.053107627
0.53183876,0.47247706,0.003523811
0.38374874,0.29357798,0.008130766
0.26789407,0.3853211,0.013789107
0.37939693,0.2706422,0.011827591
0.25758875,0.58715596,0.108614546
0.53557482,0.4266055,0.011874313
0.37928331,0.39908257,0.000392011
0.4644286,0.49541284,0.000960023
0.51848314,0.55963303,0.001693313
0.50779051,0.49541284,0.000153207
0.50772531,0.16972477,0.114244365
0.19036325,0.29816514,0.011621247
0.27889897,0.47706422,0.039269466
0.36272135,0.46788991,0.011060426
0.33602527,0.15137615,0.034095298
0.16378543,0.24770642,0.007042733
0.25183948,0.29357798,0.001742102
0.28702602,0.28440367,6.87672E-06
0.28089966,0.35779817,0.005913381
0.37962616,0.26146789,0.013961377
0.29907978,0.17431193,0.015567016
0.23002106,0.26146789,0.000988903
0.3551684,0.4266055,0.005103259
0.45546376,0.48623853,0.000947086
0.43149628,0.46330275,0.001011652
0.40493246,0.4266055,0.000469721
0.39731106,0.3853211,0.000143759
0.37636001,0.5412844,0.027200054
0.5143717,0.44954128,0.004202983
0.3759538,0.39449541,0.000343791
0.4095419,0.31192661,0.009528745
0.28746127,0.44954128,0.02626993
0.45699325,0.90366972,0.199519869
0.59118999,0.7706422,0.032203096
0.50568651,0.6146789,0.011879341
0.46289352,0.19724771,0.070567696
0.20949717,0.26605505,0.003198794
0.30505658,0.3440367,0.00151945
0.27792979,0.24311927,0.001211772
0.20357176,0.12844037,0.005644726
0.16631778,0.17889908,0.000158289
0.22161228,0.16972477,0.002692314
0.21093525,0.13302752,0.006069614
0.21820676,0.25229358,0.001161911
0.24397825,0.32568807,0.006676495
0.29528715,0.29357798,2.92126E-06
0.30961158,0.55045872,0.058007345
0.53569274,0.38073394,0.02401223
0.35713461,0.27981651,0.005978089
0.31342217,0.5412844,0.051921196
0.5024385,0.71100917,0.043501724
0.54742542,0.68348624,0.018512547
0.53244464,0.54587156,0.000180282
0.49831642,0.59174312,0.008728548
0.48599422,0.52752294,0.001724635
0.49320819,0.43119266,0.003845926
0.44386566,0.53211009,0.007787079
0.51699624,0.47706422,0.001594566
0.40972822,0.22018349,0.035927205
0.16839374,0.20642202,0.00144615
0.2358298,0.12385321,0.012538757
0.15928498,0.16513761,3.42533E-05
0.20234915,0.1146789,0.007686073
0.14412791,0.15137615,5.2537E-05
0.17968981,0.24770642,0.004626259
0.24377747,0.22018349,0.000556676
0.20050431,0.18348624,0.000289615
0.2360906,0.21559633,0.000420015
0.27207731,0.24770642,0.00059394
0.25844634,0.37155963,0.012794616
0.42603951,0.33486239,0.008313267
0.34609024,0.50458716,0.025121274
0.49453912,0.59633028,0.01036144
0.51493106,0.41284404,0.01042176
0.45484415,0.37155963,0.006936311
0.44676163,0.38990826,0.003232306
0.40216332,0.21100917,0.036539909
0.25577638,0.15137615,0.010899408
0.24313085,0.17431193,0.004736044
0.2279716,0.41743119,0.035894936
0.42511514,0.18348624,0.058384525
0.18970265,0.08715596,0.010515824
0.16376509,0.18807339,0.000590893
0.20291344,0.14220183,0.0036859
0.14822699,0.22018349,0.005177738
0.22694225,0.13761468,0.007979415
0.15948619,0.19266055,0.001100538
0.20742884,0.17431193,0.00109673
0.20219369,0.0733945,0.016589231
0.14690663,0.16972477,0.000520668
0.23815874,0.18807339,0.002508542
0.19235096,0.21559633,0.000540347
0.2427398,0.20642202,0.001318981
0.28107985,0.38990826,0.011843623
0.40182872,0.59174312,0.036067479
0.5225422,0.43577982,0.007527711
0.38902066,0.44036697,0.002636444
0.42808763,0.32568807,0.01048567
0.28090092,0.32568807,0.002005889
0.2827596,0.24770642,0.001228725
0.23973142,0.26605505,0.000692933
0.21633449,0.20642202,9.82571E-05
0.1922544,0.07798165,0.013058261
0.16500213,0.17889908,0.000193125
0.19425324,0.29357798,0.009865404
0.25801229,0.19724771,0.003692334
0.15659817,0.26146789,0.010997658
0.25447329,0.19266055,0.003820815
0.18209428,0.1559633,0.000682828
0.17751804,0.09633028,0.006591452
0.16284351,0.21100917,0.002319931
0.20137396,0.30275229,0.010277566
0.25382318,0.22477064,0.00084405
0.20224334,0.2293578,0.000735194
0.24455636,0.21559633,0.000838683
0.25634434,0.12844037,0.016359426
0.17093876,0.31651376,0.021192081
0.38639041,0.4587156,0.005230933
0.43398627,0.3853211,0.002368299
0.3618396,0.59174312,0.052855629
0.51246036,0.60550459,0.008657229
0.46160477,0.53211009,0.004971
0.42467038,0.58715596,0.026401564
0.44628194,0.46788991,0.000466904
0.34251235,0.19724771,0.021101816
0.17494423,0.22018349,0.002046591
0.20837782,0.12844037,0.006389996
0.14980877,0.26605505,0.013513198
0.26024977,0.24311927,0.000293454
0.21238803,0.60550459,0.15454063
0.48388967,0.62844037,0.020894905
0.44553169,0.47247706,0.000726053
0.34814673,0.51376147,0.027428242
0.38913131,0.35779817,0.000981766
0.27850259,0.17889908,0.009920859
0.18278641,0.21100917,0.000796524
0.23527439,0.13761468,0.009537419
0.15922081,0.12844037,0.000947435
0.19623365,0.1559633,0.001621701
0.18583115,0.13761468,0.002324828
0.2249013,0.1559633,0.004752448
0.25578134,0.25229358,1.21645E-05
0.31865779,0.38073394,0.003853448
0.42146786,0.50458716,0.006908818
0.49761722,0.50917431,0.000133566
0.4616048,0.30275229,0.02523412
0.30870767,0.27522936,0.001120797
0.30868267,0.3440367,0.001249907
0.30833153,0.21559633,0.008599817
0.18240639,0.1559633,0.000699237
0.20783141,0.09174312,0.013476491
0.18531724,0.37155963,0.034686228
0.37310318,0.25688073,0.013507658
0.33245501,0.3440367,0.000134136
0.3828231,0.23853211,0.02081989
0.26636932,0.14678899,0.014299455
0.19101416,0.1146789,0.005827072
0.18746876,0.2293578,0.001754692
0.22825889,0.18807339,0.001614874
0.17430554,0.1146789,0.003555336
0.16594465,0.09174312,0.005505867
0.1523437,0.13761468,0.000216944
0.19314783,0.21559633,0.000503935
0.2156221,0.16513761,0.002548684
0.19231373,0.16513761,0.000738541
0.21079906,0.2706422,0.003581201
0.32449428,0.49082569,0.027666138
0.46205181,0.36697248,0.009040079
0.3543088,0.30275229,0.002658074
0.28029715,0.26605505,0.000202837
0.25006484,0.28440367,0.001179155
0.24777224,0.2293578,0.000339092
0.23891189,0.17431193,0.004173155
0.17968225,0.43119266,0.063257486
0.36663902,0.49082569,0.015422329
0.40664451,0.58256881,0.030949359
0.45022916,0.32110092,0.016674102
0.28072696,0.12844037,0.023191205
0.14780915,0.10091743,0.002198833
0.16157313,0.1559633,3.14702E-05
0.15380627,0.06422018,0.008025668
0.14388987,0.27981651,0.018476051
0.26479875,0.16513761,0.009932343
0.1548594,0.12385321,0.000961384
0.16951002,0.15137615,0.000328837
0.189868,0.2293578,0.001559444
0.21881065,0.30275229,0.007046199
0.26760352,0.19266055,0.005616449
0.20115866,0.06880734,0.017516872
0.16146301,0.28899083,0.016263345
0.37728627,0.36238532,0.000222038
0.31257603,0.26146789,0.002612042
0.26213948,0.3853211,0.015173712
0.34505367,0.66972477,0.105411323
0.52962894,0.76146789,0.053749299
0.52456579,0.74770642,0.049791741
0.55058274,0.71100917,0.025736639
0.53185766,0.44036697,0.008370546
0.34501495,0.20183486,0.020500538
0.23352891,0.51834862,0.081122267
0.44809052,0.53669725,0.007851153
0.32485244,0.42201835,0.009441214
0.26333826,0.34862385,0.007273632
0.2749993,0.32568807,0.002569351
0.24740313,0.28899083,0.001729537
0.258651,0.20642202,0.002727866
0.17719738,0.09633028,0.006539488
0.13903261,0.25229358,0.012828047
0.22910568,0.24311927,0.000196381
0.21514806,0.17889908,0.001313989
0.21753369,0.23394495,0.000269329
0.25573459,0.22018349,0.001263881
0.19822825,0.11926606,0.006235027
0.17752881,0.29816514,0.014553124
0.38397022,0.34862385,0.001249366
0.35118527,0.27522936,0.0057693
0.31914449,0.24770642,0.005103398
0.3849385,0.33944954,0.002069245
0.44645176,0.39908257,0.00224384
0.43564934,0.30275229,0.017661626
0.37068694,0.25229358,0.014016988
0.28013982,0.24770642,0.001051925
0.255607,0.25688073,1.62239E-06
0.29833341,0.49082569,0.037053278
0.48956836,0.40825688,0.006611557
0.36292317,0.37614679,0.000174864
0.32600668,0.25229358,0.005433621
0.23354509,0.37155963,0.019048013
0.32785448,0.22477064,0.010626278
0.19311805,0.11926606,0.005454116
0.15254904,0.19266055,0.001608933
0.21635518,0.26146789,0.002035157
,,
,,0.013282154