Target,Output,
0.32525952,0.25971674,0.004295856
0.3633218,0.2835728,0.006359903
0.26297578,0.33126242,0.004663065
0.24567474,0.22094238,0.00061169
0.08650519,0.2374741,0.022791612
0.06574394,0.11960272,0.002900768
0.12456747,0.09261082,0.001021227
0.17647059,0.12835908,0.002314717
0.1799308,0.13078807,0.002415008
0.14532872,0.1440316,1.68252E-06
0.05190311,0.1422154,0.00815631
0.06574394,0.08844101,0.000515157
0.05536332,0.07752146,0.000490983
0.15224914,0.09365132,0.003433705
0.28719723,0.1337498,0.023546114
0.07958477,0.27209987,0.037062064
0.11764706,0.10796477,9.37467E-05
0.13148789,0.17597907,0.001979465
0.16608997,0.1657078,1.46054E-07
0.20761246,0.20498033,6.92811E-06
0.1799308,0.21702947,0.001376311
0.23183391,0.24732537,0.000239985
0.17647059,0.26112838,0.007166941
0.44290657,0.2589673,0.033833655
0.36678201,0.47809356,0.012390261
0.40484429,0.29697545,0.011635687
0.20415225,0.21599944,0.000140356
0.11072664,0.18184846,0.005058313
0.0899654,0.14474609,0.003000924
0.08650519,0.12276273,0.001314609
0.20761246,0.10422482,0.010689004
0.25605536,0.15531733,0.010148151
0.16608997,0.21078539,0.001997681
0.23183391,0.13040769,0.010287278
0.20415225,0.18644824,0.000313432
0.183391,0.1868544,1.19951E-05
0.09688581,0.15328079,0.003180394
0.19723183,0.13573536,0.003781816
0.1384083,0.17768813,0.001542905
0.15224914,0.13497589,0.000298365
0.14186851,0.15595842,0.000198526
0.12456747,0.15669986,0.00103249
0.09342561,0.15073653,0.003284542
0.25605536,0.15492947,0.010226446
0.1799308,0.22509739,0.002040021
0.21453287,0.19390458,0.000425526
0.43252595,0.216215,0.046790427
0.4532872,0.44660351,4.46717E-05
0.48442907,0.440405,0.001938119
0.26643599,0.39032923,0.015349535
0.16955017,0.21977349,0.002522382
0.11072664,0.15627481,0.002074636
0.21799308,0.21874005,5.57964E-07
0.21107266,0.18878411,0.000496779
0.1799308,0.16650907,0.000180143
0.24913495,0.18101741,0.004639999
0.10726644,0.19440357,0.007592879
0.10034602,0.13062027,0.00091653
0.21453287,0.11733616,0.0094472
0.11418685,0.15588146,0.001738441
0.11418685,0.12643574,0.000150035
0.08650519,0.13347006,0.002205699
0.10380623,0.09783703,3.56313E-05
0.09688581,0.10956668,0.000160804
0.12456747,0.12167894,8.34361E-06
0.10380623,0.14119508,0.001397926
0.16608997,0.13529652,0.000948237
0.12802768,0.1956666,0.004575023
0.23875432,0.17538539,0.004015621
0.28373702,0.2646478,0.000364398
0.30449827,0.33470212,0.000912273
0.38408305,0.31378802,0.004941391
0.32871972,0.35086289,0.00049032
0.32179931,0.33981581,0.000324594
0.3183391,0.27107849,0.002233565
0.19031142,0.31206457,0.01482383
0.34256055,0.20085361,0.020080857
0.31141868,0.27707196,0.001179697
0.39792387,0.26199896,0.018475581
0.27681661,0.2610077,0.000249922
0.10380623,0.21853309,0.013162252
0.12110727,0.1234506,5.4912E-06
0.12110727,0.12780621,4.48758E-05
0.14532872,0.11461499,0.000943333
0.14186851,0.12902536,0.000164947
0.07958477,0.10890587,0.000859727
0.06920415,0.07396959,2.27094E-05
0.06228374,0.06261984,1.12963E-07
0.08304498,0.09201848,8.05237E-05
0.17301038,0.09893531,0.005487116
0.22145329,0.17960178,0.001751549
0.20415225,0.22325349,0.000364857
0.41522491,0.23703137,0.031752938
0.5017301,0.48222452,0.000380468
0.28027682,0.48631402,0.042451328
0.14532872,0.3213294,0.030976239
0.183391,0.21888491,0.001259818
0.31141868,0.21466106,0.009362037
0.34948097,0.30322623,0.002139501
0.39446367,0.3359289,0.003426319
0.26989619,0.3656793,0.009174404
0.31487889,0.26654489,0.002336176
0.25259516,0.25418047,2.51321E-06
0.15916955,0.17102209,0.000140483
0.23529412,0.13264371,0.010537107
0.34602076,0.15637724,0.035964665
0.29065744,0.25001456,0.001651844
0.34948097,0.23831598,0.012357655
0.23529412,0.32369744,0.007815147
0.23183391,0.19012645,0.001739512
0.11072664,0.20034881,0.008032133
0.11418685,0.13610473,0.000480393
0.29065744,0.13950904,0.022845839
0.33910035,0.26881535,0.004939981
0.24221453,0.25751799,0.000234196
0.39100346,0.26180131,0.016693196
0.4083045,0.41307889,2.27948E-05
0.15570934,0.32423563,0.02840111
0.02768166,0.17595481,0.021984927
0.05882353,0.13620023,0.005987154
0.02422145,0.07771302,0.002861348
0.1349481,0.08441769,0.002553322
0.15224914,0.16706101,0.000219391
0.10380623,0.18038811,0.005864784
0.13438316,0.11717118,0.000296252
0.23183391,0.18329982,0.002355558
0.18685121,0.19967944,0.000164563
0.1349481,0.21586011,0.006546753
0.14186851,0.19671811,0.003008479
0.06574394,0.19011314,0.015467698
0.03114187,0.13568233,0.010928708
0.0449827,0.11638713,0.005098593
0.0449827,0.08096517,0.001294738
0.12110727,0.0917365,0.000862642
0.09342561,0.15142829,0.003364311
0.08304498,0.13286443,0.002481978
0.12110727,0.13219858,0.000123017
0.1799308,0.17722063,7.34502E-06
0.18084881,0.22016264,0.001545577
0.27681661,0.22563989,0.002619057
0.22145329,0.27679902,0.00306315
0.1384083,0.21332534,0.005612563
0.06228374,0.17340448,0.012347819
0.29411765,0.12551402,0.028427184
0.27681661,0.29529473,0.000341441
0.19031142,0.2263165,0.001296366
0.1349481,0.18246607,0.002257957
0.17647059,0.14520032,0.00097783
0.06228374,0.16912784,0.011415662
0.08650519,0.10805399,0.000464351
0.07266436,0.11869726,0.002119028
0.03114187,0.09705782,0.004344912
0.04844291,0.04819908,5.94531E-08
0.01730104,0.07803953,0.003689164
0.0449827,0.02343697,0.000464218
0.0899654,0.06518928,0.000613856
0.05882353,0.0961306,0.001391817
0.08304498,0.09477809,0.000137666
0.11764706,0.09765128,0.000399831
0.20069204,0.13738505,0.004007775
0.22258315,0.19721344,0.000643622
0.24221453,0.27156788,0.000861619
0.26989619,0.27686346,4.85429E-05
0.29411765,0.24060492,0.002863612
0.30795848,0.28297246,0.000624301
0.36678201,0.30738001,0.003528598
0.35640138,0.36147431,2.57346E-05
0.32871972,0.28077186,0.002298997
0.35986159,0.2783649,0.00664171
0.10380623,0.26375395,0.025583273
0.05190311,0.12317402,0.005079543
0.04844291,0.1055989,0.003266807
0.05536332,0.09092067,0.001264325
0.07612457,0.06916047,4.84987E-05
0.07958477,0.09168817,0.000146492
0.10380623,0.05871162,0.002033524
0.07612457,0.0729857,9.8525E-06
0.10380623,0.07257638,0.000975304
0.11418685,0.10780134,4.07747E-05
0.10380623,0.11859583,0.000218732
0.14186851,0.11559558,0.000690267
0.12456747,0.15090234,0.000693525
0.0449827,0.15373283,0.011826591
0.07612457,0.10178752,0.000658587
0.10726644,0.13697913,0.000882844
0.11764706,0.15657854,0.00151566
0.11764706,0.17104588,0.002851434
0.4083045,0.17099477,0.056315908
0.35986159,0.39304688,0.001101263
0.58823529,0.40082279,0.035123445
0.30103806,0.48816145,0.035015163
0.39446367,0.26988998,0.015518604
0.37370242,0.3141162,0.003550518
0.41176471,0.31951362,0.008510264
0.29757786,0.29001181,5.72451E-05
0.27681661,0.26278359,0.000196926
0.19377163,0.22448039,0.000943028
0.17647059,0.15128607,0.00063426
0.05536332,0.15174467,0.009289365
0.07266436,0.10963763,0.001367023
0.06574394,0.07572934,9.97082E-05
0.03114187,0.08935776,0.00338909
0.02076125,0.01530656,2.97536E-05
0.05190311,0.04550027,4.09964E-05
0.11418685,0.0353745,0.006211387
0.07266436,0.11873352,0.002122368
0.10380623,0.07953497,0.000589094
0.16608997,0.14604556,0.000401778
0.15570934,0.16675371,0.000121978
0.183391,0.2081013,0.000610599
0.31141868,0.20718339,0.010864996
0.5916955,0.39132809,0.040147099
0.5017301,0.61431759,0.012675943
0.64013841,0.52927834,0.012289955
0.41868512,0.57614246,0.024792814
0.21453287,0.37094678,0.024465311
0.16955017,0.18546,0.000253123
0.06574394,0.12832909,0.003916901
0.03114187,0.10559877,0.00554383
0.06228374,0.08032284,0.000325409
0.05190311,0.07041819,0.000342808
0.02768166,0.03571223,6.44901E-05
0.03806228,0.04753861,8.98008E-05
0.02422145,0.07365264,0.002443443
0.0449827,0.06644555,0.000460654
0.05536332,0.06583626,0.000109682
0.02768166,0.04948904,0.000475562
0.00692042,0.04456313,0.001416974
0.04844291,0.07569594,0.000742728
0.05190311,0.11642243,0.004162743
0.02768166,0.09403922,0.004403326
0.07266436,0.09863943,0.000674704
0.09519102,0.13712179,0.001758189
0.14186851,0.17781445,0.001292111
0.14532872,0.19660542,0.0026293
0.15224914,0.26953546,0.013756081
0.17195113,0.24463687,0.005283217
0.17731799,0.26661122,0.007973281
0.18077819,0.20888323,0.000789893
0.17887155,0.1965598,0.000312874
0.1803545,0.23671904,0.003176961
0.1842384,0.16171693,0.000507217
0.18678059,0.17599383,0.000116354
0.18953464,0.17273475,0.000282236
0.18522703,0.14381558,0.001714908
0.19094697,0.15415745,0.001353469
0.11764706,0.15490444,0.001388112
0.15224914,0.11868361,0.001126645
0.04152249,0.13245718,0.008269118
0.04152249,0.06715868,0.000657214
0.11764706,0.06837282,0.002427951
0.08304498,0.10728438,0.000587549
0.08304498,0.08050505,6.45124E-06
0.15224914,0.09670024,0.00308568
0.0899654,0.13926566,0.002430516
0.06920415,0.10196246,0.001073107
0.17647059,0.10089353,0.005711892
0.20069204,0.17874755,0.000481561
0.16262976,0.19300131,0.000922431
0.15570934,0.18750368,0.00101088
0.16608997,0.18457129,0.000341559
0.19031142,0.19511718,2.30953E-05
0.22491349,0.21283002,0.00014601
0.24221453,0.20917268,0.001091764
0.2283737,0.20347615,0.000619888
0.16262976,0.22689821,0.004130434
0.28719723,0.17549021,0.012478458
0.38062284,0.24706385,0.017838004
0.28373702,0.31869392,0.001221985
0.31141868,0.18988287,0.014770953
0.29065744,0.20745208,0.006923132
0.15224914,0.2385431,0.007446648
0.10726644,0.14699278,0.001578182
0.06228374,0.1255869,0.00400729
0.03806228,0.07430698,0.001313678
0.09342561,0.0636706,0.000885361
0.07612457,0.09465466,0.000343364
0.11764706,0.06233378,0.003059559
0.07266436,0.10773304,0.001229812
0.12110727,0.09623625,0.000618568
0.08304498,0.1323264,0.002428658
0.10380623,0.11888164,0.000227268
0.1384083,0.13704137,1.8685E-06
0.19031142,0.15400091,0.001318453
0.19377163,0.20545843,0.000136581
0.29065744,0.25268962,0.001441555
0.3633218,0.31747117,0.00210228
0.36678201,0.33522667,0.000995739
0.38062284,0.34871406,0.00101817
0.3633218,0.32141184,0.001756445
0.19377163,0.35538614,0.02611925
0.28373702,0.23499771,0.00237552
0.29065744,0.27620915,0.000208753
0.23183391,0.25869709,0.00072163
0.11418685,0.17508971,0.003709158
0.12802768,0.12731165,5.12699E-07
0.12802768,0.11976603,6.82549E-05
0.06574394,0.11443475,0.002370795
0.12456747,0.09022851,0.001179164
0.04844291,0.11534018,0.004475245
0.02076125,0.03668042,0.00025342
0.03114187,0.0300646,1.16051E-06
0.06920415,0.02219404,0.00220995
0.10034602,0.0725481,0.000772724
0.17301038,0.10103051,0.005181102
0.13148789,0.18687536,0.003067772
0.183391,0.15641279,0.000727824
0.21799308,0.22919718,0.000125532
0.21453287,0.26137742,0.002194412
0.21453287,0.26004379,0.002071244
0.35294118,0.29577594,0.003267865
0.16955017,0.36473779,0.038098207
0.19031142,0.22507275,0.00120835
0.21799308,0.24932606,0.000981756
0.24221453,0.23912132,9.56795E-06
0.19723183,0.21553977,0.000335181
0.14532872,0.17142933,0.000681242
0.13148789,0.14744227,0.000254542
0.08650519,0.13151339,0.002025738
0.05536332,0.09086549,0.001260404
0.03806228,0.09802835,0.00359593
0.06574394,0.0565608,8.43301E-05
0.05882353,0.07678012,0.000322439
0.07266436,0.05406537,0.000345922
0.10034602,0.08216962,0.000330382
0.0899654,0.08505636,2.40987E-05
0.10726644,0.10940928,4.59176E-06
0.15570934,0.1240846,0.001000124
0.10034602,0.18306995,0.006843249
0.12802768,0.13221917,1.75686E-05
0.09688581,0.16937139,0.005254159
0.11072664,0.14274473,0.001025158
0.09688581,0.16754209,0.00499231
0.1349481,0.15120527,0.000264296
0.20069204,0.16850664,0.0010359
0.29757786,0.1977562,0.009964364
0.09688581,0.29371446,0.038741517
0.05190311,0.14045312,0.007841104
0.05536332,0.1190355,0.004054147
0.0449827,0.111619,0.004440396
0.0449827,0.07464399,0.000879792
0.0899654,0.10514005,0.00023027
0.01730104,0.08471621,0.004544805
0.03460208,0.04919859,0.000213058
0.05882353,0.0494627,8.76251E-05
0.03114187,0.09115852,0.003601998
0.04152249,0.07573959,0.00117081
0.06574394,0.08114,0.000237039
0.06228374,0.07732603,0.00022627
0.07266436,0.08984988,0.000295342
0.06228374,0.09452759,0.001039666
0.11764706,0.10083518,0.000282639
0.15224914,0.1393525,0.000166323
0.23875432,0.17532738,0.004022977
0.23183391,0.20108968,0.000945208
0.24221453,0.21063461,0.000997291
0.28719723,0.26930856,0.000320005
0.27681661,0.2777982,9.63519E-07
0.17647059,0.25673045,0.006441645
0.11764706,0.18325991,0.004305046
0.04152249,0.13850379,0.009405373
0.10034602,0.08476461,0.00024278
0.15224914,0.12707214,0.000633881
0.19723183,0.13705319,0.003621469
0.15570934,0.14463668,0.000122604
0.11764706,0.12946776,0.000139729
0.04844291,0.1075058,0.003488425
0.05190311,0.07862514,0.000714067
0.08650519,0.07678197,9.4541E-05
0.06920415,0.09465708,0.000647852
0.04152249,0.06867663,0.000737347
0.02422145,0.04359852,0.000375471
0.0449827,0.03164604,0.000177866
0.04844291,0.06452595,0.000258664
0.06574394,0.07631899,0.000111832
0.16955017,0.11101486,0.003426383
0.24221453,0.17071196,0.005112618
0.23875432,0.25469598,0.000254137
0.25605536,0.27260129,0.000273768
0.24567474,0.31129117,0.004305516
0.23875432,0.29049324,0.002676916
0.31141868,0.22899383,0.006793856
0.2283737,0.27137707,0.00184929
0.23875432,0.20058066,0.001457228
0.26989619,0.21820741,0.00267173
0.23529412,0.25153984,0.000263923
0.20761246,0.20284381,2.274E-05
0.19723183,0.16239065,0.001213908
0.12110727,0.14871639,0.000762264
0.15916955,0.11197595,0.002227236
0.13148789,0.13443108,8.66237E-06
0.07958477,0.11781311,0.001461406
0.10726644,0.08784173,0.000377319
0.13148789,0.09981339,0.001003274
0.12802768,0.10906671,0.000359518
0.09342561,0.11397839,0.000422417
0.07266436,0.09901741,0.000694483
0.08650519,0.08747028,9.31399E-07
0.07958477,0.10325725,0.000560386
0.13148789,0.11404728,0.000304175
0.183391,0.15508983,0.000800956
0.21799308,0.21147055,4.25434E-05
0.08650519,0.24145878,0.024010615
0.1349481,0.15303737,0.000327222
0.2283737,0.18871251,0.00157301
0.23183391,0.25579817,0.000574286
0.16955017,0.2202476,0.002570229
0.19723183,0.20891059,0.000136393
0.1799308,0.22771502,0.002283332
0.19723183,0.19198065,2.75749E-05
0.10726644,0.2182417,0.012315508
0.05882353,0.13839974,0.006332373
0.05536332,0.0993994,0.001939176
0.03460208,0.09025387,0.003097122
0.06574394,0.05989548,3.42045E-05
0.07612457,0.08954105,0.000180002
0.0449827,0.07870946,0.001137494
0.06920415,0.06609074,9.69332E-06
0.12110727,0.0933249,0.00077186
0.07958477,0.13006155,0.002547905
0.0899654,0.09942773,8.95357E-05
0.10034602,0.11663695,0.000265394
0.10034602,0.1208055,0.00041859
0.12456747,0.14134849,0.000281603
0.08650519,0.1513009,0.004198484
0.09342561,0.12768158,0.001173471
0.12456747,0.12877148,1.76737E-05
0.10380623,0.16024944,0.003185836
0.11418685,0.14211826,0.000780164
0.3633218,0.1527275,0.044349959
0.25951557,0.33001047,0.004969531
0.183391,0.22079916,0.00139937
0.12110727,0.18739179,0.004393638
0.16262976,0.1707417,6.58036E-05
0.16262976,0.15295449,9.36108E-05
0.18685121,0.15388374,0.001086854
0.03460208,0.16298154,0.016481286
0.05190311,0.07760808,0.000660745
0.04844291,0.05749023,8.1854E-05
0.03460208,0.06420639,0.000876415
0.04152249,0.07457032,0.001092159
0.02768166,0.07802372,0.002534323
0.02422145,0.04845967,0.000587491
0.07612457,0.05712456,0.000361
0.10380623,0.07863468,0.000633607
0.06920415,0.11455065,0.002056305
0.02768166,0.09106219,0.004017092
0.05190311,0.08006809,0.000793266
0.28027682,0.10063904,0.032269732
0.52941176,0.24142091,0.08293873
0.50519031,0.50515854,1.00933E-09
0.56401384,0.43765847,0.01596568
0.63321799,0.54573557,0.007653174
0.59515571,0.54015905,0.003024633
0.55017301,0.44143669,0.011823587
0.61937716,0.37578047,0.059339347
0.40138408,0.42274682,0.000456367
0.29065744,0.26429891,0.000694772
0.24913495,0.28003079,0.000954553
0.26989619,0.31203423,0.001775614
0.29065744,0.24171907,0.002394964
0.07266436,0.16708253,0.008914791
0.19377163,0.11315617,0.006498852
0.12456747,0.18248282,0.003354188
0.1384083,0.10983213,0.000816597
0.05190311,0.09467357,0.001829312
0.07958477,0.04237673,0.001384438
0.03806228,0.08500903,0.002203997
0.01384083,0.0398473,0.000676336
0.05536332,0.08973845,0.00118165
0.05190311,0.14362422,0.008412762
0.09342561,0.13019646,0.001352095
0.15916955,0.16610741,4.81339E-05
0.21107266,0.20744263,1.31771E-05
0.20069204,0.28459092,0.007039022
0.14878893,0.23201329,0.006926294
0.06228374,0.18691305,0.015532465
0.11418685,0.1903159,0.005795632
0.0899654,0.20170972,0.012486793
0.12110727,0.1718306,0.002572856
0.20761246,0.16791555,0.001575845
0.20415225,0.27845982,0.005521615
0.22145329,0.21910161,5.5304E-06
0.24913495,0.21033684,0.001505293
0.55709343,0.23762777,0.102058308
0.43252595,0.37107815,0.003775832
0.183391,0.26130361,0.006070375
0.12456747,0.1910238,0.004416444
0.0899654,0.18186057,0.008444722
0.12110727,0.09232764,0.000828267
0.05882353,0.12293147,0.004109828
0.01730104,0.10065571,0.006948001
0.04152249,0.02666658,0.000220698
0.09342561,0.05688812,0.001334988
0.06920415,0.08329996,0.000198692
0.06574394,0.09381858,0.000788185
0.16955017,0.09753689,0.005185912
0.15224914,0.1635774,0.000128329
0.14186851,0.16140407,0.000381638
0.14878893,0.17120548,0.000502502
0.10380623,0.16880283,0.004224558
0.14532872,0.13312833,0.00014885
0.16955017,0.18409852,0.000211654
0.21107266,0.20861871,6.02187E-06
0.28719723,0.19058278,0.009334352
0.34256055,0.29466417,0.002294063
0.4532872,0.38081525,0.005252184
0.16955017,0.45865526,0.083581753
0.12802768,0.20855781,0.006485102
0.05190311,0.15427535,0.010480076
0.08304498,0.10823312,0.000634442
0.11764706,0.1055319,0.000146777
0.05536332,0.14312934,0.007702874
0.09688581,0.08373545,0.000172932
0.14186851,0.08018064,0.003805393
0.11072664,0.11805134,5.36512E-05
0.15570934,0.10651028,0.002420548
0.20415225,0.14122187,0.003960233
0.14878893,0.17697525,0.000794469
0.09688581,0.14925965,0.002743019
0.12802768,0.13756354,9.09326E-05
0.12456747,0.14017317,0.000243538
0.12110727,0.15220636,0.000967153
0.15570934,0.14555142,0.000103183
0.14532872,0.16234564,0.000289576
0.19377163,0.16628292,0.000755629
0.17647059,0.21959598,0.001859799
0.14878893,0.20955107,0.003692038
0.17301038,0.20304843,0.000902284
0.29065744,0.20494676,0.007346321
0.35640138,0.2322426,0.015415403
0.19031142,0.27686052,0.007490747
0.14878893,0.20423568,0.003074342
0.23529412,0.16155135,0.005437996
0.18685121,0.20344683,0.000275415
0.1349481,0.17697114,0.001765936
0.11072664,0.132802,0.000487322
0.11764706,0.112081,3.0981E-05
0.10726644,0.09309111,0.00020094
0.13148789,0.12230879,8.42559E-05
0.14532872,0.13848654,4.68154E-05
0.15570934,0.13671143,0.000360921
0.1349481,0.1458217,0.000118235
0.13148789,0.14561234,0.0001995
0.12456747,0.1453805,0.000433182
0.15570934,0.14059047,0.00022858
0.20415225,0.16833374,0.001282966
0.16262976,0.21121919,0.002360933
0.14532872,0.17927636,0.001152442
0.19031142,0.1666585,0.000559461
0.32179931,0.20209297,0.014329608
0.53287197,0.31837056,0.046010855
0.44290657,0.44216852,5.44718E-07
0.44636678,0.31981259,0.016015963
0.43252595,0.36245046,0.004910574
0.26989619,0.40062131,0.017089057
0.29065744,0.23267116,0.003362409
0.3633218,0.26508385,0.009650695
0.22145329,0.24102165,0.000382921
0.21107266,0.179329,0.00100766
0.10034602,0.18709344,0.007525115
0.10726644,0.10883631,2.46449E-06
0.11764706,0.10463532,0.000169305
0.14532872,0.12792066,0.000303041
0.10034602,0.12613819,0.000665236
0.11072664,0.10358271,5.10357E-05
0.05190311,0.10635446,0.00296495
0.06228374,0.06434189,4.23598E-06
0.16262976,0.08405657,0.006173746
0.16955017,0.17778578,6.78253E-05
0.14532872,0.17303621,0.000767705
0.183391,0.18801996,2.14273E-05
0.14186851,0.20617167,0.004134896
0.19377163,0.20420442,0.000108843
0.26643599,0.24275453,0.000560812
0.2283737,0.33982034,0.012420354
0.11764706,0.27258038,0.024004334
0.08650519,0.21246484,0.015865833
0.04844291,0.15694877,0.011773522
0.07958477,0.12186748,0.001787828
0.20415225,0.14711067,0.003253742
0.15570934,0.18133127,0.000656483
0.19723183,0.14407283,0.002825879
0.14878893,0.20996177,0.003742116
0.1799308,0.14930825,0.000937741
0.16955017,0.17034608,6.33473E-07
0.20761246,0.18566123,0.000481856
0.2733564,0.17690246,0.009303363
0.2733564,0.20322507,0.004918403
0.19377163,0.26379236,0.004902903
0.1349481,0.19844086,0.004031331
0.17301038,0.16294409,0.00010133
0.1384083,0.1750701,0.001344088
0.13148789,0.1364859,2.49801E-05
0.16608997,0.13788737,0.000795387
0.1799308,0.15938186,0.000422259
0.19377163,0.17096844,0.000519985
0.17647059,0.20123411,0.000613232
0.16262976,0.18901044,0.00069594
0.09688581,0.14221501,0.002054736
0.28027682,0.12426061,0.024341058
0.17301038,0.22148268,0.002349564
0.19723183,0.1696685,0.000759737
0.183391,0.20625402,0.000522718
0.10726644,0.20219502,0.009011435
0.0899654,0.1250161,0.001228552
0.06228374,0.13471856,0.005246803
0.10726644,0.09037523,0.000285313
0.11418685,0.12185378,5.87818E-05
0.07266436,0.14043833,0.004593311
0.13148789,0.11307967,0.000338863
0.1349481,0.15250154,0.000308123
0.1384083,0.16499983,0.000707109
0.05190311,0.15185125,0.009989631
0.09342561,0.10962087,0.000262286
0.10380623,0.11902838,0.000231714
0.14532872,0.1362111,8.3131E-05
0.17647059,0.16602161,0.000109181
0.20415225,0.19940117,2.25728E-05
0.28373702,0.21170635,0.005188417
0.19377163,0.25131083,0.00331076
0.1799308,0.21374254,0.001143234
0.1349481,0.18168641,0.00218447
0.1799308,0.16104621,0.000356628
0.12110727,0.19080354,0.00485757
0.1799308,0.14379828,0.001305559
0.23529412,0.18658238,0.002372834
0.25259516,0.18916836,0.004022959
0.17647059,0.19778445,0.000454281
0.26643599,0.16397017,0.010499244
0.20415225,0.19986505,1.83801E-05
0.16608997,0.14676112,0.000373604
0.14878893,0.16587631,0.000291979
0.19723183,0.15051948,0.002182044
0.17647059,0.17399766,6.11538E-06
0.17301038,0.16081474,0.000148734
0.16608997,0.16374002,5.52227E-06
0.2283737,0.15620429,0.005208424
0.15916955,0.1817458,0.000509687
0.16608997,0.1535577,0.000157058
0.16955017,0.17311419,1.27022E-05
0.11418685,0.18878766,0.005565281
0.16955017,0.12756513,0.001762744
0.15916955,0.18439639,0.000636393
0.1349481,0.16765844,0.001069966
0.14532872,0.15457798,8.55488E-05
0.1349481,0.15121076,0.000264474
0.3183391,0.16020335,0.025006915
0.47058824,0.28441494,0.034660498
0.31487889,0.37032378,0.003074136
0.36678201,0.28067333,0.007414705
0.26643599,0.37077779,0.010887211
0.30795848,0.28422318,0.000563364
0.22491349,0.26359488,0.00149625
0.12802768,0.22027513,0.008509592
0.13148789,0.15483858,0.000545255
0.183391,0.14072947,0.001820006
0.14186851,0.17258912,0.000943756
0.16955017,0.13815552,0.000985624
0.1799308,0.16702059,0.000166674
0.20069204,0.16751539,0.00110069
0.07958477,0.16769832,0.007763998
0.06574394,0.11965733,0.002906654
0.06574394,0.0881133,0.000500388
0.0899654,0.08222798,5.98677E-05
0.16608997,0.10152486,0.004168653
0.14532872,0.18682781,0.001722174
0.14532872,0.15051504,2.68979E-05
0.19377163,0.17571418,0.000326072
0.41176471,0.2228005,0.035707473
0.52941176,0.38147592,0.021885013
0.58477509,0.49501303,0.008057227
0.80276817,0.48453311,0.101273553
0.87543253,0.68281062,0.0371032
0.57093426,0.66130681,0.008167198
0.4083045,0.38672978,0.000465469
0.2733564,0.17125888,0.010423904
0.26297578,0.23218799,0.000947888
0.20761246,0.22465369,0.000290404
0.08304498,0.21918134,0.018533109
0.11072664,0.17575904,0.004229213
0.16608997,0.220967,0.003011488
0.12456747,0.15869644,0.001164787
0.14186851,0.11629531,0.000653989
0.05536332,0.11993799,0.004169888
0.08650519,0.07134306,0.00022989
0.16262976,0.07757054,0.007235071
0.21453287,0.14640197,0.00464182
0.05190311,0.1834695,0.017309715
0.07612457,0.1164683,0.001627617
0.2283737,0.15349031,0.005607522
0.61591695,0.2634031,0.124266014
0.7266436,0.6347002,0.008453589
0.74740484,0.68787174,0.00354419
0.76816609,0.70338067,0.004197151
0.67474048,0.85738781,0.033360047
0.42906574,0.78722882,0.128280792
0.49480969,0.41153451,0.006934756
0.60899654,0.77951238,0.029075652
0.22145329,0.62753887,0.164905498
0.11418685,0.12035901,3.80956E-05
0.3633218,0.17420068,0.035766798
0.44982699,0.28326963,0.027741354
0.12110727,0.20198502,0.00654121
0.0899654,0.11325617,0.00054246
0.0899654,0.10469515,0.000216966
0.06228374,0.04738487,0.000221976
0.04152249,0.08448364,0.00184566
0.04844291,0.0467786,2.76993E-06
0.03806228,0.09993349,0.003828047
0.05190311,0.08324417,0.000982262
0.10380623,0.11922401,0.000237708
0.12110727,0.21919357,0.009620922
0.12110727,0.20611172,0.007225757
0.13148789,0.18121159,0.002472446
0.30103806,0.18671012,0.013070878
0.4532872,0.28908732,0.026961601
0.56747405,0.49970516,0.004592622
0.71280277,0.51768943,0.038069215
0.44982699,0.69545656,0.060333886
0.35986159,0.56552986,0.042299437
0.27681661,0.29265843,0.000250963
0.22145329,0.09901556,0.014990998
0.16262976,-0.07874647,0.058262484
0.22145329,0.1628558,0.003433666
0.17647059,0.17282957,1.3257E-05
0.1384083,0.1364068,4.006E-06
0.10380623,0.13997413,0.001308117
0.15224914,0.10623852,0.002116977
0.15916955,0.10002512,0.003498064
0.06920415,0.12326605,0.002922689
0.11072664,0.08291065,0.000773729
0.12802768,0.08184042,0.002133263
0.16262976,0.10499215,0.003322094
0.1349481,0.15222139,0.000298367
0.16262976,0.15089097,0.000137799
0.08304498,0.19311891,0.01211627
0.37370242,0.14715796,0.051322392
0.63321799,0.37422502,0.067077359
0.70934256,0.66521797,0.001946979
0.70588235,0.69971366,3.80527E-05
0.83391004,0.69246606,0.020006399
0.59861592,0.77574952,0.031376312
0.62975779,0.6293539,1.63127E-07
0.61245675,0.49022641,0.014940256
0.35640138,0.57132028,0.046190134
0.11418685,0.26382805,0.022392489
0.16608997,0.19497042,0.00083408
0.13148789,0.28209787,0.022683366
0.05536332,0.22009844,0.02713766
0.10034602,0.10481845,2.00026E-05
0.1349481,0.11514922,0.000391996
0.11072664,0.10169475,8.1575E-05
0.11418685,0.10312161,0.00012244
0.10034602,0.10149278,1.31506E-06
0.13148789,0.12661458,2.37492E-05
0.13148789,0.13892686,5.53383E-05
0.10726644,0.16586208,0.003433449
0.10380623,0.14875516,0.002020406
0.183391,0.19977311,0.000268374
0.4083045,0.20084302,0.043040266
0.52941176,0.31009631,0.048099267
0.63321799,0.57229375,0.003711763
0.61591695,0.69845177,0.006811997
0.52941176,0.60219741,0.005297751
0.61591695,0.64073827,0.000616098
0.57439446,0.34937529,0.050633627
0.78546713,0.75233122,0.001097989
0.93771626,0.66516223,0.074285699
0.43598616,0.35306239,0.006876352
0.43944637,0.18086953,0.066861982
0.2283737,0.25437725,0.000676185
0.12456747,0.11483093,9.48002E-05
0.14878893,0.12639371,0.000501546
0.20761246,0.18874828,0.000355857
0.17301038,0.13762123,0.001252392
0.23875432,0.11097191,0.016328344
0.26989619,0.18959894,0.006447648
0.26643599,0.21978059,0.002176726
0.14186851,0.22145974,0.006334764
0.20069204,0.21012207,8.89255E-05
0.13148789,0.22560627,0.008858269
0.12456747,0.18458262,0.003601818
0.15224914,0.18765187,0.001253353
0.26643599,0.1898636,0.005863331
0.33910035,0.20928808,0.016851225
0.55363322,0.31255905,0.058116755
0.63321799,0.52174917,0.012425298
0.51557093,0.87028395,0.125821327
0.62975779,0.73630411,0.011352118
0.66782007,0.8384267,0.029106622
0.43598616,0.89347538,0.209296386
0.44290657,0.46718858,0.000589616
0.42906574,0.15889278,0.072993428
0.29411765,0.22229165,0.005158974
0.31141868,0.19902635,0.012632036
0.28027682,0.15744694,0.015087179
0.17647059,0.20697766,0.000930681
0.15224914,0.18498065,0.001071352
0.17301038,0.13688689,0.001304907
0.15916955,0.15934985,3.25081E-08
0.14878893,0.12797794,0.000433097
0.11418685,0.1553959,0.001698186
0.18685121,0.11458061,0.00522304
0.15224914,0.18143301,0.000851698
0.12802768,0.16100476,0.001087488
0.11764706,0.17220169,0.002976208
0.11072664,0.17225406,0.003785623
0.14532872,0.16728205,0.000481949
0.21453287,0.21461365,6.52541E-09
0.24221453,0.20517844,0.001371672
0.15916955,0.26304658,0.010790437
0.26989619,0.23472713,0.001236863
0.35640138,0.30299454,0.002852291
0.1349481,0.40300996,0.071857161
0.23529412,0.20706226,0.000797038
0.19723183,0.27776969,0.006486347
0.30795848,0.1971448,0.012279672
0.15570934,0.28078762,0.015644576
0.15916955,0.22619912,0.004492963
0.14532872,0.16490606,0.000383272
0.16608997,0.15417004,0.000142085
0.18685121,0.17489917,0.000142851
0.15224914,0.14425905,6.38415E-05
0.19723183,0.1547207,0.001807196
0.19031142,0.18827486,4.14758E-06
0.21453287,0.1789375,0.00126703
0.15916955,0.20556103,0.002152169
0.16608997,0.16482852,1.59126E-06
0.16955017,0.1664489,9.61788E-06
0.14532872,0.16710187,0.00047407
0.21799308,0.17122031,0.002187692
0.11072664,0.20080039,0.00811328
0.19031142,0.15338499,0.001363561
0.18685121,0.20076874,0.000193698
0.17301038,0.21660474,0.001900468
0.25605536,0.17999377,0.005785365
0.26989619,0.22631156,0.00189962
0.21107266,0.26891235,0.00334543
0.29757786,0.23042853,0.004509033
0.29757786,0.28480411,0.000163169
0.17301038,0.23770973,0.004186006
0.22491349,0.19871437,0.000686394
0.17647059,0.21353133,0.001373498
0.21107266,0.16046753,0.002560879
0.13148789,0.20224934,0.005007183
0.13148789,0.15645954,0.000623583
0.12456747,0.13734316,0.000163218
0.1349481,0.13398228,9.32808E-07
0.15224914,0.14594928,3.96882E-05
0.16262976,0.14184513,0.000432001
0.15916955,0.1745065,0.000235222
0.14186851,0.1612804,0.000376821
0.20069204,0.15753779,0.001862289
0.15224914,0.20819694,0.003130156
0.19377163,0.17720837,0.000274342
0.15916955,0.19310989,0.001151947
0.11072664,0.18823501,0.006007547
0.14532872,0.14912458,1.44086E-05
0.19377163,0.17190855,0.000477994
0.29065744,0.22002584,0.004988823
0.16262976,0.26985688,0.011497655
0.15224914,0.20307509,0.002583277
0.14186851,0.18684229,0.002022641
0.14878893,0.16875037,0.000398459
0.17301038,0.17112856,3.54125E-06
0.2283737,0.18218236,0.00213364
,,
,,0.00660452