Target,Output,
0.29065744,0.27389033,0.000281136
0.15224914,0.27074704,0.014041752
0.10726644,0.1798464,0.005267851
0.06228374,0.14215615,0.006379602
0.03806228,0.07933159,0.001703156
0.09342561,0.06380285,0.000877508
0.07612457,0.10835841,0.00103902
0.11764706,0.11773145,7.12167E-09
0.07266436,0.1348637,0.003868758
0.12110727,0.0881087,0.001088906
0.08304498,0.13393535,0.00258983
0.10380623,0.10920753,2.9174E-05
0.1384083,0.12001013,0.000338493
0.19031142,0.16407653,0.000688269
0.19377163,0.21869063,0.000620957
0.29065744,0.20427109,0.007462601
0.3633218,0.29242974,0.005025684
0.36678201,0.29648072,0.004942271
0.38062284,0.34383854,0.001353085
0.3633218,0.34122229,0.000488388
0.19377163,0.34206624,0.021991291
0.28373702,0.20111402,0.00682656
0.29065744,0.28998228,4.55841E-07
0.23183391,0.26907119,0.001386615
0.11418685,0.22550426,0.012391566
0.12802768,0.12836526,1.1396E-07
0.12802768,0.16002039,0.001023533
0.06574394,0.14057675,0.005599949
0.12456747,0.0881087,0.001329242
0.04844291,0.12996877,0.006646466
0.02076125,0.07722171,0.003187784
0.03114187,0.0558628,0.000611124
0.06920415,0.04952454,0.000387287
0.10034602,0.08628128,0.000197817
0.17301038,0.11204252,0.00371708
0.13148789,0.16518401,0.001135429
0.183391,0.13930048,0.001943974
0.21799308,0.19548192,0.000506752
0.21453287,0.21615188,2.62119E-06
0.21453287,0.21955181,2.51898E-05
0.35294118,0.22053527,0.017531325
0.16955017,0.33209554,0.026420997
0.19031142,0.19233691,4.10261E-06
0.21799308,0.18621566,0.001009804
0.24221453,0.22350461,0.000350061
0.19723183,0.2166152,0.000375715
0.14532872,0.22039576,0.00563506
0.13148789,0.15587813,0.000594884
0.08650519,0.16153951,0.005630149
0.05536332,0.10304667,0.002273702
0.03806228,0.08912144,0.002607038
0.06574394,0.06801573,5.16103E-06
0.05882353,0.0860281,0.000740089
0.07266436,0.07072327,3.76783E-06
0.10034602,0.08312938,0.000296413
0.0899654,0.10816034,0.000331056
0.10726644,0.1312347,0.000574477
0.15570934,0.12235769,0.001112333
0.10034602,0.16732662,0.004486401
0.12802768,0.14101078,0.000168561
0.09688581,0.13860465,0.001740462
0.11072664,0.11173939,1.02566E-06
0.09688581,0.12756265,0.000941069
0.1349481,0.13250063,5.99011E-06
0.20069204,0.14653781,0.002932681
0.29757786,0.2222404,0.005675733
0.09688581,0.28972909,0.037188531
0.05190311,0.12353406,0.005130993
0.05536332,0.09038737,0.001226684
0.0449827,0.07950038,0.00119147
0.0449827,0.07106085,0.00068007
0.0899654,0.07416108,0.000249777
0.01730104,0.11246794,0.009056739
0.03460208,0.06385452,0.000855705
0.05882353,0.05171882,5.04769E-05
0.03114187,0.08082142,0.002468058
0.04152249,0.0667498,0.000636417
0.06574394,0.06268332,9.36739E-06
0.06228374,0.08695645,0.000608743
0.07266436,0.07494303,5.19234E-06
0.06228374,0.08490168,0.000511571
0.11764706,0.0881087,0.000872515
0.15224914,0.12532703,0.0007248
0.23875432,0.17037862,0.004675236
0.23183391,0.23824795,4.11399E-05
0.24221453,0.22337371,0.000354976
0.28719723,0.20680467,0.006462964
0.27681661,0.24761583,0.000852686
0.17647059,0.25742463,0.006553557
0.11764706,0.1887923,0.005061645
0.04152249,0.14554574,0.010820837
0.10034602,0.07837052,0.000482923
0.15224914,0.1123801,0.00158954
0.19723183,0.13947616,0.003335717
0.15570934,0.2032239,0.002257633
0.11764706,0.16997215,0.002737915
0.04844291,0.13818957,0.008054463
0.05190311,0.07595578,0.000578531
0.08650519,0.07494303,0.000133684
0.06920415,0.1089199,0.001577341
0.04152249,0.09215968,0.002564125
0.02422145,0.06169297,0.001404115
0.0449827,0.06033576,0.000235716
0.04844291,0.0593144,0.000118189
0.06574394,0.06960374,1.48981E-05
0.16955017,0.08007737,0.008005382
0.24221453,0.16089707,0.006612529
0.23875432,0.25529581,0.000273621
0.25605536,0.21621733,0.001587069
0.24567474,0.22895586,0.000279521
0.23875432,0.22030103,0.000340524
0.31141868,0.21846156,0.008641026
0.2283737,0.26660478,0.001461615
0.23875432,0.22631032,0.000154853
0.26989619,0.20604512,0.004076959
0.23529412,0.23393518,1.84672E-06
0.20761246,0.22136889,0.000189239
0.19723183,0.23143605,0.001169929
0.12110727,0.22811363,0.011450361
0.15916955,0.14676344,0.000153912
0.13148789,0.16555431,0.001160521
0.07958477,0.1516222,0.005189391
0.10726644,0.09325681,0.00019627
0.13148789,0.12119166,0.000106012
0.12802768,0.13690125,7.87402E-05
0.09342561,0.13407831,0.001652642
0.07266436,0.11038906,0.001423153
0.08650519,0.11308971,0.000706737
0.07958477,0.11199257,0.001050266
0.13148789,0.11840662,0.00017112
0.183391,0.14718542,0.001310844
0.21799308,0.19548192,0.000506752
0.08650519,0.21615188,0.016808264
0.1349481,0.12555955,8.81449E-05
0.2283737,0.15171521,0.005876524
0.23183391,0.25605536,0.000586679
0.16955017,0.20931414,0.001581173
0.19723183,0.19284328,1.92594E-05
0.1799308,0.20019428,0.000410609
0.19723183,0.2012053,1.57885E-05
0.10726644,0.20083672,0.008755397
0.05882353,0.14305005,0.007094107
0.05536332,0.08118829,0.000666929
0.03460208,0.06776943,0.001100073
0.06574394,0.06641222,4.46598E-07
0.07612457,0.0860281,9.80799E-05
0.0449827,0.09097814,0.002115581
0.06920415,0.0809351,0.000137615
0.12110727,0.0956905,0.000646012
0.07958477,0.13072833,0.002615664
0.0899654,0.10178074,0.000139602
0.10034602,0.1060849,3.29347E-05
0.10034602,0.12109177,0.000430386
0.12456747,0.13636732,0.000139236
0.08650519,0.12680309,0.001623921
0.09342561,0.11123302,0.000317104
0.12456747,0.1295468,2.47937E-05
0.10380623,0.13718371,0.001114056
0.11418685,0.1348637,0.000427532
0.3633218,0.13819646,0.050681419
0.25951557,0.27951726,0.000400068
0.183391,0.2535235,0.004918568
0.12110727,0.19765381,0.005859373
0.16262976,0.14588332,0.000280443
0.16262976,0.16138105,1.55928E-06
0.18685121,0.17739721,8.93781E-05
0.03460208,0.19734379,0.026484864
0.05190311,0.11756266,0.004311177
0.04844291,0.06218384,0.000188813
0.03460208,0.07173601,0.001378929
0.04152249,0.0740078,0.001055295
0.02768166,0.07086967,0.001865204
0.02422145,0.07063198,0.002153937
0.07612457,0.04707019,0.000844157
0.10380623,0.10451067,4.96236E-07
0.06920415,0.11064225,0.001717116
0.02768166,0.10287788,0.005654472
0.05190311,0.05502574,9.75082E-06
0.28027682,0.06074912,0.048192411
0.52941176,0.27117418,0.066686648
0.50519031,0.45609808,0.002410047
0.56401384,0.43320111,0.01711197
0.63321799,0.50400878,0.01669502
0.59515571,0.55194531,0.001867139
0.55017301,0.52915858,0.000441606
0.61937716,0.50670943,0.012694017
0.40138408,0.51194194,0.01222304
0.29065744,0.35749852,0.00446773
0.24913495,0.2938524,0.00199965
0.26989619,0.23313084,0.001351691
0.29065744,0.22355456,0.004502797
0.07266436,0.24857518,0.030944617
0.19377163,0.12935734,0.004149201
0.12456747,0.18251433,0.003357839
0.1384083,0.15900076,0.000424049
0.05190311,0.1612381,0.01195414
0.07958477,0.08903705,8.93456E-05
0.03806228,0.10362366,0.004298295
0.01384083,0.0736771,0.003580379
0.05536332,0.04860481,4.56775E-05
0.05190311,0.06543392,0.000183083
0.09342561,0.07333952,0.000403451
0.15916955,0.11448999,0.001996263
0.21107266,0.14862014,0.003900317
0.20069204,0.21520803,0.000210714
0.14878893,0.22863033,0.006374649
0.06228374,0.16254536,0.010052392
0.11418685,0.09291923,0.000452312
0.0899654,0.12124161,0.000978201
0.12110727,0.11730948,1.44232E-05
0.20761246,0.13853404,0.004771828
0.20415225,0.22175642,0.000309907
0.22145329,0.22256765,1.2418E-06
0.24913495,0.21497207,0.001167102
0.55709343,0.22262104,0.11187178
0.43252595,0.48285139,0.00253265
0.183391,0.37091738,0.035166143
0.12456747,0.19453118,0.004894921
0.0899654,0.14478618,0.003005318
0.12110727,0.1168875,1.78065E-05
0.05882353,0.13853404,0.006353765
0.01730104,0.0773905,0.003610743
0.04152249,0.05122795,9.4196E-05
0.09342561,0.05796408,0.00125752
0.06920415,0.11466222,0.002066436
0.06574394,0.10650688,0.001661617
0.16955017,0.08650519,0.006896469
0.15224914,0.16089707,7.47867E-05
0.14186851,0.16516162,0.000542569
0.14878893,0.1732584,0.000598755
0.10380623,0.16740584,0.00404491
0.14532872,0.13189609,0.000180436
0.16955017,0.1639353,3.15268E-05
0.21107266,0.1722801,0.001504863
0.28719723,0.2049962,0.006757009
0.34256055,0.27580387,0.004456454
0.4532872,0.30078488,0.023256958
0.16955017,0.3711964,0.040661202
0.12802768,0.18811714,0.003610743
0.05190311,0.14065081,0.007876154
0.08304498,0.07882522,1.78064E-05
0.11764706,0.09955546,0.000327306
0.05536332,0.12927811,0.005463396
0.09688581,0.07899401,0.000320117
0.14186851,0.12259193,0.000371587
0.11072664,0.15076963,0.001603441
0.15570934,0.11290714,0.001832028
0.20415225,0.16482404,0.001546708
0.14878893,0.21892143,0.004918568
0.09688581,0.16684952,0.004894921
0.12802768,0.1298706,3.39635E-06
0.12456747,0.13911102,0.000211515
0.12110727,0.1398103,0.000349803
0.15570934,0.1385771,0.000293514
0.14532872,0.16496871,0.000385729
0.19377163,0.17626563,0.00030646
0.17647059,0.21520803,0.001500589
0.14878893,0.17142582,0.000512429
0.17301038,0.16111064,0.000141604
0.29065744,0.18030971,0.012176622
0.35640138,0.27842012,0.006081077
0.19031142,0.2985906,0.011724381
0.14878893,0.19039581,0.001731132
0.23529412,0.15148958,0.007023201
0.18685121,0.2392607,0.002746755
0.1349481,0.21305165,0.006100165
0.11072664,0.15326188,0.001809247
0.11764706,0.11849101,7.12252E-07
0.10726644,0.15036488,0.001857476
0.13148789,0.14937969,0.000320117
0.14532872,0.13690125,7.10223E-05
0.15570934,0.16887157,0.000173244
0.1349481,0.17315161,0.001459508
0.13148789,0.16060427,0.000847764
0.12456747,0.15019781,0.000656914
0.15570934,0.13289677,0.000520413
0.20415225,0.16572827,0.001476402
0.16262976,0.21892143,0.003168752
0.14532872,0.17114507,0.000666484
0.19031142,0.16777787,0.000507761
0.32179931,0.20820322,0.012904072
0.53287197,0.31420373,0.047815799
0.44290657,0.44597064,9.38852E-06
0.44636678,0.40633585,0.001602475
0.43252595,0.37829249,0.002941268
0.26989619,0.3763514,0.011332712
0.29065744,0.24702507,0.001903784
0.3633218,0.24857518,0.013166787
0.22145329,0.29648072,0.005629115
0.21107266,0.22795173,0.000284903
0.10034602,0.22446741,0.015406119
0.10726644,0.13874589,0.000990956
0.11764706,0.13746445,0.000392729
0.14532872,0.14022194,2.60792E-05
0.10034602,0.1653373,0.004223866
0.11072664,0.13155851,0.000433967
0.05190311,0.14579203,0.008815129
0.06228374,0.07207359,9.58412E-05
0.16262976,0.07325513,0.007987824
0.16955017,0.14764701,0.000479748
0.14532872,0.17812405,0.001075534
0.183391,0.16322052,0.000406848
0.14186851,0.18029593,0.001476667
0.19377163,0.15815681,0.001268415
0.26643599,0.22212845,0.001963158
0.2283737,0.25740569,0.000842856
0.11764706,0.21318255,0.00912703
0.08650519,0.13908347,0.002764476
0.04844291,0.10886995,0.003651427
0.07958477,0.09224407,0.000160258
0.20415225,0.10303289,0.010225125
0.15570934,0.20372511,0.002305514
0.19723183,0.16651194,0.000943712
0.14878893,0.2103975,0.003795616
0.1799308,0.15224913,0.000766275
0.16955017,0.17936759,9.63817E-05
0.20761246,0.17648264,0.000969066
0.2733564,0.20761246,0.004322266
0.2733564,0.2644105,8.00291E-05
0.19377163,0.2392917,0.002072077
0.1349481,0.19483087,0.003585946
0.17301038,0.15756604,0.000238528
0.1384083,0.17087122,0.001053841
0.13148789,0.15748164,0.000675675
0.16608997,0.1472767,0.000353939
0.1799308,0.16698903,0.000167489
0.19377163,0.186989,4.60041E-05
0.17647059,0.19442784,0.000322463
0.16262976,0.17142582,7.73707E-05
0.09688581,0.1838836,0.007568615
0.28027682,0.14544756,0.018178929
0.17301038,0.27934847,0.011307789
0.19723183,0.18566968,0.000133683
0.183391,0.19990493,0.00027271
0.10726644,0.20471201,0.009495639
0.0899654,0.13930048,0.00243395
0.06228374,0.12380792,0.003785225
0.10726644,0.09249726,0.000218129
0.11418685,0.11440559,4.78472E-08
0.07266436,0.14385094,0.005067529
0.13148789,0.08532366,0.002131136
0.1349481,0.14364081,7.55632E-05
0.1384083,0.14793292,9.07184E-05
0.05190311,0.15575757,0.010785749
0.09342561,0.08903705,1.92595E-05
0.10380623,0.11448999,0.000114143
0.14532872,0.1240456,0.000452971
0.17647059,0.1639353,0.000157133
0.20415225,0.17222499,0.00101935
0.28373702,0.20036479,0.006950929
0.19377163,0.27479112,0.006564158
0.1799308,0.19061111,0.000114069
0.1349481,0.19393697,0.003479687
0.1799308,0.14870453,0.00097508
0.12110727,0.18790185,0.004461516
0.1799308,0.14368904,0.001313465
0.23529412,0.19151534,0.001916582
0.25259516,0.24010465,0.000156013
0.17647059,0.22265377,0.002132886
0.26643599,0.20989113,0.003197321
0.20415225,0.25124483,0.002217711
0.16608997,0.21689594,0.002581247
0.14878893,0.18397316,0.00123793
0.19723183,0.1724799,0.000612658
0.17647059,0.20989113,0.001116932
0.17301038,0.1874592,0.000208768
0.16608997,0.18441408,0.000335773
0.2283737,0.18818948,0.001614772
0.15916955,0.24660309,0.007644624
0.16608997,0.19410921,0.000785078
0.16955017,0.17794837,7.05298E-05
0.11418685,0.17992563,0.004321587
0.16955017,0.14630529,0.000540324
0.15916955,0.1617238,6.52419E-06
0.1349481,0.17989807,0.0020205
0.14532872,0.15562495,0.000106012
0.1349481,0.16614508,0.000973252
0.3183391,0.16591601,0.023232798
0.47058824,0.27639463,0.037711158
0.31487889,0.37195596,0.003257792
0.36678201,0.30627229,0.003661426
0.26643599,0.31990644,0.002859089
0.30795848,0.25436746,0.002871997
0.22491349,0.26846147,0.001896427
0.12802768,0.22285012,0.008991295
0.13148789,0.1529243,0.00045952
0.183391,0.14066114,0.001825841
0.14186851,0.19548192,0.002874398
0.16955017,0.15815681,0.000129809
0.1799308,0.17211131,6.11444E-05
0.20069204,0.1856869,0.000225154
0.07958477,0.20772441,0.016419767
0.06574394,0.11958815,0.002899199
0.06574394,0.09426956,0.000813711
0.0899654,0.07992236,0.000100863
0.16608997,0.11592471,0.002516553
0.14532872,0.15422984,7.92299E-05
0.14532872,0.16676513,0.00045952
0.19377163,0.17272791,0.000442838
0.41176471,0.21520803,0.038634528
0.52941176,0.39294455,0.018623299
0.58477509,0.47472361,0.012111328
0.80276817,0.517934,0.081130504
0.87543253,0.5611444,0.098777029
0.57093426,0.59228627,0.000455908
0.4083045,0.48864883,0.006455211
0.2733564,0.3578361,0.00713682
0.26297578,0.2680395,2.56413E-05
0.20761246,0.22861139,0.000440955
0.08304498,0.21506852,0.017430215
0.11072664,0.12119166,0.000109517
0.16608997,0.12328604,0.001832176
0.12456747,0.15497218,0.000924446
0.14186851,0.15229736,0.000108761
0.05536332,0.15986366,0.010920321
0.08650519,0.09140012,2.39603E-05
0.16262976,0.11212692,0.002550537
0.21453287,0.15743686,0.003259954
0.05190311,0.21841506,0.027726229
0.07612457,0.12243692,0.002144834
0.2283737,0.10303289,0.015710319
0.61591695,0.23862515,0.142349102
0.7266436,0.50319066,0.049931216
0.74740484,0.56941514,0.031680333
0.76816609,0.58595662,0.033200291
0.67474048,0.58215883,0.008571362
0.42906574,0.56207275,0.017690865
0.49480969,0.35336315,0.020007124
0.60899654,0.45126171,0.024880277
0.22145329,0.53228121,0.096613996
0.11418685,0.24654797,0.017519466
0.3633218,0.13385096,0.052656866
0.44982699,0.27951726,0.029005404
0.12110727,0.38714711,0.070777196
0.0899654,0.17782091,0.007718591
0.0899654,0.12465187,0.001203151
0.06228374,0.12304836,0.003692339
0.04152249,0.09249726,0.002598427
0.04844291,0.06557515,0.000293514
0.03806228,0.07838085,0.001625587
0.05190311,0.07139154,0.000379799
0.10380623,0.07712181,0.000712058
0.12110727,0.11659987,2.03167E-05
0.12110727,0.12882858,5.96186E-05
0.13148789,0.14917818,0.000312946
0.30103806,0.17076788,0.01697032
0.4532872,0.2823023,0.029235836
0.56747405,0.36976168,0.039090181
0.71280277,0.49354376,0.048074513
0.44982699,0.57118744,0.014728359
0.35986159,0.39632036,0.001329242
0.27681661,0.32631015,0.002449611
0.22145329,0.25790345,0.001328614
0.16262976,0.21318255,0.002555585
0.22145329,0.19621048,0.000637199
0.17647059,0.22820491,0.00267644
0.1384083,0.20583154,0.004545893
0.10380623,0.15241793,0.002363097
0.15224914,0.11822405,0.001157707
0.15916955,0.15625533,8.49268E-06
0.06920415,0.16998076,0.010155925
0.11072664,0.11047346,6.41001E-08
0.12802768,0.12638972,2.68291E-06
0.16262976,0.14471728,0.000320857
0.1349481,0.16336004,0.000807238
0.16262976,0.16149645,1.28439E-06
0.08304498,0.1628795,0.006373551
0.37370242,0.12320337,0.062749774
0.63321799,0.28280868,0.122786685
0.70934256,0.50113934,0.043348581
0.70588235,0.58865727,0.013741719
0.83391004,0.58123048,0.06384696
0.59861592,0.58511267,0.000182338
0.62975779,0.52730188,0.010497213
0.61245675,0.54603764,0.004411498
0.35640138,0.54291501,0.034787334
0.11418685,0.28967398,0.030795733
0.16608997,0.16769348,2.57124E-06
0.13148789,0.15860117,0.00073513
0.05536332,0.14858397,0.00869009
0.10034602,0.08211663,0.000332311
0.1349481,0.11634668,0.000346013
0.11072664,0.14829461,0.001411352
0.11418685,0.11849101,1.85258E-05
0.10034602,0.14760739,0.002233637
0.13148789,0.14364081,0.000147693
0.13148789,0.14297771,0.000132016
0.10726644,0.14057675,0.001109577
0.10380623,0.11899738,0.000230771
0.183391,0.14168422,0.001739455
0.4083045,0.18605721,0.049393858
0.52941176,0.35758292,0.02952515
0.63321799,0.4748924,0.025066992
0.61591695,0.53109967,0.007193971
0.52941176,0.54291501,0.000182338
0.61591695,0.48898641,0.016111362
0.57439446,0.51514896,0.003510029
0.78546713,0.51531775,0.072980688
0.93771626,0.56958393,0.135521412
0.43598616,0.5772639,0.0199594
0.43944637,0.39775508,0.001738164
0.2283737,0.36149783,0.017722034
0.12456747,0.21141025,0.007541668
0.14878893,0.14355642,2.73792E-05
0.20761246,0.15870451,0.002391988
0.17301038,0.22499789,0.002702701
0.23875432,0.18802413,0.002573552
0.26989619,0.25065406,0.00037026
0.26643599,0.23393518,0.001056303
0.14186851,0.23684424,0.009020389
0.20069204,0.16592117,0.001209013
0.13148789,0.22339438,0.008446803
0.12456747,0.15224913,0.000766274
0.15224914,0.13289677,0.000374514
0.26643599,0.16859771,0.009572329
0.33910035,0.26002194,0.006253395
0.55363322,0.29293611,0.067962983
0.63321799,0.45137194,0.033067986
0.51557093,0.53270318,0.000293514
0.62975779,0.47548316,0.023800661
0.66782007,0.51126677,0.024508936
0.43598616,0.56527977,0.016716838
0.44290657,0.35412271,0.007882574
0.42906574,0.37255361,0.003193621
0.29411765,0.37061252,0.005851465
0.31141868,0.29258648,0.000354652
0.28027682,0.27606394,1.77484E-05
0.17647059,0.25406777,0.006021322
0.15224914,0.18406617,0.001012323
0.17301038,0.17301038,0
0.15916955,0.17879232,0.000385053
0.14878893,0.17669105,0.000778528
0.11418685,0.17574548,0.003789465
0.18685121,0.13468113,0.002721717
0.15224914,0.19010818,0.001433307
0.12802768,0.15444341,0.000697791
0.11764706,0.15402833,0.001323597
0.11072664,0.13823951,0.000756958
0.14532872,0.14693223,2.57124E-06
0.21453287,0.15558017,0.003475421
0.24221453,0.23250907,9.4196E-05
0.15916955,0.22386286,0.004185224
0.26989619,0.19571272,0.005503187
0.35640138,0.25301713,0.010688303
0.1349481,0.31141869,0.031141869
0.23529412,0.16862182,0.004445196
0.19723183,0.26322896,0.004355621
0.30795848,0.22504267,0.006875032
0.15570934,0.29276732,0.01878489
0.15916955,0.18550089,0.000693339
0.14532872,0.1733583,0.000785657
0.16608997,0.17425047,6.65938E-05
0.18685121,0.1608609,0.000675496
0.15224914,0.19008062,0.001431221
0.19723183,0.15444341,0.001830849
0.19031142,0.2032239,0.000166732
0.21453287,0.21009781,1.96698E-05
0.15916955,0.21672371,0.003312481
0.16608997,0.18304481,0.000287467
0.16955017,0.17794837,7.05298E-05
0.14532872,0.17992563,0.001196946
0.21799308,0.16322052,0.003000033
0.11072664,0.24449321,0.017893495
0.19031142,0.1294624,0.003702603
0.18685121,0.19846332,0.000134841
0.17301038,0.19347021,0.000418605
0.25605536,0.18208374,0.005471801
0.26989619,0.26111908,7.70377E-05
0.21107266,0.22266582,0.000134401
0.29757786,0.2265549,0.005044261
0.29757786,0.28365263,0.000193912
0.17301038,0.27128441,0.009657785
0.22491349,0.18617605,0.001500589
0.17647059,0.24246772,0.004355621
0.21107266,0.2012742,9.60098E-05
0.13148789,0.20364588,0.005206776
0.13148789,0.15520297,0.000562405
0.12456747,0.14057675,0.000256297
0.1349481,0.13289677,4.20795E-06
0.15224914,0.16030975,6.49734E-05
0.16262976,0.16334798,5.1584E-07
0.15916955,0.16905414,9.77051E-05
0.14186851,0.17383194,0.001021661
0.20069204,0.17526322,0.000646625
0.15224914,0.22339438,0.005061645
0.19377163,0.1691282,0.000607299
0.15916955,0.199433,0.001621145
0.11072664,0.16803106,0.003283797
0.14532872,0.13363222,0.000136808
0.19377163,0.15558017,0.001458588
0.29065744,0.21520803,0.005692613
0.16262976,0.29242974,0.016848035
0.15224914,0.19183053,0.001566686
0.14186851,0.18232831,0.001636995
0.14878893,0.1732584,0.000598755
0.17301038,0.16740584,3.14109E-05
0.2283737,0.18030971,0.002310147
,,
,,0.006712564