output,target,
0.28569289,0.34821429,0.003908925
0.32359453,0.30357143,0.000400925
0.24144198,0.24553571,1.67586E-05
0.22301605,0.13839286,0.007161084
0.10595913,0.15625,0.002529172
0.21007755,0.03571429,0.030402546
0.16717291,0.05803571,0.011910928
0.15437268,0.16964286,0.000233178
0.23566532,0.1875,0.002319898
0.22667347,0.04910714,0.031529802
0.11247601,0.18303571,0.004978671
0.20326776,0.22321429,0.000397864
0.21295752,0.26339286,0.002543724
0.24325646,0.12946429,0.012948658
0.18063776,0.16964286,0.000120888
0.21495481,0.30803571,0.008664054
0.27670313,0.13392857,0.020384575
0.14545156,0.12946429,0.000255593
0.16816607,0.15625,0.000141993
0.16551401,0.13839286,0.000735557
0.15541059,0.20982143,0.00296054
0.21657678,0.33482143,0.013981797
0.31583011,0.41071429,0.009003008
0.34972233,0.36160714,0.000141249
0.30520214,0.17857143,0.016035337
0.20428224,0.15178571,0.002755886
0.17416872,0.15178571,0.000500999
0.1851539,0.15625,0.000835435
0.1546791,0.08482143,0.004880094
0.08289447,0.07142857,0.000131467
0.13603632,0.08035714,0.003100171
0.14352661,0.08035714,0.003990382
0.12663414,0.14732143,0.000427964
0.14162557,0.08928571,0.002739461
0.14389735,0.21875,0.005602919
0.23473862,0.16071429,0.005479601
0.19159601,0.1875,1.67773E-05
0.18660632,0.24553571,0.003472673
0.24066497,0.22321429,0.000304526
0.19563281,0.19196429,1.3458E-05
0.17269721,0.1875,0.000219123
0.18639797,0.24107143,0.002989187
0.23356188,0.08035714,0.023471692
0.13994648,0.10714286,0.001076077
0.15223093,0.16517857,0.000167641
0.232129,0.21875,0.000178998
0.24409472,0.33482143,0.008231336
0.29405911,0.30803571,0.000195345
0.2382133,0.24553571,5.36177E-05
0.18451126,0.14732143,0.001383083
0.16659613,0.15625,0.000107042
0.16722207,0.12946429,0.00142565
0.11767769,0.12946429,0.000138924
0.12440939,0.10714286,0.000298133
0.13842035,0.16071429,0.00049702
0.1514258,0.11160714,0.001585526
0.15191848,0.17857143,0.00071038
0.17872623,0.04910714,0.016801108
0.10749976,0.17410714,0.004436543
0.19985908,0.09821429,0.010331663
0.15313944,0.17129646,0.000329677
0.21289879,0.27232143,0.00353105
0.26657145,0.15178571,0.013175766
0.17868708,0.22321429,0.001982672
0.21518708,0.20089286,0.000204325
0.17933696,0.24107143,0.003811145
0.19064181,0.20089286,0.000105084
0.19190511,0.16071429,0.000972867
0.19682566,0.11160714,0.007262196
0.19428947,0.29017857,0.009194719
0.27576875,0.37946429,0.010752765
0.30823085,0.27678571,0.000988797
0.24052273,0.1875,0.00281141
0.15366422,0.19196429,0.001466895
0.18869333,0.17410714,0.000212757
0.22077729,0.11160714,0.011918122
0.14514808,0.07589286,0.004796285
0.11531176,0.12946429,0.000200294
0.15929378,0.19642857,0.001378993
0.17676557,0.07589286,0.010175304
0.12943351,0.21875,0.007977435
0.19703083,0.16964286,0.000750101
0.14993103,0.18303571,0.00109592
0.18265909,0.06696429,0.013385287
0.13446222,0.08928571,0.002040917
0.16840073,0.19196429,0.000555241
0.20555848,0.25892857,0.002848367
0.24057258,0.29464286,0.002923595
0.26225005,0.25892857,1.10322E-05
0.22399038,0.1875,0.001331548
0.20121915,0.17857143,0.000512919
0.1778033,0.16964286,6.65928E-05
0.1662466,0.15625,9.9932E-05
0.21774998,0.25446429,0.001347941
0.26829383,0.20089286,0.004542891
0.21135101,0.19196429,0.000375845
0.19218185,0.23214286,0.001596882
0.23148336,0.25446429,0.000528123
0.20845129,0.25892857,0.002547956
0.17316857,0.18303571,9.73605E-05
0.16741305,0.14285714,0.000602993
0.17612398,0.17857143,5.99001E-06
0.20327542,0.41517857,0.044902945
0.30902417,0.33482143,0.000665499
0.26640885,0.23660714,0.000888142
0.18512471,0.10714286,0.006081169
0.12927261,0.08035714,0.002392723
0.08054542,0.05357143,0.000727596
0.09779924,0.04910714,0.002370921
0.12475443,0.32142857,0.038680717
0.31186302,0.37946429,0.004569932
0.30718765,0.27678571,0.000924278
0.24478245,0.24553571,5.67401E-07
0.23220135,0.22321429,8.07672E-05
0.19912516,0.19196429,5.12781E-05
0.17715099,0.25446429,0.005977346
0.2197584,0.24107143,0.000454245
0.23707366,0.3125,0.005689133
0.28872499,0.33928571,0.002556386
0.29427633,0.48214286,0.035293833
0.38513371,0.36160714,0.000553499
0.25776221,0.16964286,0.00776502
0.1979236,0.17857143,0.000374506
0.17044832,0.13392857,0.001333692
0.14563838,0.10714286,0.001481905
0.18189025,0.17410714,6.05768E-05
0.24969289,0.50446429,0.064908466
0.36884843,0.33928571,0.000873954
0.19257888,0.38839286,0.038343115
0.24192201,0.17410714,0.004598857
0.13015884,0.20089286,0.005003302
0.14856193,0.125,0.000555165
0.1587618,0.10267857,0.003145329
0.18578941,0.16964286,0.000260711
0.24464696,0.29910714,0.002965911
0.27694311,0.24107143,0.001286777
0.25637504,0.08035714,0.030982301
0.17349828,0.19642857,0.000525798
0.20698361,0.0625,0.020875514
0.15693117,0.21428571,0.003289543
0.1763874,0.21875,0.00179459
0.2511211,0.28125,0.000907751
0.27318443,0.45089286,0.031580286
0.54379259,0.63392857,0.008124495
0.46554597,0.64732143,0.033042318
0.36436892,0.29017857,0.005504208
0.19038309,0.1875,8.31221E-06
0.18998144,0.125,0.004222588
0.09272813,0.08035714,0.000153041
0.08084296,0.49553571,0.171970077
0.68832689,0.57589286,0.012641411
0.45260664,0.50446429,0.002689216
0.31400094,0.63839286,0.105230118
0.50421322,0.15178571,0.12420515
0.1345044,0.15178571,0.000298644
0.13269515,0.22767857,0.00902185
0.21374403,0.17410714,0.001571083
0.18356733,0.07589286,0.011593791
0.21280673,0.13392857,0.006221764
0.20234794,0.11160714,0.008233893
0.0827069,0.12946429,0.002186254
0.14684027,0.19642857,0.002458999
0.21737892,0.24553571,0.000792805
0.22080115,0.1875,0.001108967
0.22538225,0.17857143,0.002191253
0.23534333,0.36160714,0.01594255
0.3948382,0.42857143,0.001137931
0.3349112,0.26339286,0.005114873
0.21653799,0.25892857,0.001796961
0.22522564,0.21875,4.19339E-05
0.22716018,0.1875,0.00157293
0.16376301,0.16964286,3.45726E-05
0.10707259,0.12946429,0.000501388
0.19487423,0.40625,0.044679716
0.39911476,0.33928571,0.003579515
0.29869958,0.12946429,0.028640583
0.24525568,0.125,0.014461429
0.17325252,0.22767857,0.002962195
0.18863825,0.08482143,0.010777932
0.14618893,0.19642857,0.002524021
0.18638977,0.27678571,0.008171426
0.20817901,0.12946429,0.006196007
0.14495809,0.24553571,0.010115858
0.21873669,0.29464286,0.005761747
0.24330402,0.26339286,0.000403561
0.23116339,0.20535714,0.000665963
0.23105606,0.22321429,6.14934E-05
0.20441373,0.18303571,0.00045702
0.21140012,0.23214286,0.000430261
0.28799852,0.35714286,0.00478094
0.32798449,0.37946429,0.00265017
0.28968475,0.32589286,0.001311027
0.24270947,0.30357143,0.003704178
0.25971878,0.15178571,0.011649548
0.1584957,0.23214286,0.005423904
0.20506898,0.21875,0.00018717
0.21027169,0.12946429,0.006529836
0.20602993,0.30803571,0.010405179
0.28828825,0.22767857,0.003673533
0.18822556,0.26339286,0.005650123
0.22701771,0.29017857,0.003989294
0.22975013,0.17410714,0.003096142
0.18584324,0.09821429,0.007678833
0.14026377,0.13839286,3.5003E-06
0.19849457,0.0625,0.018494523
0.12968941,0.11160714,0.000326968
0.1665191,0.23214286,0.004306478
0.24848631,0.25,2.29126E-06
0.23412141,0.24553571,0.000130286
0.2288436,0.25446429,0.00065642
0.26032211,0.22321429,0.00137699
0.20294704,0.125,0.006075741
0.18885493,0.13839286,0.002546421
0.21451821,0.30357143,0.007930476
0.28478052,0.41071429,0.015859314
0.35653811,0.29017857,0.004403589
0.26496315,0.22321429,0.001742967
0.21795877,0.19196429,0.000675713
0.20058739,0.22321429,0.000511977
0.20380704,0.17857143,0.000636836
0.16631306,0.09375,0.005265398
0.1776756,0.05803571,0.014313703
0.1791472,0.17410714,2.54022E-05
0.20134727,0.13392857,0.004545281
0.18116754,0.19196429,0.00011657
0.17939574,0.12053571,0.003464503
0.12830233,0.18303571,0.002995743
0.16984655,0.1875,0.000311644
0.16621174,0.16071429,3.0222E-05
0.18007216,0.27678571,0.009353511
0.30583414,0.30803571,4.84691E-06
0.26096283,0.33928571,0.006134474
0.27673626,0.50446429,0.051860056
0.4351348,0.43303571,4.40618E-06
0.33480958,0.37946429,0.001994043
0.26932211,0.52678571,0.066287505
0.42221384,0.61607143,0.037580765
0.5332963,0.51785714,0.000238368
0.47649543,0.35714286,0.014245036
0.28466668,0.46428571,0.032262996
0.35144269,0.51339286,0.026227858
0.69383646,0.52678571,0.027905953
0.40110465,0.44196429,0.00166951
0.30382343,0.28125,0.00050956
0.16934185,0.10267857,0.004443993
0.14618009,0.04017857,0.011236322
0.09595228,0.13839286,0.001801203
0.15068506,0.25,0.009863457
0.2329051,0.16964286,0.004002111
0.18348971,0.23660714,0.002821461
0.23591215,0.42410714,0.035417354
0.35444963,0.43303571,0.006175772
0.34369388,0.11160714,0.053864255
0.19819787,0.12946429,0.004724305
0.20939397,0.17857143,0.000950029
0.22522875,0.12053571,0.010960633
0.18621697,0.19196429,3.30317E-05
0.26869611,0.17857143,0.008122458
0.18733533,0.17857143,7.68059E-05
0.25305271,0.18303571,0.00490238
0.24574813,0.20982143,0.001290728
0.21116289,0.33482143,0.015291435
0.28544031,0.48660714,0.040468093
0.40360392,0.38392857,0.000387119
0.30663567,0.16964286,0.01876703
0.22007047,0.16071429,0.003523156
0.18672606,0.16517857,0.000464294
0.16870171,0.09821429,0.004968476
0.08572402,0.17857143,0.008620642
0.1748636,0.12053571,0.00295152
0.16274166,0.08928571,0.005395777
0.14466818,0.28571429,0.019894005
0.20272576,0.08928571,0.012868645
0.17026381,0.43303571,0.069049071
0.44775518,0.63839286,0.036342725
0.45804196,0.33928571,0.014103047
0.21086241,0.21875,6.22141E-05
0.18824995,0.12946429,0.003455754
0.12895998,0.15625,0.000744745
0.12416322,0.22767857,0.010715428
0.21354204,0.20982143,1.38429E-05
0.22579878,0.23660714,0.000116821
0.23146255,0.24553571,0.000198054
0.23357197,0.11160714,0.01487542
0.1704597,0.21428571,0.001920719
0.24132137,0.33035714,0.007927368
0.24872048,0.33035714,0.006664544
0.26337403,0.16071429,0.010539022
0.15126932,0.14732143,1.55858E-05
0.19482659,0.14732143,0.00225674
0.21370729,0.16517857,0.002355037
0.14822976,0.16517857,0.000287262
0.18211913,0.08928571,0.008618044
0.1426086,0.08035714,0.003875244
0.13144496,0.23214286,0.010140067
0.22906344,0.12946429,0.009919991
0.14520264,0.37053571,0.050774992
0.4286223,0.57142857,0.020393631
0.55029707,0.13839286,0.169665078
0.19888546,0.12053571,0.006138683
0.16513717,0.19642857,0.000979152
0.18369059,0.14285714,0.001667371
0.14586969,0.07589286,0.004896757
0.11784849,0.20089286,0.006896367
0.22134206,0.30357143,0.006761669
0.27258543,0.26785714,2.23567E-05
0.24924172,0.13839286,0.01228747
0.18027337,0.13392857,0.00214784
0.17673185,0.16517857,0.000133478
0.21630489,0.33035714,0.013007916
0.2586019,0.26339286,2.29533E-05
0.20647713,0.19196429,0.000210623
0.16387105,0.19642857,0.001059992
0.21271385,0.24553571,0.001077274
0.19345815,0.21875,0.000639678
0.1921235,0.17857143,0.000183659
0.16768373,0.14732143,0.000414623
0.17420672,0.16517857,8.15075E-05
0.18287756,0.45535714,0.074245122
0.49221172,0.22321429,0.072359617
0.25952724,0.24553571,0.000195763
0.27929807,0.27232143,4.86735E-05
0.19540198,0.47767857,0.079680073
0.27450168,0.54464286,0.072976257
0.62441238,0.45982143,0.027090181
0.28509372,0.21875,0.004401489
0.16814994,0.20089286,0.001072099
0.2150614,0.24107143,0.000676522
0.25126264,0.14285714,0.011751752
0.17381505,0.19196429,0.000329395
0.20331241,0.20982143,4.23673E-05
0.20963666,0.22321429,0.000184352
0.20651041,0.1875,0.000361396
0.25717239,0.38839286,0.017218812
0.31735809,0.37946429,0.00385718
0.2425156,0.30803571,0.004292885
0.24135263,0.20089286,0.001636993
0.19340009,0.16517857,0.000796454
0.19507046,0.12053571,0.005555429
0.14189427,0.125,0.000285416
0.16439395,0.20535714,0.001677983
0.22163969,0.41517857,0.037457298
0.42100664,0.33035714,0.008217332
0.26222137,0.19196429,0.004936057
0.21434062,0.41517857,0.040335882
0.3976175,0.37053571,0.000733423
0.31101014,0.27678571,0.001171312
0.28774971,0.11607143,0.029473432
0.13926223,0.16964286,0.000922983
0.19184485,0.24107143,0.002423256
0.25725843,0.25446429,7.80722E-06
0.2292292,0.30357143,0.005526767
0.23213518,0.46875,0.055986573
0.34279864,0.14732143,0.03821134
0.19605726,0.09375,0.010466775
0.14237045,0.16071429,0.000336496
0.18921544,0.17857143,0.000113295
0.23518745,0.39285714,0.024859731
0.38427708,0.43303571,0.002377404
0.31630778,0.36160714,0.002052032
0.27352717,0.20982143,0.004058421
0.19064521,0.45089286,0.067728839
0.29097987,0.54910714,0.066629688
0.37215948,0.42410714,0.002698559
0.33259328,0.30357143,0.000842268
0.3476398,0.14285714,0.041935938
0.18513422,0.14732143,0.001429807
0.18592361,0.10714286,0.006206407
0.20555691,0.05803571,0.021762504
0.08238002,0.11160714,0.000854225
0.16939484,0.16517857,1.77769E-05
0.13276288,0.22767857,0.009008988
0.22093832,0.14285714,0.006096671
0.18244887,0.24107143,0.003436605
0.24652807,0.20089286,0.002082572
0.23120782,0.13839286,0.008614617
0.13896402,0.19196429,0.002809029
0.20456087,0.22767857,0.000534428
0.1934981,0.13392857,0.003548529
0.18661207,0.14285714,0.001914494
0.19153378,0.12053571,0.005040726
0.16891125,0.35714286,0.035431139
0.35085605,0.41964286,0.004731625
0.38680618,0.33928571,0.002258195
0.28201362,0.20982143,0.005211712
0.27817599,0.18303571,0.009051673
0.25774556,0.125,0.017621384
0.1708307,0.16071429,0.000102342
0.1694128,0.18303571,0.000185584
0.17284822,0.32589286,0.023422662
0.26840248,0.21428571,0.002928625
0.17717002,0.0625,0.013149213
0.10699237,0.09821429,7.70547E-05
0.12886019,0.16964286,0.001663226
0.18773821,0.26339286,0.005723626
0.22469218,0.1875,0.001383258
0.19821828,0.16964286,0.000816555
0.21968439,0.0625,0.024706932
0.14878387,0.23660714,0.007712927
0.19661551,0.28571429,0.007938593
0.24698869,0.25,9.06799E-06
0.20065048,0.26339286,0.003936606
0.22423646,0.20535714,0.000356429
0.18365165,0.24107143,0.003297031
0.26948883,0.24553571,0.000573752
0.28397019,0.38392857,0.009991678
0.33097565,0.48214286,0.022851525
0.34438027,0.35714286,0.000162884
0.25474757,0.28571429,0.000958938
0.24078442,0.17410714,0.00444586
0.17071245,0.125,0.002089628
0.16466669,0.13839286,0.000690314
0.16434873,0.10714286,0.003272512
0.16613827,0.10267857,0.004027134
0.1615362,0.09821429,0.004009664
0.09065588,0.11607143,0.00064595
0.15100474,0.11160714,0.001552171
0.16673188,0.02232143,0.020854378
0.09669845,0.07142857,0.000638567
0.14461684,0.20089286,0.00316699
0.19032298,0.08035714,0.012092486
0.14656863,0.05803571,0.007838078
0.1340657,0.05803571,0.005780559
0.06341204,0.24553571,0.033169031
0.22875206,0.20982143,0.000358369
0.22448457,0.16071429,0.004066649
0.20204822,0.20535714,1.0949E-05
0.23397994,0.15178571,0.006755891
0.19468327,0.07142857,0.015191721
0.17964595,0.21428571,0.001199913
0.23636264,0.37946429,0.020478082
0.29457694,0.26339286,0.000972447
0.22277375,0.11607143,0.011385385
0.16107048,0.11607143,0.002024915
0.16668009,0.12946429,0.001385016
0.16632647,0.12053571,0.002096794
0.13731604,0.11607143,0.000451333
0.1320753,0.10714286,0.000621627
0.14849865,0.12946429,0.000362307
0.17606627,0.125,0.002607764
0.12553499,0.12053571,2.49928E-05
0.1160847,0.27678571,0.025824815
0.19809906,0.15625,0.001751344
0.12831445,0.12053571,6.05088E-05
0.1300404,0.13392857,1.51179E-05
0.13825191,0.0625,0.005738352
0.13215785,0.08035714,0.002683314
0.14716877,0.18303571,0.001286437
0.19771509,0.21428571,0.000274585
0.1998867,0.23660714,0.001348391
0.24026062,0.15625,0.007057784
0.18861575,0.14732143,0.001705221
0.14760212,0.25446429,0.011419523
0.27952312,0.33928571,0.003571567
0.28419897,0.43303571,0.022152375
0.30322822,0.37053571,0.004530298
0.21905548,0.37053571,0.02294626
0.25239036,0.25,5.71382E-06
0.21808797,0.25892857,0.001667955
0.19136828,0.16964286,0.000471994
0.14473966,0.09821429,0.00216461
0.13360378,0.11160714,0.000483852
0.14536853,0.23660714,0.008324484
0.22762395,0.23660714,8.06977E-05
0.24935206,0.18303571,0.004397858
0.2013459,0.09375,0.011576878
0.13353843,0.1875,0.002911851
0.15317354,0.10714286,0.002118824
0.12576077,0.24553571,0.014346036
0.20554952,0.16964286,0.001289288
0.17085886,0.13839286,0.001054041
0.18516436,0.22767857,0.001807458
0.24408468,0.27678571,0.001069357
0.24630419,0.25446429,6.65872E-05
0.26413864,0.09375,0.029032289
0.16578789,0.16517857,3.71271E-07
0.21693033,0.22767857,0.000115525
0.24627639,0.36160714,0.013301182
0.33099258,0.36160714,0.000937251
0.35236897,0.20089286,0.022945012
0.22372258,0.15625,0.004552549
0.20022602,0.17857143,0.000468921
0.18546355,0.16071429,0.000612526
0.15822908,0.10714286,0.002609802
0.13471632,0.10714286,0.000760296
0.15435972,0.18303571,0.000822312
0.2156991,0.10267857,0.01277364
0.15452108,0.20089286,0.002150342
0.20275746,0.17410714,0.000820841
0.1732641,0.15178571,0.000461321
0.151003,0.25446429,0.010704239
0.22118616,0.09375,0.016239975
0.1439345,0.0625,0.006631578
0.14319249,0.12946429,0.000188463
0.1603077,0.22767857,0.004538834
0.2258517,0.18303571,0.001833209
0.20443027,0.24553571,0.001689657
0.23557789,0.21875,0.000283178
0.19640177,0.19642857,7.1824E-10
0.19269873,0.12946429,0.003998594
0.20493098,0.14732143,0.00331886
0.20606616,0.36607143,0.025601686
0.32860087,0.33035714,3.08448E-06
0.25082058,0.23214286,0.000348857
0.20052551,0.17857143,0.000481982
0.17504333,0.17857143,1.24475E-05
0.17581714,0.125,0.002582382
0.1175734,0.09821429,0.000374775
0.13554903,0.07142857,0.004111433
0.13992852,0.12946429,0.0001095
0.15933909,0.19196429,0.001064404
0.19923571,0.21428571,0.000226502
0.21324803,0.16964286,0.001901411
0.15975341,0.16964286,9.78012E-05
0.17302278,0.20535714,0.001045511
0.16609311,0.21875,0.002772748
0.17705703,0.13839286,0.001494918
0.18049824,0.20089286,0.000415941
0.22125423,0.22321429,3.84184E-06
0.21061391,0.17410714,0.001332744
0.20089968,0.12946429,0.005103015
0.18323938,0.12946429,0.00289176
0.17115782,0.20535714,0.001169593
0.1781912,0.17857143,1.44575E-07
0.19963158,0.16964286,0.000899323
0.23212095,0.41071429,0.031895581
0.36585793,0.33928571,0.000706083
0.24389878,0.20089286,0.001849509
0.17907255,0.18303571,1.57066E-05
0.15143162,0.19196429,0.001642897
0.17784912,0.14285714,0.001224439
0.11761287,0.16071429,0.001857732
0.16130289,0.13392857,0.000749353
0.17393134,0.25892857,0.007224529
0.3023067,0.23660714,0.004316432
0.22527841,0.37053571,0.021099683
0.27429668,0.20535714,0.00475266
0.16622466,0.125,0.001699473
0.18747712,0.06696429,0.014523342
0.13072078,0.14732143,0.000275582
0.16337634,0.09821429,0.004246093
0.15081114,0.16071429,9.80724E-05
0.19425509,0.16071429,0.001124985
0.1787417,0.12053571,0.003387937
0.15184212,0.23214286,0.006448209
0.22223637,0.17410714,0.002316423
0.20176456,0.19642857,2.84728E-05
0.19644858,0.14732143,0.002413477
0.20533456,0.20982143,2.0132E-05
0.25925987,0.26339286,1.70816E-05
0.26081226,0.31696429,0.00315305
0.26192947,0.26339286,2.14151E-06
0.21832229,0.29910714,0.006526192
0.2324101,0.26339286,0.000959931
0.21433673,0.16071429,0.002875366
0.16718273,0.09821429,0.004756646
0.14489369,0.11607143,0.000830723
0.19126885,0.04017857,0.022828273
0.13422855,0.15625,0.000484944
0.21579077,0.11607143,0.009943947
0.16104254,0.10714286,0.002905176
0.12876528,0.10714286,0.000467529
0.13439676,0.07142857,0.003964993
0.13929702,0.22321429,0.007042108
0.19214261,0.30803571,0.013431211
0.24490233,0.16071429,0.007087626
0.18236018,0.05357143,0.016586542
0.12598588,0.23660714,0.012237063
0.23763962,0.25,0.000152779
0.21941093,0.26785714,0.002347035
0.25347008,0.1875,0.004352051
0.2125042,0.15178571,0.003686735
0.19693279,0.19642857,2.54238E-07
0.25962477,0.41964286,0.025605789
0.33431194,0.33035714,1.56404E-05
0.27853447,0.26339286,0.000229268
0.21699423,0.17857143,0.001476312
0.18957801,0.17410714,0.000239348
0.16796352,0.16964286,2.82018E-06
0.15666053,0.13392857,0.000516742
0.14461115,0.11160714,0.001089265
0.11439708,0.23214286,0.013864069
0.19703684,0.37946429,0.033279775
0.29655807,0.25892857,0.001415979
0.20542818,0.08482143,0.014545988
0.12498847,0.06696429,0.003366805
0.13645707,0.04464286,0.008429849
0.13259626,0.04910714,0.006970433
0.13127926,0.09821429,0.001093292
0.13698677,0.14732143,0.000106805
0.15550675,0.28125,0.015811365
0.27637222,0.29464286,0.000333816
0.25437136,0.28125,0.000722461
0.25491934,0.28125,0.000693304
0.25559562,0.21875,0.0013576
0.21441724,0.20089286,0.000182909
0.21767228,0.20089286,0.000281549
0.22652114,0.25472221,0.0007953
0.25343253,0.28571429,0.001042112
0.25357468,0.22321429,0.000921753
0.20925811,0.15178571,0.003303077
0.17851736,0.20089286,0.000500663
0.19184289,0.20982143,0.000323228
0.17503401,0.14285714,0.001035351
0.15076185,0.08482143,0.004348139
0.19170337,0.08035714,0.012397983
0.18685043,0.33928571,0.023236515
0.27038054,0.11607143,0.023811301
0.10671957,0.09821429,7.23398E-05
0.10340024,0.27678571,0.030062521
0.19252962,0.10267857,0.008073211
0.11900523,0.19642857,0.005994374
0.18664087,0.06696429,0.014322484
0.08379412,0.11607143,0.001041825
0.19704215,0.12053571,0.005853235
0.19614513,0.11160714,0.007146672
0.18375614,0.20089286,0.000293667
0.24742618,0.25892857,0.000132305
0.22855935,0.27232143,0.00191512
0.2367466,0.25,0.000175653
0.21975948,0.18303571,0.001348635
0.18983892,0.38392857,0.037670792
0.3165391,0.29017857,0.000694878
0.22092603,0.26339286,0.001803432
0.21549968,0.25892857,0.001886068
0.24439279,0.24553571,1.30627E-06
0.23921845,0.14732143,0.008445062
0.13236512,0.20089286,0.004696051
0.17755889,0.17857143,1.02524E-06
0.19561896,0.21875,0.000535045
0.2520018,0.30357143,0.002659427
0.23716773,0.16517857,0.005182439
0.15777924,0.17857143,0.000432315
0.20637477,0.25892857,0.002761902
0.21348592,0.36160714,0.021939896
0.23750032,0.61607143,0.143316085
0.54647972,0.26339286,0.08013817
0.16965526,0.09375,0.005761608
0.13968458,0.20535714,0.004312885
0.19998898,0.22767857,0.000766713
0.1965168,0.17857143,0.000322036
0.24941274,0.22767857,0.000472374
0.25844707,0.20535714,0.002818541
0.2233454,0.24107143,0.000314212
0.25287513,0.23214286,0.000429827
0.2716501,0.45982143,0.035408449
0.34510578,0.41964286,0.005555776
0.27151957,0.21428571,0.003275715
0.21683712,0.19196429,0.000618658
0.20602531,0.24107143,0.001228231
0.23064352,0.23214286,2.24802E-06
0.22858676,0.21300237,0.000242873
0.20876722,0.12053571,0.007784799
0.18790264,0.125,0.003956742
0.19331997,0.38392857,0.036331638
0.28091293,0.20982143,0.005054001
0.19989266,0.06696429,0.017669952
0.18248535,0.0625,0.014396484
0.17755122,0.07142857,0.011262017
0.19394713,0.16964286,0.000590698
0.16896009,0.11607143,0.00279721
0.12204078,0.12053571,2.26524E-06
0.16726627,0.14285714,0.000595806
0.18700151,0.24107143,0.002923556
0.18563852,0.25892857,0.005371431
0.26180225,0.27678571,0.000224504
0.26643308,0.23214286,0.001175819
0.24376982,0.17410714,0.004852889
0.20071951,0.26785714,0.004507461
0.29386032,0.41071429,0.01365485
0.36716206,0.28571429,0.006633739
0.23005708,0.16964286,0.003649878
0.20182116,0.24107143,0.001540584
0.24395915,0.19196429,0.002703465
0.21443549,0.16071429,0.002885967
0.14501418,0.12946429,0.000241799
0.15970637,0.12946429,0.000914583
0.17863175,0.19642857,0.000316727
0.31357471,0.63839286,0.105506831
0.5061821,0.30803571,0.039261992
0.16226531,0.44196429,0.078231519
0.2485918,0.14732143,0.010255688
0.05715538,0.07142857,0.000203724
0.11546899,0.09821429,0.000297725
0.1324261,0.1875,0.003033134
0.18507867,0.14732143,0.001425609
0.19393022,0.16964286,0.000589876
0.22386925,0.21875,2.62067E-05
0.23460862,0.30803571,0.005391538
0.26764553,0.19642857,0.005071855
0.20843173,0.16517857,0.001870836
0.21289839,0.22767857,0.000218454
0.23127014,0.25446429,0.000537969
0.29187213,0.46428571,0.029726443
0.4092089,0.35267857,0.003195678
0.24651878,0.20535714,0.001694281
0.22768316,0.1875,0.001614686
0.19289631,0.13839286,0.002970626
0.15200492,0.14285714,8.36819E-05
0.10870609,0.14732143,0.001491144
0.18129903,0.14732143,0.001154477
0.19218886,0.25446429,0.003878229
0.33739344,0.67857143,0.116402421
0.61073503,0.32589286,0.081135062
0.28945274,0.25446429,0.001224192
0.16888311,0.33928571,0.029037046
0.13514032,0.21875,0.006990579
0.15254954,0.12053571,0.001024885
0.1985099,0.16517857,0.001110978
0.17913185,0.125,0.002930257
0.15152217,0.19642857,0.002016585
0.22080885,0.32142857,0.010124328
0.29892348,0.19196429,0.011440268
0.20273051,0.17410714,0.000819297
0.1950336,0.27678571,0.006683407
0.25608686,0.20982143,0.00214049
0.19839615,0.21428571,0.000252478
0.24934478,0.41071429,0.026040119
0.37412605,0.28125,0.008625961
0.20230593,0.14732143,0.003023295
0.16654776,0.15625,0.000106044
0.17869151,0.20089286,0.0004929
0.16118981,0.13839286,0.000519701
0.13153814,0.18303571,0.002652
0.20147722,0.15178571,0.002469246
0.21116018,0.15178571,0.003525328
0.25613562,0.35267857,0.009320541
0.2734483,0.61160714,0.114351401
0.49855764,0.57142857,0.005310172
0.4447211,0.41964286,0.000628918
0.16616928,0.36160714,0.038195957
0.22420948,0.09821429,0.015874788
0.13377048,0.11160714,0.000491214
0.15231347,0.13392857,0.000338005
0.15519022,0.16517857,9.97671E-05
0.21110186,0.16071429,0.002538907
0.19367037,0.29464286,0.010195444
0.23044678,0.24553571,0.000227676
0.25578978,0.11160714,0.020788634
0.18321178,0.10267857,0.006485598
0.17968151,0.28125,0.010316158
0.27042238,0.25892857,0.000132108
0.22682607,0.16071429,0.004370767
0.18675165,0.15625,0.000930351
0.18574909,0.1875,3.06569E-06
0.17694559,0.16517857,0.000138463
0.16192244,0.22767857,0.004323869
0.22848715,0.16517857,0.004007976
0.20480763,0.10267857,0.010430345
0.15663982,0.11160714,0.002027942
0.18819385,0.16071429,0.000755126
0.23427376,0.4375,0.041300905
0.40118392,0.45089286,0.002470979
0.36189177,0.125,0.056117711
0.15033091,0.16517857,0.000220453
0.17502076,0.16071429,0.000204675
0.15404407,0.20982143,0.003111114
0.16926827,0.0625,0.011399463
0.0882664,0.11160714,0.00054479
0.18094781,0.1875,4.29312E-05
0.24234466,0.20535714,0.001368077
0.20270057,0.1875,0.000231057
0.18225052,0.11160714,0.004990487
0.1440806,0.05357143,0.00819191
0.1390874,0.20089286,0.003819915
0.19754246,0.34821429,0.022702
0.25691276,0.23214286,0.000613548
0.23060954,0.125,0.011153375
0.15761357,0.25892857,0.010264729
0.21412536,0.16517857,0.002395788
0.17433846,0.09375,0.0064945
0.13460463,0.09375,0.001669101
0.13877057,0.14285714,1.67001E-05
0.14425406,0.19642857,0.002722179
0.24558034,0.11607143,0.016772558
0.20163462,0.16964286,0.001023473
0.21896991,0.20089286,0.00032678
0.17123888,0.11160714,0.003555944
0.14984556,0.69196429,0.293892717
0.76237985,0.22321429,0.290699501
0.04617843,0.12946429,0.006936534
0.15028574,0.19196429,0.001737102
0.20178896,0.22321429,0.000459045
0.21057348,0.20535714,2.72102E-05
0.23100395,0.27678571,0.00209597
0.24270796,0.24553571,7.99617E-06
0.19695119,0.20089286,1.55368E-05
0.27577048,0.24107143,0.001204024
0.26973174,0.25446429,0.000233095
0.25957803,0.36160714,0.010409939
0.27768043,0.36160714,0.007043693
0.21785844,0.46875,0.062946575
0.38803725,0.26339286,0.015536224
0.2539888,0.21428571,0.001576335
0.17940437,0.17410714,2.80606E-05
0.18661581,0.14732143,0.001544048
0.1830042,0.14285714,0.001611786
0.17385999,0.22321429,0.002435847
0.21155373,0.45982143,0.061636851
0.44363782,0.52678571,0.006913572
0.41328253,0.28125,0.017432589
0.25812478,0.19196429,0.00437721
0.23604611,0.14732143,0.007872069
0.19056648,0.09375,0.009373431
0.08543591,0.07142857,0.000196206
0.142216,0.11607143,0.000683539
0.13645342,0.18303571,0.00216991
0.14950307,0.28571429,0.018553496
0.25916918,0.25,8.40739E-05
0.26083606,0.25,0.00011742
0.23447187,0.22321429,0.000126733
0.23923938,0.14732143,0.00844891
0.19957157,0.22321429,0.000558978
0.25249648,0.40625,0.023640145
0.37335678,0.41517857,0.001749062
0.40839687,0.19196429,0.046843062
0.20465464,0.26339286,0.003450178
0.23197606,0.37053571,0.019198777
0.26601691,0.35714286,0.008303939
0.24715553,0.39732143,0.022549798
0.31509894,0.20982143,0.011083354
0.24101087,0.08928571,0.023020524
0.28289794,0.27678571,3.73594E-05
0.30116107,0.31696429,0.000249742
0.24276727,0.50892857,0.070841838
0.41607546,0.51785714,0.01035951
0.25527815,0.24107143,0.000201831
0.17263145,0.16517857,5.55454E-05
0.16836062,0.19642857,0.00078781
0.20200489,0.22321429,0.000449839
0.20613221,0.23660714,0.000928721
0.25417361,0.17410714,0.00641064
0.22976864,0.125,0.010976468
0.17826983,0.19642857,0.00032974
0.21199698,0.15625,0.003107726
0.17690329,0.16071429,0.000262084
0.19556645,0.20089286,2.83706E-05
0.2217179,0.34375,0.014891833
0.28891892,0.32142857,0.001056877
0.25188779,0.20982143,0.001769579
0.27384189,0.16964286,0.010857438
0.19889677,0.17410714,0.000614526
0.20513842,0.15625,0.002390078
0.20134819,0.13392857,0.004545405
0.16896992,0.09375,0.005658036
0.11605211,0.03571429,0.006454165
0.13419509,0.13392857,7.10329E-08
0.19298874,0.21428571,0.000453561
0.24671599,0.08035714,0.027675267
0.11842398,0.04464286,0.005443654
0.14845922,0.08035714,0.004637893
0.13384253,0.12053571,0.000177071
0.17968322,0.13392857,0.002093488
0.15962935,0.18303571,0.000547858
0.18525792,0.21428571,0.000842613
0.1945325,0.16964286,0.000619494
0.17903374,0.26339286,0.007116461
0.2443725,0.23660714,6.03008E-05
0.21546946,0.13839286,0.005940802
0.17335878,0.13839286,0.001222616
0.19800934,0.17857143,0.000377832
0.22324141,0.30357143,0.006452912
0.28262993,0.43303571,0.022621899
0.33690319,0.40625,0.00480898
0.26864571,0.49553571,0.051479072
0.31978811,0.37053571,0.002575319
0.2601224,0.16517857,0.009014331
0.14702167,0.13392857,0.000171429
0.11857537,0.15625,0.001419378
0.15701121,0.28125,0.015435277
0.30594866,0.41071429,0.010975837
0.37114794,0.19642857,0.030526858
0.15731629,0.13839286,0.000358096
0.10748779,0.23660714,0.016671807
0.19148028,0.27678571,0.007277016
0.19911432,0.49553571,0.08786564
0.45631998,0.36160714,0.008970522
0.27991726,0.11160714,0.028328296
0.17034772,0.09821429,0.005203232
0.17440475,0.14732143,0.000733506
0.18884962,0.14732143,0.001724591
0.16481692,0.23214286,0.004532782
0.22640144,0.23660714,0.000104156
0.22938706,0.14285714,0.007487427
0.17457569,0.18303571,7.15719E-05
0.23231231,0.28571429,0.002851771
0.29535454,0.25,0.002057034
0.24937092,0.19642857,0.002802892
0.20920091,0.15625,0.002803799
0.2150278,0.13839286,0.005872914
0.15209354,0.14732143,2.2773E-05
0.14991288,0.11160714,0.00146733
0.15161683,0.08035714,0.005077943
0.15460943,0.21428571,0.003561258
0.24072095,0.33482143,0.0088549
0.24610613,0.37946429,0.017784399
0.31792285,0.66071429,0.117505971
0.66217318,0.49107143,0.029275809
0.32600003,0.45089286,0.015598219
0.33759833,0.25446429,0.006911269
0.20492126,0.13392857,0.005039962
0.13911036,0.14732143,6.74217E-05
0.15078167,0.125,0.000664695
0.16620809,0.11607143,0.002513685
0.13872974,0.20535714,0.00443921
0.21266876,0.14285714,0.004873662
0.18688814,0.20535714,0.000341104
0.17283852,0.15625,0.000275179
0.18362005,0.19642857,0.000164058
0.22200346,0.23851389,0.000272594
0.21956651,0.37053571,0.022791699
0.26241079,0.26785714,2.96627E-05
0.2435039,0.22321429,0.000411668
0.15912213,0.1875,0.000805304
0.19601019,0.11607143,0.006390205
0.12975479,0.07142857,0.003401948
0.11734545,0.07142857,0.00210836
0.13660421,0.1875,0.002590381
0.21748413,0.32589286,0.011752453
0.30304793,0.46875,0.027457176
0.51070415,0.54017857,0.000868741
0.40452888,0.17857143,0.051056769
0.1749941,0.21428571,0.001543831
0.20366859,0.15178571,0.002691833
0.14850181,0.11160714,0.001361217
0.13057684,0.14732143,0.000280381
0.16397493,0.21428571,0.002531175
0.18463873,0.16517857,0.000378698
0.18229811,0.19642857,0.00019967
0.19475834,0.24107143,0.002144902
0.23317056,0.29464286,0.003778844
0.23553326,0.17410714,0.003773168
0.19239801,0.26785714,0.00569408
0.25911246,0.32142857,0.003883298
0.33064624,0.28571429,0.00201888
0.25151524,0.15625,0.009075466
0.18833943,0.15178571,0.001336174
0.14125877,0.12053571,0.000429445
0.14448901,0.26785714,0.015219695
0.18135572,0.1875,3.77522E-05
0.18143281,0.10267857,0.00620223
0.1715821,0.24107143,0.004828767
0.31180103,0.30357143,6.77263E-05
0.29120265,0.51339286,0.049368489
0.50987439,0.27678571,0.054330333
0.19505736,0.20089286,3.40531E-05
0.18598203,0.19196429,3.57874E-05
0.19830868,0.32589286,0.016277723
0.2181045,0.38392857,0.027497622
0.34375298,0.30357143,0.001614557
0.27800625,0.08928571,0.035615442
0.15783142,0.25892857,0.010220634
0.21525989,0.17410714,0.001693549
0.20094927,0.10267857,0.00965713
0.18465789,0.00892857,0.030880794
0.08192394,0.09821429,0.000265376
0.19857196,0.19642857,4.59412E-06
0.2249951,0.33928571,0.013062344
0.28478826,0.20089286,0.007038438
0.21578393,0.17410714,0.001736955
0.14094082,0.16517857,0.000587469
0.18910712,0.20982143,0.000429083
0.20805066,0.17857143,0.000869025
0.18132121,0.125,0.003172079
0.1696481,0.07589286,0.008790045
0.16623022,0.125,0.001699931
0.21736136,0.26785714,0.002549824
0.3021013,0.46875,0.027771789
0.35962018,0.32589286,0.001137532
0.29317472,0.16964286,0.01526012
0.21564093,0.17857143,0.001374148
0.24851927,0.125,0.01525701
0.18903992,0.19196429,8.55194E-06
0.19898419,0.11160714,0.007634749
0.13531745,0.30357143,0.028309402
0.24480894,0.22767857,0.00029345
0.22819958,0.18303571,0.002039775
0.14847543,0.15178571,1.0958E-05
0.12479247,0.11607143,7.60565E-05
0.15678791,0.13392857,0.000522549
0.1961326,0.26339286,0.004523943
0.25770365,0.22767857,0.000901505
0.22422576,0.30803571,0.007024108
0.2831546,0.32589286,0.001826559
0.2581004,0.21875,0.001548454
0.18341717,0.18303571,1.45512E-07
0.16822001,0.25,0.006687967
0.21136818,0.16517857,0.00213348
0.13445622,0.15178571,0.000300311
0.21190199,0.08928571,0.015034752
0.19346677,0.25446429,0.003720697
0.29827496,0.35267857,0.002959753
0.30025309,0.21428571,0.00739039
0.19863556,0.26339286,0.004193508
0.22416775,0.27232143,0.002318777
0.23454677,0.15625,0.006130384
0.16045229,0.17857143,0.000328303
0.18685975,0.09821429,0.007858018
0.11164096,0.09375,0.000320086
0.16560509,0.19196429,0.000694807
0.18778716,0.10267857,0.007243472
0.15684264,0.22767857,0.005017729
0.2123696,0.22321429,0.000117607
0.21573453,0.11607143,0.009932734
0.18930803,0.30357143,0.013056125
0.29344639,0.35267857,0.003508451
0.30237561,0.22767857,0.005579648
0.24339262,0.20535714,0.001446698
0.20262283,0.17410714,0.000813145
0.20061059,0.15625,0.001967862
0.18188802,0.16071429,0.000448327
0.17121913,0.14732143,0.0005711
0.1641751,0.125,0.001534688
0.14584695,0.20535714,0.003541463
0.24881605,0.17410714,0.005581421
0.21461466,0.05357143,0.025934922
0.13482726,0.125,9.6575E-05
0.19399391,0.60267857,0.167023151
0.51555988,0.44642857,0.004779138
0.23912027,0.36607143,0.016116597
0.24073991,0.19196429,0.002379061
0.1447767,0.30803571,0.026653504
0.21499687,0.12946429,0.007315822
0.13544637,0.12946429,3.57853E-05
0.16831766,0.19196429,0.000559163
0.25585335,0.21428571,0.001727869
0.21557842,0.16964286,0.002110076
0.16183168,0.18303571,0.000449611
0.23141649,0.29017857,0.003452982
0.27062342,0.37053571,0.009982466
0.2425653,0.625,0.1462563
0.46172079,0.6875,0.050976252
0.50649081,0.28125,0.050733422
0.19178857,0.1875,1.83918E-05
0.22595057,0.16964286,0.003170558
0.16099538,0.12946429,0.00099421
0.13561135,0.07589286,0.003566298
0.15264391,0.23660714,0.007049824
0.21242276,0.49107143,0.077645081
0.34679018,0.45982143,0.012776063
0.51879378,0.48214286,0.00134329
0.53896427,0.29910714,0.057531443
0.26632546,0.19196429,0.005529584
0.17939171,0.04910714,0.016974069
0.14947327,0.05357143,0.009197163
0.0766366,0.08035714,1.38424E-05
0.11134395,0.11160714,6.9269E-08
0.11091695,0.08482143,0.000680976
0.15362585,0.07589286,0.006042418
0.16494377,0.15625,7.55816E-05
0.16678118,0.15625,0.000110906
0.18030887,0.15625,0.000578829
0.20582171,0.19642857,8.82311E-05
0.25924183,0.22767857,0.000996239
0.25651235,0.18303571,0.005398817
0.11094478,0.20982143,0.009776592
0.20754699,0.21875,0.000125507
0.16641945,0.16071429,3.25489E-05
0.16297641,0.21428571,0.002632644
0.17794907,0.25,0.005191337
0.14352779,0.09375,0.002477828
0.16357952,0.45982143,0.087759269
0.53327698,0.34375,0.035920476
0.29667904,0.58928571,0.085618663
0.46941359,0.53571429,0.004395783
0.39220454,0.41964286,0.000752861
0.19953686,0.33035714,0.017113946
0.29280381,0.19642857,0.009288187
0.16966046,0.18303571,0.000178897
0.19026839,0.11160714,0.006187592
0.11647542,0.13839286,0.000480374
0.14384019,0.20535714,0.003784335
0.17854508,0.0625,0.013466461
0.1237973,0.13392857,0.000102643
0.18333712,0.18303571,9.0848E-08
0.16179042,0.17857143,0.000281602
0.18774014,0.16538434,0.000499782
0.21793999,0.21253845,2.91766E-05
0.21613061,0.21576849,1.31131E-07
0.25189147,0.2393572,0.000157108
0.21801279,0.18303571,0.001223396
0.1915397,0.16071429,0.000950206
0.19714591,0.13839286,0.003451921
0.18000374,0.11160714,0.004678095
0.1116881,0.14732143,0.001269734
0.23540565,0.07589286,0.02544433
0.17491297,0.20535714,0.000926847
0.26827043,0.22321429,0.002030056
0.25509009,0.14285714,0.012596235
0.2109176,0.20982143,1.20159E-06
0.22031037,0.20535714,0.000223599
0.19991041,0.26785714,0.004616758
0.20753513,0.16071429,0.002192191
0.16278954,0.15625,4.27656E-05
0.17636148,0.20089286,0.000601789
0.19156091,0.31696429,0.015726008
0.22021428,0.19196429,0.000798062
0.19097316,0.25446429,0.004031124
0.24075834,0.23214286,7.42265E-05
0.21140467,0.25446429,0.001854131
0.19884251,0.15178571,0.002214342
0.18559521,0.25892857,0.005377782
0.24647781,0.22321429,0.000541191
0.21190483,0.16071429,0.002620471
0.18171337,0.23660714,0.003013326
0.20934414,0.27232143,0.003966139
0.21825563,0.13392857,0.007111053
0.14467292,0.27232143,0.016294142
0.21715392,0.35714286,0.019596903
0.2512275,0.26785714,0.000276545
0.23194351,0.14732143,0.007160896
0.20101881,0.20089286,1.58634E-08
0.19765463,0.41517857,0.047316664
0.35203631,0.14285714,0.043755925
0.16937861,0.09821429,0.00506436
0.18800428,0.24553571,0.003309865
0.21957655,0.29464286,0.005634951
0.22692632,0.30803571,0.006578733
0.28958481,0.28125,6.94691E-05
0.27006988,0.18303571,0.007574947
0.20158236,0.39285714,0.036586041
0.33927894,0.13392857,0.042168774
0.18515508,0.20535714,0.000408123
0.22216994,0.38839286,0.027630059
0.3902549,0.33482143,0.00307287
0.25853892,0.39732143,0.019260585
0.33656133,0.62053571,0.080641448
0.45767748,0.27678571,0.032721832
0.25417679,0.20982143,0.001967398
0.20936087,0.17857143,0.00094799
0.19716737,0.13839286,0.003454443
0.17680898,0.52232143,0.119378853
0.82648694,0.53571429,0.084548734
0.38033526,0.67410714,0.086301917
0.53377865,0.76339286,0.052722685
0.87132012,0.84375,0.000760112
0.59826657,0.61160714,0.000177971
0.36687225,0.33928571,0.000761017
0.23528373,0.09821429,0.018788031
0.19421387,0.22767857,0.001119886
0.29033769,0.39285714,0.010510238
0.37152155,0.31696429,0.002976495
0.33626704,0.37946429,0.001866002
0.36668487,0.24553571,0.014677119
0.25592164,0.21875,0.001381731
0.13500426,0.21875,0.007013349
0.2238911,0.20089286,0.000528919
0.26463146,0.23660714,0.000785363
0.28437278,0.26339286,0.000440157
0.29242248,0.50446429,0.044961729
0.56603922,0.52232143,0.001911245
0.46249964,0.35267857,0.012060667
0.34402019,0.33482143,8.46172E-05
0.33811881,0.25446429,0.006998079
0.21258163,0.21428571,2.90389E-06
0.2596969,0.38839286,0.01656265
0.40928349,0.24107143,0.028295297
0.29847664,0.34821429,0.002473834
0.42193206,0.28571429,0.018555281
0.22544133,0.07589286,0.022364745
0.19234588,0.09821429,0.008860756
0.12800868,0.07589286,0.002716059
0.11642214,0.17410714,0.003327559
0.16287423,0.08928571,0.00541527
0.15873609,0.0625,0.009261385
0.16376338,0.13392857,0.000890116
0.19299221,0.26339286,0.004956252
0.2395799,0.24107143,2.22466E-06
0.23228118,0.24107143,7.72685E-05
0.22607412,0.24107143,0.000224919
,,
,,0.009511684