Dato Original,Pronostico Sin Reconstruccion,Pronostico Reconstruccion
0.26446281,0.21716148,0.22251737
0.1446281,0.01629047,0.37638453
0.17768595,0.02520972,0.2894127
0.10330579,0.08299604,0.21182333
0.11983471,0.08691054,0.06240519
0.0785124,0.10261268,0.14937142
0.13636364,0.17564709,0.16497777
0.08264463,0.13743644,0.15241693
0.18595041,0.09565735,0.1498796
0.08264463,0.27859756,0.15912565
0.08264463,0.19977222,0.15050394
0.18595041,0.21309971,0.10431903
0.21487603,0.27753234,0.12596045
0.28512397,0.22862498,0.13917131
0.62809917,0.40320384,0.26973001
0.69421488,0.72700837,0.27371958
0.90495868,0.72405669,0.51265087
0.88016529,0.78955069,0.72856092
0.81404959,0.78001114,0.80503387
0.62809917,0.7131041,0.8177885
0.54132231,0.49462551,0.70413155
0.35950413,0.4341443,0.55031403
0.47520661,0.27439494,0.43545327
0.41735537,0.3049398,0.31528006
0.3677686,0.25922164,0.23797088
0.17355372,0.14460839,0.2448504
0.21900826,0.09729029,0.19877643
0.28512397,0.12433599,0.12581861
0.19834711,0.10874786,0.1604921
0.11570248,0.12528169,0.11305044
0.19421488,0.14623287,0.14096842
0.24380165,0.1647344,0.10984734
0.22727273,0.26102532,0.14788384
0.12809917,0.2871739,0.10986653
0.1446281,0.17047658,0.18046794
0.18595041,0.19742741,0.09479347
0.19008264,0.22903384,0.13456501
0.2107438,0.23348095,0.25252689
0.26446281,0.36619872,0.27672565
0.30165289,0.5298185,0.38843563
0.54958678,0.4763312,0.70695169
0.69834711,0.67362293,0.73372867
0.59504132,0.63853286,0.83982648
0.71487603,0.55526903,0.76774873
0.5661157,0.71417355,0.69174838
0.35950413,0.50117332,0.45139452
0.18181818,0.28821995,0.39243854
0.11570248,0.27436808,0.27734128
0.15702479,0.1499073,0.35840475
0.11157025,0.10453992,0.27063019
0.12809917,0.12910527,0.25787602
0.07438017,0.10974817,0.13625139
0.06198347,0.09709646,0.20680795
0.03719008,0.13443356,0.22103483
0.18181818,0.19016985,0.17410786
0.0661157,0.20628857,0.13288318
0.06198347,0.13846755,0.18432852
0.06198347,0.13205344,0.19236211
0.16528926,0.1169467,0.18253494
0.2107438,0.21543925,0.12221327
0.16942149,0.3327167,0.15880749
0.12396694,0.29441615,0.18878312
0.04958678,0.26995281,0.18255964
0.11983471,0.24453961,0.23125159
0.25619835,0.15130484,0.26544889
0.31818182,0.22261126,0.31883405
0.30578512,0.25533476,0.57548824
0.39256198,0.2780927,0.69200393
0.40909091,0.44235436,0.5410142
0.40082645,0.40196352,0.63746907
0.45041322,0.34513798,0.42827548
0.24793388,0.39521998,0.29212248
0.09917355,0.13309239,0.21761876
0.04545455,0.05762255,0.16429279
0.08264463,0.12507811,0.16251956
0.04545455,0.13143097,0.12910103
0.18595041,0.13330231,0.10256651
0.09917355,0.23922716,0.10226102
0.11157025,0.0855658,0.10520799
0.10330579,0.11659146,0.08186059
0.03719008,0.09218633,0.17327066
0.02479339,0.02541369,0.20360068
0.16528926,0.095139,0.21206805
0.23140496,0.20660661,0.16898781
0.19421488,0.18758064,0.12952861
0.21487603,0.15544739,0.19497151
0.18181818,0.18313395,0.20132759
0.11983471,0.12512633,0.30959228
0.20661157,0.17230993,0.30144076
0.24793388,0.30299097,0.2924454
0.24793388,0.31511305,0.3031217
0.22727273,0.33696075,0.54404655
0.3677686,0.27733521,0.29075706
0.43801653,0.41960195,0.24269738
0.38429752,0.39942922,0.27755598
0.34710744,0.30678687,0.14083244
0.17768595,0.23629081,0.13227306
0.09090909,0.14357463,0.11443837
0.17768595,0.12923113,0.12894944
0.40909091,0.19961396,0.25579526
0.41322314,0.31861984,0.20062373
0.19008264,0.28754486,0.19691666
0.19008264,0.15126236,0.24585604
0.04132231,0.13818193,0.22834012
0.04132231,0.11275881,0.18007563
0.08264463,0.1194605,0.2812238
0.19834711,0.15576534,0.51018653
0.21900826,0.23854034,0.55701394
0.16115702,0.22985122,0.72883934
0.08264463,0.20059306,0.64735866
0.08264463,0.08772215,0.47697935
0.16942149,0.14447724,0.36725844
0.23140496,0.24004889,0.32864401
0.22727273,0.32643104,0.27111179
0.2892562,0.29863918,0.24371019
0.31404959,0.40162622,0.20355818
0.3553719,0.36679391,0.46138786
0.40909091,0.36768925,0.2680013
0.38429752,0.39545948,0.20234082
0.37603306,0.32064597,0.22061867
0.2892562,0.30482818,0.24348225
0.12809917,0.21999677,0.26958077
0.17768595,0.15863014,0.15201396
0.1446281,0.23296345,0.10760881
0.09504132,0.20507316,0.1673257
0.08264463,0.1529431,0.09201242
0.12809917,0.07151373,0.07968098
0.11570248,0.08336216,0.10361519
0.10743802,0.11777179,0.19057834
0.23140496,0.1503123,0.19732134
0.19834711,0.23489154,0.16416353
0.16115702,0.23695542,0.17892248
0.20247934,0.19692003,0.12044044
0.11983471,0.1567092,0.20397315
0.18181818,0.09176627,0.32488417
0.17355372,0.19666481,0.3746412
0.19834711,0.19995858,0.36464582
0.20247934,0.22476273,0.44114277
0.30578512,0.27399341,0.44749314
0.2768595,0.34188862,0.39528161
0.37603306,0.27151925,0.43403075
0.45867769,0.43726641,0.22250643
0.35950413,0.48601252,0.14796224
0.40082645,0.37982042,0.12384596
0.4214876,0.37748643,0.12753402
0.57024793,0.34644832,0.09207013
0.6322314,0.41091558,0.1802784
0.48760331,0.4674451,0.08963597
0.70247934,0.29419614,0.13768324
0.61983471,0.52286473,0.12794367
0.51239669,0.39126954,0.10071437
0.21487603,0.27357711,0.09832694
0.12396694,0.20311103,0.2151511
0.10743802,0.17276407,0.30412099
0.04132231,0.14773485,0.23352878
0.04132231,0.11014594,0.29914343
0.05785124,0.07896966,0.25765364
0.12809917,0.08622036,0.19165168
0.23553719,0.09343507,0.28062875
0.28512397,0.23288153,0.30600436
0.23140496,0.23959031,0.27574331
0.31404959,0.30141456,0.24670087
0.28099174,0.46995285,0.39727802
0.24380165,0.34869394,0.43949923
0.23140496,0.30772434,0.35737936
0.26033058,0.32002621,0.3360962
0.32644628,0.30869156,0.17527792
0.25206612,0.29027951,0.15381082
0.41735537,0.274742,0.19147081
0.52892562,0.43355503,0.36598234
0.55785124,0.52564852,0.3434437
0.52066116,0.58196575,0.15804882
0.75619835,0.455134,0.18033889
0.33057851,0.69465513,0.1159873
0.53719008,0.19321221,0.13125673
0.40495868,0.3091568,0.1165496
0.60743802,0.25071008,0.20158138
0.45454545,0.28686346,0.20075943
0.23553719,0.29305828,0.15685034
0.0785124,0.2055935,0.12094878
0.10330579,0.13280544,0.14875707
0.09090909,0.13663715,0.22429579
0.19008264,0.125605,0.28603571
0.15702479,0.16194206,0.25513344
0.18181818,0.13478674,0.31589828
0.24793388,0.15802263,0.32396289
0.19834711,0.26279896,0.38838787
0.29752066,0.18867154,0.45171353
0.35950413,0.29897569,0.3853403
0.42975207,0.46154812,0.36153446
0.49586777,0.47218837,0.24646695
0.65289256,0.57729059,0.15388591
0.55371901,0.65966371,0.19538225
0.32644628,0.59249864,0.14893074
0.26446281,0.34649465,0.11340101
0.39256198,0.28222565,0.10571969
0.42561983,0.31444781,0.13602421
0.2892562,0.30925235,0.12976633
0.08677686,0.20933656,0.13082515
0.20247934,0.18444886,0.25681554
0.10330579,0.15246739,0.19871893
0.03719008,0.14743209,0.1878721
0.08677686,0.14842987,0.2339833
0.18181818,0.12948599,0.15697916
0.21487603,0.17575359,0.23829101
0.26859504,0.23473003,0.20700418
0.33884298,0.38370743,0.26826126
0.33884298,0.46222711,0.23409292
0.38429752,0.42336552,0.33295595
0.41735537,0.44405513,0.30347408
0.39669421,0.44479862,0.38041127
0.54545455,0.41166161,0.46755935
0.4214876,0.4595333,0.32317873
0.38842975,0.34881769,0.36657248
0.50826446,0.37101145,0.35548707
0.47520661,0.43021375,0.50232813
0.29752066,0.3677025,0.50072417
0.32231405,0.23701884,0.3665839
0.18595041,0.25553344,0.56802067
0.17355372,0.13499549,0.40715176
0.08677686,0.14601875,0.35657432
0.09917355,0.14519951,0.20475652
0.08677686,0.15745361,0.17487471
0.10330579,0.14320398,0.15073181
0.16115702,0.14437484,0.08062296
0.14876033,0.12935911,0.06181941
0.2107438,0.14077432,0.1037512
0.11157025,0.19798358,0.11154363
0.17355372,0.1634055,0.18285014
0.29338843,0.26219495,0.22865716
0.36363636,0.33119506,0.21690823
0.3553719,0.38226864,0.30202548
0.34297521,0.43925282,0.26200952
0.25619835,0.37833672,0.26118944
0.13636364,0.28098351,0.23609213
0.35123967,0.2217838,0.29752946
0.45867769,0.40678247,0.34904878
0.21487603,0.40808043,0.24018706
0.23966942,0.24122867,0.44020171
0.20661157,0.27055313,0.46795432
0.1322314,0.1813612,0.48898477
0.12809917,0.12511791,0.42346133
0.17355372,0.17502465,0.62429231
0.16528926,0.14332589,0.23550332
0.10743802,0.11649503,0.42641511
0.14049587,0.15652502,0.26073604
0.18595041,0.13026338,0.45844179
0.18595041,0.18700466,0.28532417
0.18181818,0.19275867,0.20405106
0.17355372,0.16843827,0.10597093
0.24380165,0.13815903,0.14475895
0.34710744,0.20132122,0.09780567
0.18595041,0.27752763,0.17348205
0.25206612,0.19149451,0.11710914
0.23553719,0.31226025,0.15755945
0.25619835,0.2509681,0.19496217
0.28099174,0.30123966,0.164467
0.32644628,0.2734399,0.30495698
0.21487603,0.30499639,0.31200171
0.21487603,0.24107431,0.47656115
0.17768595,0.30132023,0.4326365
0.30991736,0.21463898,0.62417847
0.38842975,0.28439012,0.48186463
0.14049587,0.33213269,0.27166841
0.35950413,0.11773279,0.23366928
0.11157025,0.28910923,0.31578376
0.04545455,0.1339988,0.30381808
0.22727273,0.13353401,0.21456569
0.23553719,0.24318415,0.10795134
0.09090909,0.2214284,0.19976938
0.20247934,0.08829312,0.18514359
0.09504132,0.23782737,0.17198423
0.04132231,0.09417938,0.12138671
0.1322314,0.1438581,0.13047184
0.38429752,0.21189749,0.11383258
0.51652893,0.37097474,0.10813242
0.4338843,0.4755938,0.13783108
0.45041322,0.39380778,0.12034833
0.44628099,0.47952203,0.14177504
0.69834711,0.44245056,0.11534982
0.54958678,0.55447764,0.16869176
0.38016529,0.46085494,0.17084546
0.3677686,0.34954305,0.19488322
0.37190083,0.30141311,0.17184735
0.2892562,0.27324259,0.24700231
0.16115702,0.21925668,0.34126481
0.20661157,0.19046659,0.37517548
0.12396694,0.18698249,0.41575041
0.26446281,0.13365613,0.525598
0.18595041,0.22804424,0.46662425
0.09504132,0.10567128,0.23745736
0.12809917,0.12509385,0.29498712
0.14049587,0.1910505,0.25910381
0.08264463,0.18542381,0.31880768
0.12809917,0.07652495,0.25027806
0.14876033,0.17597223,0.2116185
0.17355372,0.11699403,0.31415862
0.13636364,0.1980271,0.20506031
0.11157025,0.2071816,0.09419943
0.2231405,0.20122911,0.15190148
0.13636364,0.38355962,0.15511369
0.26859504,0.16080692,0.13135475
0.2768595,0.29107426,0.15076032
0.30991736,0.35843476,0.1139402
0.38842975,0.35626876,0.10547811
0.37190083,0.36907222,0.12160257
0.48760331,0.35939137,0.24012185
0.4338843,0.45259914,0.23899042
0.23966942,0.31721326,0.30333931
0.26446281,0.1750301,0.40144952
0.23553719,0.19230609,0.35856848
0.20661157,0.17529641,0.41240058
0.17355372,0.17281712,0.43996798
0.11570248,0.17362278,0.40692522
0.02892562,0.08442283,0.5295259
0.08264463,0.10302751,0.33561597
0.11983471,0.1388027,0.32608408
0.12809917,0.16731329,0.40030558
0.18595041,0.14766882,0.35079312
0.1322314,0.18522084,0.22546947
0.15702479,0.14372667,0.25937105
0.16528926,0.14491639,0.16721491
0.19834711,0.19226808,0.19879623
0.2231405,0.20126184,0.11846666
0.12396694,0.28299993,0.11834338
0.1446281,0.1614039,0.11575951
0.34297521,0.20450769,0.12213391
0.37190083,0.42877298,0.14597817
0.39256198,0.36572184,0.14412717
0.28099174,0.43521339,0.2244783
0.39669421,0.3214593,0.12598015
0.3677686,0.44121083,0.21510298
0.2107438,0.32241446,0.3210003
0.18595041,0.16952978,0.39188007
0.09504132,0.19496312,0.40580576
0.11570248,0.14268901,0.36850919
0.18181818,0.13087263,0.26586727
0.2231405,0.17849017,0.17131585
0.20247934,0.16459752,0.35804139
0.21900826,0.17692362,0.42947102
0.1446281,0.19478407,0.18141168
0.16115702,0.15057018,0.22415068
0.14876033,0.19216013,0.18356705
0.1446281,0.16894239,0.15840495
0.16942149,0.15602175,0.16016743
0.09504132,0.16247842,0.1657056
0.11157025,0.11726706,0.16014598
0.17355372,0.14062896,0.14049664
0.19008264,0.19732725,0.15146023
0.19421488,0.23183811,0.19104061
0.25619835,0.25110835,0.19990333
0.32231405,0.40458382,0.21338275
0.26859504,0.37478335,0.19195353
0.33884298,0.32238584,0.26650204
0.34710744,0.3611708,0.34996371
0.32231405,0.32798243,0.18970071
0.3677686,0.266462,0.31008077
0.19008264,0.25150355,0.23396774
0.25619835,0.14836324,0.27079204
0.42975207,0.2244224,0.27002144
0.23553719,0.34282662,0.31369556
0.27272727,0.2041946,0.20637713
0.2231405,0.25006714,0.21030997
0.2231405,0.19288054,0.173693
0.16528926,0.17502961,0.28996911
0.0785124,0.1700986,0.33293426
0.18181818,0.11621441,0.13125736
0.19834711,0.17132859,0.35205514
0.18181818,0.19370969,0.12100347
0.11570248,0.17171642,0.12880274
0.09917355,0.14267073,0.21001589
0.11983471,0.13935944,0.22135022
0.24793388,0.17466973,0.110391
0.23553719,0.30162515,0.20093399
0.26446281,0.26156077,0.11517156
0.28099174,0.31645335,0.1325625
0.28512397,0.33480712,0.16044198
0.37603306,0.27728428,0.50510634
0.17768595,0.35425398,0.51543637
0.77272727,0.20843721,0.4075965
0.47520661,0.71164374,0.49487693
0.24793388,0.37168588,0.38430495
0.2231405,0.21728148,0.66669027
0.28512397,0.25364959,0.43511549
0.30991736,0.28534205,0.31369915
0.19834711,0.22504903,0.29465507
0.1322314,0.20420788,0.29277308
0.0785124,0.07152296,0.21142419
0.09917355,0.12794205,0.17645203
0.12396694,0.16312699,0.17448356
0.11983471,0.16317582,0.13667278
0.15289256,0.19435852,0.20753425
0.15289256,0.15011303,0.14483445
0.12396694,0.16750751,0.14258088
0.10330579,0.0710826,0.13958563
0.08264463,0.1581648,0.13920783
0.12809917,0.14541293,0.09710785
0.17355372,0.16425311,0.16557156
0.2107438,0.24011033,0.17168193
0.25619835,0.19682424,0.20645524
0.2231405,0.31409867,0.1653733
0.37190083,0.19992604,0.17298273
0.44214876,0.46715344,0.28126684
0.35123967,0.43736736,0.16920947
0.39256198,0.43677079,0.36432303
0.28512397,0.36209266,0.28717995
0.2892562,0.20266427,0.35949731
0.08677686,0.26351665,0.40461745
0.27272727,0.15124764,0.3702166
0.26033058,0.23456054,0.52520441
0.1446281,0.19814448,0.36083349
0.05371901,0.13832607,0.21700711
0.12396694,0.07416955,0.24728467
0.18595041,0.17915346,0.21083819
0.13636364,0.14433642,0.19015812
0.16942149,0.18047089,0.16501543
0.12396694,0.16226532,0.11507145
0.0661157,0.12211207,0.09452799
0.09917355,0.09741465,0.12412774
0.10743802,0.12605608,0.12848608
0.14876033,0.13242031,0.14201689
0.17355372,0.18360296,0.18971005
0.28099174,0.25755036,0.14904115
0.34297521,0.32024796,0.18394058
0.33057851,0.36512257,0.19762446
0.38016529,0.38401279,0.25620056
0.3677686,0.46448559,0.27751801
0.74380165,0.43444858,0.17252177
0.45867769,0.64734968,0.20769057
0.2107438,0.39846549,0.38301225
0.24793388,0.1647625,0.40816225
0.46694215,0.25900672,0.43383185
0.37190083,0.327611,0.27313713
0.23140496,0.26885835,0.41104983
0.18595041,0.1991245,0.30693896
0.11983471,0.12475886,0.19888437
0.10330579,0.1560886,0.19407212
0.09090909,0.16925165,0.13713833
0.0661157,0.16235211,0.13916951
0.13636364,0.12177532,0.16644422
0.12396694,0.13753868,0.20027643
0.06198347,0.13187195,0.1887986
0.09917355,0.0747385,0.19709678
0.14876033,0.15266168,0.14414938
0.20247934,0.19141802,0.18737058
0.27272727,0.27324771,0.16583268
0.32644628,0.30662096,0.17640063
0.47520661,0.3781999,0.18316704
0.54545455,0.61174897,0.1311414
0.55371901,0.50688476,0.16091837
0.49586777,0.53090481,0.20420478
0.52892562,0.53522848,0.24340697
0.54545455,0.5780077,0.23229613
,,0.29040765
,,0.35465642
,,0.26748686
,,0.36269191
,,0.35217839
,,0.30911056
,,0.34812326
,,0.17513461
,,0.25224387
,,0.35943049
,,0.18381107
,,0.24600934
,,0.19083553
,,0.20502645
,,0.16956035
,,0.11012288
,,0.18904318
,,0.18148613
,,0.18013361
,,0.13001559
,,0.13489037
,,0.16028173
,,0.25141498
,,0.26337621
,,0.28918572
,,0.28322963
,,0.31349961
,,0.38449615
,,0.18131293
,,0.80758355
,,0.34046337
,,0.2460091
,,0.20904677
,,0.25927521
,,0.25574213
,,0.18948269
,,0.12599807
,,0.15709631
,,0.1329792
,,0.12025325
,,0.14104061
,,0.16196686
,,0.15887761
,,0.1176978
,,0.16863956
,,0.13256835
,,0.21362998
,,0.23141894
,,0.26678837
,,0.30931192
,,0.26710024
,,0.45916635
,,0.47098045
,,0.36163353
,,0.39094843
,,0.25160688
,,0.27468413
,,0.13055776
,,0.27032302
,,0.20562254
,,0.14778783
,,0.08305339
,,0.15536221
,,0.17865576
,,0.14897847
,,0.18313386
,,0.14538415
,,0.12379084
,,0.13944754
,,0.16156047
,,0.20678863
,,0.22702372
,,0.35735177
,,0.39749892
,,0.34950071
,,0.44491009
,,0.37550657
,,0.7479925
,,0.3511602
,,0.21054456
,,0.23550577
,,0.37289236
,,0.26574997
,,0.19626296
,,0.15208357
,,0.1720691
,,0.1402494
,,0.1070487
,,0.10872626
,,0.14652253
,,0.11493241
,,0.07939092
,,0.16163286
,,0.18345849
,,0.28383779
,,0.32347024
,,0.38416073
,,0.52744702
,,0.58664025
,,0.59479439
,,0.46528012
,,0.47129586
,,0.44478302
,,0.30058564
,,0.20826712
,,0.26791904
,,0.23356518
,,0.18397703
,,0.17040972