Target,Output
 0.34948097, 0.36419516
 0.32179931, 0.28255525
 0.47058824, 0.29374468
 0.60553633, 0.39924761
 0.5467128, 0.44789464
 0.16262976, 0.44452341
 0.20415225, 0.19919765
 0.15570934, 0.22795275
 0.28719723, 0.17132148
 0.24913495, 0.24229301
 0.1799308, 0.24918591
 0.16608997, 0.19855889
 0.24913495, 0.19959015
 0.49480969, 0.24294708
 0.64705882, 0.41017725
 0.65051903, 0.51769961
 0.76124567, 0.54545772
 0.9100346, 0.60971267
 0.80276817, 0.63515419
 0.34948097, 0.55797146
 0.26643599, 0.31254289
 0.35294118, 0.26038293
 0.32871972, 0.26987443
 0.10726644, 0.24967097
 0.17301038, 0.13797913
 0.26643599, 0.20333256
 0.41868512, 0.24686324
 0.41868512, 0.34845635
 0.26643599, 0.38206522
 0.2733564, 0.27683248
 0.24221453, 0.28040154
 0.26297578, 0.23413768
 0.16955017, 0.2434963
 0.16955017, 0.18945321
 0.14532872, 0.18976268
 0.12110727, 0.17221028
 0.12802768, 0.14631782
 0.28373702, 0.1587879
 0.24567474, 0.27440668
 0.33564014, 0.24372796
 0.4083045, 0.32837106
 0.42560554, 0.37298631
 0.35986159, 0.36938447
 0.41176471, 0.33584826
 0.41522491, 0.36393628
 0.32179931, 0.34797436
 0.42560554, 0.2890688
 0.33564014, 0.37042583
 0.56747405, 0.29366002
 0.48096886, 0.45655551
 0.44636678, 0.39095547
 0.38062284, 0.38457136
 0.3183391, 0.34512307
 0.10726644, 0.27782942
 0.08304498, 0.1431124
 0.10034602, 0.12421732
 0.08650519, 0.13387412
 0.10034602, 0.1101472
 0.07266436, 0.13448072
 0.10726644, 0.11442685
 0.22145329, 0.14122591
 0.22145329, 0.23248712
 0.20415225, 0.2285881
 0.33564014, 0.22622175
 0.43944637, 0.32729314
 0.62283737, 0.37691212
 0.74048443, 0.50948427
 0.64013841, 0.58361596
 0.42560554, 0.51490204
 0.27681661, 0.3778038
 0.53287197, 0.26369956
 0.39100346, 0.38499077
 0.28027682, 0.29658718
 0.3183391, 0.26741054
 0.33564014, 0.30983131
 0.30449827, 0.28108377
 0.29411765, 0.27527763
 0.17647059, 0.28360918
 0.14878893, 0.19530562
 0.15916955, 0.17368908
 0.20069204, 0.17984437
 0.20415225, 0.20290422
 0.16262976, 0.21458764
 0.24913495, 0.18752572
 0.25951557, 0.25634013
 0.21799308, 0.25421303
 0.41522491, 0.22628387
 0.55363322, 0.38007696
 0.46020761, 0.44424642
 0.5432526, 0.39858513
 0.42214533, 0.47987464
 0.14186851, 0.355165
 0.183391, 0.16516943
 0.0449827, 0.20666248
 0.05190311, 0.09609183
 0.2283737, 0.08101393
 0.11764706, 0.2354395
 0.15916955, 0.13651436
 0.1384083, 0.19181128
 0.06920415, 0.17917884
 0.23529412, 0.10347672
 0.25951557, 0.24743683
 0.26643599, 0.25081609
 0.34602076, 0.26648755
 0.37716263, 0.3412172
 0.24221453, 0.33860357
 0.27681661, 0.24539649
 0.37024221, 0.27873402
 0.38062284, 0.32162254
 0.20069204, 0.32290314
 0.23875433, 0.21805525
 0.29757785, 0.25221542
 0.26297578, 0.27052773
 0.31487889, 0.24135481
 0.19377163, 0.30478725
 0.20415225, 0.21063769
 0.2733564, 0.21643866
 0.16955017, 0.26426351
 0.24913495, 0.17919775
 0.27681661, 0.25704869
 0.41868512, 0.26873709
 0.27681661, 0.36319716
 0.1384083, 0.27392907
 0.0899654, 0.17368768
 0.183391, 0.14237984
 0.15916955, 0.18675515
 0.19031142, 0.16912993
 0.05536332, 0.206829
 0.04152249, 0.10690361
 0.04152249, 0.08845207
 0.04152249, 0.09235033
 0.11418685, 0.07765757
 0.15570934, 0.14615528
 0.21799308, 0.1800542
 0.12802768, 0.23312302
 0.34602076, 0.16452893
 0.25259516, 0.33621305
 0.46020761, 0.24948521
 0.44982699, 0.41314264
 0.49480969, 0.39531626
 0.42560554, 0.41931172
 0.34948097, 0.38062953
 0.2283737, 0.31099315
 0.23183391, 0.23123333
 0.34602076, 0.22591303
 0.20415225, 0.2972074
 0.10034602, 0.20274365
 0.30103806, 0.14062093
 0.21799308, 0.29170141
 0.08304498, 0.20701938
 0.08304498, 0.11628391
 0.10726644, 0.14075573
 0.04844291, 0.13595469
 0.0449827, 0.08397209
 0.08650519, 0.09038547
 0.10726644, 0.12640843
 0.14186851, 0.13612027
 0.14186851, 0.17025126
 0.34948097, 0.17342455
 0.38754325, 0.33405948
 0.29411765, 0.35005402
 0.38408304, 0.29413772
 0.39792388, 0.37101548
 0.29757785, 0.33936588
 0.17647059, 0.27384044
 0.16608997, 0.20380996
 0.20415225, 0.18797381
 0.19031142, 0.20363547
 0.14532872, 0.19478694
 0.08304498, 0.17225035
 0.21453287, 0.12667715
 0.5017301, 0.22394274
 0.49134948, 0.41600042
 0.23183391, 0.41787
 0.07266436, 0.26248919
 0.02768166, 0.14312282
 0.03806228, 0.09139945
 0.09342561, 0.07679611
 0.15570934, 0.11820266
 0.06920415, 0.17657876
 0.12456747, 0.10968199
 0.1349481, 0.16352589
 0.19377163, 0.16715008
 0.22145329, 0.20437371
 0.35986159, 0.23666828
 0.37370242, 0.33845006
 0.44636678, 0.3441899
 0.32525952, 0.40134307
 0.29757785, 0.31113445
 0.25605536, 0.28581498
 0.28373702, 0.25089423
 0.33564014, 0.25782491
 0.11072664, 0.30122314
 0.1384083, 0.14210019
 0.20415225, 0.17375465
 0.33910035, 0.21294285
 0.19031142, 0.29254238
 0.08650519, 0.20869826
 0.05882353, 0.13436832
 0.05882353, 0.11672712
 0.07266436, 0.09542706
 0.31141869, 0.10581436
 0.09688581, 0.29996989
 0.16955017, 0.12968636
 0.20415225, 0.20568019
 0.19723183, 0.22983859
 0.31141869, 0.19440507
 0.32871972, 0.30858969
 0.29757785, 0.30767549
 0.34602076, 0.2894382
 0.23529412, 0.33006997
 0.43598616, 0.23571808
 0.37370242, 0.37899902
 0.24567474, 0.32277212
 0.14878893, 0.24322774
 0.11072664, 0.19148927
 0.39100346, 0.14295327
 0.09688581, 0.32901682
 0.07958478, 0.12368091
 0.10726644, 0.12266771
 0.20415225, 0.16202714
 0.11418685, 0.19110023
 0.02076125, 0.14471879
 0.25951557, 0.07210207
 0.15224913, 0.268468
 0.20415225, 0.16489661
 0.17647059, 0.2216499
 0.11764706, 0.2138862
 0.34602076, 0.14296027
 0.38408304, 0.32809259
 0.52249135, 0.33295332
 0.57439446, 0.4570125
 0.87889273, 0.49216436
 0.8650519, 0.65143286
 0.87543253, 0.61789979
 1., 0.64459376
 0.87889273, 0.67939956
 0.51557093, 0.56010511
 0.46712803, 0.38821674
 0.16262976, 0.36203324
 0.17301038, 0.17591789
 0.4532872, 0.16965366
 0.183391, 0.34894978
 0.19031142, 0.17181543
 0.25605536, 0.22325887
 0.20069204, 0.26562854
 0.2283737, 0.18957925
 0.23529412, 0.23970384
 0.23529412, 0.24263123
 0.23183391, 0.23509391
 0.20415225, 0.2397807
 0.28027682, 0.21684261
 0.41868512, 0.27243527
 0.47404844, 0.36351593
 0.60553633, 0.40336398
 0.62975779, 0.50810414
 0.56055363, 0.50538278
 0.47058824, 0.45438459
 0.28719723, 0.39346742
 0.5017301, 0.26294742
 0.23529412, 0.38727595
 0.17647059, 0.21648134
 0.14532872, 0.18829805
 0.09688581, 0.18494804
 0.07958478, 0.11800632
 0.28719723, 0.11663672
 0.15916955, 0.27599892
 0.17647059, 0.17500005
 0.07958478, 0.20472114
 0.28719723, 0.13587623
 0.15916955, 0.26951541
 0.01384083, 0.17879101
 0.04152249, 0.05665541
 0.07266436, 0.10723269
 0.0899654, 0.10598952
 0.25605536, 0.11535875
 0.1349481, 0.26608353
 0.06920415, 0.16425886
 0.24221453, 0.11415449
 0.19377163, 0.25908245
 0.17647059, 0.19401746
 0.30449827, 0.19686092
 0.64013841, 0.30823945
 0.34948097, 0.50286633
 0.20069204, 0.31550854
 0.17301038, 0.24377151
 0.4567474, 0.21307951
 0.34256055, 0.34004585
 0.1349481, 0.28915211
 0.20069204, 0.16849499
 0.05190311, 0.23805042
 0.2283737, 0.09746658
 0.15224913, 0.22174092
 0.14878893, 0.17728296
 0.06574394, 0.16690323
 0.05190311, 0.1223501
 0.19031142, 0.09313713
 0.25605536, 0.2054661
 0.1384083, 0.24694817
 0.1384083, 0.1671576
 0.28719723, 0.18295329
 0.4567474, 0.27846331
 0.5467128, 0.3793925
 0.43598616, 0.46736517
 0.28719723, 0.40431625
 0.77854671, 0.29266724
 0.7266436, 0.57211815
 0.66435986, 0.48275821
 0.39792388, 0.54318848
 0.37024221, 0.37690878
 0.36678201, 0.30569123
 0.21107266, 0.29070277
 0.35986159, 0.19585353
 0.19723183, 0.32169046
 0.14878893, 0.20223146
 0.37024221, 0.16683131
 0.32525952, 0.33921155
 0.12456747, 0.27772578
 0.30795848, 0.15561423
 0.20069204, 0.31636456
 0.14186851, 0.20032375
 0.21107266, 0.15723988
 0.34602076, 0.23611677
 0.11764706, 0.30216138
 0.16608997, 0.14438579
 0.18685121, 0.20295968
 0.71280277, 0.20745765
 0.73356401, 0.53938374
 0.71972318, 0.55900493
 0.92387543, 0.61982196
 0.87197232, 0.70456355
 0.64013841, 0.57299362
 0.35640138, 0.47353611
 0.09688581, 0.31307075
 0.10034602, 0.14474419
 0.27681661, 0.13386909
 0.07958478, 0.23083402
 0.14186851, 0.10061226
 0.22491349, 0.17790556
 0.38408304, 0.24042832
 0.42214533, 0.33004245
 0.44982699, 0.3857993
 0.48442907, 0.41207475
 0.43944637, 0.42377192
 0.4083045, 0.37234172
 0.44636678, 0.3525302
 0.58477509, 0.36980521
 0.42214533, 0.44496046
 0.16955017, 0.34946675
 0.31487889, 0.19708976
 0.46712803, 0.29536558
 0.55017301, 0.34399824
 0.66435986, 0.42721702
 0.5017301, 0.5526878
 0.44982699, 0.42424748
 0.48442907, 0.38858437
 0.10034602, 0.38205864
 0.19031142, 0.13153535
 0.14186851, 0.20675879
 0.12110727, 0.16733396
 0.06920415, 0.12601907
 0.03806228, 0.11860556
 0.07612457, 0.08311479
 0.11764706, 0.11525405
 0.14186851, 0.14498384
 0.11418685, 0.16727056
 0.05882353, 0.15078847
 0.07266436, 0.10554658
 0.05882353, 0.11638003
 0.07266436, 0.10016568
 0.05882353, 0.10882575
 0.10380623, 0.10210294
 0.0899654, 0.13798322
 0.25259516, 0.12770554
 0.39446367, 0.25921524
 0.29757785, 0.36061322
 0.33217993, 0.29200419
 0.48788927, 0.34016936
 0.23875433, 0.41278675
 0.15570934, 0.22732247
 0.31141869, 0.19000633
 0.39446367, 0.29089108
 0.38408304, 0.31093171
 0.31487889, 0.34467658
 0.24913495, 0.31545816
 0.19031142, 0.25370751
 0.10034602, 0.20252546
 0.07612457, 0.13406816
 0.06920415, 0.11530548
 0.1799308, 0.10855313
 0.20069204, 0.19140332
 0.09342561, 0.21172401
 0.07266436, 0.13030724
 0.17301038, 0.12446521
 0.05882353, 0.19346079
 0.10380623, 0.09386188
 0.11072664, 0.14010372
 0.19031142, 0.15108991
 0.21107266, 0.19899392
 0.43252595, 0.22740025
 0.51903114, 0.39447137
 0.19031142, 0.44316933
 0.30795848, 0.21164616
 0.28027682, 0.3241198
 0.22145329, 0.25511066
 0.23183391, 0.20294856
 0.20761246, 0.24713099
 0.03114187, 0.21343787
 0.07612457, 0.07919405
 0.19723183, 0.12106626
 0.16262976, 0.20430368
 0.17301038, 0.16972805
 0.34602076, 0.20366555
 0.34948097, 0.33451591
 0.32525952, 0.31485919
 0.05536332, 0.31707278
 0.0449827, 0.1161798
 0.15916955, 0.09926312
 0.07958478, 0.17646151
 0.09342561, 0.09927732
 0.15916955, 0.13149474
 0.12802768, 0.19175754
 0.07958478, 0.15112782
 0.21453287, 0.12088727
 0.29411765, 0.23308843
 0.34602076, 0.27673254
 0.2283737, 0.32599317
 0.20761246, 0.25018848
 0.183391, 0.22959337
 0.14532872, 0.20159856
 0.03460208, 0.16278017
 0.06920415, 0.08394538
 0.06574394, 0.11147917
 0.10726644, 0.10562677
 0.08304498, 0.13290162
 0.15224913, 0.12364861
 0.10726644, 0.17958615
 0.04844291, 0.14389901
 0.11418685, 0.09152051
 0.09342561, 0.1538235
 0.12110727, 0.12601594
 0.1384083, 0.1492611
 0.05190311, 0.17200981
 0.04844291, 0.09435414
 0.0899654, 0.09644509
