ccopy_reg
_reconstructor
p0
(cneurolab.core
Net
p1
c__builtin__
object
p2
Ntp3
Rp4
(dp5
S'layers'
p6
(lp7
g0
(cneurolab.layer
Perceptron
p8
g2
Ntp9
Rp10
(dp11
S'initf'
p12
cneurolab.init
initnw
p13
sS'ci'
p14
I42
sS'co'
p15
I14
sS'cn'
p16
I14
sS'inp_minmax'
p17
cnumpy.core.multiarray
_reconstruct
p18
(cnumpy
ndarray
p19
(I0
tp20
S'b'
p21
tp22
Rp23
(I1
(I42
I2
tp24
cnumpy
dtype
p25
(S'f8'
p26
I0
I1
tp27
Rp28
(I3
S'<'
p29
NNNI-1
I-1
I0
tp30
bI00
S'\x00\x00\x00\x00\x00\x00\x00\x00\x00\x00\x00\x00\x00\x00\xf0?\x00\x00\x00\x00\x00\x00\x00\x00\x00\x00\x00\x00\x00\x00\xf0?\x00\x00\x00\x00\x00\x00\x00\x00\x00\x00\x00\x00\x00\x00\xf0?\x00\x00\x00\x00\x00\x00\x00\x00\x00\x00\x00\x00\x00\x00\xf0?\x00\x00\x00\x00\x00\x00\x00\x00\x00\x00\x00\x00\x00\x00\xf0?\x00\x00\x00\x00\x00\x00\x00\x00\x00\x00\x00\x00\x00\x00\xf0?\x00\x00\x00\x00\x00\x00\x00\x00\x00\x00\x00\x00\x00\x00\xf0?\x00\x00\x00\x00\x00\x00\x00\x00\x00\x00\x00\x00\x00\x00\xf0?\x00\x00\x00\x00\x00\x00\x00\x00\x00\x00\x00\x00\x00\x00\xf0?\x00\x00\x00\x00\x00\x00\x00\x00\x00\x00\x00\x00\x00\x00\xf0?\x00\x00\x00\x00\x00\x00\x00\x00\x00\x00\x00\x00\x00\x00\xf0?\x00\x00\x00\x00\x00\x00\x00\x00\x00\x00\x00\x00\x00\x00\xf0?\x00\x00\x00\x00\x00\x00\x00\x00\x00\x00\x00\x00\x00\x00\xf0?\x00\x00\x00\x00\x00\x00\x00\x00\x00\x00\x00\x00\x00\x00\xf0?\x00\x00\x00\x00\x00\x00\x00\x00\x00\x00\x00\x00\x00\x00\xf0?\x00\x00\x00\x00\x00\x00\x00\x00\x00\x00\x00\x00\x00\x00\xf0?\x00\x00\x00\x00\x00\x00\x00\x00\x00\x00\x00\x00\x00\x00\xf0?\x00\x00\x00\x00\x00\x00\x00\x00\x00\x00\x00\x00\x00\x00\xf0?\x00\x00\x00\x00\x00\x00\x00\x00\x00\x00\x00\x00\x00\x00\xf0?\x00\x00\x00\x00\x00\x00\x00\x00\x00\x00\x00\x00\x00\x00\xf0?\x00\x00\x00\x00\x00\x00\x00\x00\x00\x00\x00\x00\x00\x00\xf0?\x00\x00\x00\x00\x00\x00\x00\x00\x00\x00\x00\x00\x00\x00\xf0?\x00\x00\x00\x00\x00\x00\x00\x00\x00\x00\x00\x00\x00\x00\xf0?\x00\x00\x00\x00\x00\x00\x00\x00\x00\x00\x00\x00\x00\x00\xf0?\x00\x00\x00\x00\x00\x00\x00\x00\x00\x00\x00\x00\x00\x00\xf0?\x00\x00\x00\x00\x00\x00\x00\x00\x00\x00\x00\x00\x00\x00\xf0?\x00\x00\x00\x00\x00\x00\x00\x00\x00\x00\x00\x00\x00\x00\xf0?\x00\x00\x00\x00\x00\x00\x00\x00\x00\x00\x00\x00\x00\x00\xf0?\x00\x00\x00\x00\x00\x00\x00\x00\x00\x00\x00\x00\x00\x00\xf0?\x00\x00\x00\x00\x00\x00\x00\x00\x00\x00\x00\x00\x00\x00\xf0?\x00\x00\x00\x00\x00\x00\x00\x00\x00\x00\x00\x00\x00\x00\xf0?\x00\x00\x00\x00\x00\x00\x00\x00\x00\x00\x00\x00\x00\x00\xf0?\x00\x00\x00\x00\x00\x00\x00\x00\x00\x00\x00\x00\x00\x00\xf0?\x00\x00\x00\x00\x00\x00\x00\x00\x00\x00\x00\x00\x00\x00\xf0?\x00\x00\x00\x00\x00\x00\x00\x00\x00\x00\x00\x00\x00\x00\xf0?\x00\x00\x00\x00\x00\x00\x00\x00\x00\x00\x00\x00\x00\x00\xf0?\x00\x00\x00\x00\x00\x00\x00\x00\x00\x00\x00\x00\x00\x00\xf0?\x00\x00\x00\x00\x00\x00\x00\x00\x00\x00\x00\x00\x00\x00\xf0?\x00\x00\x00\x00\x00\x00\x00\x00\x00\x00\x00\x00\x00\x00\xf0?\x00\x00\x00\x00\x00\x00\x00\x00\x00\x00\x00\x00\x00\x00\xf0?\x00\x00\x00\x00\x00\x00\x00\x00\x00\x00\x00\x00\x00\x00\xf0?\x00\x00\x00\x00\x00\x00\x00\x00\x00\x00\x00\x00\x00\x00\xf0?'
p31
tp32
bsS'inp'
p33
g18
(g19
(I0
tp34
g21
tp35
Rp36
(I1
(I42
tp37
g28
I00
S'\xf2Tn?l+\xd7?\xf5\x10\xcf\n\xf3\xbb\xda?\x94Q\x02\xee\xbbZ\xdc?\x9a\x99\x99\x99\x99\x99\xc9?;\x08S\xf7u\x1e\xc3?\xa7\xe5(\xbc\xdb\xa7\xc7?9\xaa\xa2\x912V\xd1?\xd3\xa2>\xc9\x1d\xb6\xc5?\x89\x91\xa9\xab\xd0\xfa\xc7?|E\x1a\x89\x8e\xec\xb9?\xb3uW\x13\x97%\xa2?\xacz\xf1,\xde\x1b\xaf?w\xcdX\xf2\x80\xcb\xb2?\xc3\x9aN\xdbT\x17\xb4?:%Z\xd1jq\xa3?\x04\xbb\x0e\x93x\x92\xba?\xe3\xaa.\xb7\xe6T\x97?\xde2m \xd93\xb0?*\x00c\t\xad\x7f\xb1?\xf1\xf6\xbd\xd9(c\xc5?\x88\xec\x8b\x9dS]\xe0?\xdc\xbdy\xfd\x8bx\xe2?7\x06\xd7\xbb\xc3\xb6\xe2?7\x06\xd7\xbb\xc3\xb6\xe2?\xe5\xf0I\'\x12,\xe4?\x8c5u\x81?\x9a\xe6?\x82\xa4\xf4\xf1u\x1e\xe3?\xe5\x08\xdf\x1c*\x1d\xd9?4b\x0b\xe6T\x17\xd4?B<uY\n\xd0\xcd?@\x80\x14\x8e\x83?\xca?\xf4\xb2\x1e\xa5\xaf\xf3\xc8?\x95!\xd8\x02\x8cx\xc2?\xc8\x12\x10rb8\xbb?\xe8"\xf0M\xf4u\xbe?\x04\xbb\x0e\x93x\x92\xba?\xde2m \xd93\xc0?\xffBM\xfcjq\xb3?\xffBM\xfcjq\xb3?\xffBM\xfcjq\xb3?w\xcdX\xf2\x80\xcb\xb2?\xb3uW\x13\x97%\xa2?'
p38
tp39
bsS's'
p40
g18
(g19
(I0
tp41
g21
tp42
Rp43
(I1
(I14
tp44
g28
I00
S'T\xc8\xc8\xc9:\xb5\x18@\xc0\xda\xff\x87\xb9:\x10@\x801\x82\t\xb5\n\x8a?\x07\xc1\x07\xe5\r{\x13\xc0?\xd3-\xaa\x97\x9c\xe4?\xbb\xa6\xa2YR=\x11@\x9c8v\xb3\xb9\x8e\x02@hy\x0eM\xabn\x0f@\x95\x7f\x13\xc9@\x83\x05\xc0\x88D\xdd\xf1yV\xcf\xbfk\xe5\xbc\x01;\xaf\xd2\xbfB\xcd\x87\xf1\xca\x96\xe0?\x05\xad\xe7\xc1\xc1\x1c\x13\xc0\x9e+\xbc\x04k4\x12@'
p45
tp46
bsS'np'
p47
(dp48
g21
g18
(g19
(I0
tp49
g21
tp50
Rp51
(I1
(I14
tp52
g28
I00
S"}\xa5\x07\x82\xc1\xf1\x1c@+\xb64\xb4\x15\x15\x12@\xd4\xc2{\xadN!\xfe\xbf\x13?;_y/\x13\xc0\xd0z\xad\xec]c\xef?\xfb\xcf\x17\x9cd\xe2\x13@\xde\xccL\xcb\xa4\x9d\x0b@\x9a\xe6\x8c\xd2\xb5u\x15@w\x92\xf4\x93C\xd2\t\xc0\xd7\xe5\xcaZ\xdf\xa2\xe7?j\x90}\x03\xce'\xe6\xbfZ\x9a\xcb\xd7\xee\xa6\xd4?\xa3\xd9\x05\xc4\xd4n\x11\xc0\xca\x8b\xd1{-\x96\x17@"
p53
tp54
bsS'w'
p55
g18
(g19
(I0
tp56
g21
tp57
Rp58
(I1
(I14
I42
tp59
g28
I00
S' \xab.\x08\xce\x02\xb2\xbf\xb9\xa4V\xd1\xf2\xcb\xd7?\xae\xc0]\x16\xafA\xa5?Z\xde?\xb7\xa8\xae\xdd?\xae6\xef/\x0b\xbd\xe5?\x88\xc0\xebQw\xf7\x9f\xbf5\x1c\xa2\xf6\xfc\x9b\xd4\xbf\xd6\xd5\xc5H\x1b\x88\xd3\xbf \x10\xa4eFe\xca\xbfo\xb81\xf2\xbd\xb3\xcf\xbf\xfd\xcc\xa4?%\xf3\xe7\xbf\xceIC.E\x98\xd4?\x83n\x8b\xfa\x8eX\xdc\xbf\x80"\xbe,\x81k\xce?%um\xec\x9e\xed\xa3?j\xaf\x9b\\@\x8b\xce\xbf\xd0\xd8\x96\xad\x07\x9c\xe1\xbf\xaf\x81\x921\xbf\xe8\xd6\xbf7<\xf7\xee\xcc\xe3\xb0?\x1a\xc9\xac\xf5\xfa\xd9\xe1\xbf\xa7\xd4\x89\xb3\x11=\xea\xbf\xae\xea\x19=YF\xe8\xbf\xb3<\xa0\x06UF\xd1?3\x80\xf2\r\x9c\x18\xe4?Fv\xce\x89M\xcc\xe9\xbf\x1d\x13,\x04\x87\xa3\xe1?\xce\xe32\xd47\xb6\xce\xbf\x90t.(\xb2\xac\xe1\xbf\xa7\x18\x91\x9f\x18\xeb\xa7\xbfy\xe6\xc6\x00\x08\x13\xdc\xbf\xe6c\xfc\xb2\xac\x04\xd1?\x9e\r\x9c\xaf\xfb\xdb\xd6\xbf\xa3\x00D\x1c\x9bx\xe0\xbf"\xe2v\xa7W\x8d\xd9\xbf\xe9\xab^\x08\tB\xe2?(\x9cJ^ \xab\xb5\xbf]:\n}\x8c1\xe5?O\xb5\xa8\x06\xc9\xbb\xe5\xbf\x90\xa3\xfb\xe7\xfd>\xb7?2\\)\xd5\x91\xa8\x7f?v>\xd2\x9dWT\xdc\xbf\xc5]\x99\x9f\xcb\xa2\xec\xbf\xb7:\xed\x97fB\x9f\xbfD\x0b\xb9\x93\xbdS\xba\xbf\xd1\xa5\x92\xdb\xd8\xb4\xd7?\xd5\xc2\xf1\n\xdeE\xd2\xbf\xe3\x89n]\xd7\xec\xd7\xbf\xf6-\xab9j\x89\xc6\xbf\x96\x8bB\xe4\r\x1a\xcf\xbf\x8c\x93- \xd0\xbb\xe5?@wMpm,\xc8?\x98\x1fr:\xfa_\xac?\xc4j>\x11\xe6\x06\xde\xbf\xe3\xcc\xf6\xd5,O\xe0\xbf\x9e\x00<\x82\xba\xbf\xd9\xbf\x1b"`\r\xc3\x01\xe2?\x80\x9c\xe4\xeb4\x97\xc2\xbf\x17\x98\xff\xb6\x8d\xb0\xd3\xbf\xcfs|\x9a_\xe3\xde?.\x00\xbc\xbe\x87;\xd9? h\xc2\x1b/\x91\xda\xbf\xd5Q\x9cVMe\xe7\xbfG\x96\x8bW\xf0\xb6\xe0\xbf\x8bq\x19\x1a\x86V\xd2\xbf\x08\xdd\x82\x96e\xda\xda?\xbb\xe9\x1dM\xc2)\xe0?#\x18\x15-\x8b\x05\xe4?k\xdf(2\x9d\x8b\xd7\xbf\xd29\x1c\x18\xc6\xe0\xdf\xbf|!\x01s\x80\x8b\xdc\xbf\x01J\x7f\nk\xdb\xea?R]\x19\xd2(T\xb7?\x84\xd4\n\xcd\x07\x80\xca\xbfQ\xa8\x90\x86\x02\xfc\xd7?\xb8\xc8\x14L\x03\x8a\xc7\xbf\x8a\x91}f\x10\xd1\xd1?\xad\xc6\x0fr\x14>\xe6\xbf\xaa;3L\xbd\xd6\xe3\xbf^\x02o\xc5Ca\xda\xbfa7\\-\x08\x98\xe1\xbfj\xe2\xa3\xa0\x82\xf6\xdd\xbf\xb8J\x95\xa7\xbc|\xe9\xbf\x16\xa7\xee1|L\xe8\xbf6\xfdx\x8e\x11.\xea\xbf>0\x96#l\x8c\xe1?\xae\t-\xb1\xf5\x91\x84\xbfd\x12R\x1bR\x07\xd7\xbf\xec\xfeg\xf8\x1e>\xce?\xdd~\x04LGP\xde?:\x04\x98\x99\xca\xc7\xcf?\x92\xba\xdb\x91\xfd\x8f\xda?\x96\xf1P\x13Tr\xe1?\x12\xac\xb3{\xa0\x7f\xe1?y\x9cq\x02\xb4\xdf\xe1\xbf\xd6\x08\xac%FA\xe5?\xddsR^\xa7\xc5\xc8\xbf\xad\x1bzS\xf6\x92\xd3\xbfP\x81\xe4\xbfw\xa2\xe7?\x1a\x87Vo\x83\xfe\xdc\xbf\x8f;\xdco\x7f8\xe4?\x1a\x1c\xbe\xe1^W\x88\xbf \n\x13\xf2kj\xc7?T\xd0,\x9d\x9dw\xa0?\xab\xa3S,WO\xd6\xbf\t\xe4Jf\x1bc\xda?\x1c\xd0\xbbK\xd4O\x87? H\xd4\xba\x1e\xa4\xbb? \x0f\x00I\x97\xb2\xe5?a\x88\xfbc\x8c7\xe0?{\x84\xe9\xd6\x18\x82\xc6?b>\x03w-\xca\xe0?\x97\xa2\xd2\xcf\x1as\xe5?F\xddm\x1f\xc6\x07\xd6?;)9\xe2\x89\x94\xc9\xbf\xcdix=\xc7=\xe0\xbf\x07\x0c\xbe\xd6"=\xc8?\x01,\x0f\xea\x01\x0f\xd2?\x1e?\xef{\xb4\x1b\xe8\xbf\xf5\xfbQ\xb7\x1e\xda\xdd\xbf\xbd\xaa<n\xcc\xd3\xe4\xbfE\x96\x0f\x1d0\xf1\x88\xbf\x05\x97A\x86\x0f9\xe1\xbf>\xc4\xee(\x91Y\xe2\xbfn\xab/\xc6\xd3\'\xd2\xbf\t\xb6\xfd\xee\x1dy\xc0?\xdf\xc1\xcav\x82(\xf0\xbf\x083\xfe\'\xe3\xc0\xe2?f\x9eHb<%\xca?\x05ZV\x84\x93y\xca?[\x9a\x06\x1cal\xa2?\x88\xbe\xa0~\x92{\xe5\xbf4\xce\xb6@\x8fc\xdc?\xee&\x85\xf8^S\xe6?\x85\xcd\xad\xb6\xbc&\xe3?\xd9D\x1f\xe6I#\xdd\xbf\xb2x\x04\x81\xfe\x88\xe8?h\x02\xa34\xcb\xa1\xd1\xbf\xd9;B\x90\xdb\xd0\xd5?\xa3#\x92\x90Ne\xdc?4\xacW\xd7C\xae\xd4?\\\x0be\xb1\x91u\xcd\xbf\x1d\x11\xb4\xb5n\xd3\xd5\xbf\xfb?:K\x1a\xcc\xde?4\xac\x04\xa6;v\xde?VX\xab\x15\xfc\x03\xd5?\x92\x98\x14\x0e<\x9d\xd0\xbf\xba6\xc1\x1fC\xa0\xda\xbfCn5\x14\xf8\x88\x90?\xfe\xd4L\x8f\x17=\xe6\xbf]\xf7\xf8A\xd1g\xc6?Z\xba+\xbb\xa9\x18\xe4\xbf\x8d\xed\x80\x19\xdb\xe5\xdd\xbf\xb8\x18N\xbc\xfd\x16\xd1?J\xeeAl\xb5\x0b\xe8?\x06\xac}U\xe4\x13\xd6?\xcc\xc3\x1eESD\xd0?\xf2S\x92\x07.\x88\xe9\xbf\xe5\xae\xcd\x06\xf2\xb5\xce\xbf\xbf\x02O\xd7\xa9\x05\xd1?/sdD\xf5\x0c\xc0\xbfGIl\x8f\xbf\xea\xcf\xbf\x13\xc8\xbf~*H\xe8?\xc1\x08\xcf\xca\xa2\xda\xe6\xbf\x1f\x12\xd8g#\xf7\xd3?\xc3:\xbe&\xbf]\xc6?\x97\xaf\x9b\xa0\xb8\x04\xd2\xbf\xec\x1a\'\xf5\xf7\x89\xe1?\x0e\xdfO\xf5#X\xb3?\xc1\xf1\xa6\xa9}\x8f\xe6?N\x1f\xdft\xd7\xee\xcb\xbf>\xc1i\x1b\x1b\x8b\xd6?\xff\x15T\xe8\xc6f\xdf\xbf\xf8\x1a\x0b\xdfJ\xaa\xd4\xbf?i\xe2\xb7D\xcc\xdf?\xbe)\x13\xf6\xd5\xb2\xbd\xbfnX\x07\x9b\x9cU\xcd\xbf\xb9fR\xf1f\x0e\xe2?\x04\x92\xd4\xcd\xf2\r\xc1?mg\x1a\xd1M\xf5\xe7\xbf\x97\xa6\x82\x92#$\xe1?\xac\xc0%w\xbe\xb4\xc3?\xa9Z\x0b;\xba\x97\xc1?V\xfe\xbd!\x99f\xe0\xbf\xff7\xb7\xdf\xb1s\xd1\xbf\x04\x89\xfe\n\x84\x9c\xe1?\xbb\n:\x9c7>\xce?\xaf\xb2H\xdd\x94"\xd2\xbf\r\x9bv\xd5\xb4\x13\xd1?]\xf4\xb4%\x8cb\x84\xbfR\xedJ\xde\xb8\xa6\x9f?\x01\xed&u\xd5"\xcc\xbfs\x04\x82\xb8\x81\x8b\xe1\xbf:\x81\xdaA\xa4R\xde\xbf\xb4\xd5s-\xb2\x9a\xa7\xbfu\xe4m\xf2[\xb4\xd0?)(/\xee\xcd\xc5\xd0?\xbf\xfc\xad\xb67\x91\xe2\xbf\xb1Z\xef\xfa\x99\xab\xd3?-H\xc0\xc3X\x1f\xd8?\xb4\xb7D\xb3\xe8\xa6\xd4?\xfe<\xfae\xd4\xbb\xb7?\xff\xc4*"\xd9&\xa7\xbf\xafi[\xabs\xce\xe7\xbf\xf5\xf5\xfd\x19\x8d\x80\xa7\xbf*P\xd5\xba&\x98\xce\xbf\x91\x8c\x9dg\xfb\xd5\xe2\xbf\xdc\x8cY\x9f\xfe\xcf\xe6\xbf\xe2\x8c\xd6A\xaf\xdc\xce\xbf"\x10\xc7\xa6\x9d\x8c\xe4?\x19\x9c\x99\xf1+\x1d\xe2\xbf4D\xc4\xef\xf6d\xc0\xbf#\xe2\x84.N\xda\xe2?\x1f,\'\xdb\x868\xd5\xbfn\xa1\xfc\x93\x1f\xe9\xda\xbf\xd8\xd1\x1f\xbe\xa4\xab\xd2\xbfA\x97\xe3"|\'\xd5\xbf$\xae\xe6\xd2\xbb.\xdb\xbfm\x03\xa7\xf4+k\xe0\xbf\x16\xffv)I1\xd8\xbf{\xc98\x1d\xdcV\xe7\xbf\x95\xf37\xc5n\x8a\xd4\xbf\x06~\xe5\xeaU3\xb4\xbf\x8eo\xf1l\xf9/\xe0\xbf\x914\xddv\xb3,\xe5\xbfef\xfe\xa3\xfd\xdd\xdf?\x0c\xafRE\x81!\xd9?C\x06\xb7,\x82\x1e\xdc?&\\i\x19B\x9b\xe8?\xd2\x11\x9b!\xe56\xe4?@5\xc3\x92\xc0A\xe5\xbf~\xe7\xc2@S\xd4\xd0\xbf\x1f\x87\xac\x8d\x19+\xe0?UX\xb0\xc4;7\xe4\xbf\x97\x94\xb5\xd1%\x1a\xa2?\x9b,\xe7\xf63F\xd4?[\x96I\xed=\xbe\xbf?\xf0\xba\xe2\xcb\x9cw\xc8?0\xd0\x98\xea3\xe7\xc5?\xa88=qO\xd5\xde\xbf`X&)\xf7\xa5\xe4\xbf\xbaXCr\x84\xee\xe5?\x1e\xc7\xcdT-\xbf\xd3\xbf1\x12tcZv\xe1\xbfe\x96\xe9\r\xf4E\xab\xbf\xf6\x97\x9c\x84\xf9g\xdb\xbf\x9a\xd61\xf35\x00\xe5\xbf\xfc\xf4[\xce*A\xe3?\xfb\x16NG^\xcc\xd6\xbfw\x0e\x98\x0ef\x97\xda\xbfj\x80\x13\xb2\xdah\xda?\xd47\xf8\x94}"\xc3\xbf\xfc\xad(\x1a\xc8\x8a\xd9\xbf\xf5\x91\x07,\xac\xbd\xec\xbf\r\xa5\xc8\xd6\x0cg\xcb?\xe4|\xa8\x04\xaf\x0b\xc2\xbf;}\xd2/Xd\xc7?\xda^x\xf5\x02\xb8\xd8?\xc0\t[n~\x15\xdc\xbfX\x99\xd6c\xae%\xdd\xbf\xd0O\xc5Uu\xb2\xde\xbf7,\nK\xb6(\xe2?\xca\xc4\xef\x82W\x9c\x97?\xf7K\xd8\xd2\x1a\x02\xe5?\xf2\xf6\x98\xdc\xea\xd6\xe5\xbf\xf7\xc5\xe2\xffN\xf1\xd5?\xa6\xf5\xf9\xab\xb7\xc4\xc4\xbf\xfb!pY\x19-\xca\xbfoP\xc6\xc7\x1bh\xe8?\xa4&\x80\xaa\xbfK\xb4?!\x01q=U\x18\xde?\x9d\x0c\xbf\xb6"\x84\xdc\xbf\xbfr\xf1\xd5\x8d\x94\xe3\xbf\xce\x86\xe0w\xaeY\xe3\xbf^\xa4\x88\x90a\x1f\xe4\xbf\xe3*\x04\x8a\x1b\xad\xe7?\xe8\n\x93*g\xeb\xd3\xbf\xc0\xa2\xc2z\x1b\x8a\xc7?yU)\xc6\xf2c\xad?\xa0\xb3\xa2\x95\x87$\xd6\xbf\x01\xb5\x05}\x17!\xd3\xbf\xbaW\x92$\x8d\xbc\xe1\xbf\xfb\x9c\x85\x1b\xfc\x8b\xdd?\x9d\x9d\xcb\xa8\xe3\xb3\x93?DR\x86J\xa4&\xdd?s\x7f\xbaR\xef\x19\xc2\xbf,$\xad\xfb\x1b\xe8\xc4\xbf\xbb\x81\xa4\x9f\xa2\x0c\xd9?T\x07\xaf\xc1\xe3\x15\xd7?^\xd5;O\x8a\xe4\xd0\xbf-\r;o\x8dk\xc5?\x98\xc9\xb9v\xda\xc8\xcf\xbf]5\xd6\xf3\xe3\xf8\xe0\xbf\'7\xa5|\x0c\xc4\xf0\xbf\xa1*l\xcd\'\x1d\xf3\xbf\xe4\x9e\x94\xdep\xa1\xe2\xbf\xf4\xe0\x9c?\x15N\xe1?\x13\xb4m)e,\xb3\xbf\xfd|i\xcf\xff\xca\xe6\xbf9(\xfb_&\xc3\xe9?|fkM\x89\x8en?\x05\xaeB\xcc\x80cf?\xcd\x04\xb6\xbb\xc8\xb9\xe1?\\\x9a\xefS\xb0\x1f\xc7\xbf\xc3tt\xb9g\x9f\xdf\xbf\xb8\x98\xdb\xf4\';\xd6?\xae\xce\xeei\xb7c\xd0\xbf\xfd,Y?\xd2\xab\xcb\xbf\x18x\x9a\x07l\x06\xe6?\x9d\xb8\xa7\xbco?\xe4?\xdff\x86zK\x7f\xaf\xbf\x85\xad+\xf6Z\xe0\xaa?2\x1aD\x1e\x0bH\xe5\xbf\x87\r\x7f\xb8\x971\xc1?\xa0\xe5\xc2\xf8\x19\x89\xeb\xbf\xa3N\xacv\xb9)\xc2?\x1c|\xca\x80(\xb5\xcb\xbf{\x08h\x8f{\xb6\xdf?L\x19\x84\\\xe1\xde\xd5\xbf\x02\xab\x14\xe6\x83\x96\xe5\xbf\xc2\xb1O#\xab\x86\xb4\xbf\xa5\xaf>5\x82\x8f\xc8\xbf\xf4\xd2\xd6\xf2RB\xcf\xbff~\xe1a\t\xe7\xe2\xbf\xd2\xf5BF\xa2\x17\xac\xbf\xc0:>\xfb\xee\x8d\xe6\xbf\xeb\xcf\xb4\x0c\xf8.\xe5\xbf\xe89\xb5\xd8\xf2\xc7\xcf\xbfX\xe2\xeaX\x9e\xca\xe3\xbf\x0b\x18\xa1K\x19\xff\xd4?a\xea\xc3hw\t\xa9\xbf\xf4\x80,r\nA\xc3\xbf\x0e\x93\xcd\xcclU\xd9\xbfe\x8as\xcf\xad&\xe9\xbfL\xad\x86\xbf\xfa\x81\xb4\xbfo_\x86\xd6fR\xd2?\x87\xdc)\x00;5\xbc?\x0c\xa8M\xe4\x80&\xdc\xbfG)pXR\xd6\xe5?\x0f\x12\x97\xdc\xccm\xe0?P\x15\x03\x1d\r\x05\xe4?\x8e\x92O\xb8\xc8\xec\x8d?GP\xa6c]\xf9\x91?Cp\xfc\xb4\xb4\xde\xe9?\x93\xac\x99ZQu\xdb?\x9e\x80\xca\xb1\xe09\xcd\xbf}+\x06\xc0n`\xd6?\xdeH\x85L\x089\xd1\xbf\x19\x9a\x86b\x08%\xc7?\xb0\x83\xee9V\xe8\xbe?\x82\xa7\x08x\xa0L\xd9?L\x01\xeb\xd2\xc3\xf6\xd0?\x03\xe5\x1e\x8a/m\xe2?\xbbS\xea\'\xf3j\xc2?\nd\xd7{"h\xb8\xbf\xb6\xfd\x9b\xfe)\xa7\xeb\xbf\xb4rod\x9c\xdc\xb8?r\xe0\xc1U\xee\xbc\xdd?v\xfa\x05\x87J\x15\xc9?/\x9dE\x82_\x0b\xe6\xbf\xad\x07U\xd6ed\xbf\xbf\x97\x88\xf9\xc8#i\xe3\xbfhTY\xc0\xd9\x13\xc9\xbf\xad\xb4\xd8\xc1\x81\xbc\xca?\xb5h\xc8\x81\x08C\xc3?*\xfeK\x15\xa6K\xab\xbf\xdc(\xa3\xbe\xcbr\xea?\xd6\xc4\xcc\xeb8\xf7\xe9?\xd1`\x83\xc4\xefn\xcf\xbft\x0f \x8fW\x06\xcd\xbf\xce\x99\'\xe0\xbdX\xce\xbf\xbe\x80\xf2u\xd92\xc0\xbf\xd4\xe2\xab\xb8zl\xc9?\xb3)\x1fBf\xfe\xe2\xbf\x10\x19\xc6/>\x0cs?\xcbV\x1f\x14\x93\x9a\xe9?\x12\x87\xd3\x01\x8fY\xee\xbf\x99\x95\t\x8d-\x05\xd7?\xd9\x9c1\xeaV;\xde\xbf\xd3\x11F\x8fa5\xd4?\xa2,\x84\xbfQV\xe1\xbf\x12\xe3\xb3RP\xcb\xc5?\xe4\rym\x06\xab\xd2\xbf\xd1\x1edt+\xec\xe8?K&\x02y\xfc#\xda\xbf/\\\xd1\xd0+y\xe8\xbf\xf7\x89\xf0d\xa8C\xbf\xbf\x0f)\x8f\x90\x9d~\xe4\xbf\xb6\x96K\xb7>e\xce?\xbdEek\x08\xc2\xd5\xbf\x08]b\x0cD\xe2\xec\xbf\x99\x97,\xf8@\x8e\xd5?)N\xfae\xcbv\xcb?\xf8\xfc\x06\x18\x81\t\xdb?\x1eIOx\xc7\xcb\xe8?\x9f\xc3\xcc\x19@\xdf\xba\xbf\xb3\xac\xd5\xd8x\xb2\xd5\xbf\n\xb9\xaf\xfaM\x92\xd4\xbf\x13\x8a4MEf\xeb\xbf\xf9\xfajfT"\xeb\xbfu\xb1\xd0\x9bl\xa3\xe1\xbf\xa70\xeb\x06\x1d\xce\xde?:p$\xc9{4\xc7\xbf\xbf\xe9\xdb\xbe\xf6Tl\xbf\x98\xef\xc0\rt\x04\xc2?\xda]\xe5\x1cS\x05\xc4\xbfDp\xfew\t\x10\xd6?\x02oo\x0b\xe2\x07\xd5?\x9d\x9e9\xb5\xe7\xca\xe9\xbf7\n\xcb\x05H\x95\xd2\xbfS\xadJ\xe7*\xab\xce?\xc2\xd3\x81\x02\xf6\xd3\xd8\xbf\x8f\xa3\xcecR\x96\xd0?\x15\x022\xd8\xf9\xcf\xe3?\x07\xc4\xa5\xd4\xd2\x86\xdc?~\x9fN&I\xea\xd2?\xc7L"G\xe3\x04\x8c?io\xdc\xbb+\x1c\xe2\xbf\xfb\xc7?\x8a\xfa\xdf\xd0\xbf5g\xeeDF+\xd9\xbf{\xcb$i\xdf\x9a\xcf?\xf0\xfd\x87\x1dW\x9c\xd7\xbf\xa6P:\xcbm\xd9\xc1\xbf\xf2\x1a9\xbe\x8ed\xb0?\x8e\xb7\xe0s\xe5\x82\xcb\xbf\x7f\'\xbc\xf7L\x1e\xb4\xbf[\xca\x93\x19\x06\xe6\xe1?F7{\x8cu,\xe2?VP\xc0\x96C3\xe8\xbf\x90<l\x8e\xaf\x83\xdd?\xbb\xa4#4\xe2\x80\xd2\xbf\x99\xc13;\xe5\xc4\xeb\xbf\xdeq\x87\x930\x06\xc7?#X\x00\xc4\xf0I\xcd?u\x1f\x13\x9en\xb5\xe5\xbf\xb5r\xdfw\xc8\x17\xe5?\x17\x1a\x1f\x15\x81\xb9\xe0?Z=_\xbc\xc4\xc8\xa2\xbf\x1d\xc7\xcaEg\xf2\xd1\xbf\xb2\xc9&\xcd\xa9\x11\xb5\xbf\xc8(K\x1e\xacE\xab?9\x1eq\xc7\xf3\x99\xd7?\xb6\x8d\xca\xa4\xb2\xa5\xd5\xbf\t\xce\xd5\x90t\xb7\xda\xbfC\xf8\xa7)\xaa\xed\xc1?]\xb2I\xd9A\x9e\xab?-]V:5G\xe1?M\x90I\x11\x8e\xb7\xdc?0\xbe|\xbe\xbee\xe6\xbf\x8c~HUh\x86\xc2?\xc09\xef\xf8\x1b\xc6\xe1?m\xdf\xb9\xb4\x81\x80\xe8?_\xc2\xe9\xdc\xfb\xa6\xb5\xbf\x19\x15/\xdf#m\xc9?\xc3R\xcc\x84\x8a\x04\xe8?\xdc\x1b\xf7\xf3r5\xcd\xbf\xb0w\x8e\x8cfT\xe7\xbfO\x9c\xfb\x8f\xd00\xd5\xbf\xc6lh\x04\xf7\x98\xe3\xbf\x10)f\x05Q\x10\xe1?\x9c\x1b\xc7\x94\xba5\xe7\xbf\xa2#9S\x07\x95\xd4\xbf\xa9\xe5\x9f\x03w\x1c\xd1\xbf*\x0bO~\xa3\x1d\xd1\xbf\x07\x04\x13\x17\xb7#\xcd?\xa0\xec\xabQ\xfd/\xb2\xbf\x97Cl\xdc\x93\x1a\xd0?\x1d\xe8>n;\x04\xcb\xbfh/\xa5\x9d\xe6\xa4\x80\xbf=\xbd\xd1\n\x07>\xd8?UG\xf9\x87\xed\x01\xc4?6\xea\xa8\xecGw\xa4?\xc3g\xb6\x8d`\xf0\xc1\xbf\xa1>\xb8\xc8=.\xd8?\xb2\xcc4$/K\xd1?a\x0c\xf2\xd7\x98T\xc1\xbf\xca\x8a2\xec*\x81\xba\xbf\xcf\xa9N`\xf9\xf4n\xbf\x08\xd36\'\x16\xde\xd0\xbf\x08\xc8\x02:;N\xbd\xbfyV\xef\xbd\xd67\xc1?\xa3\x90\x94\x87\x0by\xab?f`9EM\xf2\xc6?\xd8\x9d\xecB\xf9_\xc9?%\x8b\x91\n\x18i\xc6?\xc3\xf7\xfc".\xfa\xba\xbf[\xa3-@\x06\xd8\xc0?W\xb8\xa4\xbc\x8b\xa4\xa8?\x96\xe4\xa2\xf4\x12\xee\xc7\xbf\xebAO\x01\x9d\x0e\xaa\xbf\x0c\xc5lK\xf2\xf7\x93?R\x8f\x03\x90T\x97\xbd\xbf\xa8\x0f\xdb\xff\x87u\xb7?\xd8\xff\xca\xd1\xfcM\xa7?3\xf3d\xdbac\xbf\xbf\x9cG\x8a\xd8\x0f.\xc2?a\xb4\x90\xf6\xf5\x7f\xc8\xbf\xe7\x9a\xd3TJ\x1fL?^f\xa9\xc6\xa5\x14\xc1\xbf\x0f\xb1}\xf6y\xb2\xad\xbf\xef34\xfa\xf2\xaa\xd0?\x06L\x00\x8bCv\xd1?\x19s*\x17\xe3t\xc4?\x1a7t>.\xfc\xde?\x11\xac\xc0\xc7\xe5\x9c\xfd\xbf\xdf\xc3B\xe3]\xca\xad\xbf\xbfG.]`\xa9\xcc?\x89\xe9\xac\xee\r\x9b\xc6?v\xa8v\t\x96\xa6\xe0?\xecdd\x84ix\xde?\xdbec&I\xf5\xe9?\xa5\xf3\x0f\xf7M\x0b\xe3\xbf\xdc\xb3\xf2\xfd\xf3\xb7\xe3?\x86\xe4\x10\xa8\xf0\xe5\xbc?\xac-\x81\xa7;\xcd\xa7\xbfW\xf6\xce\xdc\xe3\xf4\xe7?L\x97\x98\xc7sC\xdf?\xc2\xc0\xf2&\xc9\xb3\xe3?\'\t\xb2\x03\xed\xd7\xbe\xbf\x11\xd1\x87i\xa6\x0c\xda?)\x12^&\xa4p\xe6?\x7f\xe8$\xde;\x87\xe5?\xddP\xe7Z\xac\xf4\xc1\xbf\xe6p\x07+`0\xc4\xbf\xa7Pi\xff2b\xe8?\xb6\x7fL\xe1\xe9"\xe2?\x10\x1a\x919\xec\xb8\xa5?g\\\xd8\xcb\x12\xc5\xb7?\x93\x88$sG\t\xe8\xbfp\x9aKob\xf5\xd8\xbfQY4\x89\xbc\xcf\xe1\xbf\x9c[\xd5%[2\xd2?D`\xc4pBt\xd8\xbf\x14\xe1X\xda\x81\xaf\xe7\xbf\x00\xa9\xa3j\xb9\xff\xbb?\xfbUw6a\xf4\xe2\xbf\xa3\x98\x15kT\x7f\xb1?\x98\x94U\x18\xfd\xe0\xd4\xbf\xe0\xb4\xcd7\x1d\xb2\xdd\xbfC/\x88F\xb2\xe3\xd9\xbf\x15\x08\x8a\xc4\x80%\xa5\xbf\xbeg6pV\x19\xda\xbf\xcc\x062\xe3\xb04\xe6?\x8e^\xb9\xf4s\xe7\xbd?7@\xcf\xda9\xdc\xbc?D\x8a\x9b\xcb\xea\n\xdc\xbf\xffX\xd0pK\x08\xcf?\xb8\xce\xd9\\$\xbd\xd6?\xfb\x14\x1e\x1b\xf0X\xe4\xbfi\rV\x13|\xdd\xda?V=H\xa4G\xc1\xca?K\xa4W\x0f\x97h\xbc\xbf0M\xe5\xfc\xee\xc8\xe3?\xdf\x0f\xb6 df\xe6\xbf\xc4\x82\xd6\xf4\xbbw\xdb\xbfw\x9c\xc2\xcc\xd9)\xde\xbf\x16P\xc6\xb8\xf3\xad\xe3?\x105\x8c\x12\x10[\xd6\xbf\xbd\x01\xfa\xf2\xdd\xd6\xc7\xbfU\xf6"l\xf8N\xdb?\x94.b8\xa3-\xe0\xbf\xb8\xe6P\x16\x03\xe2\xc3?"\xa5\xa1\\\xb3\x13\xd1\xbf\xbd>\xf3j\x91)\xdb\xbfzK\xc8\xa1Y\r\xe2\xbfc\x14\x8c\xa6\xe8\x83\xdc\xbf\x16\xb3bF\xac\xb5\xc6?A\xecS:e\xbc\xe0\xbf\\z\x9c\xb9\x10\xa1\xb6?\xe7\xb8C\xb0\xbb\x1b\xdd\xbfE\xe9\xbd\x08,\xa9\xdc\xbf~@5\x84v\xf9\xde\xbfs<]ZSX\xc2?\x00@\x02\xdf[\x92\xe6\xbf\xecK!\x96\x8bC\xd5\xbf*\x9e\xfd\xc8\xe2\xb5\xd2?\x9d\xbc\x7f\xf9\xee\xd0\xc5?\x97O\xdbrO-\xe6?Q.\x1c\xe68/\xdf?H\xc7\xfe\xc5\x91\xa6\xe3?)\x87\xc9\xeau\xb1\xd6?\x8e\x8e\xb4k\xb0$\xad?\xb5%\x13`\xf4K\xb7\xbfZh\xab\x95t\xe4\xe8\xbf\xfa_\\>\n\xd0\xc6?\xcc\xcd\x93\xd9\x7f\xe4\xe7\xbf\xb0@\xe4\x8c\x9d2\xe2?\xff\xba/\xf9v>\xe1\xbf\xb5}\xf6\tZ\x7f\x80?'
p60
tp61
bssS'transf'
p62
(ineurolab.trans
TanSig
p63
(dp64
bsS'out_minmax'
p65
g18
(g19
(I0
tp66
g21
tp67
Rp68
(I1
(I14
I2
tp69
g28
I00
S'\x00\x00\x00\x00\x00\x00\xf0\xbf\x00\x00\x00\x00\x00\x00\xf0?\x00\x00\x00\x00\x00\x00\xf0\xbf\x00\x00\x00\x00\x00\x00\xf0?\x00\x00\x00\x00\x00\x00\xf0\xbf\x00\x00\x00\x00\x00\x00\xf0?\x00\x00\x00\x00\x00\x00\xf0\xbf\x00\x00\x00\x00\x00\x00\xf0?\x00\x00\x00\x00\x00\x00\xf0\xbf\x00\x00\x00\x00\x00\x00\xf0?\x00\x00\x00\x00\x00\x00\xf0\xbf\x00\x00\x00\x00\x00\x00\xf0?\x00\x00\x00\x00\x00\x00\xf0\xbf\x00\x00\x00\x00\x00\x00\xf0?\x00\x00\x00\x00\x00\x00\xf0\xbf\x00\x00\x00\x00\x00\x00\xf0?\x00\x00\x00\x00\x00\x00\xf0\xbf\x00\x00\x00\x00\x00\x00\xf0?\x00\x00\x00\x00\x00\x00\xf0\xbf\x00\x00\x00\x00\x00\x00\xf0?\x00\x00\x00\x00\x00\x00\xf0\xbf\x00\x00\x00\x00\x00\x00\xf0?\x00\x00\x00\x00\x00\x00\xf0\xbf\x00\x00\x00\x00\x00\x00\xf0?\x00\x00\x00\x00\x00\x00\xf0\xbf\x00\x00\x00\x00\x00\x00\xf0?\x00\x00\x00\x00\x00\x00\xf0\xbf\x00\x00\x00\x00\x00\x00\xf0?'
p70
tp71
bsS'out'
p72
g18
(g19
(I0
tp73
g21
tp74
Rp75
(I1
(I14
tp76
g28
I00
S'\x882`\xe9\xed\xff\xef?\x1f\xa5W\xd0\x19\xfb\xef?\xf2\x94\x16\x0fY\n\x8a?\xa1=\xbe"\t\xff\xef\xbf\xeb\xfd\x01\xe5\x8e*\xe2?0xx\x0e\x0b\xfd\xef?\xd23.\x83/c\xef?\xb5\xa1N\t\xab\xf9\xef?\xd6\x19#\x18\xb7\xb4\xef\xbfdq\x95q\xf0\xb9\xce\xbff\xfdnr\xd0+\xd2\xbf\x17\x7f\x0b\\{~\xde?s\xe4\x887\xd7\xfe\xef\xbf\xd3\x13\xfa\xcd,\xfe\xef?'
p77
tp78
bsbag0
(g8
g2
Ntp79
Rp80
(dp81
g12
g13
sg14
I14
sg15
I1
sg16
I1
sg17
g18
(g19
(I0
tp82
g21
tp83
Rp84
(I1
(I14
I2
tp85
g28
I00
S'\x00\x00\x00\x00\x00\x00\xf0\xbf\x00\x00\x00\x00\x00\x00\xf0?\x00\x00\x00\x00\x00\x00\xf0\xbf\x00\x00\x00\x00\x00\x00\xf0?\x00\x00\x00\x00\x00\x00\xf0\xbf\x00\x00\x00\x00\x00\x00\xf0?\x00\x00\x00\x00\x00\x00\xf0\xbf\x00\x00\x00\x00\x00\x00\xf0?\x00\x00\x00\x00\x00\x00\xf0\xbf\x00\x00\x00\x00\x00\x00\xf0?\x00\x00\x00\x00\x00\x00\xf0\xbf\x00\x00\x00\x00\x00\x00\xf0?\x00\x00\x00\x00\x00\x00\xf0\xbf\x00\x00\x00\x00\x00\x00\xf0?\x00\x00\x00\x00\x00\x00\xf0\xbf\x00\x00\x00\x00\x00\x00\xf0?\x00\x00\x00\x00\x00\x00\xf0\xbf\x00\x00\x00\x00\x00\x00\xf0?\x00\x00\x00\x00\x00\x00\xf0\xbf\x00\x00\x00\x00\x00\x00\xf0?\x00\x00\x00\x00\x00\x00\xf0\xbf\x00\x00\x00\x00\x00\x00\xf0?\x00\x00\x00\x00\x00\x00\xf0\xbf\x00\x00\x00\x00\x00\x00\xf0?\x00\x00\x00\x00\x00\x00\xf0\xbf\x00\x00\x00\x00\x00\x00\xf0?\x00\x00\x00\x00\x00\x00\xf0\xbf\x00\x00\x00\x00\x00\x00\xf0?'
p86
tp87
bsg33
g75
sg40
g18
(g19
(I0
tp88
g21
tp89
Rp90
(I1
(I1
tp91
g28
I00
S'\x1aP\x1fs\xf1*\xbb?'
p92
tp93
bsg47
(dp94
g21
g18
(g19
(I0
tp95
g21
tp96
Rp97
(I1
(I1
tp98
g28
I00
S'R\xb0\x00\xad\xbc\xfc\xb6?'
p99
tp100
bsg55
g18
(g19
(I0
tp101
g21
tp102
Rp103
(I1
(I1
I14
tp104
g28
I00
S'\x94M\x18\x7f-\xb0\xdc\xbf\xc8\xdc\x8eWuk\xb6\xbf;p\xab\xc6\xee-\xa7\xbf\xb7u4\x1f=\xee\xd3\xbf\x19\x85K\x9ag\xa3\xc1\xbf\xcd\xf5\xe6\xa0bz\xc1?\xfe\xd5\xd7\x13>\x14\xe2\xbf\xc0\xf8}\xc5y\xef\xe0?]\xe8\xc7r\x9b\xb4\xbe?\x94\xc3\x8bw\xe4\xda\xc8\xbf\xf1\xdd\xf7\xff\xed\x87\xaf\xbf.\xa4\x1e}\xbe\x9e\xe1\xbf\x82%\x07%/\x0c\xb6?\xe9\x84bU"\x93\xe3?'
p105
tp106
bssg62
g63
sg65
g18
(g19
(I0
tp107
g21
tp108
Rp109
(I1
(I1
I2
tp110
g28
I00
S'\x00\x00\x00\x00\x00\x00\xf0\xbf\x00\x00\x00\x00\x00\x00\xf0?'
p111
tp112
bsg72
g18
(g19
(I0
tp113
g21
tp114
Rp115
(I1
(I1
tp116
g28
I00
S'\xb5\xca\x1f`\xf3\x10\xbb?'
p117
tp118
bsbasg14
I42
sg15
I1
sg17
g18
(g19
(I0
tp119
g21
tp120
Rp121
(I1
(I42
I2
tp122
g28
I00
S'\x00\x00\x00\x00\x00\x00\x00\x00\x00\x00\x00\x00\x00\x00\xf0?\x00\x00\x00\x00\x00\x00\x00\x00\x00\x00\x00\x00\x00\x00\xf0?\x00\x00\x00\x00\x00\x00\x00\x00\x00\x00\x00\x00\x00\x00\xf0?\x00\x00\x00\x00\x00\x00\x00\x00\x00\x00\x00\x00\x00\x00\xf0?\x00\x00\x00\x00\x00\x00\x00\x00\x00\x00\x00\x00\x00\x00\xf0?\x00\x00\x00\x00\x00\x00\x00\x00\x00\x00\x00\x00\x00\x00\xf0?\x00\x00\x00\x00\x00\x00\x00\x00\x00\x00\x00\x00\x00\x00\xf0?\x00\x00\x00\x00\x00\x00\x00\x00\x00\x00\x00\x00\x00\x00\xf0?\x00\x00\x00\x00\x00\x00\x00\x00\x00\x00\x00\x00\x00\x00\xf0?\x00\x00\x00\x00\x00\x00\x00\x00\x00\x00\x00\x00\x00\x00\xf0?\x00\x00\x00\x00\x00\x00\x00\x00\x00\x00\x00\x00\x00\x00\xf0?\x00\x00\x00\x00\x00\x00\x00\x00\x00\x00\x00\x00\x00\x00\xf0?\x00\x00\x00\x00\x00\x00\x00\x00\x00\x00\x00\x00\x00\x00\xf0?\x00\x00\x00\x00\x00\x00\x00\x00\x00\x00\x00\x00\x00\x00\xf0?\x00\x00\x00\x00\x00\x00\x00\x00\x00\x00\x00\x00\x00\x00\xf0?\x00\x00\x00\x00\x00\x00\x00\x00\x00\x00\x00\x00\x00\x00\xf0?\x00\x00\x00\x00\x00\x00\x00\x00\x00\x00\x00\x00\x00\x00\xf0?\x00\x00\x00\x00\x00\x00\x00\x00\x00\x00\x00\x00\x00\x00\xf0?\x00\x00\x00\x00\x00\x00\x00\x00\x00\x00\x00\x00\x00\x00\xf0?\x00\x00\x00\x00\x00\x00\x00\x00\x00\x00\x00\x00\x00\x00\xf0?\x00\x00\x00\x00\x00\x00\x00\x00\x00\x00\x00\x00\x00\x00\xf0?\x00\x00\x00\x00\x00\x00\x00\x00\x00\x00\x00\x00\x00\x00\xf0?\x00\x00\x00\x00\x00\x00\x00\x00\x00\x00\x00\x00\x00\x00\xf0?\x00\x00\x00\x00\x00\x00\x00\x00\x00\x00\x00\x00\x00\x00\xf0?\x00\x00\x00\x00\x00\x00\x00\x00\x00\x00\x00\x00\x00\x00\xf0?\x00\x00\x00\x00\x00\x00\x00\x00\x00\x00\x00\x00\x00\x00\xf0?\x00\x00\x00\x00\x00\x00\x00\x00\x00\x00\x00\x00\x00\x00\xf0?\x00\x00\x00\x00\x00\x00\x00\x00\x00\x00\x00\x00\x00\x00\xf0?\x00\x00\x00\x00\x00\x00\x00\x00\x00\x00\x00\x00\x00\x00\xf0?\x00\x00\x00\x00\x00\x00\x00\x00\x00\x00\x00\x00\x00\x00\xf0?\x00\x00\x00\x00\x00\x00\x00\x00\x00\x00\x00\x00\x00\x00\xf0?\x00\x00\x00\x00\x00\x00\x00\x00\x00\x00\x00\x00\x00\x00\xf0?\x00\x00\x00\x00\x00\x00\x00\x00\x00\x00\x00\x00\x00\x00\xf0?\x00\x00\x00\x00\x00\x00\x00\x00\x00\x00\x00\x00\x00\x00\xf0?\x00\x00\x00\x00\x00\x00\x00\x00\x00\x00\x00\x00\x00\x00\xf0?\x00\x00\x00\x00\x00\x00\x00\x00\x00\x00\x00\x00\x00\x00\xf0?\x00\x00\x00\x00\x00\x00\x00\x00\x00\x00\x00\x00\x00\x00\xf0?\x00\x00\x00\x00\x00\x00\x00\x00\x00\x00\x00\x00\x00\x00\xf0?\x00\x00\x00\x00\x00\x00\x00\x00\x00\x00\x00\x00\x00\x00\xf0?\x00\x00\x00\x00\x00\x00\x00\x00\x00\x00\x00\x00\x00\x00\xf0?\x00\x00\x00\x00\x00\x00\x00\x00\x00\x00\x00\x00\x00\x00\xf0?\x00\x00\x00\x00\x00\x00\x00\x00\x00\x00\x00\x00\x00\x00\xf0?'
p123
tp124
bsg33
g36
sS'trainf'
p125
g0
(cneurolab.core
Trainer
p126
g2
Ntp127
Rp128
(dp129
S'_train_class'
p130
cneurolab.train.spo
TrainNCG
p131
sS'__module__'
p132
S'neurolab.train.spo'
p133
sS'params'
p134
(dp135
S'epochs'
p136
I6000
sS'train'
p137
(dp138
S'rr'
p139
I0
ssS'goal'
p140
F2e-05
sS'show'
p141
I0
ssS'defaults'
p142
(dp143
g136
I500
sg137
(dp144
g139
I0
ssg140
F0.01
sg141
I100
ssS'error'
p145
(lp146
cnumpy.core.multiarray
scalar
p147
(g28
S'\xa0\xc2\x82\x9b\xe5\x84^@'
p148
tp149
Rp150
ag147
(g28
S'\xf38A;\xb8\xfbY@'
p151
tp152
Rp153
ag147
(g28
S'\x08\xc0*e&\x81R@'
p154
tp155
Rp156
ag147
(g28
S'\xc0An\xaa0LF@'
p157
tp158
Rp159
ag147
(g28
S'R\xdd6\n\xbe\xe3D@'
p160
tp161
Rp162
ag147
(g28
S'l\xbc\xd6~\n\\B@'
p163
tp164
Rp165
ag147
(g28
S'\xe6\xc5\xc2X\xd9\x15<@'
p166
tp167
Rp168
ag147
(g28
S'\x88O\x98\x86\x06\xab8@'
p169
tp170
Rp171
ag147
(g28
S'\xbf\x12p=\xed\x817@'
p172
tp173
Rp174
ag147
(g28
S'\xaa\xa2\x1b\xa5\xdbV5@'
p175
tp176
Rp177
ag147
(g28
S'\x16v\xba<@\xe81@'
p178
tp179
Rp180
ag147
(g28
S'\x0f\x0b\xa1\xa8\xbd\x9f1@'
p181
tp182
Rp183
ag147
(g28
S'/1D\xcf\xbf<.@'
p184
tp185
Rp186
ag147
(g28
S'\xb4\xcd]\x8e~\xbf-@'
p187
tp188
Rp189
ag147
(g28
S'\x01\x82\x03\xcf\xb5_)@'
p190
tp191
Rp192
ag147
(g28
S'\x9f\x04}\xd2\x0bV)@'
p193
tp194
Rp195
ag147
(g28
S"lL\xce\x9aY\xd0'@"
p196
tp197
Rp198
ag147
(g28
S'\xdddJ\x82u\x91%@'
p199
tp200
Rp201
ag147
(g28
S'\x02]G\xa8#\xea$@'
p202
tp203
Rp204
ag147
(g28
S'\x87\x04h5!+$@'
p205
tp206
Rp207
ag147
(g28
S'J\x8cn+\xac:#@'
p208
tp209
Rp210
ag147
(g28
S'\xba\xe8n\x08n##@'
p211
tp212
Rp213
ag147
(g28
S'\xd1\nX\xb8?\xb7"@'
p214
tp215
Rp216
ag147
(g28
S'\xf7\xef\xf7\xf7\xee\xb1"@'
p217
tp218
Rp219
ag147
(g28
S'\xa8\x96\xc1\xde\xc4}"@'
p220
tp221
Rp222
ag147
(g28
S'p\x01\x17\xe4P3"@'
p223
tp224
Rp225
ag147
(g28
S'?P9}-3"@'
p226
tp227
Rp228
asS'__name__'
p229
S'TrainNCG'
p230
sS'__doc__'
p231
S'\n    Conjugate gradient algorithm\n    Using scipy.optimize.fmin_ncg\n\n    :Support networks:\n        newff (multi-layers perceptron)\n    :Parameters:\n        input: array like (l x net.ci)\n            train input patterns\n        target: array like (l x net.co)\n            train target patterns\n        epochs: int (default 500)\n            Number of train epochs\n        show: int (default 100)\n            Print period\n        goal: float (default 0.01)\n            The goal of train\n        rr float (defaults 0.0)\n            Regularization ratio\n            Must be between {0, 1}\n        \n    '
p232
sbsS'connect'
p233
(lp234
(lp235
I-1
aa(lp236
I0
aa(lp237
I1
aasS'errorf'
p238
(ineurolab.error
SSE
p239
(dp240
bsg65
g18
(g19
(I0
tp241
g21
tp242
Rp243
(I1
(I1
I2
tp244
g28
I00
S'\x00\x00\x00\x00\x00\x00\xf0\xbf\x00\x00\x00\x00\x00\x00\xf0?'
p245
tp246
bsg72
g115
sb.