Target,Output,
0.29065744,0.28018787,0.000109612
0.15224914,0.26540189,0.012803545
0.10726644,0.18207283,0.005595996
0.06228374,0.1367287,0.005542052
0.03806228,0.08189158,0.001921008
0.09342561,0.06360191,0.000889453
0.07612457,0.11158553,0.00125748
0.11764706,0.11871808,1.14708E-06
0.07266436,0.14087988,0.004653357
0.12110727,0.08749382,0.001129864
0.08304498,0.14038557,0.003287943
0.10380623,0.10784314,1.62966E-05
0.1384083,0.12003625,0.000337532
0.19031142,0.14800887,0.001789506
0.19377163,0.21946228,0.000660009
0.29065744,0.20827945,0.006786133
0.3633218,0.28670292,0.005870453
0.36678201,0.29988466,0.004475255
0.38062284,0.34560351,0.001226353
0.3633218,0.33942471,0.000571071
0.19377163,0.3493934,0.024218135
0.28373702,0.19855001,0.007256827
0.29065744,0.28431373,4.02427E-05
0.23183391,0.2700992,0.001464232
0.11418685,0.22458,0.012186648
0.12802768,0.12898828,9.22752E-07
0.12802768,0.15705204,0.000842413
0.06574394,0.13795524,0.005214472
0.12456747,0.08782336,0.00135013
0.04844291,0.13422434,0.007358454
0.02076125,0.07719558,0.003184834
0.03114187,0.05646541,0.000641282
0.06920415,0.05190884,0.000299128
0.10034602,0.09368291,4.4397E-05
0.17301038,0.11075153,0.003876164
0.13148789,0.17852815,0.002212786
0.183391,0.13707122,0.002145522
0.21799308,0.19573077,0.00049561
0.21453287,0.22015735,3.16348E-05
0.21453287,0.21783647,1.09138E-05
0.35294118,0.21433997,0.019210295
0.16955017,0.33020267,0.025809226
0.19031142,0.18833416,3.90956E-06
0.21799308,0.18161775,0.001323165
0.24221453,0.2277086,0.000210422
0.19723183,0.24810569,0.00258815
0.14532872,0.20565709,0.003639512
0.13148789,0.1570343,0.000652619
0.08650519,0.15999341,0.005400518
0.05536332,0.10092272,0.002075659
0.03806228,0.088812,0.002575534
0.06574394,0.06849375,7.56146E-06
0.05882353,0.08231366,0.000551786
0.07266436,0.07060471,4.24216E-06
0.10034602,0.08255067,0.000316674
0.0899654,0.10630269,0.000266907
0.10726644,0.13395947,0.000712518
0.15570934,0.12308453,0.001064378
0.10034602,0.16792495,0.004566912
0.12802768,0.13985937,0.000139989
0.09688581,0.13812256,0.00170047
0.11072664,0.11230394,2.48788E-06
0.09688581,0.13154841,0.001201496
0.1349481,0.13453617,1.69686E-07
0.20069204,0.14496059,0.003105995
0.29757786,0.22134196,0.005811912
0.09688581,0.29057505,0.037515522
0.05190311,0.12411806,0.005214999
0.05536332,0.088812,0.001118814
0.0449827,0.07645411,0.00099045
0.0449827,0.07022386,0.000637116
0.0899654,0.07599659,0.000195128
0.01730104,0.11342607,0.009240021
0.03460208,0.06243922,0.000774906
0.05882353,0.05355656,2.7741E-05
0.03114187,0.07993019,0.0023803
0.04152249,0.06692842,0.000645461
0.06574394,0.06438018,1.85984E-06
0.06228374,0.08453808,0.000495256
0.07266436,0.07620695,1.25499E-05
0.06228374,0.08428077,0.000483869
0.11764706,0.0864228,0.000974954
0.15224914,0.12672723,0.000651368
0.23875432,0.1705388,0.004653357
0.23183391,0.23801285,3.81793E-05
0.24221453,0.23319369,8.13756E-05
0.28719723,0.22779983,0.003528051
0.27681661,0.25204415,0.000613675
0.17647059,0.25872995,0.006766602
0.11764706,0.18594497,0.004664605
0.04152249,0.14119052,0.009933716
0.10034602,0.07817493,0.000491557
0.15224914,0.11289356,0.001548862
0.19723183,0.14187919,0.003063915
0.15570934,0.2127011,0.003248061
0.11764706,0.17005127,0.002746201
0.04844291,0.14132341,0.008626787
0.05190311,0.0765365,0.000606804
0.08650519,0.07414731,0.000152717
0.06920415,0.1062203,0.001370195
0.04152249,0.09383754,0.002736864
0.02422145,0.06475531,0.001642994
0.0449827,0.06256197,0.000309031
0.04844291,0.06097129,0.00015696
0.06574394,0.07237162,4.39261E-05
0.16955017,0.07815367,0.00835332
0.24221453,0.16169727,0.006483029
0.23875432,0.25586674,0.000292835
0.25605536,0.23067203,0.000644313
0.24567474,0.2484788,7.86275E-06
0.23875432,0.22343536,0.000234671
0.31141868,0.22469813,0.007520454
0.2283737,0.27593776,0.00226234
0.23875432,0.23264989,3.72641E-05
0.26989619,0.23843446,0.00098984
0.23529412,0.24242251,5.08139E-05
0.20761246,0.22684449,0.000369871
0.19723183,0.21535456,0.000328433
0.12110727,0.21733764,0.009260284
0.15916955,0.14524633,0.000193856
0.13148789,0.16790246,0.001326021
0.07958477,0.14909956,0.004832306
0.10726644,0.09457901,0.000160971
0.13148789,0.12423793,5.25619E-05
0.12802768,0.1361453,6.58958E-05
0.09342561,0.13589559,0.001803699
0.07266436,0.11782379,0.002039374
0.08650519,0.11262152,0.000682063
0.07958477,0.10380623,0.000586679
0.13148789,0.1185533,0.000167304
0.183391,0.14920086,0.001168966
0.21799308,0.19573077,0.00049561
0.08650519,0.22015735,0.0178629
0.1349481,0.12496995,9.95635E-05
0.2283737,0.15000285,0.00614199
0.23183391,0.25440765,0.000509574
0.16955017,0.22418872,0.002985371
0.19723183,0.19240921,2.32577E-05
0.1799308,0.1947446,0.000219449
0.19723183,0.18932387,6.25358E-05
0.10726644,0.20092261,0.008771478
0.05882353,0.14376339,0.00721478
0.05536332,0.08156204,0.000686373
0.03460208,0.06846268,0.00114654
0.06574394,0.06816421,5.85771E-06
0.07612457,0.08420853,6.53504E-05
0.0449827,0.08848245,0.001892228
0.06920415,0.0782666,8.2128E-05
0.12110727,0.09240643,0.000823738
0.07958477,0.13643104,0.003231498
0.0899654,0.10199374,0.000144681
0.10034602,0.10537156,2.52561E-05
0.10034602,0.12341407,0.000532135
0.12456747,0.13766683,0.000171593
0.08650519,0.1263532,0.001587864
0.09342561,0.1115505,0.000328512
0.12456747,0.12572088,1.33035E-06
0.10380623,0.13525578,0.000989074
0.11418685,0.13273564,0.000344058
0.3633218,0.14168188,0.049124254
0.25951557,0.27689899,0.000302183
0.183391,0.25139388,0.004624392
0.12110727,0.19929148,0.006112771
0.16262976,0.14399164,0.00034738
0.16262976,0.17166763,8.16831E-05
0.18685121,0.17701039,9.68417E-05
0.03460208,0.18666334,0.023122627
0.05190311,0.11657604,0.004182588
0.04844291,0.06401956,0.000242632
0.03460208,0.07233482,0.00142376
0.04152249,0.07351929,0.001023795
0.02768166,0.07195969,0.001960544
0.02422145,0.07261305,0.002341747
0.07612457,0.04938595,0.000714954
0.10380623,0.1024982,1.71094E-06
0.06920415,0.11023233,0.001683312
0.02768166,0.10116988,0.005400518
0.05190311,0.05569287,1.43623E-05
0.28027682,0.06327809,0.047088449
0.52941176,0.26978447,0.06740633
0.50519031,0.45550904,0.002468229
0.56401384,0.43755149,0.015992726
0.63321799,0.50881529,0.015476032
0.59515571,0.544406,0.002575533
0.55017301,0.53188334,0.000334512
0.61937716,0.50724996,0.012572509
0.40138408,0.51598286,0.01313288
0.29065744,0.35656616,0.004343959
0.24913495,0.29667161,0.002259734
0.26989619,0.23374195,0.001307129
0.29065744,0.22878365,0.003828366
0.07266436,0.25727563,0.034081321
0.19377163,0.12774304,0.004359775
0.12456747,0.18009988,0.003083849
0.1384083,0.15719229,0.000352838
0.05190311,0.15954034,0.011585773
0.07958477,0.08930631,9.45083E-05
0.03806228,0.10056263,0.003906294
0.01384083,0.07365299,0.003577494
0.05536332,0.04962738,3.2901E-05
0.05190311,0.06636706,0.000209206
0.09342561,0.07390015,0.000381244
0.15916955,0.11190493,0.002233944
0.21107266,0.14963528,0.003774552
0.20069204,0.21978629,0.00036459
0.14878893,0.22259645,0.00544755
0.06228374,0.16354279,0.010253395
0.11418685,0.09251936,0.00046948
0.0899654,0.12525145,0.001245105
0.12110727,0.12077772,1.08603E-07
0.20761246,0.13599725,0.005128738
0.20415225,0.22455012,0.000416073
0.22145329,0.23099981,9.1136E-05
0.24913495,0.23297374,0.000261185
0.55709343,0.24904048,0.09489662
0.43252595,0.48294355,0.002541934
0.183391,0.37103888,0.035211727
0.12456747,0.19237107,0.004597328
0.0899654,0.14176722,0.002683429
0.12110727,0.11970671,1.96157E-06
0.05882353,0.13599725,0.005955783
0.01730104,0.08040863,0.003982568
0.04152249,0.05132641,9.61168E-05
0.09342561,0.05965311,0.001140582
0.06920415,0.11466186,0.002066403
0.06574394,0.10809029,0.001793213
0.16955017,0.08576372,0.007020169
0.15224914,0.16169727,8.92672E-05
0.14186851,0.16895183,0.000733506
0.14878893,0.17349259,0.000610271
0.10380623,0.1682388,0.004151556
0.14532872,0.12833731,0.000288708
0.16955017,0.15505603,0.00021008
0.21107266,0.17060593,0.001637556
0.28719723,0.20874662,0.006154498
0.34256055,0.27961773,0.003961799
0.4532872,0.29889603,0.023836633
0.16955017,0.37262883,0.041240942
0.12802768,0.18610974,0.003373526
0.05190311,0.1383894,0.007479878
0.08304498,0.07876092,1.83532E-05
0.11764706,0.10049149,0.000294314
0.05536332,0.1366782,0.00661211
0.09688581,0.08197397,0.000222363
0.14186851,0.11899012,0.000523421
0.11072664,0.1499481,0.001538323
0.15570934,0.11251921,0.001865387
0.20415225,0.16718348,0.00136669
0.14878893,0.22398797,0.005654896
0.09688581,0.16774447,0.00502095
0.12802768,0.12692478,1.21639E-06
0.12456747,0.13861688,0.000197386
0.12110727,0.13886148,0.000315212
0.15570934,0.13844955,0.0002979
0.14532872,0.16674905,0.000458831
0.19377163,0.17559722,0.000330309
0.17647059,0.220699,0.001956152
0.14878893,0.16613623,0.000300929
0.17301038,0.16104279,0.000143223
0.29065744,0.18148087,0.011919523
0.35640138,0.28002966,0.00583264
0.19031142,0.29939034,0.011898211
0.14878893,0.19517219,0.002151407
0.23529412,0.1550354,0.006441462
0.18685121,0.23957818,0.002780133
0.1349481,0.20827021,0.005376132
0.11072664,0.15050012,0.00158193
0.11764706,0.11708232,3.18931E-07
0.10726644,0.14934377,0.001770502
0.13148789,0.14904805,0.000308359
0.14532872,0.1361453,8.43352E-05
0.15570934,0.16513874,8.89136E-05
0.1349481,0.17300192,0.001448093
0.13148789,0.15931542,0.000774371
0.12456747,0.14710007,0.000507718
0.15570934,0.13367117,0.000485681
0.20415225,0.16584281,0.001467613
0.16262976,0.22398797,0.00376483
0.14532872,0.17242476,0.000734195
0.19031142,0.16860338,0.000471239
0.32179931,0.20613594,0.013378015
0.53287197,0.31240732,0.048604662
0.44290657,0.45328463,0.000107704
0.44636678,0.40564095,0.001658593
0.43252595,0.37900241,0.002864769
0.26989619,0.37710753,0.011494271
0.29065744,0.24855825,0.001772342
0.3633218,0.25727563,0.01124579
0.22145329,0.29988466,0.00615148
0.21107266,0.23068051,0.000384468
0.10034602,0.21396433,0.01290912
0.10726644,0.14318669,0.001290264
0.11764706,0.13873785,0.000444821
0.14532872,0.14011655,2.71667E-05
0.10034602,0.15680979,0.003188157
0.11072664,0.12932594,0.000345934
0.05190311,0.1439063,0.008464587
0.06228374,0.07225243,9.93748E-05
0.16262976,0.07076948,0.008438311
0.16955017,0.14972882,0.000392886
0.14532872,0.17593825,0.000936943
0.183391,0.16225967,0.000446533
0.14186851,0.1810872,0.001538106
0.19377163,0.15569449,0.001449869
0.26643599,0.21748595,0.002396106
0.2283737,0.26000989,0.001000849
0.11764706,0.21257514,0.00901134
0.08650519,0.14225241,0.003107753
0.04844291,0.11179766,0.004013824
0.07958477,0.09078926,0.000125541
0.20415225,0.09982116,0.010884976
0.15570934,0.20265842,0.002204216
0.19723183,0.16865071,0.00081688
0.14878893,0.20413297,0.003062963
0.1799308,0.15349171,0.000699025
0.16955017,0.17927817,9.4634E-05
0.20761246,0.1739808,0.001131089
0.2733564,0.21440521,0.003475243
0.2733564,0.26190476,0.00013114
0.19377163,0.24609512,0.002737748
0.1349481,0.19623532,0.003756123
0.17301038,0.15901156,0.000195967
0.1384083,0.17431044,0.001288964
0.13148789,0.15303245,0.000464168
0.16608997,0.14985994,0.000263414
0.1799308,0.17749715,5.92265E-06
0.19377163,0.17514959,0.00034678
0.17647059,0.19579452,0.000373414
0.16262976,0.16613623,1.22953E-05
0.09688581,0.17967139,0.006853452
0.28027682,0.1425781,0.018960937
0.17301038,0.27986489,0.011417886
0.19723183,0.18578019,0.00013114
0.183391,0.19499083,0.000134556
0.10726644,0.19948413,0.008504102
0.0899654,0.14178613,0.002685388
0.06228374,0.12637996,0.004108325
0.10726644,0.09400231,0.000175937
0.11418685,0.1167657,6.65047E-06
0.07266436,0.14695458,0.005519037
0.13148789,0.08535179,0.00212854
0.1349481,0.14829461,0.000178129
0.1384083,0.14586428,5.55916E-05
0.05190311,0.155788,0.01079207
0.09342561,0.08930631,1.69686E-05
0.10380623,0.11190493,6.55889E-05
0.14532872,0.12629758,0.000362184
0.17647059,0.15505603,0.000458583
0.20415225,0.17334639,0.000949001
0.28373702,0.20511484,0.006181447
0.19377163,0.2786291,0.00720079
0.1799308,0.19845974,0.000343322
0.1349481,0.18199572,0.002213479
0.1799308,0.14662799,0.001109077
0.12110727,0.18864558,0.004561423
0.1799308,0.14184961,0.001450177
0.23529412,0.19869666,0.001339374
0.25259516,0.24187897,0.000114837
0.17647059,0.2407178,0.004127704
0.26643599,0.20942495,0.003250259
0.20415225,0.24567474,0.001724117
0.16608997,0.21736618,0.00262925
0.14878893,0.17481396,0.000677302
0.19723183,0.17122447,0.000676383
0.17647059,0.21105339,0.00119597
0.17301038,0.17766158,2.16337E-05
0.16608997,0.17897538,0.000166034
0.2283737,0.18779629,0.001646526
0.15916955,0.24789916,0.007872944
0.16608997,0.193645,0.00075928
0.16955017,0.17447807,2.42842E-05
0.11418685,0.17777948,0.004044023
0.16955017,0.14374448,0.000665934
0.15916955,0.17175001,0.000158268
0.1349481,0.17931719,0.001968616
0.14532872,0.15445465,8.32826E-05
0.1349481,0.16675586,0.001011734
0.3183391,0.1670854,0.022877682
0.47058824,0.27385072,0.038705652
0.31487889,0.37337031,0.003421246
0.36678201,0.30365486,0.003985037
0.26643599,0.32229362,0.003120075
0.30795848,0.24702743,0.003712593
0.22491349,0.26553161,0.001649832
0.12802768,0.22391699,0.00919476
0.13148789,0.15526938,0.000565559
0.183391,0.1422393,0.001693462
0.14186851,0.19573077,0.002901143
0.16955017,0.15569449,0.00019198
0.1799308,0.17143625,7.21574E-05
0.20069204,0.17258429,0.000790046
0.07958477,0.21155039,0.017414925
0.06574394,0.11945955,0.002885367
0.06574394,0.09350799,0.000770842
0.0899654,0.08049102,8.97639E-05
0.16608997,0.10910381,0.003247422
0.14532872,0.15444731,8.31487E-05
0.14532872,0.16679089,0.000460625
0.19377163,0.17326434,0.000420549
0.41176471,0.220699,0.036506106
0.52941176,0.391333,0.019065744
0.58477509,0.47676718,0.011665709
0.80276817,0.51548855,0.08252958
0.87543253,0.56244851,0.097958997
0.57093426,0.58403361,0.000171593
0.4083045,0.48574724,0.005997378
0.2733564,0.35739001,0.007061648
0.26297578,0.27368594,0.000114708
0.20761246,0.23748289,0.000892243
0.08304498,0.21454847,0.017293168
0.11072664,0.12086011,0.000102687
0.16608997,0.12720382,0.001512133
0.12456747,0.16682935,0.001786067
0.14186851,0.14975865,6.22543E-05
0.05536332,0.1533614,0.009603624
0.08650519,0.09103641,2.0532E-05
0.16262976,0.10819757,0.002962863
0.21453287,0.1568365,0.003328871
0.05190311,0.22397125,0.029607445
0.07612457,0.11953248,0.001884247
0.2283737,0.09973877,0.016546945
0.61591695,0.2368973,0.143655895
0.7266436,0.50337525,0.049848756
0.74740484,0.57076948,0.03120005
0.76816609,0.58576372,0.033270625
0.67474048,0.58551656,0.007960908
0.42906574,0.56294282,0.017923073
0.49480969,0.35261163,0.020220288
0.60899654,0.44947025,0.025448637
0.22145329,0.52825836,0.094129351
0.11418685,0.24540789,0.017218961
0.3633218,0.1382155,0.050672846
0.44982699,0.27689899,0.029904093
0.12110727,0.38531626,0.06980639
0.0899654,0.18075465,0.008242688
0.0899654,0.12415554,0.001168966
0.06228374,0.12308453,0.003696736
0.04152249,0.09400231,0.002754132
0.04844291,0.06417861,0.000247612
0.03806228,0.07682045,0.001502196
0.05190311,0.0711301,0.000369677
0.10380623,0.0748945,0.000835888
0.12110727,0.10959813,0.00013246
0.12110727,0.12677003,3.20669E-05
0.13148789,0.14611144,0.000213848
0.30103806,0.15723354,0.02067974
0.4532872,0.27599275,0.031433322
0.56747405,0.37122827,0.038512406
0.71280277,0.49209095,0.048713707
0.44982699,0.5706871,0.014607166
0.35986159,0.39306311,0.001102341
0.27681661,0.32753279,0.002572131
0.22145329,0.25584272,0.001182633
0.16262976,0.21292127,0.002529236
0.22145329,0.19618327,0.000638574
0.17647059,0.22950786,0.002812952
0.1384083,0.19725428,0.003462849
0.10380623,0.14619442,0.001796759
0.15224914,0.11770952,0.001192985
0.15916955,0.14970095,8.96544E-05
0.06920415,0.17609518,0.011425692
0.11072664,0.108667,4.24212E-06
0.12802768,0.12992256,3.59057E-06
0.16262976,0.14557854,0.000290744
0.1349481,0.17617845,0.001699942
0.16262976,0.15873871,1.51403E-05
0.08304498,0.16527291,0.006761432
0.37370242,0.12247594,0.063114744
0.63321799,0.28011204,0.124683812
0.70934256,0.49925853,0.0441353
0.70588235,0.58741144,0.014035357
0.83391004,0.58115011,0.063887582
0.59861592,0.58724666,0.00012926
0.62975779,0.52842313,0.010268713
0.61245675,0.54580656,0.004442248
0.35640138,0.53995716,0.033692724
0.11418685,0.29055536,0.031105851
0.16608997,0.16427748,3.28512E-06
0.13148789,0.16515914,0.001133753
0.05536332,0.14613367,0.008239256
0.10034602,0.08197397,0.000337532
0.1349481,0.1243452,0.000112421
0.11072664,0.14372481,0.001088879
0.11418685,0.11708232,8.38375E-06
0.10034602,0.1478003,0.002251909
0.13148789,0.14574065,0.000203141
0.13148789,0.14133561,9.69776E-05
0.10726644,0.13861432,0.00098269
0.10380623,0.11938913,0.000242827
0.183391,0.14244521,0.001676558
0.4083045,0.19628581,0.044951925
0.52941176,0.35895535,0.029055388
0.63321799,0.47553139,0.024865064
0.61591695,0.52702257,0.007902211
0.52941176,0.54531224,0.000252825
0.61591695,0.48863075,0.016201777
0.57439446,0.51482946,0.003547989
0.78546713,0.5215851,0.069633726
0.93771626,0.57200527,0.133744528
0.43598616,0.57587741,0.019569562
0.43944637,0.39405174,0.002060672
0.2283737,0.36260761,0.018018743
0.12456747,0.20884825,0.00710325
0.14878893,0.14653647,5.07358E-06
0.20761246,0.15183347,0.003111296
0.17301038,0.22769534,0.002990445
0.23875432,0.17907383,0.003561761
0.26989619,0.25133552,0.000344498
0.26643599,0.24242251,0.000576647
0.14186851,0.24226127,0.010078706
0.20069204,0.16589716,0.001210684
0.13148789,0.21781549,0.007452455
0.12456747,0.15290822,0.000803198
0.15224914,0.13367117,0.000345141
0.26643599,0.17016428,0.009268242
0.33910035,0.25729115,0.006692745
0.55363322,0.29516314,0.066806782
0.63321799,0.46308855,0.028944026
0.51557093,0.53114187,0.000242454
0.62975779,0.47009392,0.025492551
0.66782007,0.5075795,0.02567704
0.43598616,0.56335475,0.016222758
0.44290657,0.34948097,0.008728343
0.42906574,0.37340017,0.003098656
0.29411765,0.37150529,0.005988847
0.31141868,0.28670292,0.000610869
0.28027682,0.27612356,1.72496E-05
0.17647059,0.25090197,0.00554003
0.15224914,0.18437963,0.001032368
0.17301038,0.1726592,1.23327E-07
0.15916955,0.17571385,0.000273714
0.14878893,0.17381505,0.000626307
0.11418685,0.17500252,0.003698546
0.18685121,0.13096169,0.003123638
0.15224914,0.18986618,0.001415042
0.12802768,0.15709505,0.000844912
0.11764706,0.14926434,0.000999652
0.11072664,0.13817311,0.000753309
0.14532872,0.14665886,1.76927E-06
0.21453287,0.15223241,0.003881347
0.24221453,0.23731431,2.40122E-05
0.15916955,0.2478865,0.007870697
0.26989619,0.19261822,0.005971885
0.35640138,0.2535014,0.010588406
0.1349481,0.30902949,0.03030433
0.23529412,0.17169221,0.004045203
0.19723183,0.26141045,0.004118895
0.30795848,0.2065239,0.010288974
0.15570934,0.292058,0.018590957
0.15916955,0.18429725,0.000631401
0.14532872,0.17370599,0.000805269
0.16608997,0.17013811,1.63874E-05
0.18685121,0.16085379,0.000675866
0.15224914,0.17892517,0.000711611
0.19723183,0.15709505,0.001610961
0.19031142,0.2127011,0.000501298
0.21453287,0.20358435,0.00011987
0.15916955,0.22073405,0.003790188
0.16608997,0.18404118,0.000322246
0.16955017,0.17447807,2.42842E-05
0.14532872,0.17777948,0.001053052
0.21799308,0.16225967,0.003106213
0.11072664,0.23847117,0.016318665
0.19031142,0.1323661,0.00335766
0.18685121,0.19776876,0.000119193
0.17301038,0.1896382,0.000276484
0.25605536,0.17252087,0.006978011
0.26989619,0.26182238,6.51864E-05
0.21107266,0.2348218,0.000564022
0.29757786,0.2292755,0.004665212
0.29757786,0.28727962,0.000106054
0.17301038,0.26940428,0.009291784
0.22491349,0.18462679,0.001623018
0.17647059,0.24334408,0.004472064
0.21107266,0.19379408,0.000298549
0.13148789,0.20668236,0.005654208
0.13148789,0.15546218,0.000574767
0.12456747,0.13861432,0.000197314
0.1349481,0.13367117,1.63055E-06
0.15224914,0.15608013,1.46765E-05
0.16262976,0.15991783,7.35456E-06
0.15916955,0.16909238,9.84626E-05
0.14186851,0.17618653,0.001177726
0.20069204,0.17427905,0.000697646
0.15224914,0.21781549,0.004298946
0.19377163,0.16996889,0.00056657
0.15916955,0.20273241,0.001897723
0.11072664,0.16889787,0.003383892
0.14532872,0.13269179,0.000159692
0.19377163,0.15223241,0.001725507
0.29065744,0.220699,0.004894183
0.16262976,0.28670292,0.015394149
0.15224914,0.19599605,0.001913792
0.14186851,0.18546553,0.0019007
0.14878893,0.17349259,0.000610271
0.17301038,0.1682388,2.2768E-05
0.2283737,0.18148087,0.002198938
,,
,,0.00667671